%time,field.header.seq,field.header.frame_id,field.point_id,field.x,field.y,field.z,field.velocity,field.intensity,normalized_x,normalized_y,normalized_z,normalized_intensity,normalized_velocity,normalized_range,range
1648634246051979606,28622,0,0,0.00709323305637,0.0454158857465,0.00921431556344,0.0,11.6999998093,0.0023723187479498327,0.015189259446989964,0.0030817108907826084,11.6999998093,0.0,0.015555365474064645,0.046880915569491324
1648634246051985664,28623,0,1,0.0342932231724,0.0146502861753,-0.0284106340259,0.0,11.6999998093,0.011469305408829431,0.0048997612626421405,-0.009501884289598661,11.6999998093,0.0,0.016943954483912442,0.04688091473429082
1648634246051987582,28624,0,2,1.0076956749,-0.064461261034,0.210093423724,0.0,11.6999998093,0.33702196484949826,-0.021558950178595316,0.07026535910501672,11.6999998093,0.0,0.4771083712479126,1.0313801792153716
1648634246051994298,28625,0,3,1.38611149788,-0.175803437829,0.160706073046,0.0,11.6999998093,0.4635824407625418,-0.05879713639765886,0.05374785051705685,11.6999998093,0.0,0.6582358711094952,1.406427522207063
1648634246157158778,28626,1,0,0.00709323305637,0.0454158857465,0.00921431556344,0.0,11.8999996185,0.0023723187479498327,0.015189259446989964,0.0030817108907826084,11.8999996185,0.0,0.015555365474064645,0.046880915569491324
1648634246157163408,28627,1,1,0.0341505967081,0.0146502861753,-0.0285819154233,0.0,11.8999996185,0.011421604250200668,0.0048997612626421405,-0.009559169037892976,11.8999996185,0.0,0.016879388250979135,0.04688091327824311
1648634246157167954,28628,1,2,1.06649458408,-0.0673913136125,0.143855839968,0.0,11.8999996185,0.3566871518662207,-0.02253890087374582,0.04811232105953177,11.8999996185,0.0,0.504935095497896,1.078261002594126
1648634246157170649,28629,1,3,1.38822627068,-0.175803437829,0.14127779007,0.0,11.8999996185,0.46428972263545143,-0.05879713639765886,0.04725009701337792,11.8999996185,0.0,0.6592321262942012,1.4064275457077973
1648634246352228035,28630,3,0,0.00709323305637,0.0454158857465,0.00921431556344,0.0,11.3000001907,0.0023723187479498327,0.015189259446989964,0.0030817108907826084,11.3000001907,0.0,0.015555365474064645,0.046880915569491324
1648634246352232701,28631,3,1,0.0342381596565,0.0146502861753,-0.028476966545,0.0,11.3000001907,0.011450889517224078,0.0048997612626421405,-0.009524069078595317,11.3000001907,0.0,0.016919024850807245,0.046880913870009186
1648634246352234853,28632,3,2,0.996190965176,-0.096691891551,0.248996555805,0.0,11.3000001907,0.33317423584481604,-0.032338425267892976,0.08327644006856186,11.3000001907,0.0,0.4722879594170926,1.0313801655028825
1648634246352237331,28633,3,3,1.39453065395,-0.175803437829,0.0491496883333,0.0,11.3000001907,0.4663982120234113,-0.05879713639765886,0.016438022853946486,11.3000001907,0.0,0.6622021501066232,1.4064274902823715
1648634246457169842,28634,4,0,0.00709323305637,0.0454158857465,0.00921431556344,0.0,11.6999998093,0.0023723187479498327,0.015189259446989964,0.0030817108907826084,11.6999998093,0.0,0.015555365474064645,0.046880915569491324
1648634246457174349,28635,4,1,0.0342932231724,0.0146502861753,-0.0284106340259,0.0,11.6999998093,0.011469305408829431,0.0048997612626421405,-0.009501884289598661,11.6999998093,0.0,0.016943954483912442,0.04688091473429082
1648634246457177925,28636,4,2,1.01885604858,-0.064461261034,0.146704420447,0.0,11.6999998093,0.3407545312976588,-0.021558950178595316,0.04906502356086956,11.6999998093,0.0,0.48238168449121016,1.0313801863914367
1648634246457183897,28637,4,3,1.39352726936,-0.175803437829,0.0722016990185,0.0,11.6999998093,0.4660626318929766,-0.05879713639765886,0.02414772542424749,11.6999998093,0.0,0.6617294439138864,1.4064274544190294
1648634246457188321,28638,4,4,0.696004092693,-0.952268600464,0.307391136885,0.323675245047,11.6999998093,0.23277728852608695,-0.31848448176053507,0.10280640029598663,11.6999998093,0.04373989797932432,0.45804246225583806,1.2189038089654674
1648634246652280460,28639,6,0,0.00709323305637,0.0454158857465,0.00921431556344,0.0,21.1000003815,0.0023723187479498327,0.015189259446989964,0.0030817108907826084,21.1000003815,0.0,0.015555365474064645,0.046880915569491324
1648634246652305851,28640,6,1,0.0342932231724,0.0146502861753,-0.0284106340259,0.0,21.1000003815,0.011469305408829431,0.0048997612626421405,-0.009501884289598661,21.1000003815,0.0,0.016943954483912442,0.04688091473429082
1648634246652310655,28641,6,2,1.03815436363,-0.0336956568062,0.289390861988,0.0,21.1000003815,0.3472088172675585,-0.011269450436856187,0.09678624146755853,21.1000003815,0.0,0.49115672253347237,1.0782610773897798
1648634246652327715,28642,6,3,0.744971454144,0.336956560612,-0.702939987183,0.0,21.1000003815,0.2491543324896321,0.11269450187692308,-0.2350969856799331,21.1000003815,0.0,0.3699402837621176,1.0782610151580787
1648634246652394669,28643,6,4,1.3897356987,-0.175803437829,0.125563815236,0.0,21.1000003815,0.46479454806020065,-0.05879713639765886,0.0419945870354515,21.1000003815,0.0,0.6599432150280335,1.4064275426378325
1648634246652398166,28644,6,5,0.255167245865,-0.402882874012,-1.07061326504,0.161837622523,21.1000003815,0.0853402160083612,-0.13474343612441472,-0.3580646371371237,21.1000003815,0.021869948989594594,0.18089139978263677,1.1720229079732647
1648634246652401121,28645,6,6,0.749827504158,-0.842391490936,0.319018900394,0.161837622523,21.1000003815,0.2507784294842809,-0.2817362845939799,0.10669528441270902,21.1000003815,0.021869948989594594,0.4529403663243374,1.1720229386841323
1648634246757298747,28646,7,0,0.00708704302087,0.0454158857465,0.00921907741576,0.0,23.5,0.0023702485019632103,0.015189259446989964,0.0030833034835317723,23.5,0.0,0.015554734278350484,0.046880915576773666
1648634246757332814,28647,7,1,0.034308873117,0.0146502861753,-0.0283917337656,0.0,23.5,0.011474539504013377,0.0048997612626421405,-0.009495563132307691,23.5,0.0,0.016951040501668787,0.046880915155245236
1648634246757335433,28648,7,2,1.06496441364,-0.0673913136125,0.154776707292,0.0,23.5,0.3561753891772575,-0.02253890087374582,0.05176478504749163,23.5,0.0,0.5042120761780089,1.0782609241691739
1648634246757337306,28649,7,3,1.39121425152,-0.175803437829,0.107956074178,0.0,23.5,0.4652890473311036,-0.05879713639765886,0.03610571042742475,23.5,0.0,0.6606397644564977,1.4064275510444093
1648634246952179133,28650,9,0,0.00709323305637,0.0454158857465,0.00921431556344,0.0,12.3000001907,0.0023723187479498327,0.015189259446989964,0.0030817108907826084,12.3000001907,0.0,0.015555365474064645,0.046880915569491324
1648634246952189612,28651,9,1,0.0342932231724,0.0146502861753,-0.0284106340259,0.0,12.3000001907,0.011469305408829431,0.0048997612626421405,-0.009501884289598661,12.3000001907,0.0,0.016943954483912442,0.04688091473429082
1648634246952201972,28652,9,2,0.9754524827,-0.032230630517,0.3334646523,0.0,12.3000001907,0.32623828852842807,-0.010779475089297658,0.11152663956521738,12.3000001907,0.0,0.46149652099134675,1.0313801597290289
1648634246952222964,28653,9,3,0.954794466496,-0.386767566204,-0.0502338781953,0.0,12.3000001907,0.31932925300869563,-0.1293537010715719,-0.01680062815896321,12.3000001907,0.0,0.4697602831605676,1.0313801753171752
1648634246952326826,28654,9,4,1.39166605473,-0.175803437829,0.101966790855,0.0,12.3000001907,0.465440152083612,-0.05879713639765886,0.034102605637123744,12.3000001907,0.0,0.6608526110955427,1.4064275605510315
1648634247057293712,28655,10,0,0.00709323305637,0.0454158857465,0.00921431556344,0.0,12.6000003815,0.0023723187479498327,0.015189259446989964,0.0030817108907826084,12.6000003815,0.0,0.015555365474064645,0.046880915569491324
1648634247057297252,28656,10,1,0.0342932231724,0.0146502861753,-0.0284106340259,0.0,12.6000003815,0.011469305408829431,0.0048997612626421405,-0.009501884289598661,12.6000003815,0.0,0.016943954483912442,0.04688091473429082
1648634247057298962,28657,10,2,1.02683699131,-0.096691891551,-0.00120724027511,0.0,12.6000003815,0.34342374291304345,-0.032338425267892976,-0.0004037592893344481,12.6000003815,0.0,0.4867499441619027,1.031380136537138
1648634247057307889,28658,10,3,1.39321184158,-0.175803437829,0.078053638339,0.0,12.6000003815,0.4659571376521739,-0.05879713639765886,0.02610489576555184,12.6000003815,0.0,0.6615808427596576,1.4064275504728945
1648634247252311651,28659,12,0,0.00706249661744,0.0454158857465,0.00923789478838,0.0,11.6000003815,0.002362039002488294,0.015189259446989964,0.003089596919190635,11.6000003815,0.0,0.01555223646446149,0.046880915485212865
1648634247252314719,28660,12,1,0.0342932231724,0.0146502861753,-0.0284106340259,0.0,11.6000003815,0.011469305408829431,0.0048997612626421405,-0.009501884289598661,11.6000003815,0.0,0.016943954483912442,0.04688091473429082
1648634247252318266,28661,12,2,1.06012392044,-0.0336956568062,0.194032743573,0.0,11.6000003815,0.35455649513043475,-0.011269450436856187,0.0648938941715719,11.6000003815,0.0,0.5015452292580448,1.0782610210682486
1648634247252323987,28662,12,3,1.39387834072,-0.175803437829,0.0650743991137,0.0,11.6000003815,0.4661800470635451,-0.05879713639765886,0.021764013081505013,11.6000003815,0.0,0.6618948374242718,1.4064275149828533
1648634247357351455,28663,13,0,0.00708704302087,0.0454158857465,0.00921907741576,0.0,11.3999996185,0.0023702485019632103,0.015189259446989964,0.0030833034835317723,11.3999996185,0.0,0.015554734278350484,0.046880915576773666
1648634247357357293,28664,13,1,0.0342932231724,0.0146502861753,-0.0284106340259,0.0,11.3999996185,0.011469305408829431,0.0048997612626421405,-0.009501884289598661,11.3999996185,0.0,0.016943954483912442,0.04688091473429082
1648634247357360179,28665,13,2,1.00590872765,-0.064461261034,0.218488991261,0.0,11.3999996185,0.3364243236287625,-0.021558950178595316,0.0730732412244147,11.3999996185,0.0,0.4762640437729304,1.0313801732817947
1648634247552283850,28666,15,0,0.00711762346327,0.0454158857465,0.00919548794627,0.0,15.3999996185,0.0023804760746722405,0.015189259446989964,0.0030754140288528427,15.3999996185,0.0,0.015557857668462833,0.04688091552512632
1648634247552289384,28667,15,1,0.0342932231724,0.0146502861753,-0.0284106340259,0.0,15.3999996185,0.011469305408829431,0.0048997612626421405,-0.009501884289598661,15.3999996185,0.0,0.016943954483912442,0.04688091473429082
1648634247552292050,28668,15,2,1.04974639416,-0.101086974144,0.22463452816,0.0,15.3999996185,0.35108575055518393,-0.03380835255652174,0.07512860473578595,15.3999996185,0.0,0.497659937294916,1.078260979371496
1648634247552295599,28669,15,3,0.960889399052,-0.404347896576,0.275392621756,-0.242756426334,15.3999996185,0.3213676919906354,-0.13523341022608695,0.09210455577123745,15.3999996185,-0.03280492247756756,0.47417556047539283,1.078260986400599
1648634247552298946,28670,15,4,0.898345351219,-0.399952799082,-0.0474559105933,-0.0809188112617,15.3999996185,0.3004499502404682,-0.13376347795384613,-0.01587154200444816,15.3999996185,-0.010934974494824324,0.44545820593329377,0.984499200101531
1648634247552400842,28671,15,5,0.652836203575,-0.061531201005,0.73434150219,-0.0809188112617,15.3999996185,0.21833986741638797,-0.020578996991638794,0.24559916461204012,15.3999996185,-0.010934974494824324,0.3094641990990131,0.9844991819366852
1648634247657163212,28672,16,0,0.00708704302087,0.0454158857465,0.00921907741576,0.0,19.0,0.0023702485019632103,0.015189259446989964,0.0030833034835317723,19.0,0.0,0.015554734278350484,0.046880915576773666
1648634247657215707,28673,16,1,0.0342932231724,0.0146502861753,-0.0284106340259,0.0,19.0,0.011469305408829431,0.0048997612626421405,-0.009501884289598661,19.0,0.0,0.016943954483912442,0.04688091473429082
1648634247657228825,28674,16,2,1.05959296227,-0.0673913136125,0.188063681126,0.0,19.0,0.3543789171471572,-0.02253890087374582,0.0628975522160535,19.0,0.0,0.5016740335012168,1.078260999480735
1648634247657235007,28675,16,3,1.39168906212,-0.175803437829,0.101652272046,0.0,19.0,0.4654478468628762,-0.05879713639765886,0.033997415399999995,19.0,0.0,0.6608634500009362,1.4064275590264341
1648634247657240205,28676,16,4,0.912097096443,-0.451228827238,0.167977645993,-0.242756426334,19.0,0.3050491961347826,-0.15091265125016723,0.05617981471337792,19.0,-0.03280492247756756,0.45703900537296455,1.0313801711414088
1648634247657251935,28677,16,5,0.881427884102,-0.430718421936,0.0824937075377,-0.0809188112617,19.0,0.29479193448227425,-0.14405298392508362,0.027589868741705683,19.0,-0.010934974494824324,0.44108483475327437,0.9844992055105389
1648634247657258886,28678,16,6,0.707848310471,-0.0922968015075,-0.67799025774,-0.0809188112617,19.0,0.2367385653749164,-0.03086849548745819,-0.22675259456187288,19.0,-0.010934974494824324,0.33621891779792273,0.9844992228516566
