%time,field.header.seq,field.header.frame_id,field.point_id,field.x,field.y,field.z,field.velocity,field.intensity,normalized_x,normalized_y,normalized_z,normalized_intensity,normalized_velocity,normalized_range,range
1648624933249207228,33788,0,0,0.00683013908565,0.0454158857465,0.00941099133343,0.0,40.9000015259,0.0022843274533946487,0.015189259446989964,0.0031474887402775913,40.9000015259,0.0,0.015529002104985331,0.046880915476837266
1648624933249217564,33789,0,1,0.0322656407952,0.0161153152585,-0.0299507156014,0.0,40.9000015259,0.010791184212441471,0.005389737544648829,-0.010016961739598661,40.9000015259,0.0,0.016184825739373573,0.04688091644626481
1648624933249249780,33790,0,2,0.835188448429,-0.306190997362,-0.046048682183,0.0,40.9000015259,0.27932724027725747,-0.10240501584013377,-0.015400897051170566,40.9000015259,0.0,0.40808602229313795,0.8907374205598234
1648624933249257096,33791,0,3,0.415016293526,-0.0,-0.788146317005,0.0,40.9000015259,0.1388014359618729,-0.0,-0.2635940859548495,40.9000015259,0.0,0.19629487321414127,0.8907374141129388
1648624933249259103,33792,0,4,0.996371090412,-0.064461261034,0.258523523808,0.0,40.9000015259,0.33323447839866216,-0.021558950178595316,0.08646271699264213,40.9000015259,0.0,0.4717575897853261,1.0313801512269842
1648624933249342935,33793,0,5,1.08410525322,-0.0366257168353,0.44386062026,-0.566431701183,40.9000015259,0.36257700776588625,-0.012249403623846153,0.1484483679799331,40.9000015259,-0.07654482448418919,0.512907614498037,1.1720229918437999
1648624933249354430,33794,0,6,0.802645802498,-0.476134330034,-0.709008932114,-0.566431701183,40.9000015259,0.26844341220668894,-0.15924225084749163,-0.23712673314849494,40.9000015259,-0.07654482448418919,0.411681704195506,1.172022973461706
1648624933354577763,33795,1,0,0.00679519679397,0.0454158857465,0.00943625252694,0.0,32.2000007629,0.002272641068217391,0.015189259446989964,0.0031559372999799325,32.2000007629,0.0,0.015525572369412679,0.046880915513245934
1648624933354613434,33796,1,1,0.0322656407952,0.0161153152585,-0.0299507156014,0.0,32.2000007629,0.010791184212441471,0.005389737544648829,-0.010016961739598661,32.2000007629,0.0,0.016184825739373573,0.04688091644626481
1648624933354685974,33797,1,2,0.984641730785,-0.128922522068,0.278576076031,0.0,32.2000007629,0.32931161564715716,-0.04311790035719063,0.09316925619765885,32.2000007629,0.0,0.46770870606767045,1.0313801359520571
1648624933354699355,33798,1,3,0.824608802795,-0.334026515484,0.0431252159178,-0.0809188112617,32.2000007629,0.2757888972558528,-0.11171455367357858,0.014423149136387958,32.2000007629,-0.010934974494824324,0.40570823654651816,0.8907374332211165
1648624933354716899,33799,1,4,0.721536636353,-0.0278355441988,-0.521558523178,-0.0809188112617,32.2000007629,0.24131660078695652,-0.009309546554782609,-0.1744342886882943,32.2000007629,-0.010934974494824324,0.3414001629873635,0.8907374631281998
1648624933549766226,33800,3,0,0.00683013908565,0.0454158857465,0.00941099133343,0.0,15.8999996185,0.0022843274533946487,0.015189259446989964,0.0031474887402775913,15.8999996185,0.0,0.015529002104985331,0.046880915476837266
1648624933549851920,33801,3,1,0.0321796387434,0.0161153152585,-0.0300430990756,0.0,15.8999996185,0.010762420984414715,0.005389737544648829,-0.010047859222608695,15.8999996185,0.0,0.016146475828853105,0.04688091656103676
1648624933549877219,33802,3,2,0.845982253551,-0.278355449438,0.0156676284969,0.0,15.8999996185,0.28293720854548493,-0.09309546803946488,0.0052400095307357855,15.8999996185,0.0,0.41082075669141827,0.8907374496100275
1648624933549894591,33803,3,3,1.01059126854,-0.096691891551,0.181936740875,0.0,15.8999996185,0.3379903908160535,-0.032338425267892976,0.06084840831939799,15.8999996185,0.0,0.4790832728417725,1.0313801489369543
1648624933550049993,33804,3,4,0.76811081171,-0.808695793152,0.148193582892,0.0,15.8999996185,0.25689324806354513,-0.2704668204521739,0.04956307120133779,15.8999996185,0.0,0.45292447799471464,1.1251419656816226
1648624933550064553,33805,3,5,0.919261395931,-0.105482056737,0.640137851238,0.0,15.8999996185,0.30744528292006684,-0.035278279845150494,0.2140929268354515,15.8999996185,0.0,0.43622214639840634,1.1251419674556995
1648624933654729130,33806,4,0,0.00681872852147,0.0454158857465,0.00941926240921,0.0,11.6000003815,0.0022805112111939797,0.015189259446989964,0.0031502549863578594,11.6000003815,0.0,0.015527880258320411,0.04688091553203933
1648624933654775124,33807,4,1,0.0321796387434,0.0161153152585,-0.0300430990756,0.0,11.6000003815,0.010762420984414715,0.005389737544648829,-0.010047859222608695,11.6000003815,0.0,0.016146475828853105,0.04688091656103676
1648624933654784617,33808,4,2,0.781282365322,-0.0263705141842,-0.317798852921,0.0,11.6000003815,0.2612984499404682,-0.008819569961270902,-0.10628724177959867,11.6000003815,0.0,0.3696370445408367,0.8438564150964201
1648624933654804367,33809,4,3,1.01932215691,-0.096691891551,0.124008409679,0.0,11.6000003815,0.3409104203712374,-0.032338425267892976,0.04147438450802675,11.6000003815,0.0,0.48320348010356334,1.031380175847141
1648624933654823348,33810,4,4,0.807475805283,-0.146502867341,-0.836754202843,0.485512852669,11.6000003815,0.2700587977535117,-0.04899761449531772,-0.27985090396086953,11.6000003815,0.06560984495527027,0.38505100274428067,1.1720229785426515
1648624933654869780,33811,4,5,0.904612720013,-0.307655990124,0.237196609378,-0.566431701183,11.6000003815,0.3025460602050167,-0.10289497997458194,0.07932996969163879,11.6000003815,-0.07654482448418919,0.4400631931838026,0.984499168597372
