%time,field.header.seq,field.header.frame_id,field.point_id,field.x,field.y,field.z,field.velocity,field.intensity,normalized_x,normalized_y,normalized_z,normalized_intensity,normalized_velocity,normalized_range,range
1648624686847985063,25470,0,0,0.00674108136445,0.0454158857465,0.00947498716414,0.0,33.7999992371,0.0022545422623578594,0.015189259446989964,0.003168892028140468,33.7999992371,0.0,0.015520293946104541,0.046880915497267056
1648624686848034733,25471,0,1,0.0322296023369,0.0161153152585,-0.0299894902855,0.0,33.7999992371,0.010779131216354513,0.005389737544648829,-0.010029929861371236,33.7999992371,0.0,0.01616875413750156,0.046880914882920656
1648624686848038561,25472,0,2,1.01590192318,-0.064461261034,0.16593067348,0.0,33.7999992371,0.33976652949163877,-0.021558950178595316,0.05549520852173913,33.7999992371,0.0,0.4809858391453832,1.0313801239583988
1648624686848078763,25473,0,3,0.754894077778,-0.34281668067,0.157179519534,0.0809188112617,33.7999992371,0.25247293571170565,-0.1146544082508361,0.0525684011819398,33.7999992371,0.010934974494824324,0.3750077330737641,0.8438564727314907
1648624686848082986,25474,0,4,0.593606948853,-0.0263705141842,-0.599190354347,0.0809188112617,33.7999992371,0.19853075212474916,-0.008819569961270902,-0.2003981118217391,33.7999992371,0.010934974494824324,0.2809033710953625,0.8438564418711222
1648624686952979593,25475,1,0,0.00674108136445,0.0454158857465,0.00947498716414,0.0,18.2000007629,0.0022545422623578594,0.015189259446989964,0.003168892028140468,18.2000007629,0.0,0.015520293946104541,0.046880915497267056
1648624686952984095,25476,1,1,0.0344002954662,0.0146502861753,-0.0282808933407,0.0,18.2000007629,0.011505115540535116,0.0048997612626421405,-0.009458492756086956,18.2000007629,0.0,0.01699244030835518,0.04688091446770313
1648624686952986118,25477,1,2,0.832449197769,-0.0527410283685,-0.127829626203,0.0,18.2000007629,0.2784111029327759,-0.017639139922575247,-0.04275238334548495,18.2000007629,0.0,0.394127674402214,0.8438564429302043
1648624686952988670,25478,1,3,0.733350455761,-0.36918720603,0.194914326072,0.0,18.2000007629,0.24526771095685618,-0.12347398194983276,0.0651887378167224,18.2000007629,0.0,0.368182460601506,0.8438564324393137
1648624686952992873,25479,1,4,1.01103842258,-0.096691891551,0.179435357451,0.0,18.2000007629,0.3381399406622073,-0.032338425267892976,0.06001182523444816,18.2000007629,0.0,0.47929428610290076,1.0313801730343342
1648624687147962393,25480,3,0,0.00677556637675,0.0454158857465,0.00945035740733,0.0,20.8999996185,0.0022660757112876254,0.015189259446989964,0.0031606546512809365,20.8999996185,0.0,0.015523652946602141,0.046880915445319145
1648624687148101882,25481,3,1,0.0343919284642,0.0146502861753,-0.0282910689712,0.0,20.8999996185,0.011502317212107023,0.0048997612626421405,-0.009461895976989966,20.8999996185,0.0,0.01698865100373645,0.04688091522184728
1648624687148104055,25482,3,2,0.810411989689,-0.306190997362,0.207105532289,0.0,20.8999996185,0.2710407992270903,-0.10240501584013377,0.06926606431070234,20.8999996185,0.0,0.39675309319592933,0.8907374593009604
1648624687148220512,25483,3,3,0.74937069416,-0.0,-0.481515079737,0.0,20.8999996185,0.2506256502207358,-0.0,-0.16104183268795985,20.8999996185,0.0,0.35443819362074,0.8907374524965085
1648624687148223716,25484,3,4,1.06862902641,-0.134782627225,0.0501247569919,0.0,20.8999996185,0.3574010121772575,-0.04507780174749164,0.0167641327732107,20.8999996185,0.0,0.5074475098185451,1.078261027743818
1648624687148232868,25485,3,5,0.749552130699,-0.775000095367,-0.0139005640522,0.0,20.8999996185,0.25068633133745816,-0.25919735631003343,-0.004649018077658862,20.8999996185,0.0,0.4391702892466408,1.078260993514668
1648624687148238597,25486,3,6,0.854420423508,-0.263705164194,0.282052308321,-0.0809188112617,20.8999996185,0.28575933896588623,-0.0881957070882943,0.09433187569264212,20.8999996185,-0.010934974494824324,0.41363665500200136,0.9376183543208713
1648624687252936038,25487,4,0,0.0069007538259,0.0454158857465,0.00935933552682,0.0,17.5,0.002307944423377926,0.015189259446989964,0.00313021255077592,17.5,0.0,0.015535984599335069,0.046880915552156295
1648624687252942209,25488,4,1,0.0344002954662,0.0146502861753,-0.0282808933407,0.0,17.5,0.011505115540535116,0.0048997612626421405,-0.009458492756086956,17.5,0.0,0.01699244030835518,0.04688091446770313
1648624687252944330,25489,4,2,0.851200699806,-0.22268435359,0.138860449195,0.0,17.5,0.284682508296321,-0.07447637243812709,0.04644162180434783,17.5,0.0,0.40943252327008955,0.8907374343961623
1648624687252948597,25490,4,3,2.13866996765,-0.9713139534,0.446284502745,0.0,17.5,0.7152742366722407,-0.3248541650167224,0.14925903101839463,17.5,0.0,1.0624333841812508,2.390926574361484
1648624687447964756,25491,6,0,0.00686722435057,0.0454158857465,0.00938396435231,0.0,11.3999996185,0.0022967305520301003,0.015189259446989964,0.0031384496161571906,11.3999996185,0.0,0.015532660590035142,0.046880915470856876
1648624687447971482,25492,6,1,0.0344546698034,0.0146502861753,-0.0282146241516,0.0,11.3999996185,0.011523300937591973,0.0048997612626421405,-0.009436329147692307,11.3999996185,0.0,0.01701706759190621,0.046880914797981066
1648624687448067762,25493,6,2,1.0143750906,-0.096691891551,0.159495577216,0.0,11.3999996185,0.33925588314381266,-0.032338425267892976,0.05334300241337792,11.3999996185,0.0,0.4808688825908614,1.0313801362605999
1648624687448071508,25494,6,3,2.1107032299,-0.952268660069,0.364235401154,0.0,11.3999996185,0.7059208126755853,-0.3184845016953177,0.12181785991772574,11.3999996185,0.0,1.0478934895098988,2.3440458939862325
1648624687448073917,25495,6,4,0.792675077915,-0.237334623933,0.165626615286,-0.0809188112617,11.3999996185,0.2651087217107023,-0.07937612840568561,0.0553935168180602,11.3999996185,-0.010934974494824324,0.3832307900141129,0.8438564324315284
1648624687552966085,25496,7,0,0.00684207398444,0.0454158857465,0.00940231792629,0.0,18.2000007629,0.002288319058341137,0.015189259446989964,0.0031445879352140467,18.2000007629,0.0,0.01553017742247359,0.04688091548737851
1648624687552969126,25497,7,1,0.0344546698034,0.0146502861753,-0.0282146241516,0.0,18.2000007629,0.011523300937591973,0.0048997612626421405,-0.009436329147692307,18.2000007629,0.0,0.01701706759190621,0.046880914797981066
1648624687552970950,25498,7,2,1.00997710228,-0.096691891551,0.185315847397,0.0,18.2000007629,0.33778498404013374,-0.032338425267892976,0.0619785442799331,18.2000007629,0.0,0.47879344673334234,1.031380158970534
1648624687552972855,25499,7,3,0.934122681618,-0.061531201005,0.30474153161,-0.161837622523,18.2000007629,0.3124156125812709,-0.020578996991638794,0.10192024468561872,18.2000007629,-0.021869948989594594,0.4423013962065272,0.984499199643316
1648624687553044681,25500,7,4,0.813009381294,-0.210964113474,0.0812630578876,-0.0809188112617,18.2000007629,0.2719094920715719,-0.07055655969030099,0.027178280229966552,18.2000007629,-0.010934974494824324,0.3909575064793761,0.8438565019143759
