%time,field.header.seq,field.header.frame_id,field.point_id,field.x,field.y,field.z,field.velocity,field.intensity,normalized_x,normalized_y,normalized_z,normalized_intensity,normalized_velocity,normalized_range,range
1648624913349286299,33093,0,0,0.00681018922478,0.0454158857465,0.0094254380092,0.0,16.5,0.0022776552591237454,0.015189259446989964,0.0031523204044147154,16.5,0.0,0.015527041878825535,0.046880915488946275
1648624913349292333,33094,0,1,0.0344482325017,0.0146502861753,-0.0282224845141,0.0,16.5,0.011521147993879599,0.0048997612626421405,-0.009438958031471571,16.5,0.0,0.017014151833830576,0.04688091551642289
1648624913349297056,33095,0,2,1.05871999264,-0.134782627225,0.153598055243,0.0,16.5,0.35408695406020063,-0.04507780174749164,0.05137058703779264,16.5,0.0,0.5027794250778839,1.0782609804642596
1648624913349300221,33096,0,3,0.772325754166,-0.290075659752,0.17737737298,0.0809188112617,16.5,0.2583029278147157,-0.09701527082006689,0.05932353611371237,16.5,0.010934974494824324,0.37795868531838156,0.8438564400263382
1648624913454549893,33097,1,0,0.00687695061788,0.0454158857465,0.00937683880329,0.0,22.0,0.0022999834842408026,0.015189259446989964,0.003136066489394649,22.0,0.0,0.015533623228453006,0.046880915454828594
1648624913454586890,33098,1,1,0.0344808995724,0.0146502861753,-0.0281825643033,0.0,22.0,0.011532073435585283,0.0048997612626421405,-0.009425606790401338,22.0,0.0,0.017028948760224514,0.04688091563791987
1648624913454600666,33099,1,2,0.732631087303,-0.34281668067,0.240462318063,0.0,22.0,0.24502711949933106,-0.1146544082508361,0.08042217995418059,22.0,0.0,0.36499618068087825,0.8438564528618622
1648624913454629799,33100,1,3,0.731272339821,-0.0263705141842,-0.420284509659,0.0,22.0,0.24457268890334447,-0.008819569961270902,-0.14056338115685618,22.0,0.0,0.34599044080599395,0.8438564499160538
1648624913454658103,33101,1,4,1.05186617374,-0.134782627225,0.195084661245,0.0,22.0,0.3517947069364548,-0.04507780174749164,0.0652457061020067,22.0,0.0,0.49955083812100487,1.0782610208633052
1648624913454688898,33102,1,5,0.700070559978,-0.808695793152,0.136231780052,0.0,22.0,0.23413731102943144,-0.2704668204521739,0.04556246824481605,22.0,0.0,0.42754281867164357,1.078260994706657
1648624913649751865,33103,3,0,0.00681018922478,0.0454158857465,0.0094254380092,0.0,13.6999998093,0.0022776552591237454,0.015189259446989964,0.0031523204044147154,13.6999998093,0.0,0.015527041878825535,0.046880915488946275
1648624913650012976,33104,3,1,0.0343631058931,0.0146502861753,-0.0283260699362,0.0,13.6999998093,0.011492677556220736,0.0048997612626421405,-0.009473601985351169,13.6999998093,0.0,0.01697559822961795,0.046880914769968855
1648624913650035082,33105,3,2,0.769435822964,-0.105482056737,0.330054223537,0.0,13.6999998093,0.2573363956401338,-0.035278279845150494,0.11038602793879597,13.6999998093,0.0,0.36563451433219984,0.8438564690919704
1648624913650093815,33106,3,3,0.757490038872,-0.36918720603,-0.0447593182325,0.0,13.6999998093,0.25334115012441466,-0.12347398194983276,-0.01496967164966555,13.6999998093,0.0,0.37895817831427,0.8438564739665033
1648624913650129923,33107,3,4,1.04806613922,-0.168478280306,0.189259648323,0.0,13.6999998093,0.35052379238127085,-0.05634725093846154,0.0632975412451505,13.6999998093,0.0,0.498907677570729,1.0782609969750965
1648624913754825913,33108,4,0,0.00681018922478,0.0454158857465,0.0094254380092,0.0,16.1000003815,0.0022776552591237454,0.015189259446989964,0.0031523204044147154,16.1000003815,0.0,0.015527041878825535,0.046880915488946275
1648624913754955080,33109,4,1,0.0345020703971,0.0146502861753,-0.0281566400081,0.0,16.1000003815,0.01153915397896321,0.0048997612626421405,-0.009416936457558528,16.1000003815,0.0,0.017038538949432653,0.04688091427489835
1648624913755007113,33110,4,2,0.781798541546,-0.808695793152,0.0273252334446,0.0,16.1000003815,0.261471084129097,-0.2704668204521739,0.00913887406173913,16.1000003815,0.0,0.45813377591790705,1.1251419971754664
1648624913755039581,33111,4,3,1.10762941837,-0.0351606868207,-0.194589868188,0.0,16.1000003815,0.37044462152842805,-0.011759427030334446,-0.0650802234742475,16.1000003815,0.0,0.5240197700113635,1.1251419551051285
1648624913755085846,33112,4,4,0.767456531525,-0.290075659752,0.197383597493,0.0809188112617,16.1000003815,0.2566744252591973,-0.09701527082006689,0.06601458110133779,16.1000003815,0.010934974494824324,0.3757332616851607,0.8438564455641849
1648624913949854534,33113,6,0,0.00687695061788,0.0454158857465,0.00937683880329,0.0,26.7000007629,0.0022999834842408026,0.015189259446989964,0.003136066489394649,26.7000007629,0.0,0.015533623228453006,0.046880915454828594
1648624913949884065,33114,6,1,0.0322471298277,0.0161153152585,-0.0299706440419,0.0,26.7000007629,0.01078499325341137,0.005389737544648829,-0.01002362676986622,26.7000007629,0.0,0.016176570395249258,0.046880915864471524
1648624913950182438,33115,6,2,1.04628956318,-0.168478280306,0.198846414685,0.0,26.7000007629,0.3499296197926421,-0.05634725093846154,0.06650381762040133,26.7000007629,0.0,0.4980727761128569,1.0782609505993164
1648624913950221290,33116,6,3,0.777125477791,-0.290075659752,0.155002817512,-0.0809188112617,26.7000007629,0.2599081865521739,-0.09701527082006689,0.05184040719464883,26.7000007629,-0.010934974494824324,0.3801532502109777,0.843856486642786
