%time,field.header.seq,field.header.frame_id,field.point_id,field.x,field.y,field.z,field.velocity,field.intensity,normalized_x,normalized_y,normalized_z,normalized_intensity,normalized_velocity,normalized_range,range
1648624766248322224,27993,0,0,0.00690912129357,0.0454158857465,0.00935315992683,0.0,32.2999992371,0.002310742907548495,0.015189259446989964,0.003128147132719063,32.2999992371,0.0,0.015536816537423143,0.046880915475332414
1648624766248336633,27994,0,1,0.0323193632066,0.0161153152585,-0.0298927370459,0.0,32.2999992371,0.010809151574113711,0.005389737544648829,-0.009997570918361204,32.2999992371,0.0,0.016208787317517834,0.04688091671518695
1648624766248340903,27995,0,2,1.04811990261,-0.101086974144,0.232105240226,0.0,32.2999992371,0.35054177344816057,-0.03380835255652174,0.07762717064414715,32.2999992371,0.0,0.49689241749794205,1.0782609837739445
1648624766353510638,27996,1,0,0.00671600876376,0.0454158857465,0.00949277542531,0.0,15.6000003815,0.0022461567771772575,0.015189259446989964,0.0031748412793678924,15.6000003815,0.0,0.015517862065480944,0.046880915489454895
1648624766353528697,27997,1,1,0.0344546698034,0.0146502861753,-0.0282146241516,0.0,15.6000003815,0.011523300937591973,0.0048997612626421405,-0.009436329147692307,15.6000003815,0.0,0.01701706759190621,0.046880914797981066
1648624766353553520,27998,1,2,0.811640739441,-0.0263705141842,-0.229428753257,0.0,15.6000003815,0.27145175232140467,-0.008819569961270902,-0.07673202450066889,15.6000003815,0.0,0.3839920474320063,0.8438564135916334
1648624766353661489,27999,1,3,1.06550359726,-0.0673913136125,0.15102083981,0.0,15.6000003815,0.35635571814715716,-0.02253890087374582,0.05050864207692307,15.6000003815,0.0,0.5044668450601573,1.078261006890881
1648624766353666149,28000,1,4,1.28764057159,-1.34782636166,0.204592987895,0.0,15.6000003815,0.43064902059866217,-0.45077804737792637,0.06842574845986621,15.6000003815,0.0,0.7577057515177181,1.8752366339974424
1648624766353668178,28001,1,5,0.648810565472,-0.241729721427,0.122968040407,0.242756426334,15.6000003815,0.2169935001578595,-0.08084606067792642,0.041126434918729096,15.6000003815,0.03280492247756756,0.31734593702875247,0.7032137278600362
1648624766353671195,28002,1,6,0.504593908787,-0.193383783102,0.156441092491,0.566431701183,15.6000003815,0.16876050461103675,-0.06467685053578595,0.05232143561571906,15.6000003815,0.07654482448418919,0.24727173479468273,0.562570987317656
1648624766353713724,28003,1,7,0.259474724531,-0.273960351944,-0.351503700018,-0.647350490093,15.6000003815,0.08678084432474917,-0.09162553576722407,-0.1175597658923077,15.6000003815,-0.08747979595851352,0.15315700665677545,0.5156900796351068
1648624766353717603,28004,1,8,0.488743126392,-0.064461261034,0.151364311576,-0.647350490093,15.6000003815,0.16345923959598663,-0.021558950178595316,0.05062351557725752,15.6000003815,-0.08747979595851352,0.23216940873293251,0.515690074161212
1648624766548526478,28005,3,0,0.00678417086601,0.0454158857465,0.00944418273866,0.0,19.2999992371,0.0022689534668929763,0.015189259446989964,0.003158589544702341,19.2999992371,0.0,0.015524493621945457,0.046880915520919206
1648624766548541402,28006,3,1,0.0322126448154,0.0161153152585,-0.0300077050924,0.0,19.2999992371,0.010773459804481605,0.005389737544648829,-0.010036021770033444,19.2999992371,0.0,0.01616119250296088,0.046880915485903306
1648624766548561913,28007,3,2,0.827434301376,-0.079111546278,-0.145559445024,0.0,19.2999992371,0.27673388005886285,-0.026458711129765885,-0.04868208863678929,19.2999992371,0.0,0.39225418307459076,0.8438564521787933
1648624766548689382,28008,3,3,1.01827800274,-0.128922522068,0.101162739098,0.0,19.2999992371,0.3405612049297659,-0.04311790035719063,0.033833692006020065,19.2999992371,0.0,0.4835525017385812,1.031380146862614
1648624766548701718,28009,3,4,0.471370846033,-0.348676800728,-0.539818525314,-0.566431701183,19.2999992371,0.1576491123856187,-0.11661431462474915,-0.1805413128140468,19.2999992371,-0.07654482448418919,0.25160561131927656,0.7969755492660746
1648624766548744009,28010,3,5,0.759114921093,-0.0498109720647,0.237557128072,-0.566431701183,19.2999992371,0.2538845889943144,-0.016659187981505015,0.07945054450568562,19.2999992371,-0.07654482448418919,0.359433300630071,0.7969755237533199
1648624766653447512,28011,4,0,0.00680970214307,0.0454158857465,0.00942579004914,0.0,40.2999992371,0.002277492355541806,0.015189259446989964,0.0031524381435250833,40.2999992371,0.0,0.015526994087944924,0.046880915514385384
1648624766653465851,28012,4,1,0.0322376936674,0.0161153152585,-0.0299807935953,0.0,40.2999992371,0.010781837346956522,0.005389737544648829,-0.010027021269331103,40.2999992371,0.0,0.016172362349163777,0.04688091577047047
1648624766653467928,28013,4,2,0.832760155201,-0.131852567196,-0.0349159240723,0.0,40.2999992371,0.278515102073913,-0.04409784856053511,-0.011677566579364548,40.2999992371,0.0,0.39634069235211294,0.843856443549726
1648624766653472090,28014,4,3,1.01206111908,-0.096691891551,0.173574134707,0.0,40.2999992371,0.33848197962541804,-0.032338425267892976,0.05805155006923077,40.2999992371,0.0,0.47977690108121185,1.0313801485797836
1648624766653480174,28015,4,4,0.779281973839,-0.290075659752,0.14376886189,0.323675245047,40.2999992371,0.26062942268862876,-0.09701527082006689,0.048083231401337787,40.2999992371,0.04373989797932432,0.3811395475600856,0.8438564858908841
1648624766848411591,28016,6,0,0.0069007538259,0.0454158857465,0.00935933552682,0.0,42.4000015259,0.002307944423377926,0.015189259446989964,0.00313021255077592,42.4000015259,0.0,0.015535984599335069,0.046880915552156295
1648624766848450197,28017,6,1,0.0322126448154,0.0161153152585,-0.0300077050924,0.0,42.4000015259,0.010773459804481605,0.005389737544648829,-0.010036021770033444,42.4000015259,0.0,0.01616119250296088,0.046880915485903306
1648624766848528015,28018,6,2,0.781682193279,-0.0747164562345,-0.136236488819,0.0,42.4000015259,0.26143217166521737,-0.024988781349331104,-0.045564043083277585,42.4000015259,0.0,0.3705644342843874,0.7969755209587301
1648624766848529749,28019,6,3,1.06851017475,-0.0336956568062,0.140702754259,0.0,42.4000015259,0.357361262458194,-0.011269450436856187,0.04705777734414716,42.4000015259,0.0,0.5055107756760258,1.078260940537097
