%time,field.header.seq,field.header.frame_id,field.point_id,field.x,field.y,field.z,field.velocity,field.intensity,normalized_x,normalized_y,normalized_z,normalized_intensity,normalized_velocity,normalized_range,range
1648633946355182263,20466,0,0,0.00690435990691,0.0454158857465,0.00935667566955,0.0,30.6000003815,0.0023091504705384613,0.015189259446989964,0.0031293229664046823,30.6000003815,0.0,0.015536343016911989,0.04688091555684932
1648633946355280911,20467,0,1,0.0343035645783,0.0146502861753,-0.0283981487155,0.0,30.6000003815,0.011472764073010032,0.0048997612626421405,-0.009497708600501671,30.6000003815,0.0,0.016948636859074773,0.04688091592816249
1648633946355284461,20468,0,2,1.16657614708,-0.0732514336705,0.0858603939414,0.0,30.6000003815,0.39015924651505013,-0.02449880724765886,0.02871585081652174,30.6000003815,0.0,0.5523121099875878,1.1720229036663805
1648633946355311280,20469,0,3,0.967277467251,-0.354536950588,0.0492226071656,0.161837622523,30.6000003815,0.32350416964916384,-0.11857423096588628,0.01646241042327759,30.6000003815,0.021869948989594594,0.4726200840103405,1.031380149624728
1648633946355319538,20470,0,4,0.924232065678,-0.533270418644,0.589189469814,0.242756426334,30.6000003815,0.3091077142735786,-0.1783513105832776,0.19705333438595315,30.6000003815,0.03280492247756756,0.47212747011124584,1.2189038034102087
1648633946355355069,20471,0,5,1.02847862244,-0.386767566204,0.242047503591,0.566431701183,30.6000003815,0.34397278342474913,-0.1293537010715719,0.08095234233812708,30.6000003815,0.07654482448418919,0.5033556709274788,1.1251419559673705
1648633946550543529,20472,2,0,0.00690435990691,0.0454158857465,0.00935667566955,0.0,29.7000007629,0.0023091504705384613,0.015189259446989964,0.0031293229664046823,29.7000007629,0.0,0.015536343016911989,0.04688091555684932
1648633946550559435,20473,2,1,0.0342817641795,0.0146502861753,-0.0284244585782,0.0,29.7000007629,0.01146547296973244,0.0048997612626421405,-0.009506507885685618,29.7000007629,0.0,0.01693876622632885,0.046880913874847226
1648633946550572053,20474,2,2,1.03173303604,-0.303260922432,-0.0787803083658,0.0,29.7000007629,0.34506121606688966,-0.10142505766956521,-0.0263479292193311,29.7000007629,0.0,0.49841902851957415,1.0782609061432369
1648633946655761335,20475,3,0,0.00690435990691,0.0454158857465,0.00935667566955,0.0,15.1000003815,0.0023091504705384613,0.015189259446989964,0.0031293229664046823,15.1000003815,0.0,0.015536343016911989,0.04688091555684932
1648633946655820840,20476,3,1,0.0343193672597,0.0146502861753,-0.0283790472895,0.0,15.1000003815,0.011478049250735785,0.0048997612626421405,-0.009491320163712375,15.1000003815,0.0,0.016955792214919396,0.046880914871448826
1648633946655856237,20477,3,2,1.18770396709,-0.114272229373,0.24905346334,0.0,15.1000003815,0.39722540705351167,-0.03821813691404682,0.0832954726889632,15.1000003815,0.0,0.563060098041796,1.2189038040177118
1648633946655900169,20478,3,3,1.07208311558,-0.281285494566,0.193547904491,-0.323675245047,15.1000003815,0.3585562259464882,-0.09407541624280935,0.06473174063244147,15.1000003815,-0.04373989797932432,0.5157279498643021,1.1251420032590624
1648633946655922247,20479,3,4,1.01500225067,-0.336956560612,0.137394979596,-0.0809188112617,15.1000003815,0.3394656356755853,-0.11269450187692308,0.04595149819264214,15.1000003815,-0.010934974494824324,0.493126643330642,1.0782609484827035
1648633946850536571,20480,5,0,0.00692969048396,0.0454158857465,0.00933793094009,0.0,13.6999998093,0.002317622235438127,0.015189259446989964,0.0031230538261170565,13.6999998093,0.0,0.015538865730817301,0.04688091554763534
1648633946850584863,20481,5,1,0.0342975780368,0.0146502861753,-0.0284053757787,0.0,13.6999998093,0.011470761885217392,0.0048997612626421405,-0.009500125678494982,13.6999998093,0.0,0.016945926262249597,0.046880914211838154
1648633946850620455,20482,5,2,0.932868421078,-0.41899818182,0.133947938681,-0.566431701183,13.6999998093,0.3119961274508361,-0.14013317117725752,0.0447986416993311,13.6999998093,-0.07654482448418919,0.4629475917993648,1.0313801518789838
1648633946850842088,20483,5,3,0.950340688229,-0.386767566204,0.104921154678,-0.323675245047,13.6999998093,0.3178396950598662,-0.1293537010715719,0.03509068718327759,13.6999998093,-0.04373989797932432,0.4677355272933745,1.0313801542932168
1648633947150509352,20484,8,0,0.00690435990691,0.0454158857465,0.00935667566955,0.0,32.5999984741,0.0023091504705384613,0.015189259446989964,0.0031293229664046823,32.5999984741,0.0,0.015536343016911989,0.04688091555684932
1648633947150578810,20485,8,1,0.0342817641795,0.0146502861753,-0.0284244585782,0.0,32.5999984741,0.01146547296973244,0.0048997612626421405,-0.009506507885685618,32.5999984741,0.0,0.01693876622632885,0.046880913874847226
1648633947150588414,20486,8,2,1.2053592205,-0.076181486249,0.164414390922,0.0,32.5999984741,0.4031301740802676,-0.02547875794280936,0.05498809060936454,32.5999984741,0.0,0.5706812083942154,1.2189038359254296
1648633947150595761,20487,8,3,0.813923478127,-0.553780794144,0.00969710759819,-0.0809188112617,32.5999984741,0.27221521007591976,-0.18521096794113712,0.003243179798725752,32.5999984741,-0.010934974494824324,0.42720644171061745,0.9844991773002573
1648633947450613132,20488,11,0,0.00690435990691,0.0454158857465,0.00935667566955,0.0,12.0,0.0023091504705384613,0.015189259446989964,0.0031293229664046823,12.0,0.0,0.015536343016911989,0.04688091555684932
1648633947450664717,20489,11,1,0.0342817641795,0.0146502861753,-0.0284244585782,0.0,12.0,0.01146547296973244,0.0048997612626421405,-0.009506507885685618,12.0,0.0,0.01693876622632885,0.046880913874847226
1648633947450681617,20490,11,2,0.923521161079,-0.451228827238,-0.0851245224476,0.161837622523,12.0,0.3088699535381271,-0.15091265125016723,-0.028469739949030102,12.0,0.021869948989594594,0.4621427535996255,1.0313801306081172
1648633947450691761,20491,11,3,0.846145749092,-0.461484014988,0.200770050287,0.404594063759,12.0,0.28299188932842806,-0.15434247992909697,0.0671471740090301,12.0,0.05467487348094594,0.4289410448558289,0.984499232040407
1648633947450808463,20492,11,4,0.828623354435,-0.73837441206,0.184745967388,0.566431701183,12.0,0.27713155666722405,-0.24694796389966553,0.06178794895919732,12.0,0.07654482448418919,0.46323546526122994,1.1251419947571908
1648633947555634507,20493,12,0,0.00692969048396,0.0454158857465,0.00933793094009,0.0,24.2999992371,0.002317622235438127,0.015189259446989964,0.0031230538261170565,24.2999992371,0.0,0.015538865730817301,0.04688091554763534
1648633947555673825,20494,12,1,0.0342975780368,0.0146502861753,-0.0284053757787,0.0,24.2999992371,0.011470761885217392,0.0048997612626421405,-0.009500125678494982,24.2999992371,0.0,0.016945926262249597,0.046880914211838154
1648633947555703440,20495,12,2,1.21037936211,-0.076181486249,0.122084699571,0.0,24.2999992371,0.40480915120735783,-0.02547875794280936,0.040831003201003344,24.2999992371,0.0,0.57305328278333,1.2189038079103118
1648633947555716679,20496,12,3,0.930461227894,-0.41899818182,0.149757936597,0.404594063759,24.2999992371,0.3111910461183946,-0.14013317117725752,0.050086266420401336,24.2999992371,0.05467487348094594,0.4618625769996051,1.0313801493902561
1648633947555735445,20497,12,4,0.884213805199,-0.571361124516,-0.614360570908,0.485512852669,24.2999992371,0.29572368066856186,-0.19109067709565214,-0.20547176284548493,24.2999992371,0.06560984495527027,0.4598049994173594,1.2189038103964918
1648633947750601022,20498,14,0,0.00692969048396,0.0454158857465,0.00933793094009,0.0,26.8999996185,0.002317622235438127,0.015189259446989964,0.0031230538261170565,26.8999996185,0.0,0.015538865730817301,0.04688091554763534
1648633947750632681,20499,14,1,0.0342817641795,0.0146502861753,-0.0284244585782,0.0,26.8999996185,0.01146547296973244,0.0048997612626421405,-0.009506507885685618,26.8999996185,0.0,0.01693876622632885,0.046880913874847226
1648633947750770043,20500,14,2,1.00952017307,-0.370652228594,0.0783112570643,0.0809188112617,26.8999996185,0.3376321649063545,-0.12396395605150501,0.026191055874347825,26.8999996185,0.010934974494824324,0.49331330811021407,1.0782609644144467
1648633947750794622,20501,14,3,1.0236645937,-0.421928226948,0.200079485774,0.323675245047,26.8999996185,0.34236274036789294,-0.14111311938060198,0.06691621597792642,26.8999996185,0.04373989797932432,0.5043187528198317,1.1251419598068757
1648633947855476231,20502,15,0,0.00702523533255,0.0454158857465,0.00926626287401,0.0,26.0,0.0023495770342976587,0.015189259446989964,0.003099084573247492,26.0,0.0,0.015548460599949174,0.04688091549092346
1648633947855526535,20503,15,1,0.0343035645783,0.0146502861753,-0.0283981487155,0.0,26.0,0.011472764073010032,0.0048997612626421405,-0.009497708600501671,26.0,0.0,0.016948636859074773,0.04688091592816249
1648633947855560412,20504,15,2,1.16823112965,-0.0366257168353,0.0867898836732,0.0,26.0,0.3907127523913044,-0.012249403623846153,0.029026716947558526,26.0,0.0,0.5526870340902863,1.1720229943670144
1648633947855586055,20505,15,3,1.02232241631,-0.336956560612,0.0629594549537,0.0809188112617,26.0,0.34191385160869564,-0.11269450187692308,0.02105667389755853,26.0,0.010934974494824324,0.4964979502445847,1.0782609793540023
1648633948050570067,20506,17,0,0.00690435990691,0.0454158857465,0.00935667566955,0.0,16.5,0.0023091504705384613,0.015189259446989964,0.0031293229664046823,16.5,0.0,0.015536343016911989,0.04688091555684932
1648633948050613561,20507,17,1,0.0342817641795,0.0146502861753,-0.0284244585782,0.0,16.5,0.01146547296973244,0.0048997612626421405,-0.009506507885685618,16.5,0.0,0.01693876622632885,0.046880913874847226
1648633948050640834,20508,17,2,1.12025511265,-0.293005734682,0.181145697832,-0.242756426334,16.5,0.3746672617558528,-0.09799522899063544,0.06058384542876254,16.5,-0.03280492247756756,0.5388452272853351,1.172022884511239
