%time,field.header.seq,field.header.frame_id,field.point_id,field.x,field.y,field.z,field.velocity,field.intensity,normalized_x,normalized_y,normalized_z,normalized_intensity,normalized_velocity,normalized_range,range
1648624919949206473,33294,0,0,0.00683013908565,0.0454158857465,0.00941099133343,0.0,29.7000007629,0.0022843274533946487,0.015189259446989964,0.0031474887402775913,29.7000007629,0.0,0.015529002104985331,0.046880915476837266
1648624919949235621,33295,0,1,0.0322656407952,0.0161153152585,-0.0299507156014,0.0,29.7000007629,0.010791184212441471,0.005389737544648829,-0.010016961739598661,29.7000007629,0.0,0.016184825739373573,0.04688091644626481
1648624919949271710,33296,0,2,0.757571339607,-0.808695793152,0.195041596889,0.0,29.7000007629,0.25336834100568556,-0.2704668204521739,0.06523130330735785,29.7000007629,0.0,0.44893577871835433,1.1251419665858609
1648624919949297459,33297,0,3,1.28812086582,-1.34782636166,0.201546505094,0.0,29.7000007629,0.43080965412040134,-0.45077804737792637,0.0674068578909699,29.7000007629,0.0,0.7578883586416509,1.8752365877035637
1648624919949300936,33298,0,4,2.58652019501,-0.679773271084,0.491211891174,0.0,29.7000007629,0.8650569214080266,-0.22734892009498325,0.1642849134361204,29.7000007629,0.0,1.2443208935078687,2.719093146860833
1648624919949302415,33299,0,5,0.807734072208,-0.361862063408,0.100173212588,0.0809188112617,29.7000007629,0.270145174651505,-0.12102410147424747,0.033502746684949826,29.7000007629,0.010934974494824324,0.4007538694917782,0.8907374230713643
1648624920054450892,33300,1,0,0.00679519679397,0.0454158857465,0.00943625252694,0.0,19.5,0.002272641068217391,0.015189259446989964,0.0031559372999799325,19.5,0.0,0.015525572369412679,0.046880915513245934
1648624920054455819,33301,1,1,0.0321796387434,0.0161153152585,-0.0300430990756,0.0,19.5,0.010762420984414715,0.005389737544648829,-0.010047859222608695,19.5,0.0,0.016146475828853105,0.04688091656103676
1648624920054557557,33302,1,2,0.808034896851,-0.351606875658,0.320281505585,0.0,19.5,0.2702457849,-0.11759427279531771,0.10711756039632107,19.5,0.0,0.3998674549231204,0.9376182764637114
1648624920054566970,33303,1,3,0.792382478714,-0.0,-0.501256525517,0.0,19.5,0.26501086244615385,-0.0,-0.16764432291538459,19.5,0.0,0.37478195584754154,0.9376183109060517
1648624920054578955,33304,1,4,0.743804991245,-0.843856453896,-0.0245954729617,0.0,19.5,0.24876421111872907,-0.28222623876120395,-0.008225910689531773,19.5,0.0,0.4510198613280166,1.1251419986264473
1648624920054585233,33305,1,5,1.28081560135,-1.34782636166,0.243696033955,0.0,19.5,0.4283664218561873,-0.45077804737792637,0.08150369028595317,19.5,0.0,0.7551135217605377,1.8752365884902609
1648624920054592864,33306,1,6,2.60491490364,-0.594801604748,0.504080593586,0.0,19.5,0.8712089978729097,-0.19893030259130434,0.1685888272862876,19.5,0.0,1.248031851051289,2.719093203449746
1648624920249792987,33307,3,0,0.00679519679397,0.0454158857465,0.00943625252694,0.0,14.3999996185,0.002272641068217391,0.015189259446989964,0.0031559372999799325,14.3999996185,0.0,0.015525572369412679,0.046880915513245934
1648624920249857085,33308,3,1,0.0321796387434,0.0161153152585,-0.0300430990756,0.0,14.3999996185,0.010762420984414715,0.005389737544648829,-0.010047859222608695,14.3999996185,0.0,0.016146475828853105,0.04688091656103676
1648624920249882115,33309,3,2,0.811077713966,-0.334026515484,0.154894948006,0.0,14.3999996185,0.2712634494869565,-0.11171455367357858,0.051804330436789295,14.3999996185,0.0,0.3995595819869823,0.890737456300383
1648624920249968478,33310,3,3,1.00621080399,-0.096691891551,0.204781606793,0.0,14.3999996185,0.3365253525050167,-0.032338425267892976,0.06848883170334448,14.3999996185,0.0,0.47701614176677354,1.0313801483636553
1648624920354800545,33311,4,0,0.00681872852147,0.0454158857465,0.00941926240921,0.0,12.5,0.0022805112111939797,0.015189259446989964,0.0031502549863578594,12.5,0.0,0.015527880258320411,0.04688091553203933
1648624920354983623,33312,4,1,0.0322656407952,0.0161153152585,-0.0299507156014,0.0,12.5,0.010791184212441471,0.005389737544648829,-0.010016961739598661,12.5,0.0,0.016184825739373573,0.04688091644626481
1648624920354995225,33313,4,2,1.01442039013,-0.096691891551,0.159207329154,0.0,12.5,0.3392710334882943,-0.032338425267892976,0.05324659837926421,12.5,0.0,0.48089025991096734,1.031380154676035
1648624920355006679,33314,4,3,1.28406465054,-1.34782636166,0.22595231235,0.0,12.5,0.42945306038127085,-0.45077804737792637,0.0755693352341137,12.5,0.0,0.7563469509025174,1.8752366185120097
1648624920355017366,33315,4,4,2.57745361328,-0.679773271084,0.536757588387,0.0,12.5,0.8620246198260869,-0.22734892009498325,0.17951758808929766,12.5,0.0,1.2401050043609108,2.719093146139241
1648624920355051822,33316,4,5,0.840936779976,-0.32230630517,0.260906219482,0.161837622523,12.5,0.2812497591892976,-0.10779475089297658,0.08725960517792641,12.5,0.021869948989594594,0.41209533169905566,0.9376183006069848
1648624920549856410,33317,6,0,0.00681872852147,0.0454158857465,0.00941926240921,0.0,28.2999992371,0.0022805112111939797,0.015189259446989964,0.0031502549863578594,28.2999992371,0.0,0.015527880258320411,0.04688091553203933
1648624920549881810,33318,6,1,0.0322912894189,0.0161153152585,-0.0299230609089,0.0,28.2999992371,0.010799762347458193,0.005389737544648829,-0.010007712678561874,28.2999992371,0.0,0.016196265135004075,0.04688091650526625
1648624920549892338,33319,6,2,0.815774142742,-0.0263705141842,-0.214268252254,0.0,28.2999992371,0.2728341614521739,-0.008819569961270902,-0.07166162282742475,28.2999992371,0.0,0.38594655604749667,0.8438564687840984
1648624920549973209,33320,6,3,0.79376578331,-0.36918720603,0.450416862965,0.0,28.2999992371,0.2654735061237458,-0.12347398194983276,0.15064109129264214,28.2999992371,0.0,0.3952191659393768,0.9844991936478197
1648624920550027124,33321,6,4,0.73583561182,-0.843856453896,0.111340478063,0.0,28.2999992371,0.2460988668294314,-0.28222623876120395,0.0372376180812709,28.2999992371,0.0,0.4480858783255243,1.1251419752456766
1648624920550068092,33322,6,5,1.0892213583,-0.281285494566,0.0204862467945,0.0,28.2999992371,0.3642880796989967,-0.09407541624280935,0.006851587556688962,28.2999992371,0.0,0.5237000992579846,1.1251419391071784
1648624920550078188,33323,6,6,1.28598117828,-1.34782636166,0.214776828885,0.0,28.2999992371,0.4300940395585284,-0.45077804737792637,0.07183171534615383,28.2999992371,0.0,0.757075038371628,1.8752366726101393
1648624920550281036,33324,6,7,2.58411693573,-0.594801604748,0.601679980755,0.0,28.2999992371,0.8642531557625418,-0.19893030259130434,0.20123076279431434,28.2999992371,0.0,1.2383215655798345,2.719093246981195
