%time,field.header.seq,field.header.frame_id,field.point_id,field.x,field.y,field.z,field.velocity,field.intensity,normalized_x,normalized_y,normalized_z,normalized_intensity,normalized_velocity,normalized_range,range
1648624924249339842,33476,0,0,0.00683013908565,0.0454158857465,0.00941099133343,0.0,23.3999996185,0.0022843274533946487,0.015189259446989964,0.0031474887402775913,23.3999996185,0.0,0.015529002104985331,0.046880915476837266
1648624924249348511,33477,0,1,0.0321796387434,0.0161153152585,-0.0300430990756,0.0,23.3999996185,0.010762420984414715,0.005389737544648829,-0.010047859222608695,23.3999996185,0.0,0.016146475828853105,0.04688091656103676
1648624924249352560,33478,0,2,0.773669064045,-0.808695793152,0.115722686052,0.0,23.3999996185,0.25875219533277594,-0.2704668204521739,0.03870323948227425,23.3999996185,0.0,0.4550359306083098,1.1251419673041703
1648624924354266883,33479,1,0,0.00685351761058,0.0454158857465,0.00939397979528,0.0,12.6999998093,0.0022921463580535114,0.015189259446989964,0.0031417992626354514,12.6999998093,0.0,0.015531306203969125,0.0468809155005723
1648624924354278064,33480,1,1,0.0322656407952,0.0161153152585,-0.0299507156014,0.0,12.6999998093,0.010791184212441471,0.005389737544648829,-0.010016961739598661,12.6999998093,0.0,0.016184825739373573,0.04688091644626481
1648624924354326078,33481,1,2,0.709120333195,-0.843856453896,0.225829988718,0.0,12.6999998093,0.23716399103511704,-0.28222623876120395,0.07552842432040133,12.6999998093,0.0,0.4383436632742696,1.1251420112754174
1648624924354330110,33482,1,3,1.28931903839,-1.34782636166,0.193734034896,0.0,12.6999998093,0.43121038073244145,-0.45077804737792637,0.06479399160401338,12.6999998093,0.0,0.7583440069656319,1.8752366144616608
1648624924354333764,33483,1,4,2.59032893181,-0.594801604748,0.574347436428,0.0,12.6999998093,0.866330746424749,-0.19893030259130434,0.19208944362140468,12.6999998093,0.0,1.2412216521197146,2.7190932131345082
1648624924549410901,33484,3,0,0.00685351761058,0.0454158857465,0.00939397979528,0.0,12.5,0.0022921463580535114,0.015189259446989964,0.0031417992626354514,12.5,0.0,0.015531306203969125,0.0468809155005723
1648624924549419342,33485,3,1,0.0322656407952,0.0161153152585,-0.0299507156014,0.0,12.5,0.010791184212441471,0.005389737544648829,-0.010016961739598661,12.5,0.0,0.016184825739373573,0.04688091644626481
1648624924549574586,33486,3,2,1.00838959217,-0.128922522068,0.173995316029,0.0,12.5,0.33725404420401334,-0.04311790035719063,0.058192413387625416,12.5,0.0,0.47889428269205486,1.0313801221146277
1648624924549585804,33487,3,3,0.712021172047,-0.843856453896,0.216510012746,0.0,12.5,0.23813417125317723,-0.28222623876120395,0.07241137550033444,12.5,0.0,0.4393943751143967,1.125141968750783
1648624924549588632,33488,3,4,1.76412463188,0.410208046436,-1.90051531792,0.485512852669,12.5,0.5900082380869565,0.13719332656722408,-0.6356238521471572,12.5,0.06560984495527027,0.8456012363256871,2.6253313756200654
1648624924549593524,33489,3,5,2.39413022995,-0.574291229248,0.911424577236,0.485512852669,12.5,0.8007124514882943,-0.1920706452334448,0.3048242733230769,12.5,0.06560984495527027,1.1485521288549247,2.625331356979808
1648624924549696340,33490,3,6,0.907854855061,-0.276890397072,0.261476486921,0.566431701183,12.5,0.30363038630802675,-0.09260548397056856,0.08745033007391304,12.5,0.07654482448418919,0.4392705301298351,0.9844992041952432
1648624924549703789,33491,3,7,0.799662292004,-0.402882874012,-0.756216466427,-0.566431701183,12.5,0.2674455826100334,-0.13474343612441472,-0.2529152061628762,12.5,-0.07654482448418919,0.40150974196631223,1.1720229244859495
1648624924549709463,33492,3,8,1.09599733353,0.0366257168353,0.413625627756,-0.566431701183,12.5,0.3665542921505016,0.012249403623846153,0.13833633035317724,12.5,-0.07654482448418919,0.5185307571176955,1.1720229341506567
1648624924654252245,33493,4,0,0.00681872852147,0.0454158857465,0.00941926240921,0.0,26.8999996185,0.0022805112111939797,0.015189259446989964,0.0031502549863578594,26.8999996185,0.0,0.015527880258320411,0.04688091553203933
1648624924654266144,33494,4,1,0.0321796387434,0.0161153152585,-0.0300430990756,0.0,26.8999996185,0.010762420984414715,0.005389737544648829,-0.010047859222608695,26.8999996185,0.0,0.016146475828853105,0.04688091656103676
1648624924654271208,33495,4,2,0.825621962547,-0.334026515484,-0.0137067725882,0.0,26.8999996185,0.27612774667123746,-0.11171455367357858,-0.0045842048789966556,26.8999996185,0.0,0.4061689383322622,0.8907374549782485
1648624924654298464,33496,4,3,0.733029305935,-0.0278355441988,-0.505278527737,0.0,26.8999996185,0.2451603029882943,-0.009309546554782609,-0.16898947415953175,26.8999996185,0.0,0.34683398907788754,0.89073743127392
1648624924654315293,33497,4,4,1.01301455498,-0.096691891551,0.167920529842,0.0,26.8999996185,0.33880085450836117,-0.032338425267892976,0.05616071232173913,26.8999996185,0.0,0.4802268336734199,1.031380198973907
1648624924654400148,33498,4,5,0.721961796284,-0.808695793152,0.301208764315,0.0,26.8999996185,0.2414587947438127,-0.2704668204521739,0.10073871716220735,26.8999996185,0.0,0.43561106515305353,1.12514196475624
1648624924654402767,33499,4,6,2.13497686386,-0.9713139534,0.463630080223,0.0,26.8999996185,0.7140390849030099,-0.3248541650167224,0.1550602274993311,26.8999996185,0.0,1.0607704078013147,2.390926568628699
1648624924849347027,33500,6,0,0.00681872852147,0.0454158857465,0.00941926240921,0.0,12.3000001907,0.0022805112111939797,0.015189259446989964,0.0031502549863578594,12.3000001907,0.0,0.015527880258320411,0.04688091553203933
1648624924849349738,33501,6,1,0.0321796387434,0.0161153152585,-0.0300430990756,0.0,12.3000001907,0.010762420984414715,0.005389737544648829,-0.010047859222608695,12.3000001907,0.0,0.016146475828853105,0.04688091656103676
1648624924849354841,33502,6,2,1.06751728058,-0.101086974144,0.11329189688,0.0,12.3000001907,0.3570291908294314,-0.03380835255652174,0.03789026651505017,12.3000001907,0.0,0.50604613516084,1.078260995574437
1648624924849358819,33503,6,3,0.746189951897,-0.775000095367,-0.0722648575902,0.0,12.3000001907,0.24956185682173912,-0.25919735631003343,-0.02416884869237458,12.3000001907,0.0,0.43788755437753524,1.0782610081856054
1648624924849453576,33504,6,4,1.05375170708,-0.293005734682,0.421180158854,-0.647350490093,12.3000001907,0.35242532009364547,-0.09799522899063544,0.1408629293826087,12.3000001907,-0.08747979595851352,0.5079471206642913,1.1720229293588218
1648624924849464737,33505,6,5,0.934318780899,-0.32230630517,0.294808536768,-0.404594063759,12.3000001907,0.3124811976250836,-0.10779475089297658,0.09859817283210702,12.3000001907,-0.05467487348094594,0.45487218650791555,1.0313801491420223
1648624924849467856,33506,6,6,1.69090926647,0.328166425228,-1.98128688335,-0.242756426334,12.3000001907,0.5655214938026756,0.10975465726688963,-0.6626377536287624,12.3000001907,-0.03280492247756756,0.8072640241565281,2.625331419881268
1648624924849471839,33507,6,7,2.40904760361,-0.656332850456,0.811222374439,-0.242756426334,12.3000001907,0.8057015396688962,-0.21950931453377925,0.2713118309160535,12.3000001907,-0.03280492247756756,1.1603854020181181,2.625331390098635
1648624924954349296,33508,7,0,0.00685351761058,0.0454158857465,0.00939397979528,0.0,19.7000007629,0.0022921463580535114,0.015189259446989964,0.0031417992626354514,19.7000007629,0.0,0.015531306203969125,0.0468809155005723
1648624924954359014,33509,7,1,0.0321940667927,0.0161153152585,-0.0300276353955,0.0,19.7000007629,0.01076724641896321,0.005389737544648829,-0.010042687423244146,19.7000007629,0.0,0.01615290876881156,0.046880915199884444
1648624924954365267,33510,7,2,0.846081793308,-0.278355449438,-0.00877408031374,0.0,19.7000007629,0.28297049943411373,-0.09309546803946488,-0.002934475021317725,19.7000007629,0.0,0.4108666125027325,0.8907374145529445
1648624924954369517,33511,7,3,0.617055654526,0.0278355441988,0.641779303551,0.0,19.7000007629,0.20637312860401336,0.009309546554782609,0.21464190754214044,19.7000007629,0.0,0.29200411654062847,0.8907374320021362
