%time,field.header.seq,field.header.frame_id,field.point_id,field.x,field.y,field.z,field.velocity,field.intensity,normalized_x,normalized_y,normalized_z,normalized_intensity,normalized_velocity,normalized_range,range
1648634468856362305,35410,0,0,0.00709678046405,0.0454158857465,0.00921158306301,0.0,11.6000003815,0.002373505171923077,0.015189259446989964,0.003080797011040134,11.6000003815,0.0,0.01555572743880096,0.04688091545203438
1648634468856365774,35411,0,1,0.0342879369855,0.0146502861753,-0.0284170117229,0.0,11.6000003815,0.01146753745334448,0.0048997612626421405,-0.009504017298628762,11.6000003815,0.0,0.016941561053179406,0.046880913632300736
1648634468856385595,35412,0,2,1.05496478081,-0.0336956568062,0.220364898443,0.0,11.6000003815,0.3528310303712374,-0.011269450436856187,0.07370063493076923,11.6000003815,0.0,0.499105672677447,1.078260995539988
1648634468856417189,35413,0,3,1.38750600815,-0.219754293561,0.0676275491714,0.0,11.6000003815,0.46404883215719056,-0.07349641925117056,0.022617909421872907,11.6000003815,0.0,0.6603668381253321,1.40642751594164
1648634468856570241,35414,0,4,2.18203473091,-0.805765748024,0.28985708952,0.0,11.6000003815,0.7297775019765885,-0.26948687224882945,0.09694217040802675,11.6000003815,0.0,1.0666646985331596,2.3440458911743085
1648634468856573295,35415,0,5,1.33393549919,-0.73837441206,-0.723736166954,-0.161837622523,11.6000003815,0.4461322739765886,-0.24694796389966553,-0.24205222975050167,11.6000003815,-0.021869948989594594,0.6775332527937167,1.687712868867656
1648634468961721416,35416,1,0,0.00717832520604,0.0454158857465,0.00914818048477,0.0,16.5,0.002400777660882943,0.015189259446989964,0.003059592135374582,16.5,0.0,0.0155640955182742,0.04688091548897843
1648634468961826706,35417,1,1,0.0342556610703,0.0146502861753,-0.0284559112042,0.0,16.5,0.011456742832876255,0.0048997612626421405,-0.009517027158595318,16.5,0.0,0.016926948133323128,0.04688091384393833
1648634468961840453,35418,1,2,1.05886340141,-0.0336956568062,0.200797945261,0.0,16.5,0.35413491685953175,-0.011269450436856187,0.06715650343177257,16.5,0.0,0.5009491782520096,1.0782610606686098
1648634468961884450,35419,1,3,1.39310193062,-0.175803437829,0.0799900889397,0.0,16.5,0.4659203781337793,-0.05879713639765886,0.026752538106923074,16.5,0.0,0.6615290626791938,1.4064274784638728
1648634469156922214,35420,3,0,0.00712122442201,0.0454158857465,0.00919269956648,0.0,12.6999998093,0.0023816804086989963,0.015189259446989964,0.003074481460361204,12.6999998093,0.0,0.015558226302709931,0.046880915527827895
1648634469156960882,35421,3,1,0.0342400819063,0.0146502861753,-0.0284746550024,0.0,12.6999998093,0.011451532410133778,0.0048997612626421405,-0.009523295987424747,12.6999998093,0.0,0.016919895079804046,0.046880913722687
1648634469157146196,35422,3,2,1.04301905632,-0.0336956568062,0.271335154772,0.0,12.6999998093,0.3488358047892976,-0.011269450436856187,0.09074754340200668,12.6999998093,0.0,0.4934570274290788,1.0782610608518743
1648634469157158818,35423,3,3,0.840851485729,-0.673913121223,-0.038165461272,0.0,12.6999998093,0.28122123268528426,-0.22538900375351167,-0.012764368318394647,12.6999998093,0.0,0.457133423016806,1.0782609695446168
1648634469157176616,35424,3,4,1.3938356638,-0.175803437829,0.0659822747111,0.0,12.6999998093,0.4661657738461538,-0.05879713639765886,0.022067650405050168,12.6999998093,0.0,0.6618747318486571,1.4064275192875504
1648634469157185335,35425,3,5,0.797391653061,-0.46880915761,0.153338342905,0.161837622523,12.6999998093,0.2666861715923077,-0.15679236040468228,0.05128372672408027,12.6999998093,0.021869948989594594,0.40844445463048623,0.9376183242851024
1648634469261856334,35426,4,0,0.00703071663156,0.0454158857465,0.00926210451871,0.0,34.2999992371,0.002351410244668896,0.015189259446989964,0.003097693818966555,34.2999992371,0.0,0.015549014850640589,0.04688091546256263
1648634469261912179,35427,4,1,0.0342400819063,0.0146502861753,-0.0284746550024,0.0,34.2999992371,0.011451532410133778,0.0048997612626421405,-0.009523295987424747,34.2999992371,0.0,0.016919895079804046,0.046880913722687
1648634469262035346,35428,4,2,1.04860746861,-0.0336956568062,0.248865246773,0.0,34.2999992371,0.350704839,-0.011269450436856187,0.08323252400434783,34.2999992371,0.0,0.4960995552398536,1.0782610683705776
1648634469262067881,35429,4,3,1.38767910004,-0.219754293561,0.0639781057835,0.0,34.2999992371,0.4641067224214046,-0.07349641925117056,0.021397359793812704,34.2999992371,0.0,0.6604481987531052,1.406427542479869
1648634469262084454,35430,4,4,0.138896927238,0.307656019926,1.36531817913,0.0,34.2999992371,0.0464538218187291,0.10289498994180601,0.4566281535551839,34.2999992371,0.0,0.12207904848194397,1.4064275001775683
1648634469262092751,35431,4,5,0.800767123699,-0.439508587122,0.211500152946,-0.242756426334,34.2999992371,0.2678150915381271,-0.14699283850234113,0.07073583710568561,34.2999992371,-0.03280492247756756,0.4062717576722829,0.9376183121331023
1648634469456922390,35432,6,0,0.00703071663156,0.0454158857465,0.00926210451871,0.0,31.2999992371,0.002351410244668896,0.015189259446989964,0.003097693818966555,31.2999992371,0.0,0.015549014850640589,0.04688091546256263
1648634469456956736,35433,6,1,0.0343274921179,0.0146502861753,-0.0283692199737,0.0,31.2999992371,0.011480766594615385,0.0048997612626421405,-0.009488033436020065,31.2999992371,0.0,0.016959471207291858,0.04688091554181565
1648634469457101456,35434,6,2,1.06275093555,-0.0673913136125,0.169309154153,0.0,31.2999992371,0.35543509550167224,-0.02253890087374582,0.05662513516822742,31.2999992371,0.0,0.5031661915124687,1.0782609748306868
1648634469457168498,35435,6,3,1.39145493507,-0.175803437829,0.104807555676,0.0,31.2999992371,0.46536954350167226,-0.05879713639765886,0.035052694206020064,31.2999992371,0.0,0.6607531515524346,1.4064274985970415
1648634469457205800,35436,6,4,2.17369484901,-0.805765748024,0.34690618515,0.0,31.2999992371,0.7269882438160534,-0.26948687224882945,0.11602213550167223,31.2999992371,0.0,1.0628485252414646,2.3440459975428403
1648634469562222853,35437,7,0,0.00708608981222,0.0454158857465,0.00921980943531,0.0,12.0,0.002369929703083612,0.015189259446989964,0.003083548306123746,12.0,0.0,0.015554637126692793,0.04688091544530056
1648634469562277672,35438,7,1,0.0342400819063,0.0146502861753,-0.0284746550024,0.0,12.0,0.011451532410133778,0.0048997612626421405,-0.009523295987424747,12.0,0.0,0.016919895079804046,0.046880913722687
1648634469562310363,35439,7,2,1.05336594582,-0.0673913136125,0.220284625888,0.0,12.0,0.3522963029498327,-0.02253890087374582,0.07367378792240802,12.0,0.0,0.4987317637737115,1.0782609709000401
1648634469562333911,35440,7,3,1.39176619053,-0.175803437829,0.100589632988,0.0,12.0,0.46547364231772576,-0.05879713639765886,0.03364201772173913,12.0,0.0,0.6608997856208043,1.406427478443003
1648634469562438484,35441,7,4,2.17743253708,-0.805765748024,0.322614252567,0.0,12.0,0.728238306715719,-0.26948687224882945,0.1078977433334448,12.0,0.0,1.0645587053097694,2.344045829369103
1648634469756985889,35442,9,0,0.00717832520604,0.0454158857465,0.00914818048477,0.0,11.3999996185,0.002400777660882943,0.015189259446989964,0.003059592135374582,11.3999996185,0.0,0.0155640955182742,0.04688091548897843
1648634469757036424,35443,9,1,0.0342556610703,0.0146502861753,-0.0284559112042,0.0,11.3999996185,0.011456742832876255,0.0048997612626421405,-0.009517027158595318,11.3999996185,0.0,0.016926948133323128,0.04688091384393833
1648634469757049341,35444,9,2,1.07611548901,-0.0673913136125,0.00898429285735,0.0,11.3999996185,0.35990484582274246,-0.02253890087374582,0.003004780219849498,11.3999996185,0.0,0.5094811067605751,1.078261031641131
1648634469757082810,35445,9,3,1.38452780247,-0.219754293561,0.113265864551,0.0,11.3999996185,0.4630527767458194,-0.07349641925117056,0.037881560050501674,11.3999996185,0.0,0.658966973183612,1.4064275101914736
1648634469757106036,35446,9,4,0.776512086391,-0.417533159256,0.126918241382,-0.161837622523,11.3999996185,0.25970303892675584,-0.13964319707558526,0.04244757236856187,11.3999996185,-0.021869948989594594,0.39292691349037784,0.890737446942195
1648634469862087160,35447,10,0,0.0070613711141,0.0454158857465,0.00923875533044,0.0,29.7000007629,0.002361662579966555,0.015189259446989964,0.0030898847258996652,29.7000007629,0.0,0.015552122132725246,0.04688091552226685
1648634469862114318,35448,10,1,0.0342180393636,0.0146502861753,-0.0285011399537,0.0,29.7000007629,0.011444160322274247,0.0048997612626421405,-0.009532153830668895,29.7000007629,0.0,0.016909916362735828,0.046880913830336754
1648634469862124359,35449,10,2,1.06634390354,-0.0673913136125,0.144968748093,0.0,29.7000007629,0.35663675703678926,-0.02253890087374582,0.048484531134782606,29.7000007629,0.0,0.5048638974932078,1.0782610294780177
1648634469862145479,35450,10,3,1.38623249531,-0.219754293561,0.0900318473577,0.0,29.7000007629,0.4636229081304348,-0.07349641925117056,0.030110985738361205,29.7000007629,0.0,0.6597682362234385,1.4064274649375004
1648634470056942167,35451,12,0,0.00714846141636,0.0454158857465,0.00917153526098,0.0,13.1000003815,0.0023907897713578595,0.015189259446989964,0.0030674030973177253,13.1000003815,0.0,0.015561020339606033,0.0468809154966467
1648634470057004777,35452,12,1,0.0342400819063,0.0146502861753,-0.0284746550024,0.0,13.1000003815,0.011451532410133778,0.0048997612626421405,-0.009523295987424747,13.1000003815,0.0,0.016919895079804046,0.046880913722687
1648634470057096886,35453,12,2,1.05874216557,-0.0,0.204234302044,0.0,13.1000003815,0.35409436975585284,-0.0,0.0683057866367893,13.1000003815,0.0,0.5007650600686806,1.0782609254198416
1648634470057109513,35454,12,3,1.39459693432,-0.175803437829,0.0472333058715,0.0,13.1000003815,0.4664203793712374,-0.05879713639765886,0.015797092264715717,13.1000003815,0.0,0.6622333756570888,1.4064275463566505
1648634470057121211,35455,12,4,0.4597671628,0.307656019926,1.2930585146,0.0,13.1000003815,0.1537682818729097,0.10289498994180601,0.43246104167224075,13.1000003815,0.0,0.24057586740032252,1.406427528444117
1648634470162048215,35456,13,0,0.00712122442201,0.0454158857465,0.00919269956648,0.0,12.3000001907,0.0023816804086989963,0.015189259446989964,0.003074481460361204,12.3000001907,0.0,0.015558226302709931,0.046880915527827895
1648634470162060537,35457,13,1,0.0343274921179,0.0146502861753,-0.0283692199737,0.0,12.3000001907,0.011480766594615385,0.0048997612626421405,-0.009488033436020065,12.3000001907,0.0,0.016959471207291858,0.04688091554181565
1648634470162086088,35458,13,2,1.07192075253,-0.0336956568062,0.111791543663,0.0,12.3000001907,0.35850192392307695,-0.011269450436856187,0.03738847614147157,12.3000001907,0.0,0.5071235149608466,1.078261028798982
1648634470162112036,35459,13,3,1.39416468143,-0.175803437829,0.058619055897,0.0,12.3000001907,0.46627581318729094,-0.05879713639765886,0.019605035417056854,12.3000001907,0.0,0.6620297358695483,1.406427460416485
1648634470162140454,35460,13,4,2.17606306076,-0.805765748024,0.3317258358,0.0,12.3000001907,0.7277802878795986,-0.26948687224882945,0.11094509558528427,12.3000001907,0.0,1.0639320792074463,2.3440458432441256
1648634470356982054,35461,15,0,0.00717832520604,0.0454158857465,0.00914818048477,0.0,11.6000003815,0.002400777660882943,0.015189259446989964,0.003059592135374582,11.6000003815,0.0,0.0155640955182742,0.04688091548897843
1648634470357025361,35462,15,1,0.0342400819063,0.0146502861753,-0.0284746550024,0.0,11.6000003815,0.011451532410133778,0.0048997612626421405,-0.009523295987424747,11.6000003815,0.0,0.016919895079804046,0.046880913722687
1648634470357088795,35463,15,2,1.06929636002,-0.0336956568062,0.134598851204,0.0,11.6000003815,0.35762420067558526,-0.011269450436856187,0.04501633819531772,11.6000003815,0.0,0.5058825341231413,1.0782610785821118
1648634470357105308,35464,15,3,1.38548231125,-0.219754293561,0.100921943784,0.0,11.6000003815,0.463372010451505,-0.07349641925117056,0.03375315845618729,11.6000003815,0.0,0.6594156229438936,1.4064275392149703
1648634470357156130,35465,15,4,2.17879891396,-0.805765748024,0.313252598047,0.0,11.6000003815,0.7286952889498328,-0.26948687224882945,0.10476675519966555,11.6000003815,0.0,1.0651839383833281,2.3440457201908727
