%time,field.header.seq,field.header.frame_id,field.point_id,field.x,field.y,field.z,field.velocity,field.intensity,normalized_x,normalized_y,normalized_z,normalized_intensity,normalized_velocity,normalized_range,range
1648634284352963197,29759,0,0,0.00711762346327,0.0454158857465,0.00919548794627,0.0,13.5,0.0023804760746722405,0.015189259446989964,0.0030754140288528427,13.5,0.0,0.015557857668462833,0.04688091552512632
1648634284352969309,29760,0,1,0.0342381596565,0.0146502861753,-0.028476966545,0.0,13.5,0.011450889517224078,0.0048997612626421405,-0.009524069078595317,13.5,0.0,0.016919024850807245,0.046880913870009186
1648634284352977734,29761,0,2,1.07402408123,-0.0336956568062,0.0893521234393,0.0,13.5,0.3592053783377926,-0.011269450436856187,0.029883653324180602,13.5,0.0,0.5081181045453331,1.0782610659356382
1648634284352989296,29762,0,3,0.812743604183,-0.707608819008,-0.0372070781887,0.0,13.5,0.2718206034056856,-0.23665846789565215,-0.012443838859096988,13.5,0.0,0.4514201051109481,1.0782609950960897
1648634284352993309,29763,0,4,1.3935867548,-0.175803437829,0.071046218276,0.0,13.5,0.4660825266889632,-0.05879713639765886,0.02376127701538461,13.5,0.0,0.6617574681241619,1.4064275512936355
1648634284353014246,29764,0,5,0.844685435295,-0.380907446146,0.143332287669,0.0809188112617,13.5,0.28250349006521736,-0.12739379469765885,0.047937219956187285,13.5,0.010934974494824324,0.4193395077088802,0.9376183188362951
1648634284457988070,29765,1,0,0.00709323305637,0.0454158857465,0.00921431556344,0.0,11.3999996185,0.0023723187479498327,0.015189259446989964,0.0030817108907826084,11.3999996185,0.0,0.015555365474064645,0.046880915569491324
1648634284458000971,29766,1,1,0.0342776104808,0.0146502861753,-0.0284294709563,0.0,11.3999996185,0.011464083772842807,0.0048997612626421405,-0.009508184266321069,11.3999996185,0.0,0.016936885603097283,0.046880915990909794
1648634284458011002,29767,1,2,1.07289373875,-0.101086974144,0.0364308841527,0.0,11.3999996185,0.3588273373745819,-0.03380835255652174,0.012184242191538462,11.3999996185,0.0,0.5085834452646391,1.0782609889589303
1648634284458014571,29768,1,3,1.39412713051,-0.175803437829,0.0595059245825,0.0,11.3999996185,0.46626325435117055,-0.05879713639765886,0.01990164701755853,11.3999996185,0.0,0.6620120451810931,1.4064274811866269
1648634284458039204,29769,1,4,0.88763064146,-0.399952799082,0.146247386932,0.0809188112617,11.3999996185,0.296866435270903,-0.13376347795384613,0.04891216954247492,11.3999996185,0.010934974494824324,0.44062685893533043,0.9844992104296763
1648634284458101650,29770,1,5,0.996691226959,-0.586011469364,-0.191924542189,0.242756426334,11.3999996185,0.3333415474779264,-0.19599045798127088,-0.06418881009665552,11.3999996185,0.03280492247756756,0.5105344593361604,1.172022983570565
1648634284653119928,29771,3,0,0.00709323305637,0.0454158857465,0.00921431556344,0.0,28.1000003815,0.0023723187479498327,0.015189259446989964,0.0030817108907826084,28.1000003815,0.0,0.015555365474064645,0.046880915569491324
1648634284653125141,29772,3,1,0.0342932231724,0.0146502861753,-0.0284106340259,0.0,28.1000003815,0.011469305408829431,0.0048997612626421405,-0.009501884289598661,28.1000003815,0.0,0.016943954483912442,0.04688091473429082
1648634284653131695,29773,3,2,1.05836486816,-0.134782627225,0.1560267061,0.0,28.1000003815,0.35396818333110364,-0.04507780174749164,0.052182844849498325,28.1000003815,0.0,0.502612134584741,1.0782610462097864
1648634284653144921,29774,3,3,1.39305710793,-0.175803437829,0.0807678028941,0.0,28.1000003815,0.46590538726755854,-0.05879713639765886,0.027012643108394647,28.1000003815,0.0,0.6615079463002937,1.4064275284177037
1648634284653229836,29775,3,4,0.916932523251,-0.338421612978,0.118085920811,0.0809188112617,28.1000003815,0.3066663957361204,-0.11318448594581938,0.03949361900033445,28.1000003815,0.010934974494824324,0.44821789835568265,0.9844992255049562
1648634284758005825,29776,4,0,0.00712367706001,0.0454158857465,0.00919079873711,0.0,23.6000003815,0.002382500688966555,0.015189259446989964,0.003073845731474916,23.6000003815,0.0,0.015558477483797252,0.04688091546056366
1648634284758031560,29777,4,1,0.0342776104808,0.0146502861753,-0.0284294709563,0.0,23.6000003815,0.011464083772842807,0.0048997612626421405,-0.009508184266321069,23.6000003815,0.0,0.016936885603097283,0.046880915990909794
1648634284758037818,29778,4,2,1.0670735836,-0.0673913136125,0.139496088028,0.0,23.6000003815,0.3568807971906354,-0.02253890087374582,0.04665421004280936,23.6000003815,0.0,0.5052086785274412,1.078260998340606
1648634284758040985,29779,4,3,0.512444734573,0.336956560612,-0.886852562428,0.0,23.6000003815,0.17138619885384615,0.11269450187692308,-0.29660620816989963,23.6000003815,0.0,0.2672947980571788,1.0782610060723565
1648634284758043383,29780,4,4,0.920752584934,-0.338421612978,0.0832115709782,0.0809188112617,23.6000003815,0.30794400833913044,-0.11318448594581938,0.02782995684889632,23.6000003815,0.010934974494824324,0.44996639030349844,0.9844992007807493
1648634284953110746,29781,6,0,0.00709323305637,0.0454158857465,0.00921431556344,0.0,19.2999992371,0.0023723187479498327,0.015189259446989964,0.0030817108907826084,19.2999992371,0.0,0.015555365474064645,0.046880915569491324
1648634284953118691,29782,6,1,0.0342932231724,0.0146502861753,-0.0284106340259,0.0,19.2999992371,0.011469305408829431,0.0048997612626421405,-0.009501884289598661,19.2999992371,0.0,0.016943954483912442,0.04688091473429082
1648634284953128292,29783,6,2,1.07597494125,-0.0,0.0701770484447,0.0,19.2999992371,0.3598578398829431,-0.0,0.023470584764113712,19.2999992371,0.0,0.5089158376887438,1.078261050175861
1648634284953134741,29784,6,3,1.38648223877,-0.175803437829,0.157474979758,0.0,19.2999992371,0.46370643437123743,-0.05879713639765886,0.05266721731036789,19.2999992371,0.0,0.6584105237639647,1.406427465753904
1648634285058105176,29785,7,0,0.00712367706001,0.0454158857465,0.00919079873711,0.0,11.6000003815,0.002382500688966555,0.015189259446989964,0.003073845731474916,11.6000003815,0.0,0.015558477483797252,0.04688091546056366
1648634285058109658,29786,7,1,0.0342932231724,0.0146502861753,-0.0284106340259,0.0,11.6000003815,0.011469305408829431,0.0048997612626421405,-0.009501884289598661,11.6000003815,0.0,0.016943954483912442,0.04688091473429082
1648634285058130864,29787,7,2,1.3853713274,-0.175803437829,0.166966989636,0.0,11.6000003815,0.46333489210702333,-0.05879713639765886,0.05584180255384615,11.6000003815,0.0,0.657887184657232,1.4064275804898883
1648634285253029591,29788,9,0,0.00714792404324,0.0454158857465,0.00917195435613,0.0,12.3999996185,0.0023906100479063543,0.015189259446989964,0.0030675432629197323,12.3999996185,0.0,0.015560965116286185,0.046880915551831985
1648634285253033512,29789,9,1,0.0342932231724,0.0146502861753,-0.0284106340259,0.0,12.3999996185,0.011469305408829431,0.0048997612626421405,-0.009501884289598661,12.3999996185,0.0,0.016943954483912442,0.04688091473429082
1648634285253035396,29790,9,2,1.05297219753,-0.0,0.232155814767,0.0,12.3999996185,0.3521646145585284,-0.0,0.07764408520635452,12.3999996185,0.0,0.49803597409656436,1.0782609939626338
1648634285253222791,29791,9,3,1.38857769966,-0.219754293561,0.039978351444,0.0,12.3999996185,0.46440725741137123,-0.07349641925117056,0.01337068610167224,12.3999996185,0.0,0.6608705812149963,1.4064274763085836
1648634285253229159,29792,9,4,0.659465014935,0.263705164194,1.21392083168,0.0,12.3999996185,0.22055686118227422,0.0881957070882943,0.40599358919063544,12.3999996185,0.0,0.3241437038999187,1.4064274972896638
1648634285358020005,29793,10,0,0.00711762346327,0.0454158857465,0.00919548794627,0.0,11.5,0.0023804760746722405,0.015189259446989964,0.0030754140288528427,11.5,0.0,0.015557857668462833,0.04688091552512632
1648634285358022980,29794,10,1,0.0342932231724,0.0146502861753,-0.0284106340259,0.0,11.5,0.011469305408829431,0.0048997612626421405,-0.009501884289598661,11.5,0.0,0.016943954483912442,0.04688091473429082
1648634285358030170,29795,10,2,1.06540560722,-0.0673913136125,0.151710033417,0.0,11.5,0.3563229455585284,-0.02253890087374582,0.05073914161103679,11.5,0.0,0.5044205439071733,1.0782609291287626
1648634285358048039,29796,10,3,1.38793611526,-0.219754293561,0.058135651052,0.0,11.5,0.4641926806889632,-0.07349641925117056,0.019443361555852842,11.5,0.0,0.6605690071848325,1.4064275180416352
1648634285358052214,29797,10,4,0.794809222221,0.307656019926,1.11877810955,0.0,11.5,0.2658224823481605,0.10289498994180601,0.37417328078595313,11.5,0.0,0.38975705663733734,1.4064275255883363
1648634285553023074,29798,12,0,0.00702961953357,0.0454158857465,0.00926293712109,0.0,11.5,0.0023510433222642137,0.015189259446989964,0.003097972281301003,11.5,0.0,0.015548903882727559,0.04688091544578835
1648634285553039669,29799,12,1,0.0342932231724,0.0146502861753,-0.0284106340259,0.0,11.5,0.011469305408829431,0.0048997612626421405,-0.009501884289598661,11.5,0.0,0.016943954483912442,0.04688091473429082
1648634285553041429,29800,12,2,0.920455694199,-0.533270418644,0.595071792603,-0.161837622523,11.5,0.30784471377892975,-0.1783513105832776,0.199020666422408,11.5,-0.021869948989594594,0.47047414975749213,1.218903795521147
1648634285553043238,29801,12,3,0.924487948418,-0.338421612978,0.00561881856993,-0.0809188112617,11.5,0.30919329378528426,-0.11318448594581938,0.0018792035350936455,11.5,-0.010934974494824324,0.4516765587258272,0.9844992260143608
1648634285553090311,29802,12,4,0.166131556034,0.061531201005,-0.968428075314,-0.0809188112617,11.5,0.055562393322408025,0.020578996991638794,-0.32388898839933106,11.5,-0.010934974494824324,0.08122717661355602,0.9844992227847487
1648634285657992766,29803,13,0,0.00714792404324,0.0454158857465,0.00917195435613,0.0,12.6000003815,0.0023906100479063543,0.015189259446989964,0.0030675432629197323,12.6000003815,0.0,0.015560965116286185,0.046880915551831985
1648634285657996771,29804,13,1,0.0342932231724,0.0146502861753,-0.0284106340259,0.0,12.6000003815,0.011469305408829431,0.0048997612626421405,-0.009501884289598661,12.6000003815,0.0,0.016943954483912442,0.04688091473429082
1648634285658001775,29805,13,2,1.06750738621,-0.134782627225,0.0700591206551,0.0,12.6000003815,0.35702588167558524,-0.04507780174749164,0.02343114403180602,12.6000003815,0.0,0.5069190947112213,1.0782609408680002
1648634285658009986,29806,13,3,1.39360737801,-0.175803437829,0.0706399008632,0.0,12.6000003815,0.46608942408361204,-0.05879713639765886,0.023625384904080268,12.6000003815,0.0,0.661767183935371,1.4064275197785219
1648634285658037956,29807,13,4,0.911848783493,-0.36918720603,-0.038357488811,-0.0809188112617,12.6000003815,0.3049661483254181,-0.12347398194983276,-0.012828591575585283,12.6000003815,-0.010934974494824324,0.4486140072126922,0.9844992097517336
1648634285658043612,29808,13,5,0.358919769526,-0.0,-0.916741669178,-0.0809188112617,12.6000003815,0.12004005669765887,-0.0,-0.3066025649424749,12.6000003815,-0.010934974494824324,0.16976227620986445,0.9844992071931102
1648634285853050037,29809,15,0,0.00714792404324,0.0454158857465,0.00917195435613,0.0,13.1999998093,0.0023906100479063543,0.015189259446989964,0.0030675432629197323,13.1999998093,0.0,0.015560965116286185,0.046880915551831985
1648634285853150173,29810,15,1,0.0342381596565,0.0146502861753,-0.028476966545,0.0,13.1999998093,0.011450889517224078,0.0048997612626421405,-0.009524069078595317,13.1999998093,0.0,0.016919024850807245,0.046880913870009186
1648634285853154417,29811,15,2,1.06811881065,-0.101086974144,0.107472479343,0.0,13.1999998093,0.3572303714548494,-0.03380835255652174,0.03594397302441471,13.1999998093,0.0,0.5063300122273273,1.078260962764623
1648634285853173753,29812,15,3,1.39445328712,-0.175803437829,0.0513001605868,0.0,13.1999998093,0.4663723368294314,-0.05879713639765886,0.01715724434341137,13.1999998093,0.0,0.6621657015944379,1.406427575521932
1648634285853182158,29813,15,4,0.76505625248,0.307656019926,1.13933098316,0.0,13.1999998093,0.25587165634782605,0.10289498994180601,0.3810471515585284,13.1999998093,0.0,0.3762020574099567,1.4064275257700913
1648634285853190466,29814,15,5,0.874987602234,-0.32230630517,0.0982010960579,-0.0809188112617,13.1999998093,0.29263799405819396,-0.10779475089297658,0.03284317593909699,13.1999998093,-0.010934974494824324,0.42766072937889216,0.9376183198308972
1648634285958178384,29815,16,0,0.00714792404324,0.0454158857465,0.00917195435613,0.0,15.5,0.0023906100479063543,0.015189259446989964,0.0030675432629197323,15.5,0.0,0.015560965116286185,0.046880915551831985
1648634285958187210,29816,16,1,0.0342776104808,0.0146502861753,-0.0284294709563,0.0,15.5,0.011464083772842807,0.0048997612626421405,-0.009508184266321069,15.5,0.0,0.016936885603097283,0.046880915990909794
1648634285958196438,29817,16,2,1.06250751019,-0.0673913136125,0.170830011368,0.0,15.5,0.3553536823377926,-0.02253890087374582,0.05713378306622073,15.5,0.0,0.5030511715070884,1.0782609568859303
1648634285958201468,29818,16,3,1.39335346222,-0.175803437829,0.0754823535681,0.0,15.5,0.46600450241471564,-0.05879713639765886,0.02524493430371237,15.5,0.0,0.6616475616142921,1.4064274972899014
1648634285958352244,29819,16,4,0.755008637905,0.307656019926,1.14601397514,0.0,15.5,0.25251125013545145,0.10289498994180601,0.3832822659331104,15.5,0.0,0.37163320874897793,1.4064274958646306
1648634285958354913,29820,16,5,1.49152827263,-0.73837441206,-0.280217081308,-0.161837622523,15.5,0.4988388871672241,-0.24694796389966553,-0.09371808739397992,15.5,-0.021869948989594594,0.7474381362859802,1.6877129415562224
1648634285958357166,29821,16,6,1.46065282822,-0.843856453896,-0.052671417594,-0.161837622523,15.5,0.4885126515785953,-0.28222623876120395,-0.0176158587270903,15.5,-0.021869948989594594,0.7462847119899992,1.687712854012903
