%time,field.header.seq,field.header.frame_id,field.point_id,field.x,field.y,field.z,field.velocity,field.intensity,normalized_x,normalized_y,normalized_z,normalized_intensity,normalized_velocity,normalized_range,range
1648634236451936866,28322,0,0,0.00711762346327,0.0454158857465,0.00919548794627,0.0,11.3999996185,0.0023804760746722405,0.015189259446989964,0.0030754140288528427,11.3999996185,0.0,0.015557857668462833,0.04688091552512632
1648634236451942208,28323,0,1,0.0341505967081,0.0146502861753,-0.0285819154233,0.0,11.3999996185,0.011421604250200668,0.0048997612626421405,-0.009559169037892976,11.3999996185,0.0,0.016879388250979135,0.04688091327824311
1648634236451966986,28324,0,2,1.02461290359,-0.064461261034,0.0987834110856,0.0,11.3999996185,0.3426799008662207,-0.021558950178595316,0.03303793012896321,11.3999996185,0.0,0.4851018627547917,1.031380152360385
1648634236451968870,28325,0,3,2.17259573936,-0.805765748024,0.353723704815,0.0,11.3999996185,0.7266206486153847,-0.26948687224882945,0.11830224241304346,11.3999996185,0.0,1.0623456632861743,2.344045892622828
1648634236556875892,28326,1,0,0.00709323305637,0.0454158857465,0.00921431556344,0.0,11.3000001907,0.0023723187479498327,0.015189259446989964,0.0030817108907826084,11.3000001907,0.0,0.015555365474064645,0.046880915569491324
1648634236556884777,28327,1,1,0.0342932231724,0.0146502861753,-0.0284106340259,0.0,11.3000001907,0.011469305408829431,0.0048997612626421405,-0.009501884289598661,11.3000001907,0.0,0.016943954483912442,0.04688091473429082
1648634236556892148,28328,1,2,1.00983154774,-0.064461261034,0.199574485421,0.0,11.3000001907,0.3377363035919732,-0.021558950178595316,0.06674731953879598,11.3000001907,0.0,0.47811756907767167,1.0313801356513097
1648634236752032208,28329,3,0,0.00708704302087,0.0454158857465,0.00921907741576,0.0,20.2000007629,0.0023702485019632103,0.015189259446989964,0.0030833034835317723,20.2000007629,0.0,0.015554734278350484,0.046880915576773666
1648634236752035999,28330,3,1,0.034315072,0.0146502861753,-0.0283842384815,0.0,20.2000007629,0.011476612709030101,0.0048997612626421405,-0.009493056348327759,20.2000007629,0.0,0.01695384732080099,0.04688091344628468
1648634236752037656,28331,3,2,1.07476258278,-0.0336956568062,0.0799802914262,0.0,20.2000007629,0.35945236882274245,-0.011269450436856187,0.026749261346555184,20.2000007629,0.0,0.5084673159778419,1.0782610322404114
1648634236752041481,28332,3,3,1.38593614101,-0.219754293561,0.0944847762585,0.0,20.2000007629,0.46352379297993307,-0.07349641925117056,0.031600259618227426,20.2000007629,0.0,0.6596289388434619,1.4064274988213232
1648634236856990066,28333,4,0,0.00708704302087,0.0454158857465,0.00921907741576,0.0,11.6000003815,0.0023702485019632103,0.015189259446989964,0.0030833034835317723,11.6000003815,0.0,0.015554734278350484,0.046880915576773666
1648634236856991994,28334,4,1,0.034253872931,0.0146502861753,-0.028458064422,0.0,11.6000003815,0.011456144792976587,0.0048997612626421405,-0.009517747298327758,11.6000003815,0.0,0.016926138586995487,0.04688091430889529
1648634236857003742,28335,4,2,1.06536078453,-0.0336956568062,0.162842571735,0.0,11.6000003815,0.35630795469230764,-0.011269450436856187,0.05446239857357859,11.6000003815,0.0,0.5040215448442456,1.0782609617672554
1648634236857015753,28336,4,3,1.39103126526,-0.175803437829,0.110289089382,0.0,11.6000003815,0.4652278479130435,-0.05879713639765886,0.036885983070903,11.6000003815,0.0,0.6605535589156785,1.4064275711603647
1648634237052050910,28337,6,0,0.00709323305637,0.0454158857465,0.00921431556344,0.0,11.1999998093,0.0023723187479498327,0.015189259446989964,0.0030817108907826084,11.1999998093,0.0,0.015555365474064645,0.046880915569491324
1648634237052062883,28338,6,1,0.0342932231724,0.0146502861753,-0.0284106340259,0.0,11.1999998093,0.011469305408829431,0.0048997612626421405,-0.009501884289598661,11.1999998093,0.0,0.016943954483912442,0.04688091473429082
1648634237052200713,28339,6,2,1.07091152668,-0.0336956568062,0.121078677475,0.0,11.1999998093,0.3581643901939799,-0.011269450436856187,0.040494540961538456,11.1999998093,0.0,0.5066462881727248,1.0782610729330744
1648634237052206609,28340,6,3,1.39222955704,-0.175803437829,0.0939593538642,0.0,11.1999998093,0.4656286143946488,-0.05879713639765886,0.03142453306494983,11.1999998093,0.0,0.6611180804778568,1.4064275126812855
1648634237052211769,28341,6,4,0.841274678707,-0.461484014988,0.220291003585,0.242756426334,11.1999998093,0.2813627687983277,-0.15434247992909697,0.07367592093143813,11.1999998093,0.03280492247756756,0.42679224037274405,0.9844992165479347
1648634237157107603,28342,7,0,0.00709323305637,0.0454158857465,0.00921431556344,0.0,31.2000007629,0.0023723187479498327,0.015189259446989964,0.0030817108907826084,31.2000007629,0.0,0.015555365474064645,0.046880915569491324
1648634237157109355,28343,7,1,0.0342932231724,0.0146502861753,-0.0284106340259,0.0,31.2000007629,0.011469305408829431,0.0048997612626421405,-0.009501884289598661,31.2000007629,0.0,0.016943954483912442,0.04688091473429082
1648634237157111069,28344,7,2,1.01349806786,-0.096691891551,0.164976790547,0.0,31.2000007629,0.3389625645016722,-0.032338425267892976,0.05517618412943144,31.2000007629,0.0,0.4804550072752991,1.0313801417842272
1648634237157113588,28345,7,3,1.38769543171,-0.219754293561,0.0636209100485,0.0,31.2000007629,0.46411218451839464,-0.07349641925117056,0.021277896337290967,31.2000007629,0.0,0.6604558753464281,1.4064274531317629
1648634237157212333,28346,7,4,0.884852349758,-0.430718421936,-0.0275084711611,-0.0809188112617,31.2000007629,0.2959372407217391,-0.14405298392508362,-0.009200157578963211,31.2000007629,-0.010934974494824324,0.442616044749525,0.984499241164214
1648634237352069367,28347,9,0,0.00711762346327,0.0454158857465,0.00919548794627,0.0,18.5,0.0023804760746722405,0.015189259446989964,0.0030754140288528427,18.5,0.0,0.015557857668462833,0.04688091552512632
1648634237352072047,28348,9,1,0.0342932231724,0.0146502861753,-0.0284106340259,0.0,18.5,0.011469305408829431,0.0048997612626421405,-0.009501884289598661,18.5,0.0,0.016943954483912442,0.04688091473429082
1648634237352074826,28349,9,2,1.02693688869,-0.064461261034,0.0706427842379,0.0,18.5,0.3434571534080268,-0.021558950178595316,0.023626349243444818,18.5,0.0,0.4861999802417652,1.0313801580849196
1648634237352081103,28350,9,3,1.38979423046,-0.175803437829,0.124914601445,0.0,18.5,0.4648141238996655,-0.05879713639765886,0.04177745867725752,18.5,0.0,0.6599707893549471,1.4064275699183948
1648634237456934411,28351,10,0,0.00709323305637,0.0454158857465,0.00921431556344,0.0,11.8000001907,0.0023723187479498327,0.015189259446989964,0.0030817108907826084,11.8000001907,0.0,0.015555365474064645,0.046880915569491324
1648634237456939751,28352,10,1,0.034308873117,0.0146502861753,-0.0283917337656,0.0,11.8000001907,0.011474539504013377,0.0048997612626421405,-0.009495563132307691,11.8000001907,0.0,0.016951040501668787,0.046880915155245236
1648634237456943386,28353,10,2,1.02346169949,-0.064461261034,0.110072605312,0.0,11.8000001907,0.34229488277257525,-0.021558950178595316,0.03681358037190635,11.8000001907,0.0,0.4845579035341238,1.0313801835100498
1648634237456947900,28354,10,3,0.868475675583,-0.461484014988,0.044957742095,-0.161837622523,11.8000001907,0.2904600921682274,-0.15434247992909697,0.015036034145484949,11.8000001907,-0.021869948989594594,0.43881172659286805,0.9844992096203395
1648634237652096703,28355,12,0,0.00709323305637,0.0454158857465,0.00921431556344,0.0,33.5,0.0023723187479498327,0.015189259446989964,0.0030817108907826084,33.5,0.0,0.015555365474064645,0.046880915569491324
1648634237652102830,28356,12,1,0.034308873117,0.0146502861753,-0.0283917337656,0.0,33.5,0.011474539504013377,0.0048997612626421405,-0.009495563132307691,33.5,0.0,0.016951040501668787,0.046880915155245236
1648634237652105599,28357,12,2,1.01990175247,-0.096691891551,0.119147844613,0.0,33.5,0.34110426504013375,-0.032338425267892976,0.039848777462541805,33.5,0.0,0.4834770035957726,1.0313801992761986
1648634237652264892,28358,12,3,1.3933750391,-0.175803437829,0.0750838518143,0.0,33.5,0.46601171876254177,-0.05879713639765886,0.025111656125183943,33.5,0.0,0.6616577266960627,1.4064275427986659
1648634237652268168,28359,12,4,0.64831829071,0.307656019926,1.20957410336,0.0,33.5,0.21682885976923078,0.10289498994180601,0.4045398338996655,33.5,0.0,0.32344533976048234,1.4064275111732534
1648634237652269300,28360,12,5,2.22032475471,-0.747164547443,0.477947324514,0.0,33.5,0.7425835300033444,-0.2498878085093645,0.15984860351638797,33.5,0.0,1.0794927118355495,2.3909267078569796
1648634237757061704,28361,13,0,0.00708704302087,0.0454158857465,0.00921907741576,0.0,11.5,0.0023702485019632103,0.015189259446989964,0.0030833034835317723,11.5,0.0,0.015554734278350484,0.046880915576773666
1648634237757075024,28362,13,1,0.0343307182193,0.0146502861753,-0.0283653140068,0.0,11.5,0.011481845558294313,0.0048997612626421405,-0.00948672709257525,11.5,0.0,0.01696093202863375,0.046880914423414646
1648634237757077112,28363,13,2,1.01733446121,-0.032230630517,0.16654394567,0.0,11.5,0.34024563920066886,-0.010779475089297658,0.05570031627759197,11.5,0.0,0.4813007241562641,1.0313801943746526
1648634237757078997,28364,13,3,1.38953053951,-0.175803437829,0.127814128995,0.0,11.5,0.46472593294648823,-0.05879713639765886,0.04274720033277592,11.5,0.0,0.6598465645546188,1.4064275383233211
1648634237757080760,28365,13,4,0.370640039444,0.307656019926,-1.32136750221,0.0,11.5,0.12395987941270901,0.10289498994180601,-0.4419289305050167,11.5,0.0,0.20327194189841127,1.4064275101591448
1648634237757084362,28366,13,5,2.17317533493,-0.805765748024,0.350145846605,0.0,11.5,0.7268144932876253,-0.26948687224882945,0.11710563431605349,11.5,0.0,1.0626108363932452,2.3440459873755732
1648634237757086509,28367,13,6,0.893976092339,-0.399952799082,0.100415147841,0.161837622523,11.5,0.2989886596451505,-0.13376347795384613,0.03358366148528428,11.5,0.021869948989594594,0.44348743525281115,0.98449921131668
1648634237952067849,28368,15,0,0.00706249661744,0.0454158857465,0.00923789478838,0.0,29.7000007629,0.002362039002488294,0.015189259446989964,0.003089596919190635,29.7000007629,0.0,0.01555223646446149,0.046880915485212865
1648634237952076526,28369,15,1,0.0342063680291,0.0146502861753,-0.0285151451826,0.0,29.7000007629,0.011440256865919733,0.0048997612626421405,-0.009536837853712374,29.7000007629,0.0,0.016904632937373577,0.046880912998204044
1648634237952080655,28370,15,2,1.02260065079,-0.032230630517,0.13036172092,0.0,29.7000007629,0.34200690661872907,-0.010779475089297658,0.043599237765886284,29.7000007629,0.0,0.4837909108623527,1.0313801834536471
1648634237952086784,28371,15,3,1.38657009602,-0.219754293561,0.0846752300858,0.0,29.7000007629,0.4637358180668896,-0.07349641925117056,0.02831947494508361,29.7000007629,0.0,0.6599269213777224,1.40642755778799
1648634237952090444,28372,15,4,0.481021851301,0.307656019926,1.28530311584,0.0,29.7000007629,0.16087687334481604,0.10289498994180601,0.4298672628227424,29.7000007629,0.0,0.24970005148083635,1.4064275123922174
1648634238057014654,28373,16,0,0.00709323305637,0.0454158857465,0.00921431556344,0.0,11.3999996185,0.0023723187479498327,0.015189259446989964,0.0030817108907826084,11.3999996185,0.0,0.015555365474064645,0.046880915569491324
1648634238057019734,28374,16,1,0.034315072,0.0146502861753,-0.0283842384815,0.0,11.3999996185,0.011476612709030101,0.0048997612626421405,-0.009493056348327759,11.3999996185,0.0,0.01695384732080099,0.04688091344628468
1648634238057022720,28375,16,2,1.0116353035,-0.128922522068,-0.15400634706,0.0,11.3999996185,0.33833956638795987,-0.04311790035719063,-0.051507139484949824,11.3999996185,0.0,0.480423227684089,1.031380123387433
1648634238057065869,28376,16,3,2.22037220001,-0.747164547443,0.47772616148,0.0,11.3999996185,0.7425993979966554,-0.2498878085093645,0.1597746359464883,11.3999996185,0.0,1.0795145430477548,2.3909265678592817
