%time,field.header.seq,field.header.frame_id,field.point_id,field.x,field.y,field.z,field.velocity,field.intensity,normalized_x,normalized_y,normalized_z,normalized_intensity,normalized_velocity,normalized_range,range
1648624831748777852,30252,0,0,0.00670725526288,0.0454158857465,0.00949896220118,0.0,18.2000007629,0.002243229184909699,0.015189259446989964,0.0031769104351772573,18.2000007629,0.0,0.015517015077006115,0.046880915458211984
1648624831748783321,30253,0,1,0.0344334580004,0.0146502861753,-0.0282405056059,0.0,18.2000007629,0.011516206689096989,0.0048997612626421405,-0.009444985152474916,18.2000007629,0.0,0.017007459935066523,0.04688091372574095
1648624831748785350,30254,0,2,0.765073478222,-0.316446185112,0.163150593638,0.0,18.2000007629,0.2558774174655518,-0.10583484451906354,0.05456541593244146,18.2000007629,0.0,0.3770245613379252,0.8438564637158852
1648624831748885565,30255,0,3,1.2898157835,-1.34782636166,0.190398722887,0.0,18.2000007629,0.43137651622073575,-0.45077804737792637,0.06367850263779264,18.2000007629,0.0,0.7585329561010078,1.8752366064655286
1648624831748907023,30256,0,4,2.58556556702,-0.594801604748,0.595423877239,0.0,18.2000007629,0.864737647832776,-0.19893030259130434,0.1991384204812709,18.2000007629,0.0,1.2389978468293608,2.719093202513767
1648624831853783765,30257,1,0,0.00686878943816,0.0454158857465,0.00938281882554,0.0,12.1999998093,0.0022972539926956518,0.015189259446989964,0.00313806649683612,12.1999998093,0.0,0.015532815403586244,0.04688091547312005
1648624831853788033,30258,1,1,0.0321876145899,0.0161153152585,-0.0300345532596,0.0,12.1999998093,0.010765088491605351,0.005389737544648829,-0.010045001090167224,12.1999998093,0.0,0.016150031927658383,0.04688091624928565
1648624831853793182,30259,1,2,0.695560872555,-0.843856453896,0.264661759138,0.0,12.1999998093,0.23262905436622072,-0.28222623876120395,0.0885156385076923,12.1999998093,0.0,0.43345611509810333,1.1251419861339393
1648624831853797189,30260,1,3,1.2878152132,-1.34782636166,0.203490898013,0.0,12.1999998093,0.43070742916387955,-0.45077804737792637,0.06805715652608695,12.1999998093,0.0,0.757772147199785,1.8752366437623629
1648624831853801732,30261,1,4,2.58501005173,-0.594801604748,0.597831010818,0.0,12.1999998093,0.8645518567658862,-0.19893030259130434,0.19994348187892977,12.1999998093,0.0,1.2387385080652618,2.7190932006923934
1648624831853816703,30262,1,5,0.727321743965,-0.34281668067,0.256073236465,0.0809188112617,12.1999998093,0.2432514193862876,-0.1146544082508361,0.08564322289799331,12.1999998093,0.010934974494824324,0.36261293330249067,0.8438564440848607
1648624831853872559,30263,1,6,0.662243783474,-0.0263705141842,-0.522332727909,0.0809188112617,12.1999998093,0.22148621520869566,-0.008819569961270902,-0.17469322003645482,12.1999998093,0.010934974494824324,0.31335295095027754,0.8438564518999394
1648624831853882900,30264,1,7,0.727852404118,-0.34281668067,0.254561036825,-0.161837622523,12.1999998093,0.24342889769832773,-0.1146544082508361,0.08513747051003343,12.1999998093,-0.021869948989594594,0.36285105732324274,0.8438564571035575
1648624832049302631,30265,3,0,0.00680970214307,0.0454158857465,0.00942579004914,0.0,28.2000007629,0.002277492355541806,0.015189259446989964,0.0031524381435250833,28.2000007629,0.0,0.015526994087944924,0.046880915514385384
1648624832049336771,30266,3,1,0.0344334580004,0.0146502861753,-0.0282405056059,0.0,28.2000007629,0.011516206689096989,0.0048997612626421405,-0.009444985152474916,28.2000007629,0.0,0.017007459935066523,0.04688091372574095
1648624832049347660,30267,3,2,0.741592109203,-0.34281668067,0.211214527488,0.0,28.2000007629,0.24802411679030098,-0.1146544082508361,0.07064031019665551,28.2000007629,0.0,0.36902243610730107,0.8438564508254529
1648624832049364700,30268,3,3,0.60710054636,-0.0263705141842,-0.585514485836,0.0,28.2000007629,0.20304366098996654,-0.008819569961270902,-0.19582424275451502,28.2000007629,0.0,0.2872825113903015,0.8438564395279241
1648624832049384801,30269,3,4,1.29607439041,-1.34782636166,0.141660422087,0.0,28.2000007629,0.43346969578929767,-0.45077804737792637,0.047378067587625416,28.2000007629,0.0,0.7609157655964216,1.8752366255617323
1648624832049475987,30270,3,5,2.59240078926,-0.594801604748,0.564921438694,0.0,28.2000007629,0.8670236753377926,-0.19893030259130434,0.1889369360180602,28.2000007629,0.0,1.2421889439540088,2.7190930534026903
1648624832154158165,30271,4,0,0.0068351640366,0.0454158857465,0.00940734241158,0.0,12.8000001907,0.0022860080389966553,0.015189259446989964,0.003146268365076923,12.8000001907,0.0,0.015529496709703394,0.04688091548588917
1648624832154199066,30272,4,1,0.0344176255167,0.0146502861753,-0.0282597988844,0.0,12.8000001907,0.011510911544046824,0.0048997612626421405,-0.009451437753979932,12.8000001907,0.0,0.01700028910285438,0.04688091364524289
1648624832154325933,30273,4,2,0.697009980679,-0.879017174244,0.0863157957792,0.0,12.8000001907,0.23311370591270902,-0.29398567700468226,0.028868159123478256,12.8000001907,0.0,0.4417143625156594,1.125142000986117
1648624832154346114,30274,4,3,1.01027202606,-0.175803437829,0.463020563126,0.0,12.8000001907,0.3378836207558528,-0.05879713639765886,0.15485637562742474,12.8000001907,0.0,0.4814434396673558,1.1251419720503677
1648624832154362499,30275,4,4,1.29470407963,-1.34782636166,0.153681352735,0.0,12.8000001907,0.43301139786956516,-0.45077804737792637,0.051398445730769224,12.8000001907,0.0,0.7603937068175707,1.875236655245054
1648624832154386006,30276,4,5,2.58452129364,-0.594801604748,0.599939763546,0.0,12.8000001907,0.864388392521739,-0.19893030259130434,0.20064875034983276,12.8000001907,0.0,1.2385103356620404,2.719093044780374
1648624832154434778,30277,4,6,0.763415813446,-0.34281668067,0.108474873006,-0.0809188112617,12.8000001907,0.25532301453043477,-0.1146544082508361,0.036279221741137124,12.8000001907,-0.010934974494824324,0.37884735293936866,0.8438564918507663
1648624832349280120,30278,6,0,0.00680970214307,0.0454158857465,0.00942579004914,0.0,20.2999992371,0.002277492355541806,0.015189259446989964,0.0031524381435250833,20.2999992371,0.0,0.015526994087944924,0.046880915514385384
1648624832349307272,30279,6,1,0.0343963243067,0.0146502861753,-0.0282857250422,0.0,20.2999992371,0.01150378739354515,0.0048997612626421405,-0.009460108709765887,20.2999992371,0.0,0.016990641813147175,0.04688091564797777
1648624832349315849,30280,6,2,0.746210634708,-0.34281668067,0.194268360734,0.0,20.2999992371,0.24956877414983275,-0.1146544082508361,0.06497269589765886,20.2999992371,0.0,0.37109941982257244,0.8438564948373559
1648624832349330719,30281,6,3,1.06494438648,-0.168478280306,-0.0124599514529,0.0,20.2999992371,0.3561686911304347,-0.05634725093846154,-0.004167207843779264,20.2999992371,0.0,0.5068404934212103,1.0782609738000997
1648624832349414635,30282,6,4,0.800873398781,-0.707608819008,0.143311947584,0.0,20.2999992371,0.2678506350438127,-0.23665846789565215,0.04793041725217391,20.2999992371,0.0,0.44664880590175643,1.0782609869290674
1648624832349447179,30283,6,5,1.28773796558,-1.34782636166,0.203979119658,0.0,20.2999992371,0.43068159383946486,-0.45077804737792637,0.06822044135719063,20.2999992371,0.0,0.7577427786142601,1.8752366385174442
