%time,field.header.seq,field.header.frame_id,field.point_id,field.x,field.y,field.z,field.velocity,field.intensity,normalized_x,normalized_y,normalized_z,normalized_intensity,normalized_velocity,normalized_range,range
1648624709048131564,26170,0,0,0.00674108136445,0.0454158857465,0.00947498716414,0.0,17.2999992371,0.0022545422623578594,0.015189259446989964,0.003168892028140468,17.2999992371,0.0,0.015520293946104541,0.046880915497267056
1648624709048143176,26171,0,1,0.0321367681026,0.0161153152585,-0.0300889536738,0.0,17.2999992371,0.010748082977458193,0.005389737544648829,-0.010063195208628762,17.2999992371,0.0,0.016127363274287907,0.046880917046760236
1648624709048149210,26172,0,2,1.02661538124,-0.096691891551,0.0213634315878,0.0,17.2999992371,0.3433496258327759,-0.032338425267892976,0.007144960397257524,17.2999992371,0.0,0.486645358415984,1.0313800749963458
1648624709048278509,26173,0,3,0.761473894119,-0.808695793152,0.179201155901,0.0,17.2999992371,0.254673543183612,-0.2704668204521739,0.05993349695685618,17.2999992371,0.0,0.45041039970331354,1.1251419606266362
1648624709048282293,26174,0,4,0.911517322063,-0.140642747283,0.644437909126,0.0,17.2999992371,0.3048552916598662,-0.047037708121404675,0.2155310732862876,17.2999992371,0.0,0.4336888789113212,1.1251419597112637
1648624709048285377,26175,0,5,0.781453430653,-0.290075659752,0.131454914808,0.0809188112617,17.2999992371,0.2613556624257525,-0.09701527082006689,0.043964854450836116,17.2999992371,0.010934974494824324,0.3821328660770998,0.8438564731558796
1648624709153054623,26176,1,0,0.0069007538259,0.0454158857465,0.00935933552682,0.0,24.6000003815,0.002307944423377926,0.015189259446989964,0.00313021255077592,24.6000003815,0.0,0.015535984599335069,0.046880915552156295
1648624709153057426,26177,1,1,0.0322126448154,0.0161153152585,-0.0300077050924,0.0,24.6000003815,0.010773459804481605,0.005389737544648829,-0.010036021770033444,24.6000003815,0.0,0.01616119250296088,0.046880915485903306
1648624709153061067,26178,1,2,0.79350066185,-0.263705134392,0.113622508943,0.0,24.6000003815,0.26538483673913044,-0.08819569712107023,0.03800083911137123,24.6000003815,0.0,0.3855343099294554,0.8438564882724983
1648624709153064781,26179,1,3,1.02173399925,-0.096691891551,0.102250821888,0.0,24.6000003815,0.3417170566053512,-0.032338425267892976,0.034197599293645485,24.6000003815,0.0,0.48434168445309006,1.0313801034012053
1648624709348051361,26180,3,0,0.00680844113231,0.0454158857465,0.00942670088261,0.0,16.1000003815,0.002277070612812709,0.015189259446989964,0.003152742770103679,16.1000003815,0.0,0.015526870376848143,0.0468809155021686
1648624709348053943,26181,3,1,0.034370675683,0.0146502861753,-0.0283168815076,0.0,16.1000003815,0.011495209258528427,0.0048997612626421405,-0.009470528932307692,16.1000003815,0.0,0.016979026244917695,0.046880913069602355
1648624709348057915,26182,3,2,1.01782155037,-0.096691891551,0.13577516377,0.0,16.1000003815,0.3404085452742475,-0.032338425267892976,0.04540975376923077,16.1000003815,0.0,0.4824953151485162,1.0313801071312512
1648624709348066317,26183,3,3,0.776564180851,-0.290075659752,0.15779055655,-0.161837622523,16.1000003815,0.2597204618230769,-0.09701527082006689,0.05277276138795986,16.1000003815,-0.021869948989594594,0.37989656401641175,0.8438564303823852
1648624709453120078,26184,4,0,0.00687576876953,0.0454158857465,0.00937770586461,0.0,37.5,0.0022995882172341135,0.015189259446989964,0.003136356476458194,37.5,0.0,0.015533506187775437,0.04688091553707464
1648624709453138336,26185,4,1,0.0322296023369,0.0161153152585,-0.0299894902855,0.0,37.5,0.010779131216354513,0.005389737544648829,-0.010029929861371236,37.5,0.0,0.01616875413750156,0.046880914882920656
1648624709453142869,26186,4,2,0.764203131199,-0.316446185112,0.167179867625,0.0,37.5,0.25558633150468224,-0.10583484451906354,0.05591299920568562,37.5,0.0,0.376629473114382,0.8438564581404865
1648624709453145414,26187,4,3,0.359086632729,-0.0263705141842,0.763187468052,0.0,37.5,0.1200958637889632,-0.008819569961270902,0.2552466448334448,37.5,0.0,0.1700700379629997,0.8438564600775498
1648624709453149823,26188,4,4,1.00225579739,-0.096691891551,0.223335951567,0.0,37.5,0.3352026078227424,-0.032338425267892976,0.07469429818294314,37.5,0.0,0.4751498188268008,1.0313801203028456
