%time,field.header.seq,field.header.frame_id,field.point_id,field.x,field.y,field.z,field.velocity,field.intensity,normalized_x,normalized_y,normalized_z,normalized_intensity,normalized_velocity,normalized_range,range
1648624741948152014,27233,0,0,0.0069007538259,0.0454158857465,0.00935933552682,0.0,39.5999984741,0.002307944423377926,0.015189259446989964,0.00313021255077592,39.5999984741,0.0,0.015535984599335069,0.046880915552156295
1648624741948156047,27234,0,1,0.0344214998186,0.0146502861753,-0.0282550826669,0.0,39.5999984741,0.011512207297190635,0.0048997612626421405,-0.009449860423712375,39.5999984741,0.0,0.017002043822372272,0.04688091542721216
1648624741948159980,27235,0,2,1.01715481281,-0.128922522068,0.111893326044,0.0,39.5999984741,0.34018555612374585,-0.04311790035719063,0.037422517071571904,39.5999984741,0.0,0.48302337264531736,1.0313801657643555
1648624742053414367,27236,1,0,0.00677556637675,0.0454158857465,0.00945035740733,0.0,17.2999992371,0.0022660757112876254,0.015189259446989964,0.0031606546512809365,17.2999992371,0.0,0.015523652946602141,0.046880915445319145
1648624742053417365,27237,1,1,0.0344546698034,0.0146502861753,-0.0282146241516,0.0,17.2999992371,0.011523300937591973,0.0048997612626421405,-0.009436329147692307,17.2999992371,0.0,0.01701706759190621,0.046880914797981066
1648624742053419508,27238,1,2,0.748822927475,-0.0263705141842,-0.388152748346,0.0,17.2999992371,0.2504424506605351,-0.008819569961270902,-0.1298169726909699,17.2999992371,0.0,0.35428890329787477,0.8438564669297269
1648624742053421324,27239,1,3,0.755384087563,-0.316446185112,0.203347936273,0.0,17.2999992371,0.2526368185829431,-0.10583484451906354,0.06800934323511705,17.2999992371,0.0,0.37262815046879666,0.8438564398058549
1648624742053422820,27240,1,4,1.01646983624,-0.128922522068,0.117953360081,0.0,17.2999992371,0.3399564669698996,-0.04311790035719063,0.03944928430802676,17.2999992371,0.0,0.4827006859333489,1.0313801141366574
1648624742053423855,27241,1,5,2.12486076355,-0.952268660069,0.269634574652,0.0,17.2999992371,0.7106557737625417,-0.3184845016953177,0.0901787875090301,17.2999992371,0.0,1.0542749334894521,2.3440460040860254
1648624742248258466,27242,3,0,0.00677556637675,0.0454158857465,0.00945035740733,0.0,12.3000001907,0.0022660757112876254,0.015189259446989964,0.0031606546512809365,12.3000001907,0.0,0.015523652946602141,0.046880915445319145
1648624742248260876,27243,3,1,0.0321367681026,0.0161153152585,-0.0300889536738,0.0,12.3000001907,0.010748082977458193,0.005389737544648829,-0.010063195208628762,12.3000001907,0.0,0.016127363274287907,0.046880917046760236
1648624742248263370,27244,3,2,1.05115890503,-0.101086974144,0.217929363251,0.0,12.3000001907,0.35155816221739133,-0.03380835255652174,0.07288607466588629,12.3000001907,0.0,0.4983264868998289,1.0782610200375624
1648624742248267989,27245,3,3,0.749561667442,-0.775000095367,0.0133767686784,0.0,12.3000001907,0.250689520883612,-0.25919735631003343,0.004473835678394648,12.3000001907,0.0,0.43917393055578824,1.078260997652037
1648624742353184794,27246,4,0,0.00677556637675,0.0454158857465,0.00945035740733,0.0,12.1000003815,0.0022660757112876254,0.015189259446989964,0.0031606546512809365,12.1000003815,0.0,0.015523652946602141,0.046880915445319145
1648624742353189827,27247,4,1,0.0344002954662,0.0146502861753,-0.0282808933407,0.0,12.1000003815,0.011505115540535116,0.0048997612626421405,-0.009458492756086956,12.1000003815,0.0,0.01699244030835518,0.04688091446770313
1648624742353212276,27248,4,2,1.01170611382,-0.064461261034,0.189843595028,0.0,12.1000003815,0.3383632487692308,-0.021558950178595316,0.06349284114648829,12.1000003815,0.0,0.4790033032956452,1.0313801944423868
1648624742353218368,27249,4,3,1.05146729946,-0.293005734682,0.426851063967,-0.566431701183,12.1000003815,0.3516613041672241,-0.09799522899063544,0.14275955316622074,12.1000003815,-0.07654482448418919,0.5068869801071171,1.1720228978991851
