%time,field.header.seq,field.header.frame_id,field.point_id,field.x,field.y,field.z,field.velocity,field.intensity,normalized_x,normalized_y,normalized_z,normalized_intensity,normalized_velocity,normalized_range,range
1648624788248171399,28754,0,0,0.00680970214307,0.0454158857465,0.00942579004914,0.0,21.7000007629,0.002277492355541806,0.015189259446989964,0.0031524381435250833,21.7000007629,0.0,0.015526994087944924,0.046880915514385384
1648624788248175979,28755,0,1,0.0322126448154,0.0161153152585,-0.0300077050924,0.0,21.7000007629,0.010773459804481605,0.005389737544648829,-0.010036021770033444,21.7000007629,0.0,0.01616119250296088,0.046880915485903306
1648624788248181098,28756,0,2,0.768525719643,-0.290075659752,0.193178847432,0.161837622523,21.7000007629,0.2570320132585284,-0.09701527082006689,0.06460831017792643,21.7000007629,0.021869948989594594,0.3762218420716102,0.8438564671959947
1648624788353338682,28757,1,0,0.00694215111434,0.0454158857465,0.00932867079973,0.0,41.2000007629,0.0023217896703478257,0.015189259446989964,0.0031199567892073576,41.2000007629,0.0,0.015540109944741112,0.04688091551071938
1648624788353343396,28758,1,1,0.0344176255167,0.0146502861753,-0.0282597988844,0.0,41.2000007629,0.011510911544046824,0.0048997612626421405,-0.009451437753979932,41.2000007629,0.0,0.01700028910285438,0.04688091364524289
1648624788353350926,28759,1,2,0.776823878288,-0.316446185112,0.0921963229775,0.0,41.2000007629,0.25980731715317723,-0.10583484451906354,0.030834890627926416,41.2000007629,0.0,0.38236199916706887,0.8438564379803707
1648624788353353770,28760,1,3,0.238730207086,-0.0,0.809383451939,0.0,41.2000007629,0.07984287862408027,-0.0,0.27069680666856183,41.2000007629,0.0,0.1129148818090832,0.8438564356856064
1648624788353359434,28761,1,4,1.0721963644,-0.101086974144,0.0531318001449,0.0,41.2000007629,0.3585941018060201,-0.03380835255652174,0.01776983282438127,41.2000007629,0.0,0.5082543304318407,1.0782609184983034
1648624788353364495,28762,1,5,0.749614477158,-0.741304457188,0.22625772655,0.0,41.2000007629,0.2507071829959866,-0.24792791210301002,0.07567148045150501,41.2000007629,0.0,0.43263891735640714,1.0782609709320057
1648624788548576965,28763,3,0,0.00674192188308,0.0454158857465,0.00947438925505,0.0,11.8000001907,0.0022548233722675583,0.015189259446989964,0.0031686920585451504,11.8000001907,0.0,0.015520375621363743,0.046880915526180816
1648624788548585693,28764,3,1,0.0344176255167,0.0146502861753,-0.0282597988844,0.0,11.8000001907,0.011510911544046824,0.0048997612626421405,-0.009451437753979932,11.8000001907,0.0,0.01700028910285438,0.04688091364524289
1648624788548624367,28765,3,2,1.05269062519,-0.168478280306,0.161568105221,0.0,11.8000001907,0.3520704432073578,-0.05634725093846154,0.05403615559230769,11.8000001907,0.0,0.5010810380056031,1.0782609776498842
1648624788548779078,28766,3,3,0.761955678463,-0.290075659752,0.217654243112,-0.0809188112617,11.8000001907,0.25483467507123747,-0.09701527082006689,0.07279406124147156,11.8000001907,-0.010934974494824324,0.373220291529838,0.8438564533540206
1648624788548821056,28767,3,4,0.527614533901,-0.0,-0.658571660519,-0.0809188112617,11.8000001907,0.17645971033478258,-0.0,-0.2202580804411371,11.8000001907,-0.010934974494824324,0.24955171556787734,0.8438564619781745
1648624788653609021,28768,4,0,0.00680970214307,0.0454158857465,0.00942579004914,0.0,22.3999996185,0.002277492355541806,0.015189259446989964,0.0031524381435250833,22.3999996185,0.0,0.015526994087944924,0.046880915514385384
1648624788653618694,28769,4,1,0.0322126448154,0.0161153152585,-0.0300077050924,0.0,22.3999996185,0.010773459804481605,0.005389737544648829,-0.010036021770033444,22.3999996185,0.0,0.01616119250296088,0.046880915485903306
1648624788653620710,28770,4,2,1.05731117725,-0.168478280306,0.127886041999,0.0,22.3999996185,0.35361577834448155,-0.05634725093846154,0.04277125150468227,22.3999996185,0.0,0.5032526702131535,1.078260959235202
1648624788653631954,28771,4,3,0.725744128227,-0.273960351944,0.182787388563,0.161837622523,22.3999996185,0.24272378870468225,-0.09162553576722407,0.06113290587391304,22.3999996185,0.021869948989594594,0.3552814574544263,0.796975560171659
1648624788848534633,28772,6,0,0.00680970214307,0.0454158857465,0.00942579004914,0.0,41.2999992371,0.002277492355541806,0.015189259446989964,0.0031524381435250833,41.2999992371,0.0,0.015526994087944924,0.046880915514385384
1648624788848540977,28773,6,1,0.0345020703971,0.0146502861753,-0.0281566400081,0.0,41.2999992371,0.01153915397896321,0.0048997612626421405,-0.009416936457558528,41.2999992371,0.0,0.017038538949432653,0.04688091427489835
1648624788848662342,28774,6,2,1.06970393658,-0.134782627225,0.0146262021735,0.0,41.2999992371,0.3577605139063545,-0.04507780174749164,0.004891706412541805,41.2999992371,0.0,0.5079539140822363,1.0782610047323617
1648624788848665461,28775,6,3,0.672805726528,-0.775000095367,0.330687224865,0.0,41.2999992371,0.22501863763478258,-0.25919735631003343,0.11059773406856187,41.2999992371,0.0,0.41042666102988196,1.0782609768310472
1648624788848672803,28776,6,4,0.780800223351,-0.290075659752,0.135280832648,-0.0809188112617,41.2999992371,0.2611371984451505,-0.09701527082006689,0.045244425634782606,41.2999992371,-0.010934974494824324,0.38183404195521214,0.8438564930410062
