%time,field.header.seq,field.header.frame_id,field.point_id,field.x,field.y,field.z,field.velocity,field.intensity,normalized_x,normalized_y,normalized_z,normalized_intensity,normalized_velocity,normalized_range,range
1648634239751998385,28425,0,0,0.00709323305637,0.0454158857465,0.00921431556344,0.0,18.2999992371,0.0023723187479498327,0.015189259446989964,0.0030817108907826084,18.2999992371,0.0,0.015555365474064645,0.046880915569491324
1648634239752003655,28426,0,1,0.034308873117,0.0146502861753,-0.0283917337656,0.0,18.2999992371,0.011474539504013377,0.0048997612626421405,-0.009495563132307691,18.2999992371,0.0,0.016951040501668787,0.046880915155245236
1648634239752007831,28427,0,2,1.00285661221,-0.032230630517,0.23871485889,0.0,18.2999992371,0.3354035492341137,-0.010779475089297658,0.07983774544816052,18.2999992371,0.0,0.4744547172922637,1.0313801346020361
1648634239752017508,28428,0,3,1.39526045322,-0.175803437829,0.0194840263575,0.0,18.2999992371,0.46664229204682267,-0.05879713639765886,0.006516396775083612,18.2999992371,0.0,0.6625459687463121,1.4064274628843374
1648634239752027127,28429,0,4,2.1923251152,-0.821880996227,0.484512120485,0.0,18.2999992371,0.7332191020735785,-0.2748765873668896,0.16204418745317722,18.2999992371,0.0,1.0727430454557312,2.3909265521116807
1648634239857165713,28430,1,0,0.00711762346327,0.0454158857465,0.00919548794627,0.0,11.3000001907,0.0023804760746722405,0.015189259446989964,0.0030754140288528427,11.3000001907,0.0,0.015557857668462833,0.04688091552512632
1648634239857169569,28431,1,1,0.034275803715,0.0146502861753,-0.0284316446632,0.0,11.3000001907,0.01146347950334448,0.0048997612626421405,-0.009508911258595317,11.3000001907,0.0,0.01693606758011099,0.04688091321190174
1648634239857172206,28432,1,2,1.06157457829,-0.0673913136125,0.176535159349,0.0,11.3000001907,0.35504166497993306,-0.02253890087374582,0.05904185931404682,11.3000001907,0.0,0.5026103558384393,1.0782610244780186
1648634239857177256,28433,1,3,1.39368903637,-0.175803437829,0.0690093711019,0.0,11.3000001907,0.46611673457190633,-0.05879713639765886,0.02308005722471572,11.3000001907,0.0,0.6618056540590439,1.4064274855641559
1648634239857180870,28434,1,4,0.815727472305,-0.49224960804,0.248027577996,-0.323675245047,11.3000001907,0.27281855261036786,-0.16463197593311035,0.08295236722274248,11.3000001907,-0.04373989797932432,0.4194801697297172,0.9844991950911894
1648634239857278900,28435,1,5,0.833396911621,-0.769140064716,0.295822411776,-0.323675245047,11.3000001907,0.27872806408729095,-0.2572374798381271,0.09893726146354515,11.3000001907,-0.04373989797932432,0.4706907567109947,1.1720229309871557
1648634239857338581,28436,1,6,1.23924231529,-0.68563336134,-0.91791087389,-0.161837622523,11.3000001907,0.4144623128060201,-0.2293088165016722,-0.3069936033076923,11.3000001907,-0.021869948989594594,0.629396973934915,1.6877129479248567
1648634240052183164,28437,3,0,0.00706249661744,0.0454158857465,0.00923789478838,0.0,13.5,0.002362039002488294,0.015189259446989964,0.003089596919190635,13.5,0.0,0.01555223646446149,0.046880915485212865
1648634240052189247,28438,3,1,0.034308873117,0.0146502861753,-0.0283917337656,0.0,13.5,0.011474539504013377,0.0048997612626421405,-0.009495563132307691,13.5,0.0,0.016951040501668787,0.046880915155245236
1648634240052191153,28439,3,2,1.06334841251,-0.0336956568062,0.175503671169,0.0,13.5,0.3556349205719063,-0.011269450436856187,0.058696879989632106,13.5,0.0,0.5030699692622498,1.0782609991411793
1648634240052365499,28440,3,3,1.38547050953,-0.175803437829,0.166141211987,0.0,13.5,0.4633680633879598,-0.05879713639765886,0.05556562273812708,13.5,0.0,0.6579339082190411,1.4064274897236337
1648634240052389283,28441,3,4,0.850217759609,-0.430718421936,-0.24667827785,0.161837622523,13.5,0.2843537657555184,-0.14405298392508362,-0.082501096270903,13.5,0.021869948989594594,0.42715967784472453,0.9844992486094782
1648634240157163815,28442,4,0,0.00706249661744,0.0454158857465,0.00923789478838,0.0,32.7999992371,0.002362039002488294,0.015189259446989964,0.003089596919190635,32.7999992371,0.0,0.01555223646446149,0.046880915485212865
1648634240157170760,28443,4,1,0.034253872931,0.0146502861753,-0.028458064422,0.0,32.7999992371,0.011456144792976587,0.0048997612626421405,-0.009517747298327758,32.7999992371,0.0,0.016926138586995487,0.04688091430889529
1648634240157173041,28444,4,2,1.01641511917,-0.032230630517,0.172065451741,0.0,32.7999992371,0.33993816694648826,-0.010779475089297658,0.0575469738264214,32.7999992371,0.0,0.48086600189353984,1.0313801567335503
1648634240157174806,28445,4,3,0.38534578681,0.934688270092,0.203988969326,0.0,32.7999992371,0.12887818956856187,0.31260477260602004,0.06822373556053511,32.7999992371,0.0,0.36185759540045837,1.0313801613694522
1648634240157176510,28446,4,4,1.39278054237,-0.175803437829,0.0854043215513,0.0,32.7999992371,0.4658128904247491,-0.05879713639765886,0.028563318244581935,32.7999992371,0.0,0.6613776538561638,1.406427526073279
1648634240157182786,28447,4,5,0.882817149162,-0.430718421936,-0.065987162292,-0.0809188112617,32.7999992371,0.2952565716260869,-0.14405298392508362,-0.022069285047491637,32.7999992371,-0.010934974494824324,0.44170595236480753,0.9844992551733647
1648634240352267221,28448,6,0,0.00706249661744,0.0454158857465,0.00923789478838,0.0,16.0,0.002362039002488294,0.015189259446989964,0.003089596919190635,16.0,0.0,0.01555223646446149,0.046880915485212865
1648634240352273316,28449,6,1,0.0342063680291,0.0146502861753,-0.0285151451826,0.0,16.0,0.011440256865919733,0.0048997612626421405,-0.009536837853712374,16.0,0.0,0.016904632937373577,0.046880912998204044
1648634240352396981,28450,6,2,1.01490437984,-0.064461261034,0.17192697525,0.0,16.0,0.3394329029565217,-0.021558950178595316,0.05750066061872909,16.0,0.0,0.4805144946323535,1.0313801623121914
1648634240352401268,28451,6,3,1.39431262016,-0.175803437829,0.0549912154675,0.0,16.0,0.46632529102341136,-0.05879713639765886,0.01839171085869565,16.0,0.0,0.6620994316148471,1.406427589770811
1648634240457132301,28452,7,0,0.00706249661744,0.0454158857465,0.00923789478838,0.0,11.8000001907,0.002362039002488294,0.015189259446989964,0.003089596919190635,11.8000001907,0.0,0.01555223646446149,0.046880915485212865
1648634240457141520,28453,7,1,0.034308873117,0.0146502861753,-0.0283917337656,0.0,11.8000001907,0.011474539504013377,0.0048997612626421405,-0.009495563132307691,11.8000001907,0.0,0.016951040501668787,0.046880915155245236
1648634240457145892,28454,7,2,0.942530572414,-0.354536950588,-0.222900658846,0.0,11.8000001907,0.3152276161919732,-0.11857423096588628,-0.07454871533311036,11.8000001907,0.0,0.4612989792632315,1.0313801592920435
1648634240457174394,28455,7,3,0.831684589386,0.032230630517,0.609103381634,0.0,11.8000001907,0.2781553810655518,0.010779475089297658,0.2037135055632107,11.8000001907,0.0,0.3935187786048405,1.0313801429558633
1648634240457192282,28456,7,4,1.11033654213,0.0703213736415,-0.167786225677,0.0,11.8000001907,0.371350014090301,0.023518854060702338,-0.05611579454080267,11.8000001907,0.0,0.5256945904477829,1.1251420132174275
1648634240457275672,28457,7,5,1.38792061806,-0.219754293561,0.0585042238235,0.0,11.8000001907,0.46418749767892975,-0.07349641925117056,0.019566630041304347,11.8000001907,0.0,0.6605617228129379,1.4064275081850957
1648634240457284868,28458,7,6,0.69640237093,0.263705164194,1.1931142807,0.0,11.8000001907,0.23291049194983277,0.0881957070882943,0.3990348764882943,11.8000001907,0.0,0.3409883828951221,1.4064275177447958
1648634240457515144,28459,7,7,0.884670615196,-0.430718421936,-0.0328365154564,0.0809188112617,11.8000001907,0.29587645993177253,-0.14405298392508362,-0.010982112192775919,11.8000001907,0.010934974494824324,0.44253476842078293,0.9844992093108179
1648634240652255506,28460,9,0,0.00709323305637,0.0454158857465,0.00921431556344,0.0,17.0,0.0023723187479498327,0.015189259446989964,0.0030817108907826084,17.0,0.0,0.015555365474064645,0.046880915569491324
1648634240652263365,28461,9,1,0.034308873117,0.0146502861753,-0.0283917337656,0.0,17.0,0.011474539504013377,0.0048997612626421405,-0.009495563132307691,17.0,0.0,0.016951040501668787,0.046880915155245236
1648634240652288886,28462,9,2,1.0186624527,-0.064461261034,0.1480422616,0.0,17.0,0.3406897835117057,-0.021558950178595316,0.049512462073578595,17.0,0.0,0.482290208807217,1.0313801229103245
1648634240757179988,28463,10,0,0.00706249661744,0.0454158857465,0.00923789478838,0.0,17.7000007629,0.002362039002488294,0.015189259446989964,0.003089596919190635,17.7000007629,0.0,0.01555223646446149,0.046880915485212865
1648634240757181802,28464,10,1,0.0342932231724,0.0146502861753,-0.0284106340259,0.0,17.7000007629,0.011469305408829431,0.0048997612626421405,-0.009501884289598661,17.7000007629,0.0,0.016943954483912442,0.04688091473429082
1648634240757183614,28465,10,2,1.0569204092,-0.0673913136125,0.202544853091,0.0,17.7000007629,0.35348508668896317,-0.02253890087374582,0.06774075354214047,17.7000007629,0.0,0.5004112459523709,1.0782609879094989
1648634240757185626,28466,10,3,1.34655332565,-0.169943317771,0.0792482495308,0.0,17.7000007629,0.4503522828260869,-0.05683723002374581,0.02650443128120401,17.7000007629,0.0,0.6394253889314279,1.3595465696796805
1648634240757276274,28467,10,4,0.885277986526,-0.430718421936,-0.00179721321911,-0.0809188112617,17.7000007629,0.29607959415585283,-0.14405298392508362,-0.0006010746552207358,17.7000007629,-0.010934974494824324,0.44280640728055126,0.9844992140158983
1648634240952168814,28468,12,0,0.00709323305637,0.0454158857465,0.00921431556344,0.0,18.0,0.0023723187479498327,0.015189259446989964,0.0030817108907826084,18.0,0.0,0.015555365474064645,0.046880915569491324
1648634240952379950,28469,12,1,0.0343307182193,0.0146502861753,-0.0283653140068,0.0,18.0,0.011481845558294313,0.0048997612626421405,-0.00948672709257525,18.0,0.0,0.01696093202863375,0.046880914423414646
1648634240952384137,28470,12,2,1.12016999722,-0.0351606868207,0.0996361672878,0.0,18.0,0.3746387950568562,-0.011759427030334446,0.033323132872173915,18.0,0.0,0.5299497501154123,1.1251419743309556
1648634240952385688,28471,12,3,1.39382565022,-0.175803437829,0.0661931112409,0.0,18.0,0.4661624248227424,-0.05879713639765886,0.02213816429461538,18.0,0.0,0.6618700143395249,1.4064275025537047
1648634240952495943,28472,12,4,0.113247573376,0.307656019926,-1.36768460274,0.0,18.0,0.03787544260066889,0.10289498994180601,-0.4574195995785953,18.0,0.0,0.1160020571348521,1.4064275352979732
1648634240952499573,28473,12,5,2.23025608063,-0.747164547443,0.429223716259,0.0,18.0,0.745905043688963,-0.2498878085093645,0.14355308236086955,18.0,0.0,1.084062998742638,2.390926607979002
1648634240952500553,28474,12,6,0.885159254074,-0.430718421936,-0.0146116241813,0.0809188112617,18.0,0.29603988430568556,-0.14405298392508362,-0.00488683082986622,18.0,0.010934974494824324,0.44275330419678155,0.9844992451135215
1648634241057217354,28475,13,0,0.00709323305637,0.0454158857465,0.00921431556344,0.0,19.5,0.0023723187479498327,0.015189259446989964,0.0030817108907826084,19.5,0.0,0.015555365474064645,0.046880915569491324
1648634241057223135,28476,13,1,0.0342381596565,0.0146502861753,-0.028476966545,0.0,19.5,0.011450889517224078,0.0048997612626421405,-0.009524069078595317,19.5,0.0,0.016919024850807245,0.046880913870009186
1648634241057226574,28477,13,2,1.39166080952,-0.175803437829,0.102037288249,0.0,19.5,0.4654383978327759,-0.05879713639765886,0.03412618336086957,19.5,0.0,0.660850140049049,1.406427483270846
1648634241057232646,28478,13,3,0.884806394577,-0.430718421936,-0.0289479102939,0.161837622523,19.5,0.2959218710959866,-0.14405298392508362,-0.009681575349130434,19.5,0.021869948989594594,0.44259549225406697,0.9844992109645248
1648634241252227218,28479,15,0,0.00714792404324,0.0454158857465,0.00917195435613,0.0,36.5,0.0023906100479063543,0.015189259446989964,0.0030675432629197323,36.5,0.0,0.015560965116286185,0.046880915551831985
1648634241252232112,28480,15,1,0.034253872931,0.0146502861753,-0.028458064422,0.0,36.5,0.011456144792976587,0.0048997612626421405,-0.009517747298327758,36.5,0.0,0.016926138586995487,0.04688091430889529
1648634241252235214,28481,15,2,1.01229000092,-0.064461261034,0.18670450151,0.0,36.5,0.3385585287357859,-0.021558950178595316,0.062442977093645484,36.5,0.0,0.47927919117387424,1.0313800807756588
1648634241252387913,28482,15,3,1.35117161274,-0.127457484603,0.0803529769182,0.0,36.5,0.4518968604481605,-0.04262792127190635,0.026873905323812706,36.5,0.0,0.6404987780142694,1.3595465193789262
