%time,field.header.seq,field.header.frame_id,field.point_id,field.x,field.y,field.z,field.velocity,field.intensity,normalized_x,normalized_y,normalized_z,normalized_intensity,normalized_velocity,normalized_range,range
1648634550757362387,37739,0,0,0.00711630936712,0.0454158857465,0.00919650495052,0.0,12.3999996185,0.002380036577632107,0.015189259446989964,0.0030757541640535116,12.3999996185,0.0,0.015557723187205363,0.04688091552489819
1648634550757370368,37740,0,1,0.0342400819063,0.0146502861753,-0.0284746550024,0.0,12.3999996185,0.011451532410133778,0.0048997612626421405,-0.009523295987424747,12.3999996185,0.0,0.016919895079804046,0.046880913722687
1648634550757373658,37741,0,2,0.832924485207,-0.380907446146,0.200684994459,0.323675245047,12.3999996185,0.27857006194214046,-0.12739379469765885,0.06711872724381271,12.3999996185,0.04373989797932432,0.4140431592821758,0.9376183379114461
1648634550757376499,37742,0,3,0.782749176025,-0.361862063408,0.223098069429,0.485512852669,12.3999996185,0.26178902208193977,-0.12102410147424747,0.07461473893946488,12.3999996185,0.06560984495527027,0.3895045793092626,0.8907374327402318
1648634550862581661,37743,1,0,0.00715419463813,0.0454158857465,0.00916706398129,0.0,35.4000015259,0.002392707236832776,0.015189259446989964,0.0030659076860501673,35.4000015259,0.0,0.015561609762179417,0.04688091553176467
1648634550862592158,37744,1,1,0.0342400819063,0.0146502861753,-0.0284746550024,0.0,35.4000015259,0.011451532410133778,0.0048997612626421405,-0.009523295987424747,35.4000015259,0.0,0.016919895079804046,0.046880913722687
1648634550862600189,37745,1,2,1.06840467453,-0.0,0.14545878768,0.0,35.4000015259,0.3573259781036789,-0.0,0.04864842397324415,35.4000015259,0.0,0.5053352444224543,1.0782610108275688
1648634550862605961,37746,1,3,0.911215484142,-0.338421612978,0.156191840768,0.323675245047,35.4000015259,0.304754342522408,-0.11318448594581938,0.0522380738354515,35.4000015259,0.04373989797932432,0.44560200451899873,0.9844992319922179
1648634551057582981,37747,3,0,0.00709175039083,0.0454158857465,0.00921545643359,0.0,39.5999984741,0.0023718228731872907,0.015189259446989964,0.0030820924527056853,39.5999984741,0.0,0.015555214239332182,0.04688091550966528
1648634551057590862,37748,3,1,0.0342400819063,0.0146502861753,-0.0284746550024,0.0,39.5999984741,0.011451532410133778,0.0048997612626421405,-0.009523295987424747,39.5999984741,0.0,0.016919895079804046,0.046880913722687
1648634551057593258,37749,3,2,1.04925429821,0.0336956568062,0.246123537421,0.0,39.5999984741,0.35092116996989964,0.011269450436856187,0.08231556435484949,39.5999984741,0.0,0.4964054145345668,1.078260995896813
1648634551057711558,37750,3,3,2.21743917465,-0.747164547443,0.49116063118,0.0,39.5999984741,0.7416184530602006,-0.2498878085093645,0.16426776962541803,39.5999984741,0.0,1.0781650043849609,2.3909266236857443
1648634551057714476,37751,3,4,0.998773217201,-0.193383783102,0.169705092907,0.323675245047,39.5999984741,0.3340378652846154,-0.06467685053578595,0.056757556156187286,39.5999984741,0.04373989797932432,0.4768078081187787,1.0313801653723282
1648634551162622385,37752,4,0,0.00712122442201,0.0454158857465,0.00919269956648,0.0,34.2000007629,0.0023816804086989963,0.015189259446989964,0.003074481460361204,34.2000007629,0.0,0.015558226302709931,0.046880915527827895
1648634551162627231,37753,4,1,0.0342180393636,0.0146502861753,-0.0285011399537,0.0,34.2000007629,0.011444160322274247,0.0048997612626421405,-0.009532153830668895,34.2000007629,0.0,0.016909916362735828,0.046880913830336754
1648634551162631567,37754,4,2,1.00434660912,-0.193383783102,0.132799237967,-0.161837622523,34.2000007629,0.3359018759598662,-0.06467685053578595,0.044414460858528425,34.2000007629,-0.021869948989594594,0.4794196862269457,1.0313801609602053
1648634551357616414,37755,6,0,0.00715119298548,0.0454158857465,0.00916940532625,0.0,32.5999984741,0.002391703339625418,0.015189259446989964,0.003066690744565217,32.5999984741,0.0,0.015561301111331425,0.04688091544852534
1648634551357620661,37756,6,1,0.0342180393636,0.0146502861753,-0.0285011399537,0.0,32.5999984741,0.011444160322274247,0.0048997612626421405,-0.009532153830668895,32.5999984741,0.0,0.016909916362735828,0.046880913830336754
1648634551357625650,37757,6,2,0.71504431963,-0.153827995062,-0.659004747868,0.566431701183,32.5999984741,0.2391452574013378,-0.05144748998729097,-0.2204029257083612,32.5999984741,0.07654482448418919,0.3420931927137642,0.9844992071162326
1648634551357688983,37758,6,3,0.9093542099,-0.338421612978,0.166686803102,-0.242756426334,32.5999984741,0.3041318427759197,-0.11318448594581938,0.05574809468294314,32.5999984741,-0.03280492247756756,0.4447505856537716,0.9844992420118206
1648634551462841072,37759,7,0,0.00709175039083,0.0454158857465,0.00921545643359,0.0,36.5999984741,0.0023718228731872907,0.015189259446989964,0.0030820924527056853,36.5999984741,0.0,0.015555214239332182,0.04688091550966528
1648634551462853249,37760,7,1,0.0343055874109,0.0146502861753,-0.0283957011998,0.0,36.5999984741,0.011473440605652174,0.0048997612626421405,-0.009496890033377925,36.5999984741,0.0,0.016949552769726546,0.04688091359235025
1648634551462878448,37761,7,2,1.06637632847,-0.0,0.159650847316,0.0,36.5999984741,0.35664760149498326,-0.0,0.05339493221270902,36.5999984741,0.0,0.5043758750220403,1.0782610384178193
1648634551462892075,37762,7,3,0.848381340504,-0.351606875658,0.189076080918,-0.242756426334,36.5999984741,0.2837395787638796,-0.11759427279531771,0.06323614746421403,36.5999984741,-0.03280492247756756,0.4181443651521174,0.9376182902976319
1648634551657548738,37763,9,0,0.00709175039083,0.0454158857465,0.00921545643359,0.0,32.9000015259,0.0023718228731872907,0.015189259446989964,0.0030820924527056853,32.9000015259,0.0,0.015555214239332182,0.04688091550966528
1648634551657565583,37764,9,1,0.0343055874109,0.0146502861753,-0.0283957011998,0.0,32.9000015259,0.011473440605652174,0.0048997612626421405,-0.009496890033377925,32.9000015259,0.0,0.016949552769726546,0.04688091359235025
1648634551657593495,37765,9,2,0.739126741886,-0.44536870718,0.220797434449,-0.0809188112617,32.9000015259,0.24719957922608696,-0.14895274487625418,0.07384529580234113,32.9000015259,-0.010934974494824324,0.3800028738645003,0.8907374096586821
1648634551762809775,37766,10,0,0.00709175039083,0.0454158857465,0.00921545643359,0.0,12.3000001907,0.0023718228731872907,0.015189259446989964,0.0030820924527056853,12.3000001907,0.0,0.015555214239332182,0.04688091550966528
1648634551762814435,37767,10,1,0.0342400819063,0.0146502861753,-0.0284746550024,0.0,12.3000001907,0.011451532410133778,0.0048997612626421405,-0.009523295987424747,12.3000001907,0.0,0.016919895079804046,0.046880913722687
1648634551957551998,37768,12,0,0.0070613711141,0.0454158857465,0.00923875533044,0.0,19.2000007629,0.002361662579966555,0.015189259446989964,0.0030898847258996652,19.2000007629,0.0,0.015552122132725246,0.04688091552226685
1648634551957560040,37769,12,1,0.0342400819063,0.0146502861753,-0.0284746550024,0.0,19.2000007629,0.011451532410133778,0.0048997612626421405,-0.009523295987424747,19.2000007629,0.0,0.016919895079804046,0.046880913722687
1648634551957562350,37770,12,2,0.748368501663,-0.44536870718,0.187094941735,0.161837622523,19.2000007629,0.250290468783612,-0.14895274487625418,0.06257355910869565,19.2000007629,0.021869948989594594,0.3840280689402937,0.8907374567398247
1648634552062749752,37771,13,0,0.00709175039083,0.0454158857465,0.00921545643359,0.0,31.8999996185,0.0023718228731872907,0.015189259446989964,0.0030820924527056853,31.8999996185,0.0,0.015555214239332182,0.04688091550966528
1648634552062754805,37772,13,1,0.0343055874109,0.0146502861753,-0.0283957011998,0.0,31.8999996185,0.011473440605652174,0.0048997612626421405,-0.009496890033377925,31.8999996185,0.0,0.016949552769726546,0.04688091359235025
1648634552062757739,37773,13,2,1.07454323769,-0.0,0.0894632339478,0.0,31.8999996185,0.3593790092608695,-0.0,0.029920814029364546,31.8999996185,0.0,0.5082386689289278,1.0782610258623402
1648634552062759691,37774,13,3,0.774213671684,-0.46880915761,0.244824931026,0.323675245047,31.8999996185,0.25893433835585283,-0.15679236040468228,0.08188124783478261,31.8999996185,0.04373989797932432,0.3983438557839675,0.9376183032200811
1648634552257626833,37775,15,0,0.0070613711141,0.0454158857465,0.00923875533044,0.0,34.2000007629,0.002361662579966555,0.015189259446989964,0.0030898847258996652,34.2000007629,0.0,0.015552122132725246,0.04688091552226685
1648634552257631596,37776,15,1,0.0343055874109,0.0146502861753,-0.0283957011998,0.0,34.2000007629,0.011473440605652174,0.0048997612626421405,-0.009496890033377925,34.2000007629,0.0,0.016949552769726546,0.04688091359235025
1648634552257633442,37777,15,2,0.917994379997,-0.24612480402,0.256802648306,0.404594063759,34.2000007629,0.3070215317715719,-0.08231598796655518,0.0858871733464883,34.2000007629,0.05467487348094594,0.4419280075053342,0.9844992133246907
1648634552362896496,37778,16,0,0.00706712249666,0.0454158857465,0.00923435669392,0.0,40.0999984741,0.002363586119284281,0.015189259446989964,0.0030884136100066887,40.0999984741,0.0,0.015552706556561805,0.04688091554217435
1648634552362939459,37779,16,1,0.0342180393636,0.0146502861753,-0.0285011399537,0.0,40.0999984741,0.011444160322274247,0.0048997612626421405,-0.009532153830668895,40.0999984741,0.0,0.016909916362735828,0.046880913830336754
1648634552362944322,37780,16,2,1.07424843311,-0.0,0.0929356515408,0.0,40.0999984741,0.3592804124113712,-0.0,0.031082157705953174,40.0999984741,0.0,0.50809923192716,1.0782609755372783
1648634552362947236,37781,16,3,0.934960186481,-0.307655990124,0.0208799447864,0.0809188112617,40.0999984741,0.31269571454214046,-0.10289497997458194,0.006983259125886288,40.0999984741,0.010934974494824324,0.45403149305968765,0.9844992283684372
1648634552362949840,37782,16,4,0.994173467159,-0.193383783102,0.194850951433,0.404594063759,40.0999984741,0.33249948734414714,-0.06467685053578595,0.06516754228528428,40.0999984741,0.05467487348094594,0.47465241299657346,1.031380174157005
1648634552363094606,37783,16,5,1.04340147972,-0.134782627225,0.236207172275,0.566431701183,40.0999984741,0.3489637055919732,-0.04507780174749164,0.07899905427257524,40.0999984741,0.07654482448418919,0.49556366276327085,1.0782610225347617
