%time,field.header.seq,field.header.frame_id,field.point_id,field.x,field.y,field.z,field.velocity,field.intensity,normalized_x,normalized_y,normalized_z,normalized_intensity,normalized_velocity,normalized_range,range
1648624836053709701,30428,0,0,0.00668105157092,0.0454158857465,0.00951741077006,0.0,40.0,0.002234465408334448,0.015189259446989964,0.003183080525103679,40.0,0.0,0.015514485936377664,0.04688091547739323
1648624836053731408,30429,0,1,0.0344334580004,0.0146502861753,-0.0282405056059,0.0,40.0,0.011516206689096989,0.0048997612626421405,-0.009444985152474916,40.0,0.0,0.017007459935066523,0.04688091372574095
1648624836053755594,30430,0,2,0.779470920563,-0.290075659752,0.142740920186,0.0,40.0,0.2606926155729097,-0.09701527082006689,0.04773943818929765,40.0,0.0,0.3812259728832503,0.8438564893863381
1648624836053785395,30431,0,3,1.05686688423,-0.168478280306,0.13150767982,0.0,40.0,0.353467185361204,-0.05634725093846154,0.043982501612040134,40.0,0.0,0.5030438499203279,1.078261012820428
1648624836053851540,30432,0,4,0.596266448498,-0.876087069511,-0.198958680034,0.0,40.0,0.19942021688896322,-0.2930057088665552,-0.06654136455986621,40.0,0.0,0.40668069936557694,1.0782610014878873
1648624836053857154,30433,0,5,1.28893518448,-1.34782636166,0.196271717548,0.0,40.0,0.43108200149832776,-0.45077804737792637,0.06564271489899665,40.0,0.0,0.7581980163713596,1.8752366245584493
1648624836053874396,30434,0,6,2.57545185089,-0.594801604748,0.637750983238,0.0,40.0,0.861355134076923,-0.19893030259130434,0.21329464322341135,40.0,0.0,1.2342765489510104,2.719093139611911
1648624836248757308,30435,2,0,0.00686878943816,0.0454158857465,0.00938281882554,0.0,11.6000003815,0.0022972539926956518,0.015189259446989964,0.00313806649683612,11.6000003815,0.0,0.015532815403586244,0.04688091547312005
1648624836248788645,30436,2,1,0.0345020703971,0.0146502861753,-0.0281566400081,0.0,11.6000003815,0.01153915397896321,0.0048997612626421405,-0.009416936457558528,11.6000003815,0.0,0.017038538949432653,0.04688091427489835
1648624836248829500,30437,2,2,0.745869874954,-0.34281668067,0.195572465658,0.0,11.6000003815,0.24945480767692307,-0.1146544082508361,0.06540885139063544,11.6000003815,0.0,0.37094613554748185,0.8438564666061652
1648624836248854216,30438,2,3,0.500940978527,-0.0527410283685,0.677030444145,0.0,11.6000003815,0.16753878880501671,-0.017639139922575247,0.22643158667056856,11.6000003815,0.0,0.23759131037500544,0.8438564465240112
1648624836248911097,30439,2,4,0.756955265999,-0.808695793152,0.197419136763,0.0,11.6000003815,0.2531622963207358,-0.2704668204521739,0.06602646714481604,11.6000003815,0.0,0.44870323992844596,1.1251419804387388
1648624836248916185,30440,2,5,0.855750203133,-0.105482056737,0.722848236561,0.0,11.6000003815,0.2862040813153846,-0.035278279845150494,0.24175526306387957,11.6000003815,0.0,0.40628820971325186,1.1251419677333994
1648624836248927651,30441,2,6,1.28351533413,-1.34782636166,0.229052454233,0.0,11.6000003815,0.42926934251839466,-0.45077804737792637,0.07660617198428094,11.6000003815,0.0,0.7561383371118051,1.875236662643582
1648624836248939356,30442,2,7,2.59357619286,-0.594801604748,0.559500992298,0.0,11.6000003815,0.8674167869096989,-0.19893030259130434,0.18712407769163877,11.6000003815,0.0,1.2427377155758008,2.719093190305072
1648624836249255375,30443,2,8,0.725959837437,-0.237334623933,0.358815163374,-0.242756426334,11.6000003815,0.24279593225317725,-0.07937612840568561,0.1200050713625418,11.6000003815,-0.03280492247756756,0.35242062822436315,0.8438564633609702
1648624836353824518,30444,3,0,0.00684349471703,0.0454158857465,0.00940128415823,0.0,31.8999996185,0.002288794219742475,0.015189259446989964,0.0031442421933879595,31.8999996185,0.0,0.015530317463227434,0.04688091554038749
1648624836353830527,30445,3,1,0.0322126448154,0.0161153152585,-0.0300077050924,0.0,31.8999996185,0.010773459804481605,0.005389737544648829,-0.010036021770033444,31.8999996185,0.0,0.01616119250296088,0.046880915485903306
1648624836353834273,30446,3,2,1.07333934307,-0.101086974144,-0.0192559417337,0.0,31.8999996185,0.3589763689197324,-0.03380835255652174,-0.006440114292207357,31.8999996185,0.0,0.5087937416951762,1.0782609670277323
1648624836353840020,30447,3,3,0.733549416065,-0.775000095367,0.154682993889,0.0,31.8999996185,0.2453342528645485,-0.25919735631003343,0.051733442772240804,31.8999996185,0.0,0.4330832030630175,1.078260971298983
1648624836354009967,30448,3,4,1.28708839417,-1.34782636166,0.208038270473,0.0,31.8999996185,0.43046434587625415,-0.45077804737792637,0.069578016880602,31.8999996185,0.0,0.7574958443049036,1.8752366137568184
1648624836354015722,30449,3,5,2.60511064529,-0.594801604748,0.503068268299,0.0,31.8999996185,0.8712744633076922,-0.19893030259130434,0.16825025695618728,31.8999996185,0.0,1.2481232495684398,2.7190932506597543
1648624836354022266,30450,3,6,0.744809150696,-0.34281668067,0.199574068189,0.0809188112617,31.8999996185,0.24910005039999997,-0.1146544082508361,0.06674717999632107,31.8999996185,0.010934974494824324,0.37046903183655505,0.8438564784367073
1648624836548915543,30451,5,0,0.00684349471703,0.0454158857465,0.00940128415823,0.0,14.5,0.002288794219742475,0.015189259446989964,0.0031442421933879595,14.5,0.0,0.015530317463227434,0.04688091554038749
1648624836548935918,30452,5,1,0.0344334580004,0.0146502861753,-0.0282405056059,0.0,14.5,0.011516206689096989,0.0048997612626421405,-0.009444985152474916,14.5,0.0,0.017007459935066523,0.04688091372574095
1648624836549021568,30453,5,2,1.10881280899,-0.140642747283,0.129221707582,0.0,14.5,0.37084040434448157,-0.047037708121404675,0.043217962402006684,14.5,0.0,0.5265527105371993,1.1251419810201786
1648624836549027470,30454,5,3,0.711706995964,-0.843856453896,0.21754065156,0.0,14.5,0.23802909564013378,-0.28222623876120395,0.07275607075585283,14.5,0.0,0.439280491927215,1.1251419901359927
1648624836549029506,30455,5,4,1.27647829056,-1.34782636166,0.265480548143,0.0,14.5,0.42691581624080266,-0.45077804737792637,0.08878948098428092,14.5,0.0,0.7534686963046027,1.875236691433623
1648624836549034857,30456,5,5,2.59110116959,-0.594801604748,0.570853233337,0.0,14.5,0.8665890199297658,-0.19893030259130434,0.1909208138250836,14.5,0.0,1.2415821858478526,2.719093163919318
1648624836549041930,30457,5,6,0.740318179131,-0.316446185112,0.2527538836,0.0809188112617,14.5,0.2475980532210702,-0.10583484451906354,0.08453307143812709,14.5,0.010934974494824324,0.3658013207085264,0.8438564570462561
1648624836653840923,30458,6,0,0.00686878943816,0.0454158857465,0.00938281882554,0.0,19.8999996185,0.0022972539926956518,0.015189259446989964,0.00313806649683612,19.8999996185,0.0,0.015532815403586244,0.04688091547312005
1648624836653866507,30459,6,1,0.0345020703971,0.0146502861753,-0.0281566400081,0.0,19.8999996185,0.01153915397896321,0.0048997612626421405,-0.009416936457558528,19.8999996185,0.0,0.017038538949432653,0.04688091427489835
1648624836653871104,30460,6,2,0.617130100727,-0.876087069511,0.119451552629,0.0,19.8999996185,0.20639802699899665,-0.2930057088665552,0.03995035204983277,19.8999996185,0.0,0.413585101915615,1.0782610018048355
1648624836653875159,30461,6,3,1.06148898602,-0.134782627225,0.133122801781,0.0,19.8999996185,0.3550130388026756,-0.04507780174749164,0.04452267618093645,19.8999996185,0.0,0.5040838458532532,1.0782610557733523
1648624836653879855,30462,6,4,1.28078937531,-1.34782636166,0.24383418262,0.0,19.8999996185,0.42835765060535114,-0.45077804737792637,0.08154989385284281,19.8999996185,0.0,0.7551035701558616,1.8752366340562399
1648624836653885626,30463,6,5,2.58086419106,-0.594801604748,0.615482509136,0.0,19.8999996185,0.8631652812909698,-0.19893030259130434,0.20584699302207357,19.8999996185,0.0,1.2368030849497853,2.7190931651488017
1648624836653945623,30464,6,6,0.763004899025,-0.316446185112,0.172566071153,-0.0809188112617,19.8999996185,0.255185584958194,-0.10583484451906354,0.057714405067892965,19.8999996185,-0.010934974494824324,0.37608560176545663,0.8438564527935252
