%time,field.header.seq,field.header.frame_id,field.point_id,field.x,field.y,field.z,field.velocity,field.intensity,normalized_x,normalized_y,normalized_z,normalized_intensity,normalized_velocity,normalized_range,range
1648624615047434423,23070,0,0,0.00680804625154,0.0454158857465,0.00942698586732,0.0,42.4000015259,0.0022769385456655514,0.015189259446989964,0.0031528380827157186,42.4000015259,0.0,0.015526831641692036,0.046880915460823715
1648624615047460199,23071,0,1,0.0321789383888,0.0161153152585,-0.0300438497216,0.0,42.4000015259,0.010762186752107024,0.005389737544648829,-0.010048110274782607,42.4000015259,0.0,0.01614616357450441,0.04688091688315315
1648624615047463022,23072,0,2,0.968023478985,-0.0922968015075,0.153787299991,0.0,42.4000015259,0.32375367190133775,-0.03086849548745819,0.05143387959565217,42.4000015259,0.0,0.4588962237291317,0.9844992072486698
1648624615047466623,23073,0,3,0.4499155581,-0.316446185112,0.117999635637,-0.323675245047,42.4000015259,0.15047343080267558,-0.10583484451906354,0.03946476108260869,42.4000015259,-0.04373989797932432,0.23766682786924545,0.5625709835237127
1648624615047474797,23074,0,4,0.58266890049,-0.351606875658,0.177141487598,-0.242756426334,42.4000015259,0.19487254196989964,-0.11759427279531771,0.05924464468160535,42.4000015259,-0.03280492247756756,0.2996314873671994,0.7032137294142075
1648624615347540659,23075,3,0,0.00684233522043,0.0454158857465,0.00940212793648,0.0,32.0999984741,0.0022884064282374583,0.015189259446989964,0.0031445243934715714,32.0999984741,0.0,0.015530203170260552,0.04688091551091783
1648624615347549546,23076,3,1,0.0322545990348,0.0161153152585,-0.0299626030028,0.0,32.0999984741,0.01078749131598662,0.005389737544648829,-0.010020937459130434,32.0999984741,0.0,0.016179901377485918,0.046880914277347065
1648624615347552330,23077,3,2,0.998211503029,-0.161153152585,0.203343242407,0.0,32.0999984741,0.33385000101304346,-0.05389737544648829,0.06800777338026755,32.0999984741,0.0,0.47520161345773854,1.0313801518354382
1648624615347554750,23078,3,3,0.422957748175,0.225614413619,-0.913208544254,0.0,32.0999984741,0.141457440861204,0.07545632562508361,-0.3054209178107023,32.0999984741,0.0,0.21380849428130938,1.031380126661563
1648624615347685487,23079,3,4,0.371901929379,-0.421928226948,0.0123146371916,-0.566431701183,32.0999984741,0.12438191618026756,-0.14111311938060198,0.004118607756387959,32.0999984741,-0.07654482448418919,0.22550972175645606,0.5625709946846411
1648624615452565536,23080,4,0,0.00679915398359,0.0454158857465,0.00943340174854,0.0,23.3999996185,0.002273964543006689,0.015189259446989964,0.0031549838623879597,23.3999996185,0.0,0.01552595993920109,0.046880915536933215
1648624615452572874,23081,4,1,0.0321789383888,0.0161153152585,-0.0300438497216,0.0,23.3999996185,0.010762186752107024,0.005389737544648829,-0.010048110274782607,23.3999996185,0.0,0.01614616357450441,0.04688091688315315
1648624615452575713,23082,4,2,1.02547025681,-0.096691891551,0.0529762096703,0.0,23.3999996185,0.3429666410735786,-0.032338425267892976,0.017717795876354515,23.3999996185,0.0,0.48610493468735005,1.0313801667109512
1648624615452580132,23083,4,3,0.57885491848,-0.373582303524,0.140970960259,0.161837622523,23.3999996185,0.19359696270234114,-0.12494391422207357,0.04714747834749163,23.3999996185,0.021869948989594594,0.3009494137496802,0.7032137411848052
1648624615647485316,23084,6,0,0.00663548940793,0.0454158857465,0.00954923219979,0.0,26.2000007629,0.0022192272267324412,0.015189259446989964,0.003193723143742475,26.2000007629,0.0,0.01551011094466171,0.046880915449971736
1648624615647489765,23085,6,1,0.0321619398892,0.0161153152585,-0.0300620421767,0.0,26.2000007629,0.010756501635183945,0.005389737544648829,-0.01005419470792642,26.2000007629,0.0,0.01613858499545815,0.04688091448714548
1648624615647491776,23086,6,2,0.98197644949,-0.0307656005025,0.063359387219,0.0,26.2000007629,0.3284202172207357,-0.010289498495819397,0.021190430508026756,26.2000007629,0.0,0.4645702874032367,0.984499203390248
1648624615647493663,23087,6,3,0.590837836266,-0.338421612978,0.711069762707,0.0,26.2000007629,0.19760462751371236,-0.11318448594581938,0.2378159741494983,26.2000007629,0.0,0.3015060621090153,0.9844992353122013
1648624615647495466,23088,6,4,0.770149171352,-0.808695793152,0.137207210064,0.0,26.2000007629,0.25757497369632104,-0.2704668204521739,0.0458886990180602,26.2000007629,0.0,0.45369817623044223,1.125141969037446
1648624615647505256,23089,6,5,0.675803244114,-0.373582303524,0.197221398354,0.485512852669,26.2000007629,0.22602115187759195,-0.12494391422207357,0.06596033389765886,26.2000007629,0.06560984495527027,0.3431939741505958,0.7969755593680473
1648624615752620658,23090,7,0,0.00677367113531,0.0454158857465,0.00945171620697,0.0,42.4000015259,0.0022654418512742473,0.015189259446989964,0.00316110909932107,42.4000015259,0.0,0.015523467915094992,0.046880915499226045
1648624615752789560,23091,7,1,0.034386638552,0.0146502861753,-0.0282974988222,0.0,42.4000015259,0.01150054801070234,0.0048997612626421405,-0.00946404642882943,42.4000015259,0.0,0.01698625531198173,0.04688091547225256
1648624615752799130,23092,7,2,0.944082558155,-0.153827995062,0.232988774776,0.0,42.4000015259,0.3157466749682274,-0.05144748998729097,0.07792266714916388,42.4000015259,0.0,0.4494872297774157,0.9844992117055784
1648624615752857080,23093,7,3,0.743710815907,-0.843856453896,-0.0272950548679,0.0,42.4000015259,0.2487327143501672,-0.28222623876120395,-0.009128780892274247,42.4000015259,0.0,0.45098511751642073,1.125141996593865
1648624615752861691,23094,7,4,1.11452305317,0.140642747283,-0.0632653459907,0.0,42.4000015259,0.372750185006689,0.047037708121404675,-0.021158978592207354,42.4000015259,0.0,0.529242805175806,1.125142000999879
1648624615752867403,23095,7,5,1.28672111034,-1.34782636166,0.210298314691,0.0,42.4000015259,0.43034150847491637,-0.45077804737792637,0.07033388451204013,42.4000015259,0.0,0.7573562410324411,1.8752366512368805
