%time,field.header.seq,field.header.frame_id,field.point_id,field.x,field.y,field.z,field.velocity,field.intensity,normalized_x,normalized_y,normalized_z,normalized_intensity,normalized_velocity,normalized_range,range
1648624935349335734,33863,0,0,0.00683013908565,0.0454158857465,0.00941099133343,0.0,19.1000003815,0.0022843274533946487,0.015189259446989964,0.0031474887402775913,19.1000003815,0.0,0.015529002104985331,0.046880915476837266
1648624935349347337,33864,0,1,0.0321796387434,0.0161153152585,-0.0300430990756,0.0,19.1000003815,0.010762420984414715,0.005389737544648829,-0.010047859222608695,19.1000003815,0.0,0.016146475828853105,0.04688091656103676
1648624935349350011,33865,0,2,1.01214134693,-0.096691891551,0.173105418682,0.0,19.1000003815,0.3385088116822742,-0.032338425267892976,0.05789478885685618,19.1000003815,0.0,0.4798147610504473,1.031380101627938
1648624935349361457,33866,0,3,1.28598117828,-1.34782636166,0.214776828885,0.0,19.1000003815,0.4300940395585284,-0.45077804737792637,0.07183171534615383,19.1000003815,0.0,0.757075038371628,1.8752366726101393
1648624935349365894,33867,0,4,2.59949541092,-0.594801604748,0.531321406364,0.0,19.1000003815,0.8693964585016721,-0.19893030259130434,0.17769946701137124,19.1000003815,0.0,1.245501372700796,2.7190931902503
1648624935349368742,33868,0,5,0.683010101318,-0.323771327734,0.252664536238,-0.242756426334,19.1000003815,0.22843147201270902,-0.10828472499464883,0.08450318937725752,19.1000003815,-0.03280492247756756,0.3407160936600337,0.7969755573651086
1648624935454285930,33869,1,0,0.00683013908565,0.0454158857465,0.00941099133343,0.0,42.5,0.0022843274533946487,0.015189259446989964,0.0031474887402775913,42.5,0.0,0.015529002104985331,0.046880915476837266
1648624935454296976,33870,1,1,0.0322812236845,0.0161153152585,-0.0299339182675,0.0,42.5,0.01079639588110368,0.005389737544648829,-0.010011343902173913,42.5,0.0,0.016191775654424753,0.046880915640534766
1648624935454302823,33871,1,2,0.762065827847,-0.0263705141842,-0.361460894346,0.0,42.5,0.25487151433010036,-0.008819569961270902,-0.12088993121939798,42.5,0.0,0.3605506378418139,0.8438564499557273
1648624935454351805,33872,1,3,1.00650727749,-0.128922522068,0.184572786093,0.0,42.5,0.33662450752173906,-0.04311790035719063,0.06173002879364548,42.5,0.0,0.4780076060688986,1.031380157702696
1648624935454490644,33873,1,4,2.59712576866,-0.594801604748,0.542786002159,0.0,42.5,0.8686039360066888,-0.19893030259130434,0.1815337799862876,42.5,0.0,1.2443949777227856,2.719093203880356
1648624935649366432,33874,3,0,0.00683013908565,0.0454158857465,0.00941099133343,0.0,11.5,0.0022843274533946487,0.015189259446989964,0.0031474887402775913,11.5,0.0,0.015529002104985331,0.046880915476837266
1648624935649368979,33875,3,1,0.0322812236845,0.0161153152585,-0.0299339182675,0.0,11.5,0.01079639588110368,0.005389737544648829,-0.010011343902173913,11.5,0.0,0.016191775654424753,0.046880915640534766
1648624935649373333,33876,3,2,0.840032994747,-0.0278355441988,-0.294928640127,0.0,11.5,0.2809474898819398,-0.009309546554782609,-0.09863834117959865,11.5,0.0,0.397428800917826,0.8907374206530329
1648624935649483698,33877,3,3,0.762536585331,-0.808695793152,0.174623921514,0.0,11.5,0.25502895830468225,-0.2704668204521739,0.05840264933578595,11.5,0.0,0.450812422314926,1.1251419660624749
1648624935649487422,33878,3,4,1.07442176342,0.0351606868207,0.332153707743,0.0,11.5,0.35933838241471566,0.011759427030334446,0.11108819656956521,11.5,0.0,0.5083172535699833,1.1251419844515926
1648624935649630092,33879,3,5,1.2865241766,-1.34782636166,0.211499646306,0.0,11.5,0.43027564434782606,-0.45077804737792637,0.07073566766086956,11.5,0.0,0.7572813930341415,1.8752366406801846
1648624935649639793,33880,3,6,2.59330821037,-0.594801604748,0.560741364956,0.0,11.5,0.8673271606588628,-0.19893030259130434,0.18753891804548495,11.5,0.0,1.2426125995346247,2.719093102737743
1648624935649690522,33881,3,7,0.707630574703,-0.323771327734,0.17204990983,0.161837622523,11.5,0.23666574404782606,-0.10828472499464883,0.057541775862876246,11.5,0.021869948989594594,0.3517768191319447,0.7969755795440953
1648624935649726147,33882,3,8,1.04069638252,-0.672448158264,0.258795917034,0.161837622523,11.5,0.34805899080936453,-0.22489904958662205,0.08655381840602007,11.5,0.021869948989594594,0.5411743754756247,1.2657846628934672
1648624935754216756,33883,4,0,0.00688796397299,0.0454158857465,0.00936875212938,0.0,13.1000003815,0.002303666880598662,0.015189259446989964,0.003133361916180602,13.1000003815,0.0,0.01553471482652669,0.046880915544538077
1648624935754218528,33884,4,1,0.0322400033474,0.0161153152585,-0.0299783088267,0.0,13.1000003815,0.010782609815183947,0.005389737544648829,-0.010026190243043477,13.1000003815,0.0,0.01617339233596958,0.04688091511297753
1648624935754232108,33885,4,2,0.771302819252,-0.290075659752,0.181774064898,0.242756426334,13.1000003815,0.25796080911438124,-0.09701527082006689,0.060794001638127086,13.1000003815,0.03280492247756756,0.377491087113568,0.8438564676745589
1648624935754254446,33886,4,3,0.57055658102,-0.323771327734,-0.452556490898,-0.566431701183,13.1000003815,0.19082159900334444,-0.10828472499464883,-0.15135668591906354,13.1000003815,-0.07654482448418919,0.29077714311746217,0.7969755719354142
1648624935754294772,33887,4,4,0.710852503777,-0.0249054860324,0.35949754715,-0.566431701183,13.1000003815,0.2377433123,-0.00832959399076923,0.120233293361204,13.1000003815,-0.07654482448418919,0.33632298051545884,0.7969755653515397
1648624935949340332,33888,6,0,0.00683013908565,0.0454158857465,0.00941099133343,0.0,34.9000015259,0.0022843274533946487,0.015189259446989964,0.0031474887402775913,34.9000015259,0.0,0.015529002104985331,0.046880915476837266
1648624935949345692,33889,6,1,0.0321796387434,0.0161153152585,-0.0300430990756,0.0,34.9000015259,0.010762420984414715,0.005389737544648829,-0.010047859222608695,34.9000015259,0.0,0.016146475828853105,0.04688091656103676
1648624935949348473,33890,6,2,0.761823356152,-0.316446185112,0.177709639072,0.0,34.9000015259,0.25479042011772574,-0.10583484451906354,0.05943466189698996,34.9000015259,0.0,0.3755493718300015,0.8438564628357927
1648624935949434778,33891,6,3,0.0842225030065,-0.0263705141842,-0.839228749275,0.0,34.9000015259,0.028168061206187287,-0.008819569961270902,-0.2806785114632107,34.9000015259,0.0,0.04080029605937656,0.8438564615150493
1648624935949443929,33892,6,4,1.01389050484,-0.096691891551,0.162547513843,0.0,34.9000015259,0.33909381432775915,-0.032338425267892976,0.05436371700434783,34.9000015259,0.0,0.48064020179288447,1.0313801297062886
