%time,field.header.seq,field.header.frame_id,field.point_id,field.x,field.y,field.z,field.velocity,field.intensity,normalized_x,normalized_y,normalized_z,normalized_intensity,normalized_velocity,normalized_range,range
1648624671652747956,24993,0,0,0.00689231650904,0.0454158857465,0.00936555024236,0.0,19.2999992371,0.0023051225782742472,0.015189259446989964,0.0031322910509565217,19.2999992371,0.0,0.015535146692249587,0.04688091548105792
1648624671652812242,24994,0,1,0.0344546698034,0.0146502861753,-0.0282146241516,0.0,19.2999992371,0.011523300937591973,0.0048997612626421405,-0.009436329147692307,19.2999992371,0.0,0.01701706759190621,0.046880914797981066
1648624671652824030,24995,0,2,0.773745954037,-0.0747164562345,-0.175797432661,0.0,19.2999992371,0.25877791104916387,-0.024988781349331104,-0.05879512798026756,19.2999992371,0.0,0.36681937474356857,0.7969755878011999
1648624671652830723,24996,0,3,1.06840217113,-0.0336956568062,0.141521260142,0.0,19.2999992371,0.35732514084615385,-0.011269450436856187,0.047331525131103676,19.2999992371,0.0,0.5054597046991937,1.0782610368714427
1648624671652842728,24997,0,4,0.555542826653,-0.39555773139,0.171510413289,0.566431701183,19.2999992371,0.18580027647257524,-0.13229355564882941,0.05736134223712374,19.2999992371,0.07654482448418919,0.2941854352968221,0.703213746292386
1648624671847736461,24998,2,0,0.00670625036582,0.0454158857465,0.00949967186898,0.0,31.8999996185,0.0022428930989364547,0.015189259446989964,0.0031771477822675584,31.8999996185,0.0,0.015516917910928298,0.04688091549582295
1648624671847743523,24999,2,1,0.0344002954662,0.0146502861753,-0.0282808933407,0.0,31.8999996185,0.011505115540535116,0.0048997612626421405,-0.009458492756086956,31.8999996185,0.0,0.01699244030835518,0.04688091446770313
1648624671847746206,25000,2,2,1.02500855923,-0.064461261034,0.0945891961455,0.0,31.8999996185,0.34281222716722404,-0.021558950178595316,0.03163518265735786,31.8999996185,0.0,0.48528881557636167,1.0313801029185632
1648624671847749187,25001,2,3,0.764378905296,-0.808695793152,0.16637454927,0.0,31.8999996185,0.25564511882809365,-0.2704668204521739,0.0556436619632107,31.8999996185,0.0,0.4515098609407869,1.1251419854258615
1648624671847761704,25002,2,4,1.12447464466,0.0351606868207,0.0162742547691,0.0,31.8999996185,0.3760784764749164,0.011759427030334446,0.005442894571605351,31.8999996185,0.0,0.5319852677090506,1.1251419251584336
1648624671847778650,25003,2,5,0.753020226955,-0.34281668067,0.165924757719,0.323675245047,31.8999996185,0.2518462297508361,-0.1146544082508361,0.05549323000635451,31.8999996185,0.04373989797932432,0.3741639750306959,0.8438564830426235
1648624671847868012,25004,2,6,0.716921448708,-0.34281668067,0.283890962601,0.566431701183,31.8999996185,0.23977305976856186,-0.1146544082508361,0.09494681023444815,31.8999996185,0.07654482448418919,0.3579495407357105,0.8438564562825224
1648624671952875266,25005,3,0,0.00683336379007,0.0454158857465,0.00940864998847,0.0,33.7000007629,0.002285405949856187,0.015189259446989964,0.0031467056817625415,33.7000007629,0.0,0.015529319471865146,0.04688091545002206
1648624671952881169,25006,3,1,0.0321789383888,0.0161153152585,-0.0300438497216,0.0,33.7000007629,0.010762186752107024,0.005389737544648829,-0.010048110274782607,33.7000007629,0.0,0.01614616357450441,0.04688091688315315
1648624671952883027,25007,3,2,0.787704110146,-0.290075659752,0.0864409282804,0.0809188112617,33.7000007629,0.2634461906842809,-0.09701527082006689,0.028910009458327755,33.7000007629,0.010934974494824324,0.38499318636101587,0.8438564377922568
1648624671952886952,25008,3,3,1.03980278969,-0.101086974144,0.266904890537,0.0809188112617,33.7000007629,0.34776013033110365,-0.03380835255652174,0.08926584967792642,33.7000007629,0.010934974494824324,0.49296776892449923,1.07826093241908
1648624672147849655,25009,5,0,0.00676689017564,0.0454158857465,0.00945657212287,0.0,15.1999998093,0.002263173971785953,0.015189259446989964,0.0031627331514615382,15.1999998093,0.0,0.015522806299155856,0.04688091548917701
1648624672147856019,25010,5,1,0.0344546698034,0.0146502861753,-0.0282146241516,0.0,15.1999998093,0.011523300937591973,0.0048997612626421405,-0.009436329147692307,15.1999998093,0.0,0.01701706759190621,0.046880914797981066
1648624672147867559,25011,5,2,1.0214176178,-0.064461261034,0.127655357122,0.0,15.1999998093,0.3416112434113712,-0.021558950178595316,0.042694099371906345,15.1999998093,0.0,0.48359205078550394,1.031380189032282
1648624672147872220,25012,5,3,0.848158597946,-0.167013257742,0.214817762375,-0.161837622523,15.1999998093,0.2836650829250836,-0.05585727683678929,0.07184540547658862,15.1999998093,-0.021869948989594594,0.40503307755961215,0.890737394838188
1648624672147874229,25013,5,4,0.806296646595,-0.210964113474,0.132187634706,-0.0809188112617,15.1999998093,0.26966443029933107,-0.07055655969030099,0.0442099112729097,15.1999998093,-0.010934974494824324,0.387835065527418,0.8438564512127522
1648624672252865859,25014,6,0,0.00676689017564,0.0454158857465,0.00945657212287,0.0,20.6000003815,0.002263173971785953,0.015189259446989964,0.0031627331514615382,20.6000003815,0.0,0.015522806299155856,0.04688091548917701
1648624672252873984,25015,6,1,0.0322126448154,0.0161153152585,-0.0300077050924,0.0,20.6000003815,0.010773459804481605,0.005389737544648829,-0.010036021770033444,20.6000003815,0.0,0.01616119250296088,0.046880915485903306
1648624672252876999,25016,6,2,1.02373719215,-0.064461261034,0.107480198145,0.0,20.6000003815,0.3423870207859532,-0.021558950178595316,0.03594655456354515,20.6000003815,0.0,0.48468807736333336,1.0313801848777917
1648624672252882105,25017,6,3,0.8043628335,-0.237334623933,0.0936293303967,-0.0809188112617,20.6000003815,0.26901767006688965,-0.07937612840568561,0.03131415732331103,20.6000003815,-0.010934974494824324,0.38864068672375474,0.8438564707010913
