%time,field.header.seq,field.header.frame_id,field.point_id,field.x,field.y,field.z,field.velocity,field.intensity,normalized_x,normalized_y,normalized_z,normalized_intensity,normalized_velocity,normalized_range,range
1648634433455805280,34304,0,0,0.00712418882176,0.0454158857465,0.00919040199369,0.0,12.1000003815,0.002382671846742475,0.015189259446989964,0.0030737130413678927,12.1000003815,0.0,0.015558529905055048,0.046880915448750074
1648634433455809512,34305,0,1,0.0342776104808,0.0146502861753,-0.0284294709563,0.0,12.1000003815,0.011464083772842807,0.0048997612626421405,-0.009508184266321069,12.1000003815,0.0,0.016936885603097283,0.046880915990909794
1648634433455816111,34306,0,2,1.38200700283,-0.219754293561,0.140722900629,0.0,12.1000003815,0.46220969994314376,-0.07349641925117056,0.047064515260535116,12.1000003815,0.0,0.6577821349700871,1.4064274741952012
1648634433455937622,34307,0,3,0.934016883373,-0.41899818182,0.125690251589,0.0809188112617,12.1000003815,0.3123802285528428,-0.14013317117725752,0.042036873441137115,12.1000003815,0.010934974494824324,0.4634653385590417,1.0313801695489322
1648634433560840049,34308,1,0,0.00717832520604,0.0454158857465,0.00914818048477,0.0,14.3000001907,0.002400777660882943,0.015189259446989964,0.003059592135374582,14.3000001907,0.0,0.0155640955182742,0.04688091548897843
1648634433560845322,34309,1,1,0.0342556610703,0.0146502861753,-0.0284559112042,0.0,14.3000001907,0.011456742832876255,0.0048997612626421405,-0.009517027158595318,14.3000001907,0.0,0.016926948133323128,0.04688091384393833
1648634433560847219,34310,1,2,1.06074225903,-0.0336956568062,0.190623447299,0.0,14.3000001907,0.3547632973344481,-0.011269450436856187,0.06375366130401337,14.3000001907,0.0,0.5018376179446583,1.0782610240752577
1648634433560860358,34311,1,3,1.38663780689,-0.219754293561,0.0835578739643,0.0,14.3000001907,0.46375846384280933,-0.07349641925117056,0.027945777245585283,14.3000001907,0.0,0.6599587481156898,1.4064274866969277
1648634433560943603,34312,1,4,0.951430022717,0.307656019926,-0.989023268223,0.0,14.3000001907,0.31820402097558526,0.10289498994180601,-0.33077701278361205,14.3000001907,0.0,0.4616221148138223,1.4064275096180687
1648634433755917105,34313,3,0,0.0070613711141,0.0454158857465,0.00923875533044,0.0,12.3999996185,0.002361662579966555,0.015189259446989964,0.0030898847258996652,12.3999996185,0.0,0.015552122132725246,0.04688091552226685
1648634433755921171,34314,3,1,0.0342943668365,0.0146502861753,-0.0284092519432,0.0,12.3999996185,0.011469687905183946,0.0048997612626421405,-0.009501422054581939,12.3999996185,0.0,0.016944472305608527,0.0468809137891619
1648634433755925862,34315,3,2,1.06714129448,-0.0336956568062,0.150734379888,0.0,12.3999996185,0.3569034429698997,-0.011269450436856187,0.05041283608294314,12.3999996185,0.0,0.5048634822609828,1.0782610040951455
1648634433756031479,34316,3,3,1.37677407265,-0.219754293561,0.185039177537,0.0,12.3999996185,0.4604595560702341,-0.07349641925117056,0.061886012554180594,12.3999996185,0.0,0.6553226145918801,1.4064274932904757
1648634433756035367,34317,3,4,1.10890948772,0.263705164194,-0.823903858662,0.0,12.3999996185,0.370872738367893,0.0881957070882943,-0.2755531299872909,12.3999996185,0.0,0.5318568029815952,1.406427471964392
1648634433860986776,34318,4,0,0.00703071663156,0.0454158857465,0.00926210451871,0.0,12.0,0.002351410244668896,0.015189259446989964,0.003097693818966555,12.0,0.0,0.015549014850640589,0.04688091546256263
1648634433860993685,34319,4,1,0.0342556610703,0.0146502861753,-0.0284559112042,0.0,12.0,0.011456742832876255,0.0048997612626421405,-0.009517027158595318,12.0,0.0,0.016926948133323128,0.04688091384393833
1648634433861005820,34320,4,2,1.06585240364,-0.0673913136125,0.1485388726,0.0,12.0,0.35647237579933105,-0.02253890087374582,0.0496785527090301,12.0,0.0,0.5046316592016751,1.0782609759092938
1648634433861228600,34321,4,3,1.38246679306,-0.219754293561,0.136132135987,0.0,12.0,0.4623634759397993,-0.07349641925117056,0.04552914247056856,12.0,0.0,0.6579982457491893,1.4064275103610844
1648634433861345464,34322,4,4,1.09784245491,0.263705164194,-0.838593900204,0.0,12.0,0.3671713896020067,0.0881957070882943,-0.2804661873591973,12.0,0.0,0.5266954921331123,1.406427459517467
1648634434055986326,34323,6,0,0.00714846141636,0.0454158857465,0.00917153526098,0.0,12.3000001907,0.0023907897713578595,0.015189259446989964,0.0030674030973177253,12.3000001907,0.0,0.015561020339606033,0.0468809154966467
1648634434055992188,34324,6,1,0.0342556610703,0.0146502861753,-0.0284559112042,0.0,12.3000001907,0.011456742832876255,0.0048997612626421405,-0.009517027158595318,12.3000001907,0.0,0.016926948133323128,0.04688091384393833
1648634434056130556,34325,6,2,1.06439960003,-0.101086974144,0.139576211572,0.0,12.3000001907,0.3559864883043478,-0.03380835255652174,0.04668100721471572,12.3000001907,0.0,0.5045748352951316,1.0782609163474326
1648634434056134316,34326,6,3,1.37777256966,-0.219754293561,0.177451387048,0.0,12.3000001907,0.46079350155852844,-0.07349641925117056,0.059348289982608694,12.3000001907,0.0,0.6557919073912722,1.4064274592069343
1648634434056136035,34327,6,4,1.15745663643,0.263705164194,-0.75418305397,0.0,12.3000001907,0.3871092429531773,0.0881957070882943,-0.2522351351070234,12.3000001907,0.0,0.5545138543881192,1.4064275159900526
1648634434160994900,34328,7,0,0.00718372128904,0.0454158857465,0.00914394389838,0.0,11.8000001907,0.0024025823709163878,0.015189259446989964,0.003058175216849498,11.8000001907,0.0,0.01556465247431019,0.04688091551702535
1648634434160998322,34329,7,1,0.0342556610703,0.0146502861753,-0.0284559112042,0.0,11.8000001907,0.011456742832876255,0.0048997612626421405,-0.009517027158595318,11.8000001907,0.0,0.016926948133323128,0.04688091384393833
1648634434161002836,34330,7,2,0.901529788971,-0.483459472656,0.131362035871,0.0,11.8000001907,0.3015149795889632,-0.16169213132307692,0.04393379126120402,11.8000001907,0.0,0.456033892561578,1.031380146488717
1648634434161008533,34331,7,3,0.952673792839,-0.096691891551,-0.383155763149,0.0,11.8000001907,0.3186199976050167,-0.032338425267892976,-0.12814574018361205,11.8000001907,0.0,0.4517556634912824,1.0313801511994736
1648634434161058822,34332,7,4,1.38118743896,-0.219754293561,0.148552134633,0.0,11.8000001907,0.46193559831438125,-0.07349641925117056,0.0496829881715719,11.8000001907,0.0,0.6573969254741572,1.4064275408933797
1648634434355979760,34333,9,0,0.00717832520604,0.0454158857465,0.00914818048477,0.0,12.6000003815,0.002400777660882943,0.015189259446989964,0.003059592135374582,12.6000003815,0.0,0.0155640955182742,0.04688091548897843
1648634434355983495,34334,9,1,0.0342556610703,0.0146502861753,-0.0284559112042,0.0,12.6000003815,0.011456742832876255,0.0048997612626421405,-0.009517027158595318,12.6000003815,0.0,0.016926948133323128,0.04688091384393833
1648634434356078809,34335,9,2,1.06297016144,-0.101086974144,0.15007519722,0.0,12.6000003815,0.3555084151973244,-0.03380835255652174,0.05019237365217391,12.6000003815,0.0,0.50390025923273,1.0782609634378828
1648634434356083650,34336,9,3,1.3862888813,-0.219754293561,0.0891602411866,0.0,12.6000003815,0.46364176632107024,-0.07349641925117056,0.029819478657725752,12.6000003815,0.0,0.6597947397466788,1.4064275169957932
1648634434356089912,34337,9,4,0.57185614109,0.263705164194,-1.25756847858,0.0,12.6000003815,0.19125623447826087,0.0881957070882943,-0.42059146440802675,12.6000003815,0.0,0.28449319359592984,1.4064275089896907
1648634434461077954,34338,10,0,0.00703071663156,0.0454158857465,0.00926210451871,0.0,12.8999996185,0.002351410244668896,0.015189259446989964,0.003097693818966555,12.8999996185,0.0,0.015549014850640589,0.04688091546256263
1648634434461082282,34339,10,1,0.0342400819063,0.0146502861753,-0.0284746550024,0.0,12.8999996185,0.011451532410133778,0.0048997612626421405,-0.009523295987424747,12.8999996185,0.0,0.016919895079804046,0.046880913722687
1648634434461084279,34340,10,2,1.06734657288,-0.0673913136125,0.137391760945,0.0,12.8999996185,0.35697209795317725,-0.02253890087374582,0.04595042172073578,12.8999996185,0.0,0.50533766877879,1.0782610035444422
1648634434461091816,34341,10,3,1.38338756561,-0.219754293561,0.126432910562,0.0,12.8999996185,0.46267142662541805,-0.07349641925117056,0.04228525436856188,12.8999996185,0.0,0.6584310303091304,1.4064275264285875
1648634434461251267,34342,10,4,1.04708445072,0.263705164194,-0.901172578335,0.0,12.8999996185,0.35019546846822736,0.0881957070882943,-0.3013955111488294,12.8999996185,0.0,0.5030429554423426,1.4064274871123432
1648634434656071312,34343,12,0,0.00720767956227,0.0454158857465,0.00912507064641,0.0,11.3000001907,0.002410595171327759,0.015189259446989964,0.0030518630924448154,11.3000001907,0.0,0.015567130137184287,0.04688091548928497
1648634434656078473,34344,12,1,0.0342556610703,0.0146502861753,-0.0284559112042,0.0,11.3000001907,0.011456742832876255,0.0048997612626421405,-0.009517027158595318,11.3000001907,0.0,0.016926948133323128,0.04688091384393833
1648634434656089823,34345,12,2,1.06963646412,-0.134782627225,0.0189272668213,0.0,11.3000001907,0.3577379478662207,-0.04507780174749164,0.006330189572341136,11.3000001907,0.0,0.5079221268043516,1.0782609903943172
1648634434656261246,34346,12,3,1.37939345837,-0.219754293561,0.164378032088,0.0,11.3000001907,0.46133560480602004,-0.07349641925117056,0.05497593046421404,11.3000001907,0.0,0.6565537328857528,1.4064275310038434
1648634434656280074,34347,12,4,1.14466583729,0.263705164194,-0.77345854044,0.0,11.3000001907,0.3828313837090301,0.0881957070882943,-0.25868178610033443,11.3000001907,0.0,0.5485419030976079,1.406427533313031
1648634434761110933,34348,13,0,0.00703071663156,0.0454158857465,0.00926210451871,0.0,11.8999996185,0.002351410244668896,0.015189259446989964,0.003097693818966555,11.8999996185,0.0,0.015549014850640589,0.04688091546256263
1648634434761114968,34349,13,1,0.0342556610703,0.0146502861753,-0.0284559112042,0.0,11.8999996185,0.011456742832876255,0.0048997612626421405,-0.009517027158595318,11.8999996185,0.0,0.016926948133323128,0.04688091384393833
1648634434761119694,34350,13,2,1.06540453434,-0.0673913136125,0.151718005538,0.0,11.8999996185,0.35632258673578593,-0.02253890087374582,0.0507418078722408,11.8999996185,0.0,0.5044200369620143,1.0782609907379008
1648634434761124155,34351,13,3,1.3818655014,-0.219754293561,0.142105817795,0.0,11.8999996185,0.4621623750501672,-0.07349641925117056,0.047527029362876255,11.8999996185,0.0,0.6577156265946299,1.4064274872701945
1648634434761129506,34352,13,4,1.10468029976,0.307656019926,-0.814289569855,0.0,11.8999996185,0.3694582942341137,0.10289498994180601,-0.2723376487809364,11.8999996185,0.0,0.5325281601116378,1.4064274936338494
1648634434956019967,34353,15,0,0.00703071663156,0.0454158857465,0.00926210451871,0.0,11.5,0.002351410244668896,0.015189259446989964,0.003097693818966555,11.5,0.0,0.015549014850640589,0.04688091546256263
1648634434956022705,34354,15,1,0.0342556610703,0.0146502861753,-0.0284559112042,0.0,11.5,0.011456742832876255,0.0048997612626421405,-0.009517027158595318,11.5,0.0,0.016926948133323128,0.04688091384393833
1648634434956178343,34355,15,2,1.07470035553,-0.0336956568062,-0.0808126106858,0.0,11.5,0.3594315570334448,-0.011269450436856187,-0.02702762899190635,11.5,0.0,0.508437890893393,1.0782610674181667
1648634434956182186,34356,15,3,1.38312768936,-0.219754293561,0.129244968295,0.0,11.5,0.46258451149163876,-0.07349641925117056,0.04322574190468228,11.5,0.0,0.6583088820505614,1.4064275368615342
1648634434956185271,34357,15,4,0.975714564323,0.307656019926,-0.96507370472,0.0,11.5,0.32632594124515046,0.10289498994180601,-0.3227671253244147,11.5,0.0,0.47282620360359806,1.4064275285882009
1648634435060991772,34358,16,0,0.00720767956227,0.0454158857465,0.00912507064641,0.0,12.5,0.002410595171327759,0.015189259446989964,0.0030518630924448154,12.5,0.0,0.015567130137184287,0.04688091548928497
1648634435060999051,34359,16,1,0.0342556610703,0.0146502861753,-0.0284559112042,0.0,12.5,0.011456742832876255,0.0048997612626421405,-0.009517027158595318,12.5,0.0,0.016926948133323128,0.04688091384393833
1648634435061009283,34360,16,2,1.0720345974,-0.0336956568062,0.110694490373,0.0,12.5,0.35853999913043477,-0.011269450436856187,0.03702156868662207,12.5,0.0,0.5071773481397343,1.0782610284662613
1648634435061099222,34361,16,3,1.3829843998,-0.175803437829,0.185703486204,0.0,12.5,0.46253658856187285,-0.05879713639765886,0.06210818936588629,12.5,0.0,0.6567627385635358,1.4064275607477907
