%time,field.header.seq,field.header.frame_id,field.point_id,field.x,field.y,field.z,field.velocity,field.intensity,normalized_x,normalized_y,normalized_z,normalized_intensity,normalized_velocity,normalized_range,range
1648625009649918722,36447,0,0,0.00688796397299,0.0454158857465,0.00936875212938,0.0,23.2999992371,0.002303666880598662,0.015189259446989964,0.003133361916180602,23.2999992371,0.0,0.01553471482652669,0.046880915544538077
1648625009649962105,36448,0,1,0.0321078151464,0.0161153152585,-0.0301198456436,0.0,23.2999992371,0.01073839971451505,0.005389737544648829,-0.010073526971103678,23.2999992371,0.0,0.016114457100926207,0.04688091595682113
1648625009650140590,36449,0,2,0.754612267017,-0.316446185112,0.206193849444,0.0,23.2999992371,0.2523786846210702,-0.10583484451906354,0.06896115366020066,23.2999992371,0.0,0.37227814227603745,0.8438564837417611
1648625009650148164,36450,0,3,1.06438839436,-0.101086974144,0.139662370086,0.0,23.2999992371,0.3559827405886288,-0.03380835255652174,0.046709822771237454,23.2999992371,0.0,0.5045695471355441,1.0782610110765796
1648625009650177802,36451,0,4,0.748930037022,-0.775000095367,0.0335470661521,0.0,23.2999992371,0.250478273251505,-0.25919735631003343,0.011219754565919731,23.2999992371,0.0,0.43893279697491466,1.0782609859491563
1648625009650217471,36452,0,5,1.29503035545,-1.34782636166,0.150906711817,0.0,23.2999992371,0.4331205202173913,-0.45077804737792637,0.05047047217959866,23.2999992371,0.0,0.7605179932550074,1.8752366139754217
1648625009650220922,36453,0,6,2.60726118088,-0.594801604748,0.491801023483,0.0,23.2999992371,0.8719937059799331,-0.19893030259130434,0.16448194765317725,23.2999992371,0.0,1.2491274201722993,2.71909324243092
1648625009754950301,36454,1,0,0.00688796397299,0.0454158857465,0.00936875212938,0.0,11.8000001907,0.002303666880598662,0.015189259446989964,0.003133361916180602,11.8000001907,0.0,0.01553471482652669,0.046880915544538077
1648625009754956149,36455,1,1,0.0320819094777,0.0161153152585,-0.0301474388689,0.0,11.8000001907,0.010729735611270903,0.005389737544648829,-0.010082755474548495,11.8000001907,0.0,0.01610291040078616,0.04688091692757558
1648625009754965436,36456,1,2,1.0232489109,-0.128922522068,0.00924934539944,0.0,11.8000001907,0.34222371602006685,-0.04311790035719063,0.0030934265549966552,11.8000001907,0.0,0.4858943269316687,1.0313800951854406
1648625009754967164,36457,1,3,0.734033763409,-0.808695793152,0.270462483168,0.0,11.8000001907,0.24549624194280933,-0.2704668204521739,0.09045567998929764,11.8000001907,0.0,0.4401012503749486,1.1251419494834964
1648625009754991997,36458,1,4,0.80406421423,-0.234404578805,0.421501249075,-0.242756426334,11.8000001907,0.26891779740133775,-0.07839618020234114,0.14097031741638794,11.8000001907,-0.03280492247756756,0.3883033924506607,0.9376182966121352
1648625009755103123,36459,1,5,0.76441437006,-0.316446185112,0.166211277246,-0.0809188112617,11.8000001907,0.25565697995317727,-0.10583484451906354,0.05558905593511705,11.8000001907,-0.010934974494824324,0.37672536032490955,0.8438564486391696
1648625009755104488,36460,1,6,0.568868458271,-0.0,-0.623283565044,-0.0809188112617,11.8000001907,0.19025700945518392,-0.0,-0.20845604182073577,11.8000001907,-0.010934974494824324,0.26906404310806725,0.8438564601101199
1648625009949910347,36461,3,0,0.00692206202075,0.0454158857465,0.00934358686209,0.0,22.8999996185,0.0023150709099498327,0.015189259446989964,0.0031249454388260866,22.8999996185,0.0,0.015538105070572981,0.04688091547962424
1648625009949926835,36462,3,1,0.0322556421161,0.0161153152585,-0.0299614816904,0.0,22.8999996185,0.010787840172608695,0.005389737544648829,-0.010020562438260869,22.8999996185,0.0,0.016180366558879226,0.04688091529915923
1648625009949948628,36463,3,2,0.739592075348,-0.808695793152,0.254870712757,0.0,22.8999996185,0.24735520914648826,-0.2704668204521739,0.08524104105585284,22.8999996185,0.0,0.4421781314688848,1.1251419483783214
1648625009950083772,36464,3,3,0.717238306999,-0.290075659752,0.336925894022,-0.0809188112617,22.8999996185,0.23987903244113712,-0.09701527082006689,0.11268424549230768,22.8999996185,-0.010934974494824324,0.35283971315894014,0.8438564661539746
1648625010054802588,36465,4,0,0.0068647256121,0.0454158857465,0.00938579253852,0.0,21.7999992371,0.0022958948535451505,0.015189259446989964,0.0031390610496722406,21.7999992371,0.0,0.015532413492598119,0.04688091549281755
1648625010054835516,36466,4,1,0.0322400033474,0.0161153152585,-0.0299783088267,0.0,21.7999992371,0.010782609815183947,0.005389737544648829,-0.010026190243043477,21.7999992371,0.0,0.01617339233596958,0.04688091511297753
1648625010054837288,36467,4,2,0.781433105469,-0.0249054860324,-0.154635071754,0.0,21.7999992371,0.2613488647053512,-0.00832959399076923,-0.05171741530234113,21.7999992371,0.0,0.36969695738753783,0.796975524701857
1648625010054838981,36468,4,3,1.01595711708,-0.128922522068,0.122291103005,0.0,21.7999992371,0.3397849889899665,-0.04311790035719063,0.04090003444983277,21.7999992371,0.0,0.4824591493764378,1.0313801405476344
1648625010054841919,36469,4,4,0.784122884274,-0.773535132408,0.229650214314,0.0,21.7999992371,0.26224845627892973,-0.2587074021431438,0.07680609174381271,21.7999992371,0.0,0.4521924651793943,1.1251419997698535
1648625010054863829,36470,4,5,1.10351145267,-0.105482056737,-0.192562878132,0.0,21.7999992371,0.36906737547491636,-0.035278279845150494,-0.0644023003785953,21.7999992371,0.0,0.5231309705118963,1.1251419699317065
