%time,field.header.seq,field.header.frame_id,field.point_id,field.x,field.y,field.z,field.velocity,field.intensity,normalized_x,normalized_y,normalized_z,normalized_intensity,normalized_velocity,normalized_range,range
1648634268257973217,29279,0,0,0.00711762346327,0.0454158857465,0.00919548794627,0.0,26.5,0.0023804760746722405,0.015189259446989964,0.0030754140288528427,26.5,0.0,0.015557857668462833,0.04688091552512632
1648634268257977549,29280,0,1,0.0342932231724,0.0146502861753,-0.0284106340259,0.0,26.5,0.011469305408829431,0.0048997612626421405,-0.009501884289598661,26.5,0.0,0.016943954483912442,0.04688091473429082
1648634268257990481,29281,0,2,0.805219471455,-0.46880915761,0.104726657271,0.0,26.5,0.2693041710551839,-0.15679236040468228,0.03502563788327759,26.5,0.0,0.4118656545242772,0.9376183105146917
1648634268257997660,29282,0,3,1.11209368706,-0.0,0.170857146382,0.0,26.5,0.3719376879799331,-0.0,0.057142858321739126,26.5,0.0,0.5259993226989139,1.1251420058234896
1648634268258002075,29283,0,4,1.38232302666,-0.219754293561,0.137584865093,0.0,26.5,0.46231539353177253,-0.07349641925117056,0.04601500504782608,26.5,0.0,0.6579306725146801,1.4064275646742763
1648634268258004163,29284,0,5,0.856676757336,-0.640217483044,0.13738013804,0.242756426334,26.5,0.28651396566421405,-0.21411955954648826,0.04594653446153846,26.5,0.03280492247756756,0.45828778166306267,1.07826100480487
1648634268452799089,29285,2,0,0.00714792404324,0.0454158857465,0.00917195435613,0.0,26.8999996185,0.0023906100479063543,0.015189259446989964,0.0030675432629197323,26.8999996185,0.0,0.015560965116286185,0.046880915551831985
1648634268452927326,29286,2,1,0.0342932231724,0.0146502861753,-0.0284106340259,0.0,26.8999996185,0.011469305408829431,0.0048997612626421405,-0.009501884289598661,26.8999996185,0.0,0.016943954483912442,0.04688091473429082
1648634268452936235,29287,2,2,0.823530614376,-0.439508587122,0.0880777537823,0.0,26.8999996185,0.275428299122408,-0.14699283850234113,0.029457442736555182,26.8999996185,0.0,0.41632726368315187,0.9376183454262316
1648634268452942566,29288,2,3,1.06567049026,-0.0336956568062,0.160803690553,0.0,26.8999996185,0.35641153520401336,-0.011269450436856187,0.05378049851270903,26.8999996185,0.0,0.5041679931988067,1.0782610157072614
1648634268452991985,29289,2,4,1.38623476028,-0.219754293561,0.0899965688586,0.0,26.8999996185,0.4636236656454849,-0.07349641925117056,0.030099186909230767,26.8999996185,0.0,0.6597693008437545,1.4064274394910545
1648634268557753162,29290,3,0,0.00706332270056,0.0454158857465,0.00923726335168,0.0,11.6000003815,0.0023623152844682274,0.015189259446989964,0.003089385736347826,11.6000003815,0.0,0.015552320391325477,0.04688091551942728
1648634268557758342,29291,3,1,0.0342932231724,0.0146502861753,-0.0284106340259,0.0,11.6000003815,0.011469305408829431,0.0048997612626421405,-0.009501884289598661,11.6000003815,0.0,0.016943954483912442,0.04688091473429082
1648634268557761567,29292,3,2,1.06587457657,-0.0,0.16296634078,0.0,11.6000003815,0.3564797914949832,-0.0,0.05450379290301003,11.6000003815,0.0,0.5041385558441384,1.0782609337287055
1648634268557768923,29293,3,3,1.38715648651,-0.219754293561,0.0744528844953,0.0,11.6000003815,0.46393193528762533,-0.07349641925117056,0.02490063026598662,11.6000003815,0.0,0.6602025483154292,1.406427495328121
1648634268752802491,29294,5,0,0.00712367706001,0.0454158857465,0.00919079873711,0.0,11.6999998093,0.002382500688966555,0.015189259446989964,0.003073845731474916,11.6999998093,0.0,0.015558477483797252,0.04688091546056366
1648634268752806068,29295,5,1,0.0342932231724,0.0146502861753,-0.0284106340259,0.0,11.6999998093,0.011469305408829431,0.0048997612626421405,-0.009501884289598661,11.6999998093,0.0,0.016943954483912442,0.04688091473429082
1648634268752813909,29296,5,2,0.976229727268,-0.064461261034,0.32644328475,0.0,11.6999998093,0.32649823654448157,-0.021558950178595316,0.10917835610367893,11.6999998093,0.0,0.4622412630500609,1.0313801203892854
1648634268752817905,29297,5,3,0.483427911997,0.257845044136,-0.873818278313,0.0,11.6999998093,0.1616815759187291,0.08623580071438126,-0.2922469158237458,11.6999998093,0.0,0.24437364282585386,1.0313801415565311
1648634268752953107,29298,5,4,1.38239455223,-0.219754293561,0.136864230037,0.0,11.6999998093,0.4623393151270903,-0.07349641925117056,0.04577398997892976,11.6999998093,0.0,0.6579642910273457,1.406427554137538
1648634268752984964,29299,5,5,0.875106811523,-0.293005734682,0.165722101927,0.0809188112617,11.6999998093,0.2926778633856187,-0.09799522899063544,0.05542545214949832,11.6999998093,0.010934974494824324,0.4253512999120478,0.9376183163727086
1648634268857717244,29300,6,0,0.00691156415269,0.0454158857465,0.00935135502368,0.0,19.5,0.002311559917287625,0.015189259446989964,0.0031275434861806014,19.5,0.0,0.015537059601172784,0.04688091549825788
1648634268857728223,29301,6,1,0.0342932231724,0.0146502861753,-0.0284106340259,0.0,19.5,0.011469305408829431,0.0048997612626421405,-0.009501884289598661,19.5,0.0,0.016943954483912442,0.04688091473429082
1648634268857735133,29302,6,2,0.886155545712,-0.293005734682,0.0894654244184,0.0,19.5,0.2963730922113712,-0.09799522899063544,0.02992154662822742,19.5,0.0,0.4304382469980879,0.9376182986263842
1648634268857757197,29303,6,3,0.304034084082,0.0293005723506,-0.88647210598,0.0,19.5,0.101683640161204,0.009799522525284281,-0.2964789652107023,19.5,0.0,0.14413589419221706,0.9376182818739563
1648634268857769063,29304,6,4,0.914682626724,-0.307655990124,0.194787368178,0.161837622523,19.5,0.3059139219812709,-0.10289497997458194,0.06514627698260869,19.5,0.021869948989594594,0.4446954376063417,0.9844991796297277
1648634269052932378,29305,8,0,0.00709323305637,0.0454158857465,0.00921431556344,0.0,31.6000003815,0.0023723187479498327,0.015189259446989964,0.0030817108907826084,31.6000003815,0.0,0.015555365474064645,0.046880915569491324
1648634269052943163,29306,8,1,0.0343958549201,0.0146502861753,-0.0282862950116,0.0,31.6000003815,0.0115036304080602,0.0048997612626421405,-0.009460299334983277,31.6000003815,0.0,0.01699042923417131,0.046880915159433705
1648634269052948107,29307,8,2,0.877504050732,-0.32230630517,-0.0723418593407,0.0,31.6000003815,0.2934796156294314,-0.10779475089297658,-0.024194601786187292,31.6000003815,0.0,0.42881263729054964,0.9376182901459821
1648634269052949965,29308,8,3,1.00297296047,-0.064461261034,0.23159211874,0.0,31.6000003815,0.3354424616956521,-0.021558950178595316,0.0774555581070234,31.6000003815,0.0,0.4748769088402607,1.031380106008707
1648634269157872484,29309,9,0,0.00709323305637,0.0454158857465,0.00921431556344,0.0,16.2000007629,0.0023723187479498327,0.015189259446989964,0.0030817108907826084,16.2000007629,0.0,0.015555365474064645,0.046880915569491324
1648634269157876796,29310,9,1,0.0342932231724,0.0146502861753,-0.0284106340259,0.0,16.2000007629,0.011469305408829431,0.0048997612626421405,-0.009501884289598661,16.2000007629,0.0,0.016943954483912442,0.04688091473429082
1648634269157888798,29311,9,2,1.01529276371,-0.032230630517,0.178568795323,0.0,16.2000007629,0.3395627972274247,-0.010779475089297658,0.05972200512474916,16.2000007629,0.0,0.48033528249029045,1.0313801550585122
1648634269352896353,29312,11,0,0.00709323305637,0.0454158857465,0.00921431556344,0.0,16.5,0.0023723187479498327,0.015189259446989964,0.0030817108907826084,16.5,0.0,0.015555365474064645,0.046880915569491324
1648634269352902398,29313,11,1,0.0342932231724,0.0146502861753,-0.0284106340259,0.0,16.5,0.011469305408829431,0.0048997612626421405,-0.009501884289598661,16.5,0.0,0.016943954483912442,0.04688091473429082
1648634269352905225,29314,11,2,1.00908255577,-0.064461261034,0.203327938914,0.0,16.5,0.33748580460535116,-0.021558950178595316,0.06800265515518394,16.5,0.0,0.47776367060822617,1.031380196278959
1648634269457709890,29315,12,0,0.00714792404324,0.0454158857465,0.00917195435613,0.0,17.2999992371,0.0023906100479063543,0.015189259446989964,0.0030675432629197323,17.2999992371,0.0,0.015560965116286185,0.046880915551831985
1648634269457715891,29316,12,1,0.0342932231724,0.0146502861753,-0.0284106340259,0.0,17.2999992371,0.011469305408829431,0.0048997612626421405,-0.009501884289598661,17.2999992371,0.0,0.016943954483912442,0.04688091473429082
1648634269457721277,29317,12,2,0.880029559135,-0.32230630517,-0.0281908679754,0.0,17.2999992371,0.2943242672692308,-0.10779475089297658,-0.009428383938260869,17.2999992371,0.0,0.429968902279244,0.937618314849324
1648634269457733484,29318,12,3,1.01928246021,-0.064461261034,0.143711298704,0.0,17.2999992371,0.34089714388294307,-0.021558950178595316,0.04806397949966555,17.2999992371,0.0,0.48258316770055204,1.031380107060939
1648634269652807293,29319,14,0,0.00709323305637,0.0454158857465,0.00921431556344,0.0,15.8999996185,0.0023723187479498327,0.015189259446989964,0.0030817108907826084,15.8999996185,0.0,0.015555365474064645,0.046880915569491324
1648634269652810307,29320,14,1,0.0342932231724,0.0146502861753,-0.0284106340259,0.0,15.8999996185,0.011469305408829431,0.0048997612626421405,-0.009501884289598661,15.8999996185,0.0,0.016943954483912442,0.04688091473429082
1648634269652815877,29321,14,2,1.06174945831,-0.0673913136125,0.175479769707,0.0,15.8999996185,0.3551001532809364,-0.02253890087374582,0.058688886189632104,15.8999996185,0.0,0.5026929875907219,1.0782609382465909
1648634269652822544,29322,14,3,0.559047102928,0.303260922432,-0.870715737343,0.0,15.8999996185,0.18697227522675583,0.10142505766956521,-0.29120927670334446,15.8999996185,0.0,0.28320364709906914,1.078260982148228
1648634269652976953,29323,14,4,1.38430535793,-0.175803437829,0.175585076213,0.0,15.8999996185,0.4629783805785953,-0.05879713639765886,0.05872410575685619,15.8999996185,0.0,0.657385020376128,1.4064274925266946
1648634269652980713,29324,14,5,0.860756695271,-0.351606875658,0.120824709535,-0.0809188112617,15.8999996185,0.2878784934016722,-0.11759427279531771,0.04040960185117057,15.8999996185,-0.010934974494824324,0.42376463623182725,0.9376183092805145
1648634269757783353,29325,15,0,0.00712367706001,0.0454158857465,0.00919079873711,0.0,17.5,0.002382500688966555,0.015189259446989964,0.003073845731474916,17.5,0.0,0.015558477483797252,0.04688091546056366
1648634269757786770,29326,15,1,0.034308873117,0.0146502861753,-0.0283917337656,0.0,17.5,0.011474539504013377,0.0048997612626421405,-0.009495563132307691,17.5,0.0,0.016951040501668787,0.046880915155245236
1648634269757798091,29327,15,2,1.06326591969,-0.0336956568062,0.176002711058,0.0,17.5,0.35560733099999997,-0.011269450436856187,0.0588637829625418,17.5,0.0,0.5030309615073767,1.0782609923212416
1648634269757802676,29328,15,3,0.782286047935,-0.707608819008,-0.223528727889,0.0,17.5,0.2616341297441471,-0.23665846789565215,-0.07475877186923076,17.5,0.0,0.4392175612616962,1.0782610044526937
1648634269757837293,29329,15,4,1.38549375534,-0.175803437829,0.165947601199,0.0,17.5,0.46337583790635445,-0.05879713639765886,0.05550086996622074,17.5,0.0,0.6579448590568947,1.4064275314364167
1648634269952796161,29330,17,0,0.00709323305637,0.0454158857465,0.00921431556344,0.0,12.1999998093,0.0023723187479498327,0.015189259446989964,0.0030817108907826084,12.1999998093,0.0,0.015555365474064645,0.046880915569491324
1648634269952798083,29331,17,1,0.0342932231724,0.0146502861753,-0.0284106340259,0.0,12.1999998093,0.011469305408829431,0.0048997612626421405,-0.009501884289598661,12.1999998093,0.0,0.016943954483912442,0.04688091473429082
1648634269952965028,29332,17,2,1.02375769615,-0.064461261034,0.107284039259,0.0,12.1999998093,0.34239387831103674,-0.021558950178595316,0.03588094958494983,12.1999998093,0.0,0.4846977657701232,1.0313801140608518
1648634269952969014,29333,17,3,1.39068734646,-0.175803437829,0.114542640746,0.0,12.1999998093,0.46511282490301004,-0.05879713639765886,0.038308575500334445,12.1999998093,0.0,0.6603915376707072,1.4064274460154418
1648634269952974172,29334,17,4,0.859329819679,-0.640217483044,-0.119668528438,-0.161837622523,12.1999998093,0.28740127748461536,-0.21411955954648826,-0.04002291921003344,12.1999998093,-0.021869948989594594,0.4593976212171324,1.0782609708615318
