%time,field.header.seq,field.header.frame_id,field.point_id,field.x,field.y,field.z,field.velocity,field.intensity,normalized_x,normalized_y,normalized_z,normalized_intensity,normalized_velocity,normalized_range,range
1648624908849208485,32950,0,0,0.00690207956359,0.0454158857465,0.00935835763812,0.0,34.5,0.002308387813909699,0.015189259446989964,0.003129885497698997,34.5,0.0,0.015536116346976405,0.046880915500064915
1648624908849214399,32951,0,1,0.0344966426492,0.0146502861753,-0.0281632896513,0.0,34.5,0.011537338678662207,0.0048997612626421405,-0.009419160418494983,34.5,0.0,0.01703608018304676,0.04688091427295134
1648624908849329870,32952,0,2,1.11539554596,-0.140642747283,0.0453526824713,0.0,34.5,0.37304198861538457,-0.047037708121404675,0.01516812122785953,34.5,0.0,0.5296538459461574,1.1251419786489432
1648624908849333797,32953,0,3,0.778462827206,-0.808695793152,0.0771441683173,0.0,34.5,0.2603554606040134,-0.2704668204521739,0.02580072518973244,34.5,0.0,0.4568612838687082,1.1251419829997764
1648624908849336115,32954,0,4,0.808804512024,-0.237334623933,0.0400157757103,-0.0809188112617,34.5,0.27050318127892975,-0.07937612840568561,0.013383202578695652,34.5,-0.010934974494824324,0.3906974685414777,0.8438564597687787
1648624908954139323,32955,1,0,0.00690207956359,0.0454158857465,0.00935835763812,0.0,17.3999996185,0.002308387813909699,0.015189259446989964,0.003129885497698997,17.3999996185,0.0,0.015536116346976405,0.046880915500064915
1648624908954150387,32956,1,1,0.0344808995724,0.0146502861753,-0.0281825643033,0.0,17.3999996185,0.011532073435585283,0.0048997612626421405,-0.009425606790401338,17.3999996185,0.0,0.017028948760224514,0.04688091563791987
1648624908954152279,32957,1,2,0.776815056801,-0.290075659752,0.156551137567,0.0,17.3999996185,0.2598043668230769,-0.09701527082006689,0.05235823998896321,17.3999996185,0.0,0.38001129037565545,0.8438564922585006
1648624908954155447,32958,1,3,1.09344136715,-0.175803437829,0.198553800583,0.0,17.3999996185,0.3656994538963211,-0.05879713639765886,0.0664059533722408,17.3999996185,0.0,0.520508678514297,1.12514198387284
1648624908954164075,32959,1,4,0.677999854088,-0.879017174244,-0.183274328709,0.0,17.3999996185,0.22675580404280934,-0.29398567700468226,-0.061295762110033444,17.3999996185,0.0,0.4350447880599229,1.1251419796287891
1648624909149347390,32960,3,0,0.00690207956359,0.0454158857465,0.00935835763812,0.0,13.3000001907,0.002308387813909699,0.015189259446989964,0.003129885497698997,13.3000001907,0.0,0.015536116346976405,0.046880915500064915
1648624909149352005,32961,3,1,0.0344808995724,0.0146502861753,-0.0281825643033,0.0,13.3000001907,0.011532073435585283,0.0048997612626421405,-0.009425606790401338,13.3000001907,0.0,0.017028948760224514,0.04688091563791987
1648624909149400868,32962,3,2,1.10854160786,-0.105482056737,0.161101162434,0.0,13.3000001907,0.370749701625418,-0.035278279845150494,0.053879987436120394,13.3000001907,0.0,0.5255047473995889,1.125142011120324
1648624909149420895,32963,3,3,0.760682284832,-0.808695793152,0.182532340288,0.0,13.3000001907,0.2544087909137123,-0.2704668204521739,0.06104760544749163,13.3000001907,0.0,0.45011106046603927,1.125141981960494
1648624909149426756,32964,3,4,0.75025331974,-0.290075659752,0.255087792873,0.0809188112617,13.3000001907,0.250920842722408,-0.09701527082006689,0.08531364310133778,13.3000001907,0.010934974494824324,0.36787837854016064,0.8438564535714989
1648624909254353491,32965,4,0,0.00690207956359,0.0454158857465,0.00935835763812,0.0,25.8999996185,0.002308387813909699,0.015189259446989964,0.003129885497698997,25.8999996185,0.0,0.015536116346976405,0.046880915500064915
1648624909254358403,32966,4,1,0.0344482325017,0.0146502861753,-0.0282224845141,0.0,25.8999996185,0.011521147993879599,0.0048997612626421405,-0.009438958031471571,25.8999996185,0.0,0.017014151833830576,0.04688091551642289
1648624909254359412,32967,4,2,0.845800459385,-0.278355449438,-0.023516183719,0.0,25.8999996185,0.2828764078210702,-0.09309546803946488,-0.007864944387625418,25.8999996185,0.0,0.41073700876959196,0.8907374384320073
1648624909254360511,32968,4,3,1.06806564331,-0.101086974144,-0.108000047505,0.0,25.8999996185,0.3572125897357859,-0.03380835255652174,-0.03612041722575251,25.8999996185,0.0,0.5063049212027075,1.0782610096919374
1648624909254363531,32969,4,4,0.779909431934,-0.741304457188,0.0696834176779,0.0,25.8999996185,0.26083927489431435,-0.24792791210301002,0.02330549086217391,25.8999996185,0.0,0.444457539315671,1.078261006883622
1648624909254365743,32970,4,5,0.553408741951,-0.457088917494,-0.866460025311,0.242756426334,25.8999996185,0.18508653576956519,-0.15287254765685618,-0.2897859616424749,25.8999996185,0.03280492247756756,0.30312384807773674,1.1251419864290746
1648624909254366755,32971,4,6,0.756230294704,-0.290075659752,0.23678176105,0.323675245047,25.8999996185,0.2529198310046823,-0.09701527082006689,0.07919122443143813,25.8999996185,0.04373989797932432,0.37060605041359623,0.8438564743927702
1648624909449305815,32972,6,0,0.00681018922478,0.0454158857465,0.0094254380092,0.0,37.2999992371,0.0022776552591237454,0.015189259446989964,0.0031523204044147154,37.2999992371,0.0,0.015527041878825535,0.046880915488946275
1648624909449314264,32973,6,1,0.0344808995724,0.0146502861753,-0.0281825643033,0.0,37.2999992371,0.011532073435585283,0.0048997612626421405,-0.009425606790401338,37.2999992371,0.0,0.017028948760224514,0.04688091563791987
1648624909449332750,32974,6,2,0.825675845146,-0.334026515484,-0.00994063261896,0.0,37.2999992371,0.2761457676073578,-0.11171455367357858,-0.0033246262939665545,37.2999992371,0.0,0.4061934409088859,0.8907374082639672
1648624909449386755,32975,6,3,0.691541612148,-0.0,-0.56141191721,0.0,37.2999992371,0.23128482011638796,-0.0,-0.18776318301337794,37.2999992371,0.0,0.3270861293796175,0.8907374147961131
1648624909449389333,32976,6,4,0.73790538311,-0.843856453896,0.09667686373,0.0,37.2999992371,0.2467910980301003,-0.28222623876120395,0.032333399240802675,37.2999992371,0.0,0.4488466798129415,1.1251419844558805
1648624909449394910,32977,6,5,1.10177564621,-0.105482056737,-0.202258124948,0.0,37.2999992371,0.36848683819732436,-0.035278279845150494,-0.06764485784214046,37.2999992371,0.0,0.522311838730614,1.12514194126004
1648624909554267884,32978,7,0,0.00690207956359,0.0454158857465,0.00935835763812,0.0,12.1999998093,0.002308387813909699,0.015189259446989964,0.003129885497698997,12.1999998093,0.0,0.015536116346976405,0.046880915500064915
1648624909554270017,32979,7,1,0.0345020703971,0.0146502861753,-0.0281566400081,0.0,12.1999998093,0.01153915397896321,0.0048997612626421405,-0.009416936457558528,12.1999998093,0.0,0.017038538949432653,0.04688091427489835
1648624909554272831,32980,7,2,1.06122529507,-0.134782627225,0.135208576918,0.0,12.1999998093,0.35492484784949835,-0.04507780174749164,0.04522025983879598,12.1999998093,0.0,0.5039596248236214,1.0782610271962316
1648624909554276457,32981,7,3,0.810198009014,-0.306190997362,0.207940861583,0.161837622523,12.1999998093,0.27096923378394644,-0.10240501584013377,0.06954543865652173,12.1999998093,0.021869948989594594,0.3966553145794672,0.8907374150621866
