%time,field.header.seq,field.header.frame_id,field.point_id,field.x,field.y,field.z,field.velocity,field.intensity,normalized_x,normalized_y,normalized_z,normalized_intensity,normalized_velocity,normalized_range,range
1648624807553501470,29395,0,0,0.0068351640366,0.0454158857465,0.00940734241158,0.0,29.8999996185,0.0022860080389966553,0.015189259446989964,0.003146268365076923,29.8999996185,0.0,0.015529496709703394,0.04688091548588917
1648624807553522979,29396,0,1,0.0344002954662,0.0146502861753,-0.0282808933407,0.0,29.8999996185,0.011505115540535116,0.0048997612626421405,-0.009458492756086956,29.8999996185,0.0,0.01699244030835518,0.04688091446770313
1648624807553532638,29397,0,2,0.812746763229,-0.0263705141842,-0.225479602814,0.0,29.8999996185,0.2718216599428093,-0.008819569961270902,-0.0754112383993311,29.8999996185,0.0,0.3845150379925736,0.8438564785807564
1648624807553549853,29398,0,3,0.659607589245,-0.36918720603,0.375116467476,0.0,29.8999996185,0.22060454489799328,-0.12347398194983276,0.12545701253377928,29.8999996185,0.0,0.335527278589758,0.8438564623545353
1648624807553557205,29399,0,4,0.900939047337,-0.0922968015075,0.386042505503,0.0,29.8999996185,0.3013174071361204,-0.03086849548745819,0.12911120585384614,29.8999996185,0.0,0.4272437520902187,0.9844992039814201
1648624807553560261,29400,0,5,0.853508412838,-0.461484014988,-0.166716873646,0.0,29.8999996185,0.2854543186749164,-0.15434247992909697,-0.05575815172107023,29.8999996185,0.0,0.43219201428414333,0.9844991736070594
1648624807553563850,29401,0,6,0.735677242279,-0.843856453896,0.112382106483,0.0,29.8999996185,0.24604590042775917,-0.28222623876120395,0.037585988790301,29.8999996185,0.0,0.4480277001256838,1.125141972129172
1648624807553565871,29402,0,7,1.0322136879,-0.105482056737,0.435146987438,0.0,29.8999996185,0.34522196919732434,-0.035278279845150494,0.1455341095110368,29.8999996185,0.0,0.4894905239754795,1.1251419743561046
1648624807553572391,29403,0,8,2.15697813034,-0.896597504616,0.509988307953,0.0,29.8999996185,0.721397368006689,-0.2998653861591973,0.17056465148929764,29.8999996185,0.0,1.0633661528139595,2.3909265597875327
1648624807553576670,29404,0,9,1.08096086979,-0.329631447792,0.310651659966,0.566431701183,29.8999996185,0.36152537451170563,-0.11024463136856186,0.10389687624280937,29.8999996185,0.07654482448418919,0.5230249244321422,1.1720229294814306
1648624807748648128,29405,2,0,0.00680970214307,0.0454158857465,0.00942579004914,0.0,28.7999992371,0.002277492355541806,0.015189259446989964,0.0031524381435250833,28.7999992371,0.0,0.015526994087944924,0.046880915514385384
1648624807748652099,29406,2,1,0.0344176255167,0.0146502861753,-0.0282597988844,0.0,28.7999992371,0.011510911544046824,0.0048997612626421405,-0.009451437753979932,28.7999992371,0.0,0.01700028910285438,0.04688091364524289
1648624807748657675,29407,2,2,0.836435198784,-0.0263705141842,-0.108510397375,0.0,28.7999992371,0.27974421364013374,-0.008819569961270902,-0.03629110280100334,28.7999992371,0.0,0.39571635668060945,0.8438564760204481
1648624807748842679,29408,2,3,0.763940036297,-0.34281668067,-0.104718849063,0.0,28.7999992371,0.2554983398986622,-0.1146544082508361,-0.03502302644247491,28.7999992371,0.0,0.37908368035737716,0.8438564409614576
1648624807748945583,29409,2,4,1.01584541798,-0.096691891551,0.149845436215,0.0,28.7999992371,0.3397476314314381,-0.032338425267892976,0.05011553050668895,28.7999992371,0.0,0.4815627475992632,1.031380089916969
1648624807853506501,29410,3,0,0.00674192188308,0.0454158857465,0.00947438925505,0.0,18.0,0.0022548233722675583,0.015189259446989964,0.0031686920585451504,18.0,0.0,0.015520375621363743,0.046880915526180816
1648624807853512619,29411,3,1,0.0322126448154,0.0161153152585,-0.0300077050924,0.0,18.0,0.010773459804481605,0.005389737544648829,-0.010036021770033444,18.0,0.0,0.01616119250296088,0.046880915485903306
1648624807853515908,29412,3,2,0.805195868015,-0.105482056737,-0.22940556705,0.0,18.0,0.2692962769280936,-0.035278279845150494,-0.07672426991638796,18.0,0.0,0.3824729095811855,0.8438564832691806
1648624807853519502,29413,3,3,0.744717895985,-0.808695793152,0.239480406046,0.0,18.0,0.24906953042976587,-0.2704668204521739,0.08009378128628762,18.0,0.0,0.44409859596999024,1.1251419889694034
1648624807853522480,29414,3,4,0.868070363998,-0.105482056737,0.708005547523,0.0,18.0,0.29032453645418055,-0.035278279845150494,0.23679115301772574,18.0,0.0,0.41209371502548103,1.1251419805821978
1648624807853527587,29415,3,5,0.945570230484,-0.290075659752,0.292400509119,-0.566431701183,18.0,0.31624422424214044,-0.09701527082006689,0.09779281241438127,18.0,-0.07654482448418919,0.45763826490506376,1.0313801466438905
1648624807853611165,29416,3,6,1.74837946892,0.246124818921,-1.94292485714,-0.323675245047,18.0,0.5847422972976588,0.08231599295016721,-0.649807644528428,18.0,-0.04373989797932432,0.8310373223828513,2.6253314446603433
1648624807853624626,29417,3,7,2.22073435783,-0.656332850456,1.23690402508,-0.323675245047,18.0,0.7427205210133779,-0.21950931453377925,0.4136802759464883,18.0,-0.04373989797932432,1.0730572602782467,2.6253314963816337
1648624808048555492,29418,5,0,0.00680970214307,0.0454158857465,0.00942579004914,0.0,19.8999996185,0.002277492355541806,0.015189259446989964,0.0031524381435250833,19.8999996185,0.0,0.015526994087944924,0.046880915514385384
1648624808048557807,29419,5,1,0.0344334580004,0.0146502861753,-0.0282405056059,0.0,19.8999996185,0.011516206689096989,0.0048997612626421405,-0.009444985152474916,19.8999996185,0.0,0.017007459935066523,0.04688091372574095
1648624808048560503,29420,5,2,1.01479542255,-0.096691891551,0.156799197197,0.0,19.8999996185,0.33939646239130433,-0.032338425267892976,0.05244120307591973,19.8999996185,0.0,0.48106724178255084,1.031380172274883
1648624808048673799,29421,5,3,1.28851234913,-1.34782636166,0.199028924108,0.0,19.8999996185,0.43094058499331095,-0.45077804737792637,0.066564857561204,19.8999996185,0.0,0.7580372178109793,1.8752366484467318
1648624808048678485,29422,5,4,0.795096993446,-0.361862063408,0.174039676785,-0.242756426334,19.8999996185,0.2659187269050167,-0.12102410147424747,0.058207249760869564,19.8999996185,-0.03280492247756756,0.39505995972158287,0.8907374422444535
1648624808153610444,29423,6,0,0.00680970214307,0.0454158857465,0.00942579004914,0.0,38.5999984741,0.002277492355541806,0.015189259446989964,0.0031524381435250833,38.5999984741,0.0,0.015526994087944924,0.046880915514385384
1648624808153622439,29424,6,1,0.0322126448154,0.0161153152585,-0.0300077050924,0.0,38.5999984741,0.010773459804481605,0.005389737544648829,-0.010036021770033444,38.5999984741,0.0,0.01616119250296088,0.046880915485903306
1648624808153633238,29425,6,2,1.02491247654,-0.064461261034,0.0956249088049,0.0,38.5999984741,0.3427800924882943,-0.021558950178595316,0.031981574851137125,38.5999984741,0.0,0.4852434151489027,1.031380124845052
1648624808153638562,29426,6,3,0.73725181818,-0.36918720603,0.179594740272,-0.566431701183,38.5999984741,0.24657251444147155,-0.12347398194983276,0.060065130525752505,38.5999984741,-0.07654482448418919,0.36992138891192416,0.8438564494268682
