%time,field.header.seq,field.header.frame_id,field.point_id,field.x,field.y,field.z,field.velocity,field.intensity,normalized_x,normalized_y,normalized_z,normalized_intensity,normalized_velocity,normalized_range,range
1648634471856609723,35507,0,0,0.00720767956227,0.0454158857465,0.00912507064641,0.0,16.0,0.002410595171327759,0.015189259446989964,0.0030518630924448154,16.0,0.0,0.015567130137184287,0.04688091548928497
1648634471856612678,35508,0,1,0.0342400819063,0.0146502861753,-0.0284746550024,0.0,16.0,0.011451532410133778,0.0048997612626421405,-0.009523295987424747,16.0,0.0,0.016919895079804046,0.046880913722687
1648634471856614563,35509,0,2,0.95458227396,-0.032230630517,0.389202922583,0.0,16.0,0.31925828560535113,-0.010779475089297658,0.13016820153277592,16.0,0.0,0.45162805818343116,1.0313801657242185
1648634471856617086,35510,0,3,1.38537585735,-0.219754293561,0.102373108268,0.0,16.0,0.46333640714046814,-0.07349641925117056,0.03423849774849498,16.0,0.0,0.6593655860040158,1.4064275555332357
1648634471856663173,35511,0,4,0.87331610918,-0.399952799082,0.215859770775,0.0809188112617,16.0,0.29207896628093644,-0.13376347795384613,0.07219390326923077,16.0,0.010934974494824324,0.43418073785209527,0.9844992172093667
1648634471856782755,35512,0,5,0.273084044456,-0.0307656005025,-0.945366203785,0.0809188112617,16.0,0.09133245633979932,-0.010289498495819397,-0.31617598788795986,16.0,0.010934974494824324,0.12957279398630783,0.9844992009999746
1648634471961537450,35513,1,0,0.00709097320214,0.0454158857465,0.00921605434269,0.0,12.6999998093,0.0023715629438595316,0.015189259446989964,0.0030822924223043472,12.6999998093,0.0,0.015555134976635503,0.046880915485301954
1648634471961566770,35514,1,1,0.0342400819063,0.0146502861753,-0.0284746550024,0.0,12.6999998093,0.011451532410133778,0.0048997612626421405,-0.009523295987424747,12.6999998093,0.0,0.016919895079804046,0.046880913722687
1648634471961571925,35515,1,2,0.816103994846,-0.334026515484,0.12575250864,0.0,12.6999998093,0.27294447988160536,-0.11171455367357858,0.04205769519732441,12.6999998093,0.0,0.40184265539905917,0.8907374118556132
1648634471961664412,35516,1,3,0.695521652699,-0.0,-0.556473493576,0.0,12.6999998093,0.23261593735752506,-0.0,-0.18611153631304345,12.6999998093,0.0,0.3289686134351422,0.8907374014971118
1648634471961673080,35517,1,4,1.39044928551,-0.175803437829,0.117398239672,0.0,12.6999998093,0.46503320585618724,-0.05879713639765886,0.0392636253083612,12.6999998093,0.0,0.6602793865829305,1.4064275349287814
1648634471961690279,35518,1,5,0.876252770424,-0.293005734682,0.159551918507,0.242756426334,12.6999998093,0.293061127232107,-0.09799522899063544,0.05336184565451505,12.6999998093,0.03280492247756756,0.42587875445252427,0.9376183087651062
1648634472157172013,35519,3,0,0.00703071663156,0.0454158857465,0.00926210451871,0.0,23.1000003815,0.002351410244668896,0.015189259446989964,0.003097693818966555,23.1000003815,0.0,0.015549014850640589,0.04688091546256263
1648634472157207051,35520,3,1,0.0342400819063,0.0146502861753,-0.0284746550024,0.0,23.1000003815,0.011451532410133778,0.0048997612626421405,-0.009523295987424747,23.1000003815,0.0,0.016919895079804046,0.046880913722687
1648634472157224553,35521,3,2,1.09567153454,-0.0351606868207,0.253401070833,0.0,23.1000003815,0.366445329277592,-0.011759427030334446,0.08474952201772575,23.1000003815,0.0,0.5183653565033136,1.1251419857947944
1648634472157232217,35522,3,3,0.866535425186,-0.703213751316,-0.143357217312,0.0,23.1000003815,0.28981117899197323,-0.23518854559063543,-0.04794555762943143,23.1000003815,0.0,0.47254067646550124,1.1251419976596924
1648634472157320458,35523,3,4,1.38624048233,-0.219754293561,0.0899092406034,0.0,23.1000003815,0.46362557937458193,-0.07349641925117056,0.030069980134916387,23.1000003815,0.0,0.659771990420613,1.4064274940198251
1648634472157361514,35524,3,5,0.658729791641,0.307656019926,-1.20393574238,0.0,23.1000003815,0.22031096710401335,0.10289498994180601,-0.4026540944414715,23.1000003815,0.0,0.32811769749243286,1.4064275440889886
1648634472157381989,35525,3,6,0.81473338604,-0.410208016634,0.216949298978,0.242756426334,23.1000003815,0.2724860822876254,-0.13719331659999998,0.07255829397257524,23.1000003815,0.03280492247756756,0.4090468630861566,0.937618315502662
1648634472262059342,35526,4,0,0.00703071663156,0.0454158857465,0.00926210451871,0.0,28.2999992371,0.002351410244668896,0.015189259446989964,0.003097693818966555,28.2999992371,0.0,0.015549014850640589,0.04688091546256263
1648634472262114472,35527,4,1,0.0343098901212,0.0146502861753,-0.0283905044198,0.0,28.2999992371,0.011474879639197322,0.0048997612626421405,-0.00949515197986622,28.2999992371,0.0,0.01695150099250857,0.04688091494795816
1648634472262147279,35528,4,2,1.38648951054,-0.219754293561,0.0859837755561,0.0,28.2999992371,0.46370886640133774,-0.07349641925117056,0.028757115570602003,28.2999992371,0.0,0.6598890430982857,1.4064275032986324
1648634472262214033,35529,4,3,0.893124759197,-0.668053030968,0.148249104619,-0.242756426334,28.2999992371,0.29870393284180596,-0.22342910734715715,0.049581640340802674,28.2999992371,-0.03280492247756756,0.4778793205405228,1.1251419842386854
1648634472262227100,35530,4,4,0.869124770164,-0.461484014988,-0.0298880990595,-0.0809188112617,28.2999992371,0.29067718065685616,-0.15434247992909697,-0.009996019752341136,28.2999992371,-0.010934974494824324,0.4390991321101658,0.984499192822148
1648634472457294160,35531,6,0,0.0070604425855,0.0454158857465,0.00923946499825,0.0,12.3999996185,0.002361352035284281,0.015189259446989964,0.0030901220729933104,12.3999996185,0.0,0.015552027823311542,0.046880915531761644
1648634472457330174,35532,6,1,0.0342556610703,0.0146502861753,-0.0284559112042,0.0,12.3999996185,0.011456742832876255,0.0048997612626421405,-0.009517027158595318,12.3999996185,0.0,0.016926948133323128,0.04688091384393833
1648634472457338914,35533,6,2,1.39142262936,-0.175803437829,0.105235084891,0.0,12.3999996185,0.46535873891638796,-0.05879713639765886,0.035195680565551835,12.3999996185,0.0,0.6607379321790651,1.4064274618122354
1648634472457406083,35534,6,3,0.657028198242,1.2306240797,0.178652137518,0.0,12.3999996185,0.2197418723217391,0.4115799597658863,0.059749878768561866,12.3999996185,0.0,0.515723806105376,1.4064274830443095
1648634472562058636,35535,7,0,0.00720767956227,0.0454158857465,0.00912507064641,0.0,11.8000001907,0.002410595171327759,0.015189259446989964,0.0030518630924448154,11.8000001907,0.0,0.015567130137184287,0.04688091548928497
1648634472562082659,35536,7,1,0.0343274921179,0.0146502861753,-0.0283692199737,0.0,11.8000001907,0.011480766594615385,0.0048997612626421405,-0.009488033436020065,11.8000001907,0.0,0.016959471207291858,0.04688091554181565
1648634472562100955,35537,7,2,1.38397443295,-0.219754293561,0.119838729501,0.0,11.8000001907,0.46286770332775923,-0.07349641925117056,0.04007984264247491,11.8000001907,0.0,0.6587068735109517,1.4064275671666076
1648634472562126371,35538,7,3,0.733443260193,1.18667316437,0.178622633219,0.0,11.8000001907,0.24529874922842806,0.3968806569799331,0.059740011110033436,11.8000001907,0.0,0.5271216260322524,1.4064274812646882
1648634472562196037,35539,7,4,0.714881122112,-0.448298752308,-0.00817891955376,-0.485512852669,11.8000001907,0.23909067629163877,-0.14993269307959864,-0.002735424599919732,11.8000001907,-0.06560984495527027,0.36987635154641546,0.8438564361300377
1648634472562224661,35540,7,5,0.88462638855,-0.430718421936,-0.0340074598789,-0.0809188112617,11.8000001907,0.2958616684113712,-0.14405298392508362,-0.011373732400969899,11.8000001907,-0.010934974494824324,0.4425149894049248,0.9844992197261858
1648634472562240026,35541,7,6,0.537337064743,-0.0922968015075,-0.819749295712,-0.0809188112617,11.8000001907,0.17971139289063545,-0.03086849548745819,-0.2741636440508361,11.8000001907,-0.010934974494824324,0.2560180335113992,0.984499227290432
1648634472757094191,35542,9,0,0.00703071663156,0.0454158857465,0.00926210451871,0.0,12.8999996185,0.002351410244668896,0.015189259446989964,0.003097693818966555,12.8999996185,0.0,0.015549014850640589,0.04688091546256263
1648634472757134821,35543,9,1,0.0342400819063,0.0146502861753,-0.0284746550024,0.0,12.8999996185,0.011451532410133778,0.0048997612626421405,-0.009523295987424747,12.8999996185,0.0,0.016919895079804046,0.046880913722687
1648634472757179096,35544,9,2,1.39269518852,-0.175803437829,0.086784362793,0.0,12.8999996185,0.46578434398662205,-0.05879713639765886,0.029024870499331102,12.8999996185,0.0,0.6613374429553045,1.4064274821350158
1648634472862042568,35545,10,0,0.00714846141636,0.0454158857465,0.00917153526098,0.0,13.8000001907,0.0023907897713578595,0.015189259446989964,0.0030674030973177253,13.8000001907,0.0,0.015561020339606033,0.0468809154966467
1648634472862063287,35546,10,1,0.0342556610703,0.0146502861753,-0.0284559112042,0.0,13.8000001907,0.011456742832876255,0.0048997612626421405,-0.009517027158595318,13.8000001907,0.0,0.016926948133323128,0.04688091384393833
1648634472862111677,35547,10,2,1.39367973804,-0.175803437829,0.0691970214248,0.0,13.8000001907,0.46611362476254176,-0.05879713639765886,0.02314281653003344,13.8000001907,0.0,0.6618012735157859,1.4064274914654513
1648634472862118931,35548,10,3,0.892933487892,-0.36918720603,0.188704162836,0.242756426334,13.8000001907,0.2986399625056856,-0.12347398194983276,0.06311176014581939,13.8000001907,0.03280492247756756,0.44001986163052026,0.9844991965293044
1648634472862138322,35549,10,4,0.944469988346,-0.386767566204,0.148769274354,0.323675245047,13.8000001907,0.31587625028294314,-0.1293537010715719,0.04975561015183946,13.8000001907,0.04373989797932432,0.4650677272898418,1.0313801462823855
1648634473057257039,35550,12,0,0.00714846141636,0.0454158857465,0.00917153526098,0.0,30.1000003815,0.0023907897713578595,0.015189259446989964,0.0030674030973177253,30.1000003815,0.0,0.015561020339606033,0.0468809154966467
1648634473057293134,35551,12,1,0.0342400819063,0.0146502861753,-0.0284746550024,0.0,30.1000003815,0.011451532410133778,0.0048997612626421405,-0.009523295987424747,30.1000003815,0.0,0.016919895079804046,0.046880913722687
1648634473057303301,35552,12,2,0.883615911007,-0.430718421936,0.054252140224,0.0,30.1000003815,0.2955237160558528,-0.14405298392508362,0.018144528503010033,30.1000003815,0.0,0.4420631127798847,0.9844992289985062
1648634473057392400,35553,12,3,0.84383648634,-0.0307656005025,-0.506193876266,0.0,30.1000003815,0.2822195606488294,-0.010289498495819397,-0.16929561079130434,30.1000003815,0.0,0.39925134264637363,0.9844992525249142
1648634473057403647,35554,12,4,1.07770895958,-0.0336956568062,-0.007401376497,0.0,30.1000003815,0.3604377791237458,-0.011269450436856187,-0.002475376754849498,30.1000003815,0.0,0.509860555203543,1.078260997727664
1648634473057413673,35555,12,5,1.38615202904,-0.219754293561,0.0912619456649,0.0,30.1000003815,0.46359599633444815,-0.07349641925117056,0.0305223898544816,30.1000003815,0.0,0.6597304140915463,1.4064274385394884
1648634473057864992,35556,12,6,1.51952135563,-0.75888478756,-0.352086275816,-0.323675245047,30.1000003815,0.5082011222842809,-0.25380762125752504,-0.11775460729632106,30.1000003815,-0.04373989797932432,0.7622040868365956,1.7345939053921524
1648634473057898635,35557,12,7,0.783034682274,-0.549385726452,-0.677251636982,-0.161837622523,30.1000003815,0.2618845091217391,-0.1837410456361204,-0.22650556420802673,30.1000003815,-0.021869948989594594,0.41343411093827687,1.1720229391389634
1648634473161993773,35558,13,0,0.00709097320214,0.0454158857465,0.00921605434269,0.0,23.7999992371,0.0023715629438595316,0.015189259446989964,0.0030822924223043472,23.7999992371,0.0,0.015555134976635503,0.046880915485301954
1648634473162017413,35559,13,1,0.0342556610703,0.0146502861753,-0.0284559112042,0.0,23.7999992371,0.011456742832876255,0.0048997612626421405,-0.009517027158595318,23.7999992371,0.0,0.016926948133323128,0.04688091384393833
1648634473162028552,35560,13,2,1.07631063461,-0.0,0.0648236498237,0.0,23.7999992371,0.35997011190969896,-0.0,0.021680150442709028,23.7999992371,0.0,0.509074614311657,1.0782609553123244
1648634473162075293,35561,13,3,1.38518607616,-0.219754293561,0.10490963608,0.0,23.7999992371,0.4632729351705685,-0.07349641925117056,0.035086834809364545,23.7999992371,0.0,0.65927638253304,1.4064275476783257
1648634473162092408,35562,13,4,0.787806153297,-0.46880915761,0.19674231112,-0.323675245047,23.7999992371,0.2634803188284281,-0.15679236040468228,0.06580010405351171,23.7999992371,-0.04373989797932432,0.4042617977265871,0.937618311690025
1648634473357106680,35563,15,0,0.00703071663156,0.0454158857465,0.00926210451871,0.0,33.2999992371,0.002351410244668896,0.015189259446989964,0.003097693818966555,33.2999992371,0.0,0.015549014850640589,0.04688091546256263
1648634473357151681,35564,15,1,0.0342400819063,0.0146502861753,-0.0284746550024,0.0,33.2999992371,0.011451532410133778,0.0048997612626421405,-0.009523295987424747,33.2999992371,0.0,0.016919895079804046,0.046880913722687
1648634473357187220,35565,15,2,1.38770782948,-0.219754293561,0.0633511543274,0.0,33.2999992371,0.46411633092976584,-0.07349641925117056,0.02118767703257525,33.2999992371,0.0,0.6604617028368561,1.4064275090786589
1648634473462132564,35566,16,0,0.00708608981222,0.0454158857465,0.00921980943531,0.0,12.6000003815,0.002369929703083612,0.015189259446989964,0.003083548306123746,12.6000003815,0.0,0.015554637126692793,0.04688091544530056
1648634473462163540,35567,16,1,0.0343055874109,0.0146502861753,-0.0283957011998,0.0,12.6000003815,0.011473440605652174,0.0048997612626421405,-0.009496890033377925,12.6000003815,0.0,0.016949552769726546,0.04688091359235025
1648634473462198496,35568,16,2,1.39489078522,-0.175803437829,0.0375661328435,0.0,12.6000003815,0.46651865726421404,-0.05879713639765886,0.01256392402792642,12.6000003815,0.0,0.6623718128059009,1.4064275188508575
1648634473462216061,35569,16,3,0.88527905941,-0.430718421936,-0.00117271556519,-0.161837622523,12.6000003815,0.29607995297993306,-0.14405298392508362,-0.00039221256360869565,12.6000003815,-0.021869948989594594,0.4428068871313082,0.9844992368136652
