%time,field.header.seq,field.header.frame_id,field.point_id,field.x,field.y,field.z,field.velocity,field.intensity,normalized_x,normalized_y,normalized_z,normalized_intensity,normalized_velocity,normalized_range,range
1648634494356622998,36191,0,0,0.00717832520604,0.0454158857465,0.00914818048477,0.0,28.5,0.002400777660882943,0.015189259446989964,0.003059592135374582,28.5,0.0,0.0155640955182742,0.04688091548897843
1648634494356629303,36192,0,1,0.0342400819063,0.0146502861753,-0.0284746550024,0.0,28.5,0.011451532410133778,0.0048997612626421405,-0.009523295987424747,28.5,0.0,0.016919895079804046,0.046880913722687
1648634494356639112,36193,0,2,1.38789057732,-0.219754293561,0.0592129416764,0.0,28.5,0.46417745060869564,-0.07349641925117056,0.019803659423545148,28.5,0.0,0.6605476023345479,1.4064275227021512
1648634494356643352,36194,0,3,0.892393350601,-0.36918720603,0.19124224782,0.161837622523,28.5,0.2984593145822742,-0.12347398194983276,0.063960618,28.5,0.021869948989594594,0.4397746572284372,0.9844992039836108
1648634494461913931,36195,1,0,0.00712122442201,0.0454158857465,0.00919269956648,0.0,30.2000007629,0.0023816804086989963,0.015189259446989964,0.003074481460361204,30.2000007629,0.0,0.015558226302709931,0.046880915527827895
1648634494461917600,36196,1,1,0.0342400819063,0.0146502861753,-0.0284746550024,0.0,30.2000007629,0.011451532410133778,0.0048997612626421405,-0.009523295987424747,30.2000007629,0.0,0.016919895079804046,0.046880913722687
1648634494461926628,36197,1,2,1.39377188683,-0.175803437829,0.0673157274723,0.0,30.2000007629,0.4661444437558528,-0.05879713639765886,0.02251362122819398,30.2000007629,0.0,0.6618446858119144,1.406427505574062
1648634494461930737,36198,1,3,2.18876338005,-0.805765748024,0.233681023121,0.0,30.2000007629,0.7320278863043478,-0.26948687224882945,0.0781541883347826,30.2000007629,0.0,1.069744281110621,2.344045732297784
1648634494461932489,36199,1,4,0.801215529442,-0.361862063408,0.143257424235,0.242756426334,30.2000007629,0.2679650600140468,-0.12102410147424747,0.04791218201839465,30.2000007629,0.03280492247756756,0.39781576126934987,0.8907374288483484
1648634494461934934,36200,1,5,0.877047419548,-0.399952799082,0.200160592794,0.323675245047,30.2000007629,0.29332689616989965,-0.13376347795384613,0.0669433420715719,30.2000007629,0.04373989797932432,0.4358600739545242,0.9844992029133278
1648634494656975968,36201,3,0,0.00703660352156,0.0454158857465,0.00925763323903,0.0,32.7999992371,0.0023533791042006686,0.015189259446989964,0.003096198407702341,32.7999992371,0.0,0.0155496105727491,0.04688091552483979
1648634494656984749,36202,3,1,0.0342400819063,0.0146502861753,-0.0284746550024,0.0,32.7999992371,0.011451532410133778,0.0048997612626421405,-0.009523295987424747,32.7999992371,0.0,0.016919895079804046,0.046880913722687
1648634494656991264,36203,3,2,1.38647949696,-0.219754293561,0.0861447751522,0.0,32.7999992371,0.4637055173779264,-0.07349641925117056,0.028810961589364546,32.7999992371,0.0,0.6598843363319095,1.4064274838451403
1648634494656993893,36204,3,3,0.658214628696,1.2306240797,0.174230292439,0.0,32.7999992371,0.22013867180468227,0.4115799597658863,0.058271000815719065,32.7999992371,0.0,0.5160621405690867,1.4064275017825358
1648634494761942091,36205,4,0,0.00709175039083,0.0454158857465,0.00921545643359,0.0,12.3999996185,0.0023718228731872907,0.015189259446989964,0.0030820924527056853,12.3999996185,0.0,0.015555214239332182,0.04688091550966528
1648634494761946058,36206,4,1,0.0342400819063,0.0146502861753,-0.0284746550024,0.0,12.3999996185,0.011451532410133778,0.0048997612626421405,-0.009523295987424747,12.3999996185,0.0,0.016919895079804046,0.046880913722687
1648634494761947799,36207,4,2,1.39394533634,-0.175803437829,0.0636219456792,0.0,12.3999996185,0.46620245362541807,-0.05879713639765886,0.02127824270207358,12.3999996185,0.0,0.661926399821978,1.4064274604218086
1648634494956951327,36208,6,0,0.00717832520604,0.0454158857465,0.00914818048477,0.0,12.8000001907,0.002400777660882943,0.015189259446989964,0.003059592135374582,12.8000001907,0.0,0.0155640955182742,0.04688091548897843
1648634494956959856,36209,6,1,0.0343055874109,0.0146502861753,-0.0283957011998,0.0,12.8000001907,0.011473440605652174,0.0048997612626421405,-0.009496890033377925,12.8000001907,0.0,0.016949552769726546,0.04688091359235025
1648634494956962041,36210,6,2,1.38470852375,-0.219754293561,0.111034907401,0.0,12.8000001907,0.46311321864548494,-0.07349641925117056,0.037135420535451505,12.8000001907,0.0,0.6590519176901811,1.4064275295748256
1648634494956970430,36211,6,3,0.753365397453,-0.556710898876,0.0405176430941,0.242756426334,12.8000001907,0.2519616713889632,-0.18619093607892975,0.013551051202040133,12.8000001907,0.03280492247756756,0.40204033675265455,0.9376183266173617
1648634495062007015,36212,7,0,0.00703660352156,0.0454158857465,0.00925763323903,0.0,25.1000003815,0.0023533791042006686,0.015189259446989964,0.003096198407702341,25.1000003815,0.0,0.0155496105727491,0.04688091552483979
1648634495062011266,36213,7,1,0.0342180393636,0.0146502861753,-0.0285011399537,0.0,25.1000003815,0.011444160322274247,0.0048997612626421405,-0.009532153830668895,25.1000003815,0.0,0.016909916362735828,0.046880913830336754
1648634495062018144,36214,7,2,1.07110750675,-0.101086974144,0.0718107819557,0.0,25.1000003815,0.35822993536789294,-0.03380835255652174,0.024016983931672238,25.1000003815,0.0,0.5077404631206337,1.0782609404791033
1648634495062023452,36215,7,3,1.39278936386,-0.175803437829,0.0852603316307,0.0,25.1000003815,0.4658158407558528,-0.05879713639765886,0.028515161080501672,25.1000003815,0.0,0.6613818097337792,1.4064275256776708
1648634495256928073,36216,9,0,0.00703071663156,0.0454158857465,0.00926210451871,0.0,13.0,0.002351410244668896,0.015189259446989964,0.003097693818966555,13.0,0.0,0.015549014850640589,0.04688091546256263
1648634495256937348,36217,9,1,0.0342400819063,0.0146502861753,-0.0284746550024,0.0,13.0,0.011451532410133778,0.0048997612626421405,-0.009523295987424747,13.0,0.0,0.016919895079804046,0.046880913722687
1648634495257034110,36218,9,2,1.39335894585,-0.175803437829,0.0753817260265,0.0,13.0,0.46600633640468225,-0.05879713639765886,0.025211279607525085,13.0,0.0,0.6616501450065531,1.4064275329185831
1648634495257038811,36219,9,3,0.9368724823,-0.386767566204,0.190855562687,-0.323675245047,13.0,0.313335278361204,-0.1293537010715719,0.06383129186856186,13.0,-0.04373989797932432,0.4616171284866929,1.0313801647146896
1648634495257041667,36220,9,4,0.851372420788,-0.380907446146,0.0959300771356,-0.161837622523,13.0,0.28473994006287623,-0.12739379469765885,0.03208363783799331,13.0,-0.021869948989594594,0.42235393435066987,0.9376182917942298
1648634495362023459,36221,10,0,0.00720767956227,0.0454158857465,0.00912507064641,0.0,27.2999992371,0.002410595171327759,0.015189259446989964,0.0030518630924448154,27.2999992371,0.0,0.015567130137184287,0.04688091548928497
1648634495362035351,36222,10,1,0.0342400819063,0.0146502861753,-0.0284746550024,0.0,27.2999992371,0.011451532410133778,0.0048997612626421405,-0.009523295987424747,27.2999992371,0.0,0.016919895079804046,0.046880913722687
1648634495362056498,36223,10,2,1.39274001122,-0.175803437829,0.0860630422831,0.0,27.2999992371,0.46579933485618724,-0.05879713639765886,0.02878362618163879,27.2999992371,0.0,0.6613585592955593,1.4064275434065572
1648634495362059598,36224,10,3,0.858765721321,-0.351606875658,0.134246230125,-0.161837622523,27.2999992371,0.2872126158264214,-0.11759427279531771,0.044898404724080264,27.2999992371,-0.021869948989594594,0.42286000800970835,0.9376182642358948
1648634495556896387,36225,12,0,0.0070613711141,0.0454158857465,0.00923875533044,0.0,27.6000003815,0.002361662579966555,0.015189259446989964,0.0030898847258996652,27.6000003815,0.0,0.015552122132725246,0.04688091552226685
1648634495556910478,36226,12,1,0.0342400819063,0.0146502861753,-0.0284746550024,0.0,27.6000003815,0.011451532410133778,0.0048997612626421405,-0.009523295987424747,27.6000003815,0.0,0.016919895079804046,0.046880913722687
1648634495556996398,36227,12,2,1.06459784508,-0.0,0.171108722687,0.0,27.6000003815,0.3560527909966555,-0.0,0.0572269975541806,27.6000003815,0.0,0.5035346859482632,1.0782609919349564
1648634495557013042,36228,12,3,1.38688421249,-0.219754293561,0.0793631151319,0.0,27.6000003815,0.4638408737424749,-0.07349641925117056,0.026542847870200666,27.6000003815,0.0,0.6600745684777659,1.4064274856656993
1648634495557015888,36229,12,4,0.722014784813,1.18667316437,0.220317468047,0.0,27.6000003815,0.2414765166598662,0.3968806569799331,0.07368477192207358,27.6000003815,0.0,0.5235800531735224,1.4064275079971638
1648634495557018788,36230,12,5,0.865532577038,-0.351606875658,0.0797122791409,0.0809188112617,27.6000003815,0.28947577827357857,-0.11759427279531771,0.026659625130735783,27.6000003815,0.010934974494824324,0.42593528312226925,0.9376183041994532
1648634495557020713,36231,12,6,0.913041949272,-0.307655990124,0.202338546515,0.242756426334,27.6000003815,0.30536520042541804,-0.10289497997458194,0.06767175468729096,27.6000003815,0.03280492247756756,0.44394052322994926,0.9844992111705295
1648634495661944916,36232,13,0,0.0070613711141,0.0454158857465,0.00923875533044,0.0,34.0,0.002361662579966555,0.015189259446989964,0.0030898847258996652,34.0,0.0,0.015552122132725246,0.04688091552226685
1648634495661953857,36233,13,1,0.0342400819063,0.0146502861753,-0.0284746550024,0.0,34.0,0.011451532410133778,0.0048997612626421405,-0.009523295987424747,34.0,0.0,0.016919895079804046,0.046880913722687
1648634495661974479,36234,13,2,1.07178711891,-0.0336956568062,0.113065227866,0.0,34.0,0.3584572304046822,-0.011269450436856187,0.03781445748026756,34.0,0.0,0.5070603243914273,1.0782609940554235
1648634495661976182,36235,13,3,1.38561809063,-0.219754293561,0.0990390256047,0.0,34.0,0.4634174216153846,-0.07349641925117056,0.03312341993468227,34.0,0.0,0.6594794439222849,1.4064274496796305
1648634495856939067,36236,15,0,0.00712122442201,0.0454158857465,0.00919269956648,0.0,12.1000003815,0.0023816804086989963,0.015189259446989964,0.003074481460361204,12.1000003815,0.0,0.015558226302709931,0.046880915527827895
1648634495857080247,36237,15,1,0.0342400819063,0.0146502861753,-0.0284746550024,0.0,12.1000003815,0.011451532410133778,0.0048997612626421405,-0.009523295987424747,12.1000003815,0.0,0.016919895079804046,0.046880913722687
1648634495857083803,36238,15,2,1.06953310966,-0.0336956568062,0.132704183459,0.0,12.1000003815,0.35770338115719064,-0.011269450436856187,0.04438267005317726,12.1000003815,0.0,0.5059944844518778,1.0782610399407515
1648634495857090788,36239,15,3,1.38550078869,-0.219754293561,0.10066806525,0.0,12.1000003815,0.46337819019732435,-0.07349641925117056,0.033668249247491636,12.1000003815,0.0,0.6594243079716119,1.4064275467866392
1648634495857092700,36240,15,4,0.774196386337,-0.584546387196,0.167821705341,-0.242756426334,12.1000003815,0.25892855730334446,-0.1955004639451505,0.05612766064916387,12.1000003815,-0.03280492247756756,0.41510050226077994,0.9844991864825114
1648634495961952908,36241,16,0,0.0070613711141,0.0454158857465,0.00923875533044,0.0,25.7999992371,0.002361662579966555,0.015189259446989964,0.0030898847258996652,25.7999992371,0.0,0.015552122132725246,0.04688091552226685
1648634495961957641,36242,16,1,0.0342400819063,0.0146502861753,-0.0284746550024,0.0,25.7999992371,0.011451532410133778,0.0048997612626421405,-0.009523295987424747,25.7999992371,0.0,0.016919895079804046,0.046880913722687
1648634495961965652,36243,16,2,1.39480674267,-0.175803437829,0.040565110743,0.0,25.7999992371,0.4664905493879598,-0.05879713639765886,0.013566926669899665,25.7999992371,0.0,0.662332219196021,1.4064274692851326
1648634495961971214,36244,16,3,0.792688190937,-0.498109728098,0.0515771172941,-0.0809188112617,25.7999992371,0.2651131073367893,-0.1665918823070234,0.017249872004715717,25.7999992371,-0.010934974494824324,0.41027158640848266,0.93761829563272
