%time,field.header.seq,field.header.frame_id,field.point_id,field.x,field.y,field.z,field.velocity,field.intensity,normalized_x,normalized_y,normalized_z,normalized_intensity,normalized_velocity,normalized_range,range
1648624768348305270,28059,0,0,0.00680970214307,0.0454158857465,0.00942579004914,0.0,41.5999984741,0.002277492355541806,0.015189259446989964,0.0031524381435250833,41.5999984741,0.0,0.015526994087944924,0.046880915514385384
1648624768348319906,28060,0,1,0.0344176255167,0.0146502861753,-0.0282597988844,0.0,41.5999984741,0.011510911544046824,0.0048997612626421405,-0.009451437753979932,41.5999984741,0.0,0.01700028910285438,0.04688091364524289
1648624768348323905,28061,0,2,0.821238040924,-0.079111546278,-0.177209481597,0.0,41.5999984741,0.27466155214849497,-0.026458711129765885,-0.05926738514949833,41.5999984741,0.0,0.3893301938610583,0.8438564789009225
1648624768348332063,28062,0,3,1.02075576782,-0.096691891551,0.111594632268,0.0,41.5999984741,0.34138988890301003,-0.032338425267892976,0.037322619487625414,41.5999984741,0.0,0.48388003289991843,1.0313801536681508
1648624768348343443,28063,0,4,2.10958528519,-0.952268660069,0.370655268431,0.0,41.5999984741,0.7055469181237458,-0.3184845016953177,0.12396497271939798,41.5999984741,0.0,1.0473897484546744,2.3440458622764697
1648624768348444277,28064,0,5,0.590399205685,-0.36918720603,-0.695965707302,-0.566431701183,41.5999984741,0.19745792832274248,-0.12347398194983276,-0.2327644506026756,41.5999984741,-0.07654482448418919,0.3053278420543502,0.9844992031028211
1648624768348453288,28065,0,6,0.942659914494,-0.0,0.28395602107,-0.566431701183,41.5999984741,0.315270874412709,-0.0,0.09496856891973243,41.5999984741,-0.07654482448418919,0.44586034641567784,0.9844992312316662
1648624768453313180,28066,1,0,0.00693395035341,0.0454158857465,0.00933476816863,0.0,24.5,0.002319046940939799,0.015189259446989964,0.003121996043020067,24.5,0.0,0.01553929084535515,0.046880915545718216
1648624768453322059,28067,1,1,0.0322126448154,0.0161153152585,-0.0300077050924,0.0,24.5,0.010773459804481605,0.005389737544648829,-0.010036021770033444,24.5,0.0,0.01616119250296088,0.046880915485903306
1648624768453327482,28068,1,2,0.831023693085,-0.0527410283685,-0.136790797114,0.0,24.5,0.2779343455133779,-0.017639139922575247,-0.04574943047290969,24.5,0.0,0.39345411433750144,0.8438564550426113
1648624768453331362,28069,1,3,0.760348320007,-0.808695793152,0.18391866982,0.0,24.5,0.2542970969923077,-0.2704668204521739,0.06151126080936454,24.5,0.0,0.44998480868018065,1.1251420046854388
1648624768453344415,28070,1,4,0.68809235096,-0.402882874012,-0.858983159065,-0.647350490093,24.5,0.23013122105685616,-0.13474343612441472,-0.28728533747993307,24.5,-0.08747979595851352,0.3522450161306096,1.1720229354322023
1648624768453426144,28071,1,5,1.1265693903,0.0366257168353,0.321150869131,-0.647350490093,24.5,0.37677906030100333,0.012249403623846153,0.10740831743511704,24.5,-0.08747979595851352,0.5329868370342311,1.172023001070461
1648624768648817432,28072,3,0,0.00677556637675,0.0454158857465,0.00945035740733,0.0,29.2999992371,0.0022660757112876254,0.015189259446989964,0.0031606546512809365,29.2999992371,0.0,0.015523652946602141,0.046880915445319145
1648624768648882651,28073,3,1,0.0322126448154,0.0161153152585,-0.0300077050924,0.0,29.2999992371,0.010773459804481605,0.005389737544648829,-0.010036021770033444,29.2999992371,0.0,0.01616119250296088,0.046880915485903306
1648624768649033781,28074,3,2,0.786953449249,-0.0747164562345,-0.101448312402,0.0,29.2999992371,0.26319513352809365,-0.024988781349331104,-0.0339292014722408,29.2999992371,0.0,0.3730520014945193,0.7969755580984615
1648624768649047168,28075,3,3,1.05443322659,-0.0673913136125,0.215117752552,0.0,29.2999992371,0.3526532530401338,-0.02253890087374582,0.07194573663946488,29.2999992371,0.0,0.4992360521959265,1.078260945203173
1648624768649052623,28076,3,4,0.650528609753,-0.842391431332,0.172730863094,0.0,29.2999992371,0.21756809690735784,-0.2817362646595318,0.057769519429431426,29.2999992371,0.0,0.4171894970011645,1.078260982672537
1648624768649058089,28077,3,5,2.11138224602,-0.952268660069,0.36027854681,0.0,29.2999992371,0.7061479083678929,-0.3184845016953177,0.12049449726086955,29.2999992371,0.0,1.0481994632725276,2.34404590847739
1648624768649084348,28078,3,6,0.8608314991,-0.105482056737,-0.716789424419,0.566431701183,29.2999992371,0.28790351140468223,-0.035278279845150494,-0.23972890448795983,29.2999992371,0.07654482448418919,0.408682542797126,1.1251419524198456
1648624768753797016,28079,4,0,0.00677556637675,0.0454158857465,0.00945035740733,0.0,25.3999996185,0.0022660757112876254,0.015189259446989964,0.0031606546512809365,25.3999996185,0.0,0.015523652946602141,0.046880915445319145
1648624768753829836,28080,4,1,0.0322376936674,0.0161153152585,-0.0299807935953,0.0,25.3999996185,0.010781837346956522,0.005389737544648829,-0.010027021269331103,25.3999996185,0.0,0.016172362349163777,0.04688091577047047
1648624768753847615,28081,4,2,0.791903972626,-0.0498109720647,-0.0746791362762,0.0,25.3999996185,0.2648508269652174,-0.016659187981505015,-0.02497629975792642,25.3999996185,0.0,0.37492592552732623,0.796975538014706
1648624768753873987,28082,4,3,1.06440162659,-0.0336956568062,0.168998509645,0.0,25.3999996185,0.355987166083612,-0.011269450436856187,0.05652124068394648,25.3999996185,0.0,0.5035679947590307,1.0782609685216609
1648624768754065144,28083,4,4,2.1088848114,-0.952268660069,0.374620646238,0.0,25.3999996185,0.7053126459531771,-0.3184845016953177,0.12529118603277592,25.3999996185,0.0,1.0470741305672002,2.344045941804682
1648624768754099032,28084,4,5,0.871634721756,-0.234404578805,0.253841400146,-0.647350490093,25.3999996185,0.29151662934983275,-0.07839618020234114,0.08489678934648828,25.3999996185,-0.08747979595851352,0.4196544428995045,0.9376182864916248
1648624768949056352,28085,6,0,0.00680970214307,0.0454158857465,0.00942579004914,0.0,24.8999996185,0.002277492355541806,0.015189259446989964,0.0031524381435250833,24.8999996185,0.0,0.015526994087944924,0.046880915514385384
1648624768949085889,28086,6,1,0.0344546698034,0.0146502861753,-0.0282146241516,0.0,24.8999996185,0.011523300937591973,0.0048997612626421405,-0.009436329147692307,24.8999996185,0.0,0.01701706759190621,0.046880914797981066
1648624768949179061,28087,6,2,1.00464475155,-0.096691891551,0.212331324816,0.0,24.8999996185,0.3360015891471572,-0.032338425267892976,0.07101382100869565,24.8999996185,0.0,0.4762771352559738,1.0313801385555132
1648624768949206743,28088,6,3,0.742745041847,-0.843856453896,0.046696446836,0.0,24.8999996185,0.24840971299230766,-0.28222623876120395,0.015617540747826087,24.8999996185,0.0,0.45062891702945274,1.1251419777598473
1648624768949226325,28089,6,4,2.10652327538,-0.952268660069,0.387680113316,0.0,24.8999996185,0.7045228345752508,-0.3184845016953177,0.12965890077458192,24.8999996185,0.0,1.0460101465549974,2.3440460279030355
1648624768949234176,28090,6,5,0.749076247215,-0.224149376154,0.154310911894,-0.485512852669,24.8999996185,0.2505271729816053,-0.07496634653979932,0.05160900063344481,24.8999996185,-0.06560984495527027,0.36214317875370183,0.7969755482456742
