%time,field.header.seq,field.header.frame_id,field.point_id,field.x,field.y,field.z,field.velocity,field.intensity,normalized_x,normalized_y,normalized_z,normalized_intensity,normalized_velocity,normalized_range,range
1648634455956122270,35009,0,0,0.00703071663156,0.0454158857465,0.00926210451871,0.0,12.3999996185,0.002351410244668896,0.015189259446989964,0.003097693818966555,12.3999996185,0.0,0.015549014850640589,0.04688091546256263
1648634455956138895,35010,0,1,0.0342556610703,0.0146502861753,-0.0284559112042,0.0,12.3999996185,0.011456742832876255,0.0048997612626421405,-0.009517027158595318,12.3999996185,0.0,0.016926948133323128,0.04688091384393833
1648634455956141357,35011,0,2,1.39230704308,-0.175803437829,0.0928033590317,0.0,12.3999996185,0.4656545294581939,-0.05879713639765886,0.031037912719632108,12.3999996185,0.0,0.6611545846913782,1.4064274650369406
1648634456061068817,35012,1,0,0.00703071663156,0.0454158857465,0.00926210451871,0.0,12.5,0.002351410244668896,0.015189259446989964,0.003097693818966555,12.5,0.0,0.015549014850640589,0.04688091546256263
1648634456061073813,35013,1,1,0.0342556610703,0.0146502861753,-0.0284559112042,0.0,12.5,0.011456742832876255,0.0048997612626421405,-0.009517027158595318,12.5,0.0,0.016926948133323128,0.04688091384393833
1648634456061077423,35014,1,2,1.02629446983,-0.032230630517,0.0970869213343,0.0,12.5,0.3432422976020067,-0.010779475089297658,0.03247054225227424,12.5,0.0,0.4855375853725537,1.03138015427937
1648634456061081427,35015,1,3,1.39046525955,-0.175803437829,0.117209494114,0.0,12.5,0.46503854834448155,-0.05879713639765886,0.03920049970367893,12.5,0.0,0.660286911986941,1.4064275851526817
1648634456256423442,35016,3,0,0.00709097320214,0.0454158857465,0.00921605434269,0.0,12.1999998093,0.0023715629438595316,0.015189259446989964,0.0030822924223043472,12.1999998093,0.0,0.015555134976635503,0.046880915485301954
1648634456256427079,35017,3,1,0.0343429744244,0.0146502861753,-0.0283504724503,0.0,12.1999998093,0.01148594462354515,0.0048997612626421405,-0.009481763361304347,12.1999998093,0.0,0.01696648190466073,0.046880913658848396
1648634456256428776,35018,3,2,0.899421513081,-0.399952799082,0.0178176891059,0.0,12.1999998093,0.3008098705956522,-0.13376347795384613,0.0059590933464548496,12.1999998093,0.0,0.44594374592526254,0.9844992482127738
1648634456256517290,35019,3,3,0.392490893602,-0.0307656005025,-0.902354180813,0.0,12.1999998093,0.13126785739197325,-0.010289498495819397,-0.30179069592408025,12.1999998093,0.0,0.1859257232011061,0.9844992084128236
1648634456256518972,35020,3,4,1.39321553707,-0.175803437829,0.0779862701893,0.0,12.1999998093,0.46595837360200665,-0.05879713639765886,0.02608236461180602,12.1999998093,0.0,0.6615825837400946,1.4064274740717282
1648634456256520369,35021,3,5,0.852796494961,-0.547920703888,0.190436348319,0.566431701183,12.1999998093,0.28521621905050165,-0.18325107153444814,0.06369108639431438,12.1999998093,0.07654482448418919,0.44303220925509573,1.0313801250402121
1648634456361186662,35022,4,0,0.00720767956227,0.0454158857465,0.00912507064641,0.0,28.6000003815,0.002410595171327759,0.015189259446989964,0.0030518630924448154,28.6000003815,0.0,0.015567130137184287,0.04688091548928497
1648634456361214411,35023,4,1,0.0342400819063,0.0146502861753,-0.0284746550024,0.0,28.6000003815,0.011451532410133778,0.0048997612626421405,-0.009523295987424747,28.6000003815,0.0,0.016919895079804046,0.046880913722687
1648634456361216624,35024,4,2,1.3917235136,-0.175803437829,0.101179070771,0.0,28.6000003815,0.46545936909698993,-0.05879713639765886,0.03383915410401338,28.6000003815,0.0,0.6608796802814417,1.40642752796641
1648634456361218943,35025,4,3,0.62708979845,1.2306240797,0.265256494284,0.0,28.6000003815,0.20972902958193979,0.4115799597658863,0.08871454658327758,28.6000003815,0.0,0.5073170556758889,1.4064274771979435
1648634456556332905,35026,6,0,0.0070613711141,0.0454158857465,0.00923875533044,0.0,12.3000001907,0.002361662579966555,0.015189259446989964,0.0030898847258996652,12.3000001907,0.0,0.015552122132725246,0.04688091552226685
1648634456556337052,35027,6,1,0.0342556610703,0.0146502861753,-0.0284559112042,0.0,12.3000001907,0.011456742832876255,0.0048997612626421405,-0.009517027158595318,12.3000001907,0.0,0.016926948133323128,0.04688091384393833
1648634456556517244,35028,6,2,1.01625883579,-0.0,0.175963059068,0.0,12.3000001907,0.3398858982575251,-0.0,0.058850521427424744,12.3000001907,0.0,0.4806712469751539,1.0313801527457345
1648634456556521595,35029,6,3,0.429916143417,0.934688270092,0.0726290792227,0.0,12.3000001907,0.1437846633501672,0.31260477260602004,0.024290661947391302,12.3000001907,0.0,0.37292063858883345,1.0313801606424564
1648634456556523607,35030,6,4,1.39308810234,-0.175803437829,0.0802312642336,0.0,12.3000001907,0.46591575329096985,-0.05879713639765886,0.026833198740334446,12.3000001907,0.0,0.6615225480495345,1.4064275187133815
1648634456661248140,35031,7,0,0.00703071663156,0.0454158857465,0.00926210451871,0.0,12.6999998093,0.002351410244668896,0.015189259446989964,0.003097693818966555,12.6999998093,0.0,0.015549014850640589,0.04688091546256263
1648634456661252426,35032,7,1,0.0342400819063,0.0146502861753,-0.0284746550024,0.0,12.6999998093,0.011451532410133778,0.0048997612626421405,-0.009523295987424747,12.6999998093,0.0,0.016919895079804046,0.046880913722687
1648634456661254549,35033,7,2,1.39335608482,-0.175803437829,0.0754342824221,0.0,12.6999998093,0.4660053795384615,-0.05879713639765886,0.025228856997357857,12.6999998093,0.0,0.6616487971470484,1.4064275163768487
1648634456661257686,35034,7,3,0.86931848526,-0.461484014988,0.0235922839493,0.0809188112617,12.6999998093,0.29074196831438126,-0.15434247992909697,0.00789039596966555,12.6999998093,0.010934974494824324,0.43918491024772816,0.9844992233446047
1648634456856322304,35035,9,0,0.0070613711141,0.0454158857465,0.00923875533044,0.0,15.3999996185,0.002361662579966555,0.015189259446989964,0.0030898847258996652,15.3999996185,0.0,0.015552122132725246,0.04688091552226685
1648634456856328841,35036,9,1,0.0342556610703,0.0146502861753,-0.0284559112042,0.0,15.3999996185,0.011456742832876255,0.0048997612626421405,-0.009517027158595318,15.3999996185,0.0,0.016926948133323128,0.04688091384393833
1648634456856331269,35037,9,2,1.38852679729,-0.219754293561,0.0417104549706,0.0,15.3999996185,0.4643902332073578,-0.07349641925117056,0.013949984939999998,15.3999996185,0.0,0.6608466547085732,1.4064275233316408
1648634456856333902,35038,9,3,0.0575602613389,0.307656019926,-1.37115752697,0.0,15.3999996185,0.01925092352471572,0.10289498994180601,-0.45858111269899665,15.3999996185,0.0,0.10643577907937381,1.4064275217900837
1648634456856484740,35039,9,4,0.794812142849,-0.523015201092,0.252917945385,0.323675245047,15.3999996185,0.26582345914682276,-0.1749214719371237,0.08458794160033445,15.3999996185,0.04373989797932432,0.4146344706005701,0.9844992280805984
1648634456961389935,35040,10,0,0.00717832520604,0.0454158857465,0.00914818048477,0.0,25.8999996185,0.002400777660882943,0.015189259446989964,0.003059592135374582,25.8999996185,0.0,0.0155640955182742,0.04688091548897843
1648634456961396312,35041,10,1,0.0342400819063,0.0146502861753,-0.0284746550024,0.0,25.8999996185,0.011451532410133778,0.0048997612626421405,-0.009523295987424747,25.8999996185,0.0,0.016919895079804046,0.046880913722687
1648634456961400059,35042,10,2,0.993356466293,-0.0,0.27746707201,0.0,25.8999996185,0.33222624290735786,-0.0,0.09279835184280935,25.8999996185,0.0,0.4698388584958438,1.0313801652038488
1648634456961407021,35043,10,3,1.39450287819,-0.175803437829,0.049933578819,0.0,25.8999996185,0.4663889224715719,-0.05879713639765886,0.01670019358494983,25.8999996185,0.0,0.6621890645857516,1.406427562417049
1648634456961410615,35044,10,4,0.415173172951,0.307656019926,1.3080586195,0.0,25.8999996185,0.13885390399698996,0.10289498994180601,0.4374777991638795,25.8999996185,0.0,0.22169391571609487,1.4064275104615787
1648634456961414282,35045,10,5,0.859872877598,-0.461484014988,0.129960760474,0.0809188112617,25.8999996185,0.287582902206689,-0.15434247992909697,0.04346513728227424,25.8999996185,0.010934974494824324,0.4350051176640428,0.9844991929814316
1648634457156375668,35046,12,0,0.00718372128904,0.0454158857465,0.00914394389838,0.0,17.1000003815,0.0024025823709163878,0.015189259446989964,0.003058175216849498,17.1000003815,0.0,0.01556465247431019,0.04688091551702535
1648634457156379188,35047,12,1,0.0342776104808,0.0146502861753,-0.0284294709563,0.0,17.1000003815,0.011464083772842807,0.0048997612626421405,-0.009508184266321069,17.1000003815,0.0,0.016936885603097283,0.046880915990909794
1648634457156384472,35048,12,2,1.3853430748,-0.219754293561,0.102814882994,0.0,17.1000003815,0.463325443076923,-0.07349641925117056,0.034386248492976584,17.1000003815,0.0,0.6593501771043957,1.4064274899901106
1648634457156406878,35049,12,3,0.884834587574,-0.430718421936,0.0280731339008,-0.0809188112617,17.1000003815,0.2959313001919732,-0.14405298392508362,0.009389007993578596,17.1000003815,-0.010934974494824324,0.44260810097008385,0.9844992164594653
1648634457261318391,35050,13,0,0.00703071663156,0.0454158857465,0.00926210451871,0.0,17.0,0.002351410244668896,0.015189259446989964,0.003097693818966555,17.0,0.0,0.015549014850640589,0.04688091546256263
1648634457261325873,35051,13,1,0.0342556610703,0.0146502861753,-0.0284559112042,0.0,17.0,0.011456742832876255,0.0048997612626421405,-0.009517027158595318,17.0,0.0,0.016926948133323128,0.04688091384393833
1648634457261331182,35052,13,2,1.06521642208,-0.0336956568062,0.163784697652,0.0,17.0,0.35625967293645483,-0.011269450436856187,0.0547774908535117,17.0,0.0,0.5039532812024625,1.0782610307070708
1648634457261336291,35053,13,3,1.38912248611,-0.175803437829,0.132175475359,0.0,17.0,0.4645894602374582,-0.05879713639765886,0.04420584460167224,17.0,0.0,0.6596543309764823,1.4064275617518662
1648634457456295241,35054,15,0,0.0070613711141,0.0454158857465,0.00923875533044,0.0,12.3000001907,0.002361662579966555,0.015189259446989964,0.0030898847258996652,12.3000001907,0.0,0.015552122132725246,0.04688091552226685
1648634457456346773,35055,15,1,0.0342556610703,0.0146502861753,-0.0284559112042,0.0,12.3000001907,0.011456742832876255,0.0048997612626421405,-0.009517027158595318,12.3000001907,0.0,0.016926948133323128,0.04688091384393833
1648634457456357113,35056,15,2,1.07214844227,-0.0673913136125,0.0927524343133,0.0,12.3000001907,0.35857807433779265,-0.02253890087374582,0.031020881041237458,12.3000001907,0.0,0.5076066122936104,1.0782610470027418
1648634457456367051,35057,15,3,1.38795137405,-0.175803437829,0.143953755498,0.0,12.3000001907,0.46419778396321065,-0.05879713639765886,0.04814506872842809,12.3000001907,0.0,0.6591026236643851,1.4064275840589007
1648634457456618562,35058,15,4,0.817940950394,-0.49224960804,0.240627557039,-0.242756426334,12.3000001907,0.2735588462856187,-0.16463197593311035,0.0804774438257525,12.3000001907,-0.03280492247756756,0.42044330445599654,0.9844992108445445
1648634457561294453,35059,16,0,0.00703071663156,0.0454158857465,0.00926210451871,0.0,27.5,0.002351410244668896,0.015189259446989964,0.003097693818966555,27.5,0.0,0.015549014850640589,0.04688091546256263
1648634457561297483,35060,16,1,0.0342400819063,0.0146502861753,-0.0284746550024,0.0,27.5,0.011451532410133778,0.0048997612626421405,-0.009523295987424747,27.5,0.0,0.016919895079804046,0.046880913722687
1648634457561299329,35061,16,2,1.11272418499,-0.0703213736415,0.151143804193,0.0,27.5,0.3721485568528428,-0.023518854060702338,0.050549767288628755,27.5,0.0,0.5268227721270557,1.1251420608076206
1648634457561301138,35062,16,3,1.3825302124,-0.219754293561,0.13548669219,0.0,27.5,0.4623846864214047,-0.07349641925117056,0.04531327497993311,27.5,0.0,0.6580280542019354,1.4064275244383804
1648634457561302813,35063,16,4,0.837586820126,0.307656019926,-1.08712208271,0.0,27.5,0.28012937127959864,0.10289498994180601,-0.3635859808394649,27.5,0.0,0.40930710751479843,1.406427506329857
