%time,field.header.seq,field.header.frame_id,field.point_id,field.x,field.y,field.z,field.velocity,field.intensity,normalized_x,normalized_y,normalized_z,normalized_intensity,normalized_velocity,normalized_range,range
1648634513557023549,36705,0,0,0.0070613711141,0.0454158857465,0.00923875533044,0.0,35.4000015259,0.002361662579966555,0.015189259446989964,0.0030898847258996652,35.4000015259,0.0,0.015552122132725246,0.04688091552226685
1648634513557029899,36706,0,1,0.0342724137008,0.0146502861753,-0.0284357331693,0.0,35.4000015259,0.011462345719331104,0.0048997612626421405,-0.009510278651939798,35.4000015259,0.0,0.01693453274258917,0.046880914525770485
1648634513557031764,36707,0,2,1.12054800987,0.0703213736415,-0.0732908472419,0.0,35.4000015259,0.37476522069230767,0.023518854060702338,-0.024511989044113714,35.4000015259,0.0,0.5305196299642801,1.1251419849529571
1648634513557036075,36708,0,3,0.951230406761,-0.281285494566,0.531021237373,0.0,35.4000015259,0.3181372597862876,-0.09407541624280935,0.17759907604448158,35.4000015259,0.0,0.45964422771303626,1.1251419335981967
1648634513557128205,36709,0,4,1.14999830723,-0.146502867341,0.172274813056,-0.242756426334,35.4000015259,0.38461481847157186,-0.04899761449531772,0.05761699433311036,35.4000015259,-0.03280492247756756,0.5461299143995613,1.17202295539997
1648634513557133232,36710,0,5,1.13862299919,-0.219754308462,0.16995164752,-0.242756426334,35.4000015259,0.3808103676220736,-0.0734964242347826,0.05684001589297658,35.4000015259,-0.03280492247756756,0.5435391398530716,1.1720229745473445
1648634513662149238,36711,1,0,0.00703660352156,0.0454158857465,0.00925763323903,0.0,25.0,0.0023533791042006686,0.015189259446989964,0.003096198407702341,25.0,0.0,0.0155496105727491,0.04688091552483979
1648634513662177548,36712,1,1,0.0342024937272,0.0146502861753,-0.0285197943449,0.0,25.0,0.01143896111277592,0.0048997612626421405,-0.009538392757491637,25.0,0.0,0.01690287913670591,0.046880914364512256
1648634513662182694,36713,1,2,1.05597531796,-0.0,0.218089163303,0.0,25.0,0.35316900266220735,-0.0,0.0729395194993311,25.0,0.0,0.49945639337467335,1.0782609866312172
1648634513662185980,36714,1,3,1.08960711956,-0.210964113474,0.184918865561,-0.242756426334,25.0,0.3644170968428093,-0.07055655969030099,0.06184577443511706,25.0,-0.03280492247756756,0.5201709998241097,1.1251419994872105
1648634513857177559,36715,3,0,0.0070613711141,0.0454158857465,0.00923875533044,0.0,31.8999996185,0.002361662579966555,0.015189259446989964,0.0030898847258996652,31.8999996185,0.0,0.015552122132725246,0.04688091552226685
1648634513857183761,36716,3,1,0.0342180393636,0.0146502861753,-0.0285011399537,0.0,31.8999996185,0.011444160322274247,0.0048997612626421405,-0.009532153830668895,31.8999996185,0.0,0.016909916362735828,0.046880913830336754
1648634513857193402,36717,3,2,1.05916130543,-0.0,0.202049851418,0.0,31.8999996185,0.35423455031103673,-0.0,0.0675752011431438,31.8999996185,0.0,0.5009633053110026,1.078261013566853
1648634513857210481,36718,3,3,0.962695717812,-0.336956560612,0.349748432636,-0.242756426334,31.8999996185,0.3219718119772575,-0.11269450187692308,0.11697271994515049,31.8999996185,-0.03280492247756756,0.469075416291586,1.078260977205597
1648634513857292008,36719,3,4,0.948735654354,-0.386767566204,0.118559882045,-0.0809188112617,31.8999996185,0.3173028944327759,-0.1293537010715719,0.0396521344632107,31.8999996185,-0.010934974494824324,0.4670060316652754,1.0313801131204743
1648634513962161313,36720,4,0,0.0072371494025,0.0454158857465,0.0091017158702,0.0,21.3999996185,0.0024204513051839464,0.015189259446989964,0.003044052130501672,21.3999996185,0.0,0.015570188553434644,0.0468809155349498
1648634513962166274,36721,4,1,0.0342180393636,0.0146502861753,-0.0285011399537,0.0,21.3999996185,0.011444160322274247,0.0048997612626421405,-0.009532153830668895,21.3999996185,0.0,0.016909916362735828,0.046880913830336754
1648634513962172012,36722,4,2,1.11423027515,-0.0351606868207,0.152311876416,0.0,21.3999996185,0.3726522659364548,-0.011759427030334446,0.05094042689498327,21.3999996185,0.0,0.5271410691069613,1.1251418966761084
1648634513962174604,36723,4,3,0.919221639633,-0.41899818182,0.207887232304,-0.161837622523,21.3999996185,0.30743198649933107,-0.14013317117725752,0.06952750244280936,21.3999996185,-0.021869948989594594,0.4567999105845406,1.0313801435421683
1648634514157224954,36724,6,0,0.0070613711141,0.0454158857465,0.00923875533044,0.0,39.7000007629,0.002361662579966555,0.015189259446989964,0.0030898847258996652,39.7000007629,0.0,0.015552122132725246,0.04688091552226685
1648634514157239700,36725,6,1,0.0342943668365,0.0146502861753,-0.0284092519432,0.0,39.7000007629,0.011469687905183946,0.0048997612626421405,-0.009501422054581939,39.7000007629,0.0,0.016944472305608527,0.0468809137891619
1648634514157242964,36726,6,2,1.06681978703,-0.0,0.156659916043,0.0,39.7000007629,0.35679591539464883,-0.0,0.05239462075016722,39.7000007629,0.0,0.5045856225504358,1.0782610014710419
1648634514157395468,36727,6,3,0.788692831993,-0.606521844864,0.415621936321,0.0,39.7000007629,0.26377686688729096,-0.20285011533913042,0.139003992080602,39.7000007629,0.0,0.42462293897392045,1.078260972810194
1648634514157400782,36728,6,4,0.851821064949,-0.515690088272,0.268718421459,-0.0809188112617,39.7000007629,0.28488998827725753,-0.17247160142876253,0.08987238175886286,39.7000007629,-0.010934974494824324,0.43825912898721664,1.0313801354807297
1648634514262208292,36729,7,0,0.0070613711141,0.0454158857465,0.00923875533044,0.0,21.1000003815,0.002361662579966555,0.015189259446989964,0.0030898847258996652,21.1000003815,0.0,0.015552122132725246,0.04688091552226685
1648634514262210688,36730,7,1,0.0342943668365,0.0146502861753,-0.0284092519432,0.0,21.1000003815,0.011469687905183946,0.0048997612626421405,-0.009501422054581939,21.1000003815,0.0,0.016944472305608527,0.0468809137891619
1648634514262212775,36731,7,2,0.842118918896,-0.461484014988,0.217041090131,0.0,21.1000003815,0.2816451233765886,-0.15434247992909697,0.0725889933548495,21.1000003815,0.0,0.427164549271462,0.9844991642745389
1648634514457171522,36732,9,0,0.00712122442201,0.0454158857465,0.00919269956648,0.0,16.2000007629,0.0023816804086989963,0.015189259446989964,0.003074481460361204,16.2000007629,0.0,0.015558226302709931,0.046880915527827895
1648634514457175314,36733,9,1,0.0342400819063,0.0146502861753,-0.0284746550024,0.0,16.2000007629,0.011451532410133778,0.0048997612626421405,-0.009523295987424747,16.2000007629,0.0,0.016919895079804046,0.046880913722687
1648634514457177302,36734,9,2,1.11893355846,-0.0703213736415,0.094801068306,0.0,16.2000007629,0.37422527038795983,-0.023518854060702338,0.03170604291170569,16.2000007629,0.0,0.5297567767289173,1.1251420560936936
1648634514457326918,36735,9,3,0.860513567924,-0.703213751316,-0.175929784775,0.0,16.2000007629,0.28779717990769227,-0.23518854559063543,-0.058839392901337786,16.2000007629,0.0,0.47007242580551306,1.1251419776153546
1648634514457412968,36736,9,4,0.821531772614,-0.580151319504,0.228593543172,0.161837622523,16.2000007629,0.2747597901719063,-0.19403054164013378,0.07645269002408027,16.2000007629,0.021869948989594594,0.4343198541165067,1.0313801505344489
1648634514562273980,36737,10,0,0.0070613711141,0.0454158857465,0.00923875533044,0.0,32.2999992371,0.002361662579966555,0.015189259446989964,0.0030898847258996652,32.2999992371,0.0,0.015552122132725246,0.04688091552226685
1648634514562279136,36738,10,1,0.0342400819063,0.0146502861753,-0.0284746550024,0.0,32.2999992371,0.011451532410133778,0.0048997612626421405,-0.009523295987424747,32.2999992371,0.0,0.016919895079804046,0.046880913722687
1648634514562282651,36739,10,2,0.915176451206,-0.451228827238,0.15029874444,0.0809188112617,32.2999992371,0.306079080670903,-0.15091265125016723,0.050267138608695645,32.2999992371,0.010934974494824324,0.45841404380324663,1.0313801936981482
1648634514562302078,36740,10,3,1.06272566319,-0.0,0.182375594974,-0.0809188112617,32.2999992371,0.35542664320735784,-0.0,0.06099518226555183,32.2999992371,-0.010934974494824324,0.5026491792525886,1.0782609576743218
1648634514757253241,36741,12,0,0.0070613711141,0.0454158857465,0.00923875533044,0.0,15.5,0.002361662579966555,0.015189259446989964,0.0030898847258996652,15.5,0.0,0.015552122132725246,0.04688091552226685
1648634514757278638,36742,12,1,0.0342400819063,0.0146502861753,-0.0284746550024,0.0,15.5,0.011451532410133778,0.0048997612626421405,-0.009523295987424747,15.5,0.0,0.016919895079804046,0.046880913722687
1648634514757301626,36743,12,2,0.934860944748,-0.386767566204,0.200476527214,0.161837622523,15.5,0.31266252332709027,-0.1293537010715719,0.06704900575719062,15.5,0.021869948989594594,0.4607039037901026,1.031380130818058
1648634514757359011,36744,12,3,1.26591432095,-0.70467877388,-0.953784406185,0.404594063759,15.5,0.42338271603678923,-0.2356785196923077,-0.3189914401956522,15.5,0.05467487348094594,0.6434673364839387,1.7345938821017997
1648634514862291973,36745,13,0,0.00715419463813,0.0454158857465,0.00916706398129,0.0,16.0,0.002392707236832776,0.015189259446989964,0.0030659076860501673,16.0,0.0,0.015561609762179417,0.04688091553176467
1648634514862298406,36746,13,1,0.0342336259782,0.0146502861753,-0.0284824185073,0.0,16.0,0.011449373236856186,0.0048997612626421405,-0.00952589247735786,16.0,0.0,0.01691697240834086,0.04688091505781923
1648634514862303800,36747,13,2,1.11041033268,-0.0351606868207,0.178036704659,0.0,16.0,0.37137469320401334,-0.011759427030334446,0.05954404838093645,16.0,0.0,0.5253347595855731,1.125141968387122
1648634514862312643,36748,13,3,1.10989892483,0.0351606868207,0.1811978966,0.0,16.0,0.3712036537892976,0.011759427030334446,0.06060130321070233,16.0,0.0,0.5250929339622952,1.1251420243545958
1648634514862315248,36749,13,4,1.00503265858,-0.26956525445,0.282649219036,0.242756426334,16.0,0.33613132393979933,-0.09015560349498328,0.09453151138327757,16.0,0.03280492247756756,0.4838352681529006,1.0782609388458515
1648634515057258516,36750,15,0,0.0070613711141,0.0454158857465,0.00923875533044,0.0,36.7999992371,0.002361662579966555,0.015189259446989964,0.0030898847258996652,36.7999992371,0.0,0.015552122132725246,0.04688091552226685
1648634515057269985,36751,15,1,0.0342400819063,0.0146502861753,-0.0284746550024,0.0,36.7999992371,0.011451532410133778,0.0048997612626421405,-0.009523295987424747,36.7999992371,0.0,0.016919895079804046,0.046880913722687
1648634515162213130,36752,16,0,0.0070613711141,0.0454158857465,0.00923875533044,0.0,19.1000003815,0.002361662579966555,0.015189259446989964,0.0030898847258996652,19.1000003815,0.0,0.015552122132725246,0.04688091552226685
1648634515162221687,36753,16,1,0.0342180393636,0.0146502861753,-0.0285011399537,0.0,19.1000003815,0.011444160322274247,0.0048997612626421405,-0.009532153830668895,19.1000003815,0.0,0.016909916362735828,0.046880913830336754
1648634515162224380,36754,16,2,1.07601952553,-0.0,0.0694892406464,0.0,19.1000003815,0.3598727510133779,-0.0,0.023240548711170567,19.1000003815,0.0,0.508936925211635,1.0782609952545903
1648634515162228286,36755,16,3,1.13261711597,-0.219754308462,0.206214204431,-0.242756426334,19.1000003815,0.37880171102675586,-0.0734964242347826,0.06896796134816054,19.1000003815,-0.03280492247756756,0.5407246960597368,1.1720229458440319
