%time,field.header.seq,field.header.frame_id,field.point_id,field.x,field.y,field.z,field.velocity,field.intensity,normalized_x,normalized_y,normalized_z,normalized_intensity,normalized_velocity,normalized_range,range
1648624680352898785,25255,0,0,0.00674108136445,0.0454158857465,0.00947498716414,0.0,12.6999998093,0.0022545422623578594,0.015189259446989964,0.003168892028140468,12.6999998093,0.0,0.015520293946104541,0.046880915497267056
1648624680352906002,25256,0,1,0.0344546698034,0.0146502861753,-0.0282146241516,0.0,12.6999998093,0.011523300937591973,0.0048997612626421405,-0.009436329147692307,12.6999998093,0.0,0.01701706759190621,0.046880914797981066
1648624680352908824,25257,0,2,0.72546505928,-0.843856453896,0.165985584259,0.0,12.6999998093,0.24263045460869564,-0.28222623876120395,0.05551357333076923,12.6999998093,0.0,0.4442867597087952,1.125141982684793
1648624680353003339,25258,0,3,1.12356507778,-0.0,0.0595472231507,0.0,12.6999998093,0.3757742735050167,-0.0,0.01991545924772575,12.6999998093,0.0,0.5314250739816914,1.1251419269548781
1648624680353007414,25259,0,4,1.01008760929,-0.193383783102,0.0779146626592,0.0809188112617,12.6999998093,0.3378219429063545,-0.06467685053578595,0.02605841560508361,12.6999998093,0.010934974494824324,0.48211038695850233,1.0313801242341865
1648624680353012657,25260,0,5,0.44225871563,0.161153152585,0.917704701424,0.0809188112617,12.6999998093,0.14791261392307692,0.05389737544648829,0.3069246493056856,12.6999998093,0.010934974494824324,0.21601205937431858,1.031380157436866
1648624680353032493,25261,0,6,1.36483597755,-0.241729736328,0.687179744244,0.323675245047,12.6999998093,0.4564668821237458,-0.08084606566153846,0.22982600141939796,12.6999998093,0.04373989797932432,0.6505844413175719,1.5470702996112742
1648624680353037846,25262,0,7,0.305888235569,-0.87022703886,-1.24199986458,0.323675245047,12.6999998093,0.10230375771538462,-0.2910458323946488,-0.41538457009364543,12.6999998093,0.04373989797932432,0.32502275957180327,1.5470702554956248
1648624680353347903,25263,0,8,0.691514909267,-0.234404578805,0.171766191721,0.404594063759,12.6999998093,0.2312758893869565,-0.07839618020234114,0.05744688686321069,12.6999998093,0.05467487348094594,0.3363376801575664,0.750094661307246
1648624680547980730,25264,2,0,0.00677556637675,0.0454158857465,0.00945035740733,0.0,41.0,0.0022660757112876254,0.015189259446989964,0.0031606546512809365,41.0,0.0,0.015523652946602141,0.046880915445319145
1648624680548004173,25265,2,1,0.0344546698034,0.0146502861753,-0.0282146241516,0.0,41.0,0.011523300937591973,0.0048997612626421405,-0.009436329147692307,41.0,0.0,0.01701706759190621,0.046880914797981066
1648624680548009252,25266,2,2,0.656881630421,-0.879017174244,0.248555466533,0.0,41.0,0.21969285298361202,-0.29398567700468226,0.0831289185729097,41.0,0.0,0.42773528915447145,1.1251419861261491
1648624680548081649,25267,2,3,0.765015363693,-0.174338400364,0.139741435647,-0.0809188112617,41.0,0.25585798116822744,-0.058307157312374576,0.04673626610267558,41.0,-0.010934974494824324,0.36650557655895505,0.7969755663535089
1648624680652955993,25268,3,0,0.00674108136445,0.0454158857465,0.00947498716414,0.0,23.5,0.0022545422623578594,0.015189259446989964,0.003168892028140468,23.5,0.0,0.015520293946104541,0.046880915497267056
1648624680652962427,25269,3,1,0.0322296023369,0.0161153152585,-0.0299894902855,0.0,23.5,0.010779131216354513,0.005389737544648829,-0.010029929861371236,23.5,0.0,0.01616875413750156,0.046880914882920656
1648624680652964275,25270,3,2,1.07174682617,-0.101086974144,0.0615380145609,0.0,23.5,0.35844375457190636,-0.03380835255652174,0.020581275772876252,23.5,0.0,0.5080421784515495,1.0782609901981781
1648624680652972062,25271,3,3,0.764602422714,-0.149432912469,0.16799685359,-0.161837622523,23.5,0.2557198738173913,-0.04997756269866221,0.05618623865886287,23.5,-0.021869948989594594,0.365079531751184,0.7969755347344272
1648624680847978059,25272,5,0,0.00677556637675,0.0454158857465,0.00945035740733,0.0,44.7000007629,0.0022660757112876254,0.015189259446989964,0.0031606546512809365,44.7000007629,0.0,0.015523652946602141,0.046880915445319145
1648624680847981061,25273,5,1,0.0321538150311,0.0161153152585,-0.0300707370043,0.0,44.7000007629,0.010753784291337791,0.005389737544648829,-0.010057102677023411,44.7000007629,0.0,0.016134962781780567,0.04688091755625964
1648624680847989426,25274,5,2,0.707550048828,-0.224149376154,0.290344655514,0.0809188112617,44.7000007629,0.23663881231705683,-0.07496634653979932,0.09710523595785953,44.7000007629,0.010934974494824324,0.34295161189762585,0.7969755538360482
1648624680952935613,25275,6,0,0.00674987118691,0.0454158857465,0.00946872774512,0.0,21.8999996185,0.0022574820023110367,0.015189259446989964,0.0031667985769632105,21.8999996185,0.0,0.01552114855703309,0.046880915565827255
1648624680952949899,25276,6,1,0.0321619398892,0.0161153152585,-0.0300620421767,0.0,21.8999996185,0.010756501635183945,0.005389737544648829,-0.01005419470792642,21.8999996185,0.0,0.01613858499545815,0.04688091448714548
1648624680952954036,25277,6,2,0.703568398952,-0.298865824938,0.225478991866,0.242756426334,21.8999996185,0.23530715684013376,-0.09995512539732442,0.07541103406889632,21.8999996185,0.03280492247756756,0.3474621464470187,0.796975563673479
1648624680952958011,25278,6,3,1.42123258114,-0.328166425228,0.350674659014,-0.161837622523,21.8999996185,0.47532862245484947,-0.10975465726688963,0.1172824946535117,21.8999996185,-0.021869948989594594,0.6811172317901097,1.5001893109922415
1648624680953049830,25279,6,4,0.55391651392,-0.843856453896,-1.10979759693,-0.161837622523,21.8999996185,0.18525635917056854,-0.28222623876120395,-0.37116976485953174,21.8999996185,-0.021869948989594594,0.3850863371655316,1.5001892964978853
1648624680953117701,25280,6,5,1.0143995285,-0.128922522068,0.134601444006,-0.0809188112617,21.8999996185,0.33926405635451506,-0.04311790035719063,0.04501720535317725,21.8999996185,-0.010934974494824324,0.48172539189817654,1.0313801282000234
