%time,field.header.seq,field.header.frame_id,field.point_id,field.x,field.y,field.z,field.velocity,field.intensity,normalized_x,normalized_y,normalized_z,normalized_intensity,normalized_velocity,normalized_range,range
1648634449656203500,34811,0,0,0.0070613711141,0.0454158857465,0.00923875533044,0.0,12.3000001907,0.002361662579966555,0.015189259446989964,0.0030898847258996652,12.3000001907,0.0,0.015552122132725246,0.04688091552226685
1648634449656206946,34812,0,1,0.0342400819063,0.0146502861753,-0.0284746550024,0.0,12.3000001907,0.011451532410133778,0.0048997612626421405,-0.009523295987424747,12.3000001907,0.0,0.016919895079804046,0.046880913722687
1648634449656317012,34813,0,2,1.39494240284,-0.175803437829,0.0355967134237,0.0,12.3000001907,0.4665359206822742,-0.05879713639765886,0.011905255325652174,12.3000001907,0.0,0.6623961305912643,1.406427489065859
1648634449656319422,34814,0,3,1.00328612328,0.225614413619,0.0791212394834,-0.161837622523,12.3000001907,0.3355471984214047,0.07545632562508361,0.026461953004481602,12.3000001907,-0.021869948989594594,0.48049714027634516,1.0313801817643415
1648634449761147319,34815,1,0,0.00717832520604,0.0454158857465,0.00914818048477,0.0,38.2999992371,0.002400777660882943,0.015189259446989964,0.003059592135374582,38.2999992371,0.0,0.0155640955182742,0.04688091548897843
1648634449761152601,34816,1,1,0.0342556610703,0.0146502861753,-0.0284559112042,0.0,38.2999992371,0.011456742832876255,0.0048997612626421405,-0.009517027158595318,38.2999992371,0.0,0.016926948133323128,0.04688091384393833
1648634449761175911,34817,1,2,0.884085953236,-0.430718421936,0.0459606945515,0.0,38.2999992371,0.2956809208147157,-0.14405298392508362,0.01537146974966555,38.2999992371,0.0,0.44227330469450304,0.9844992215070062
1648634449761181813,34818,1,3,0.961615681648,0.0922968015075,0.189777120948,-0.485512852669,38.2999992371,0.3216105958688963,0.03086849548745819,0.06347060901270903,38.2999992371,-0.06560984495527027,0.4558723667474837,0.9844992505813168
1648634449761192460,34819,1,4,1.14605903625,-0.0366257168353,0.242579713464,-0.404594063759,38.2999992371,0.38329733653846154,-0.012249403623846153,0.08113033895117057,38.2999992371,-0.05467487348094594,0.5422026782339766,1.1720228987047372
1648634449761195894,34820,1,5,0.922312498093,0.117202289402,0.121372826397,-0.323675245047,38.2999992371,0.3084657184257525,0.03919809010100334,0.04059291852742475,38.2999992371,-0.04373989797932432,0.43799393735004777,0.9376183038780848
1648634449761202096,34821,1,6,1.0511251688,-0.0,0.240380346775,-0.242756426334,38.2999992371,0.3515468791973244,-0.0,0.08039476480769231,38.2999992371,-0.03280492247756756,0.49716236437079225,1.0782610220166997
1648634449956290465,34822,3,0,0.0070613711141,0.0454158857465,0.00923875533044,0.0,35.0,0.002361662579966555,0.015189259446989964,0.0030898847258996652,35.0,0.0,0.015552122132725246,0.04688091552226685
1648634449956292711,34823,3,1,0.0342556610703,0.0146502861753,-0.0284559112042,0.0,35.0,0.011456742832876255,0.0048997612626421405,-0.009517027158595318,35.0,0.0,0.016926948133323128,0.04688091384393833
1648634449956295561,34824,3,2,1.38140404224,-0.219754293561,0.146523550153,0.0,35.0,0.4620080408829431,-0.07349641925117056,0.04900453182374582,35.0,0.0,0.6574987325643558,1.4064274699411075
1648634449956410387,34825,3,3,2.17976236343,-0.805765748024,0.306476950645,0.0,35.0,0.7290175128528428,-0.26948687224882945,0.1025006523896321,35.0,0.0,1.0656248131527093,2.3440457595770767
1648634449956412956,34826,3,4,1.01084625721,-0.0,0.204780176282,-0.161837622523,35.0,0.33807567130769234,-0.0,0.06848835327157189,35.0,-0.021869948989594594,0.47811119947172714,1.0313801802989782
1648634450061069606,34827,4,0,0.0070613711141,0.0454158857465,0.00923875533044,0.0,32.7000007629,0.002361662579966555,0.015189259446989964,0.0030898847258996652,32.7000007629,0.0,0.015552122132725246,0.04688091552226685
1648634450061093784,34828,4,1,0.0342400819063,0.0146502861753,-0.0284746550024,0.0,32.7000007629,0.011451532410133778,0.0048997612626421405,-0.009523295987424747,32.7000007629,0.0,0.016919895079804046,0.046880913722687
1648634450061102192,34829,4,2,2.2235853672,-0.747164547443,0.462540268898,0.0,32.7000007629,0.7436740358528428,-0.2498878085093645,0.1546957421063545,32.7000007629,0.0,1.0809930897304216,2.390926650178524
1648634450061109843,34830,4,3,0.967083215714,-0.0307656005025,0.181775286794,-0.0809188112617,32.7000007629,0.3234392025799331,-0.010289498495819397,0.060794410298996654,32.7000007629,-0.010934974494824324,0.45752782353686583,0.984499224570061
1648634450256381885,34831,6,0,0.00717832520604,0.0454158857465,0.00914818048477,0.0,18.7000007629,0.002400777660882943,0.015189259446989964,0.003059592135374582,18.7000007629,0.0,0.0155640955182742,0.04688091548897843
1648634450256386738,34832,6,1,0.0342400819063,0.0146502861753,-0.0284746550024,0.0,18.7000007629,0.011451532410133778,0.0048997612626421405,-0.009523295987424747,18.7000007629,0.0,0.016919895079804046,0.046880913722687
1648634450256396389,34833,6,2,0.966027379036,-0.061531201005,0.179565295577,0.0,18.7000007629,0.3230860799451505,-0.020578996991638794,0.06005528280167223,18.7000007629,0.0,0.4573759123804294,0.9844992032093965
1648634450256435997,34834,6,3,2.18822598457,-0.805765748024,0.238661110401,0.0,18.7000007629,0.7318481553745818,-0.26948687224882945,0.07981976936488293,18.7000007629,0.0,1.0694983026469995,2.3440457601876843
1648634450256437661,34835,6,4,0.306914687157,-0.835066318512,-0.0433676354587,0.566431701183,18.7000007629,0.10264705256086955,-0.2792863941511705,-0.014504225905919732,18.7000007629,0.07654482448418919,0.3147597889769766,0.8907374098527258
1648634450256445448,34836,6,5,0.571470618248,0.20949909091,-0.0310335978866,-0.566431701183,18.7000007629,0.1911272970729097,0.07006658558862876,-0.010379129727959865,18.7000007629,-0.07654482448418919,0.27922860489004564,0.6094519019665581
1648634450256458870,34837,6,6,0.651821911335,0.263705164194,-0.00986888911575,-0.404594063759,18.7000007629,0.2180006392424749,0.0881957070882943,-0.0033006318112876252,18.7000007629,-0.05467487348094594,0.3206665560501431,0.7032137745318817
1648634450256462270,34838,6,7,0.556888282299,0.247589826584,0.00251686270349,-0.323675245047,18.7000007629,0.18625026163846153,0.08280596206822742,0.0008417601015016722,18.7000007629,-0.04373989797932432,0.27610713006881127,0.6094518978456742
1648634450361202104,34839,7,0,0.0070613711141,0.0454158857465,0.00923875533044,0.0,26.2999992371,0.002361662579966555,0.015189259446989964,0.0030898847258996652,26.2999992371,0.0,0.015552122132725246,0.04688091552226685
1648634450361206608,34840,7,1,0.0342556610703,0.0146502861753,-0.0284559112042,0.0,26.2999992371,0.011456742832876255,0.0048997612626421405,-0.009517027158595318,26.2999992371,0.0,0.016926948133323128,0.04688091384393833
1648634450361209940,34841,7,2,1.38801562786,-0.175803437829,0.143332496285,0.0,26.2999992371,0.46421927353177256,-0.05879713639765886,0.047937289727424746,26.2999992371,0.0,0.6591328933419256,1.4064275439664051
1648634450361212905,34842,7,3,2.21951699257,-0.821880996227,0.338799595833,0.0,26.2999992371,0.7423133754414715,-0.2748765873668896,0.11331090161638796,26.2999992371,0.0,1.0851799081263387,2.3909264351716613
1648634450361219430,34843,7,4,0.974701404572,-0.0307656005025,0.135090127587,-0.0809188112617,26.2999992371,0.32598709183010033,-0.010289498495819397,0.04518064467792642,26.2999992371,-0.010934974494824324,0.4611301788638302,0.9844992091517296
1648634450556311812,34844,9,0,0.00717832520604,0.0454158857465,0.00914818048477,0.0,16.6000003815,0.002400777660882943,0.015189259446989964,0.003059592135374582,16.6000003815,0.0,0.0155640955182742,0.04688091548897843
1648634450556317226,34845,9,1,0.0342556610703,0.0146502861753,-0.0284559112042,0.0,16.6000003815,0.011456742832876255,0.0048997612626421405,-0.009517027158595318,16.6000003815,0.0,0.016926948133323128,0.04688091384393833
1648634450556446580,34846,9,2,1.33858287334,-0.212429150939,0.106942459941,0.0,16.6000003815,0.4476865797123746,-0.07104653877558528,0.035766709010367895,16.6000003815,0.0,0.6370982325992746,1.3595465945329226
1648634450556449707,34847,9,3,2.20189404488,-0.732514321804,0.331114768982,0.0,16.6000003815,0.7364194130033445,-0.24498806749297658,0.11074072541204012,16.6000003815,0.0,1.069881421892316,2.344045990752738
1648634450556451432,34848,9,4,0.915537714958,-0.0293005723506,0.200150549412,-0.0809188112617,16.6000003815,0.3061999046682274,-0.009799522525284281,0.06693998308093645,16.6000003815,-0.010934974494824324,0.433142925463855,0.9376182983925357
1648634450661300610,34849,10,0,0.00714846141636,0.0454158857465,0.00917153526098,0.0,17.3999996185,0.0023907897713578595,0.015189259446989964,0.0030674030973177253,17.3999996185,0.0,0.015561020339606033,0.0468809154966467
1648634450661305208,34850,10,1,0.0342556610703,0.0146502861753,-0.0284559112042,0.0,17.3999996185,0.011456742832876255,0.0048997612626421405,-0.009517027158595318,17.3999996185,0.0,0.016926948133323128,0.04688091384393833
1648634450661306876,34851,10,2,1.34697282314,-0.169943317771,0.0717651546001,0.0,17.3999996185,0.45049258298996653,-0.05683723002374581,0.024001723946521735,17.3999996185,0.0,0.6396230181714194,1.359546525481027
1648634450661308654,34852,10,3,2.22809910774,-0.747164547443,0.440282851458,0.0,17.3999996185,0.7451836480735785,-0.2498878085093645,0.14725178978528428,17.3999996185,0.0,1.083070291141857,2.3909264907469394
1648634450856180462,34853,12,0,0.00703071663156,0.0454158857465,0.00926210451871,0.0,14.1000003815,0.002351410244668896,0.015189259446989964,0.003097693818966555,14.1000003815,0.0,0.015549014850640589,0.04688091546256263
1648634450856188318,34854,12,1,0.0342556610703,0.0146502861753,-0.0284559112042,0.0,14.1000003815,0.011456742832876255,0.0048997612626421405,-0.009517027158595318,14.1000003815,0.0,0.016926948133323128,0.04688091384393833
1648634450856193499,34855,12,2,1.33935034275,-0.212429150939,0.096856944263,0.0,14.1000003815,0.44794325844481603,-0.07104653877558528,0.03239362684381271,14.1000003815,0.0,0.6374589682829078,1.3595465245607348
1648634450856342393,34856,12,3,2.1753423214,-0.805765748024,0.336420416832,0.0,14.1000003815,0.7275392379264214,-0.26948687224882945,0.11251518957591973,14.1000003815,0.0,1.0636023033820363,2.344045936585722
1648634450856345979,34857,12,4,0.900826156139,-0.0293005723506,0.258421748877,0.0809188112617,14.1000003815,0.30127965088260866,-0.009799522525284281,0.08642867855418059,14.1000003815,0.010934974494824324,0.42618644595249233,0.9376183058243296
1648634450961183233,34858,13,0,0.0070613711141,0.0454158857465,0.00923875533044,0.0,17.1000003815,0.002361662579966555,0.015189259446989964,0.0030898847258996652,17.1000003815,0.0,0.015552122132725246,0.04688091552226685
1648634450961187462,34859,13,1,0.0342400819063,0.0146502861753,-0.0284746550024,0.0,17.1000003815,0.011451532410133778,0.0048997612626421405,-0.009523295987424747,17.1000003815,0.0,0.016919895079804046,0.046880913722687
1648634450961190958,34860,13,2,1.3442876339,-0.169943317771,0.111251890659,0.0,17.1000003815,0.4495945263879598,-0.05683723002374581,0.037207990186956516,17.1000003815,0.0,0.6383580085130913,1.359546599821675
1648634450961192671,34861,13,3,2.18934631348,-0.821880996227,0.497798979282,0.0,17.1000003815,0.7322228473177258,-0.2748765873668896,0.16648795293712373,17.1000003815,0.0,1.0713812274585655,2.3909264890585313
1648634451156184213,34862,15,0,0.0070613711141,0.0454158857465,0.00923875533044,0.0,13.6000003815,0.002361662579966555,0.015189259446989964,0.0030898847258996652,13.6000003815,0.0,0.015552122132725246,0.04688091552226685
1648634451156186943,34863,15,1,0.0342556610703,0.0146502861753,-0.0284559112042,0.0,13.6000003815,0.011456742832876255,0.0048997612626421405,-0.009517027158595318,13.6000003815,0.0,0.016926948133323128,0.04688091384393833
1648634451156189846,34864,15,2,1.34595811367,-0.169943317771,0.088785149157,0.0,13.6000003815,0.4501532152742475,-0.05683723002374581,0.029694029818394647,13.6000003815,0.0,0.6391449797661389,1.359546533856032
1648634451156267441,34865,15,3,2.20602822304,-0.747164547443,0.540106296539,0.0,13.6000003815,0.7378020812842809,-0.2498878085093645,0.180637557370903,13.6000003815,0.0,1.0729155321536017,2.3909266390598014
