%time,field.header.seq,field.header.frame_id,field.point_id,field.x,field.y,field.z,field.velocity,field.intensity,normalized_x,normalized_y,normalized_z,normalized_intensity,normalized_velocity,normalized_range,range
1648624959649895150,34653,0,0,0.00683013908565,0.0454158857465,0.00941099133343,0.0,18.0,0.0022843274533946487,0.015189259446989964,0.0031474887402775913,18.0,0.0,0.015529002104985331,0.046880915476837266
1648624959649922001,34654,0,1,0.0322812236845,0.0161153152585,-0.0299339182675,0.0,18.0,0.01079639588110368,0.005389737544648829,-0.010011343902173913,18.0,0.0,0.016191775654424753,0.046880915640534766
1648624959650061834,34655,0,2,0.830753922462,-0.306190997362,0.0975100621581,0.0,18.0,0.2778441212247491,-0.10240501584013377,0.03261206092244147,18.0,0.0,0.40605602897571197,0.8907374578255994
1648624959650069764,34656,0,3,0.617315232754,-0.0,-0.642133235931,0.0,18.0,0.20645994406488294,-0.0,-0.21476027957558527,18.0,0.0,0.29197845298334807,0.8907374412683811
1648624959650077022,34657,0,4,1.05312716961,-0.101086974144,0.208210036159,0.0,18.0,0.3522164446856187,-0.03380835255652174,0.06963546359832776,18.0,0.0,0.499255297935376,1.0782610216778177
1648624959755047172,34658,1,0,0.00683013908565,0.0454158857465,0.00941099133343,0.0,16.7999992371,0.0022843274533946487,0.015189259446989964,0.0031474887402775913,16.7999992371,0.0,0.015529002104985331,0.046880915476837266
1648624959755091994,34659,1,1,0.0321796387434,0.0161153152585,-0.0300430990756,0.0,16.7999992371,0.010762420984414715,0.005389737544648829,-0.010047859222608695,16.7999992371,0.0,0.016146475828853105,0.04688091656103676
1648624959755157350,34660,1,2,0.766435444355,-0.316446185112,0.156627833843,0.0,16.7999992371,0.2563329245334448,-0.10583484451906354,0.0523838909173913,16.7999992371,0.0,0.37764288781084143,0.8438564787746403
1648624959755193445,34661,1,3,0.662934541702,-0.0,-0.522122085094,0.0,16.7999992371,0.2217172380274247,-0.0,-0.17462277093444817,16.7999992371,0.0,0.3135555250302878,0.8438564322943488
1648624959755370158,34662,1,4,1.06195306778,-0.101086974144,0.157110676169,0.0,16.7999992371,0.35516825009364544,-0.03380835255652174,0.0525453766451505,16.7999992371,0.0,0.5034202781491331,1.0782609420150686
1648624959950075581,34663,3,0,0.00685351761058,0.0454158857465,0.00939397979528,0.0,16.2000007629,0.0022921463580535114,0.015189259446989964,0.0031417992626354514,16.2000007629,0.0,0.015531306203969125,0.0468809155005723
1648624959950113462,34664,3,1,0.0322656407952,0.0161153152585,-0.0299507156014,0.0,16.2000007629,0.010791184212441471,0.005389737544648829,-0.010016961739598661,16.2000007629,0.0,0.016184825739373573,0.04688091644626481
1648624959950156187,34665,3,2,0.831105053425,-0.278355449438,0.158731773496,0.0,16.2000007629,0.2779615563294314,-0.09309546803946488,0.05308754966421405,16.2000007629,0.0,0.40397032039946495,0.8907374147174848
1648624959950180449,34666,3,3,1.00944137573,-0.096691891551,0.188212096691,0.0,16.2000007629,0.3376058112809364,-0.032338425267892976,0.06294718952876253,16.2000007629,0.0,0.47854063711468187,1.0313801463418848
1648624960055125658,34667,4,0,0.00685351761058,0.0454158857465,0.00939397979528,0.0,20.2000007629,0.0022921463580535114,0.015189259446989964,0.0031417992626354514,20.2000007629,0.0,0.015531306203969125,0.0468809155005723
1648624960055213266,34668,4,1,0.0322656407952,0.0161153152585,-0.0299507156014,0.0,20.2000007629,0.010791184212441471,0.005389737544648829,-0.010016961739598661,20.2000007629,0.0,0.016184825739373573,0.04688091644626481
1648624960055223707,34669,4,2,1.01722943783,-0.096691891551,0.140142083168,0.0,20.2000007629,0.3402105143244147,-0.032338425267892976,0.04687026192909699,20.2000007629,0.0,0.48221588719428626,1.031380072792913
1648624960055232328,34670,4,3,0.737401366234,-0.290075659752,0.290153503418,0.0809188112617,20.2000007629,0.24662253051304345,-0.09701527082006689,0.0970413054909699,20.2000007629,0.010934974494824324,0.3620183805908272,0.8438564563064427
