%time,field.header.seq,field.header.frame_id,field.point_id,field.x,field.y,field.z,field.velocity,field.intensity,normalized_x,normalized_y,normalized_z,normalized_intensity,normalized_velocity,normalized_range,range
1648624937554293743,33942,0,0,0.00683013908565,0.0454158857465,0.00941099133343,0.0,13.3000001907,0.0022843274533946487,0.015189259446989964,0.0031474887402775913,13.3000001907,0.0,0.015529002104985331,0.046880915476837266
1648624937554304935,33943,0,1,0.032153852284,0.0161153152585,-0.0300706923008,0.0,13.3000001907,0.010753796750501672,0.005389737544648829,-0.010057087726020066,13.3000001907,0.0,0.016134979389587016,0.046880914432544156
1648624937554341879,33944,0,2,0.747923016548,-0.316446185112,0.22927428782,0.0,13.3000001907,0.2501414771063545,-0.10583484451906354,0.076680363819398,13.3000001907,0.0,0.36924589564715826,0.84385646043007
1648624937554348872,33945,0,3,0.721001505852,-0.0,-0.438463866711,0.0,13.3000001907,0.2411376273752508,-0.0,-0.14664343368260868,13.3000001907,0.0,0.34102010303254937,0.8438564651953632
1648624937554358099,33946,0,4,1.00887739658,-0.096691891551,0.191211864352,0.0,13.3000001907,0.33741718949163874,-0.032338425267892976,0.06395045630501671,13.3000001907,0.0,0.47827449574243447,1.0313800949653413
1648624937554361294,33947,0,5,0.743968904018,-0.351606875658,0.449456244707,0.242756426334,13.3000001907,0.24881903144414713,-0.11759427279531771,0.1503198142832776,13.3000001907,0.03280492247756756,0.3710124442816798,0.9376182811047591
1648624937749442490,33948,2,0,0.00685351761058,0.0454158857465,0.00939397979528,0.0,23.2999992371,0.0022921463580535114,0.015189259446989964,0.0031417992626354514,23.2999992371,0.0,0.015531306203969125,0.0468809155005723
1648624937749448213,33949,2,1,0.0322812236845,0.0161153152585,-0.0299339182675,0.0,23.2999992371,0.01079639588110368,0.005389737544648829,-0.010011343902173913,23.2999992371,0.0,0.016191775654424753,0.046880915640534766
1648624937749452036,33950,2,2,1.00627732277,-0.128922522068,0.185822188854,0.0,23.2999992371,0.33654759958862873,-0.04311790035719063,0.06214788924882943,23.2999992371,0.0,0.47789928531956244,1.0313801204638493
1648624937749454361,33951,2,3,1.29053127766,-1.34782636166,0.185487881303,0.0,23.2999992371,0.43161581192642134,-0.45077804737792637,0.06203608070334448,23.2999992371,0.0,0.7588051569458816,1.8752366874383246
1648624937749575818,33952,2,4,0.368928313255,-0.50543487072,-0.87810832262,-0.242756426334,23.2999992371,0.12338739573745817,-0.16904176278260868,-0.29368171325083614,23.2999992371,-0.03280492247756756,0.24294858801482253,1.0782609772756466
1648624937749747269,33953,2,5,0.737142205238,-0.34281668067,0.226256236434,-0.161837622523,23.2999992371,0.2465358545946488,-0.1146544082508361,0.07567098208494982,23.2999992371,-0.021869948989594594,0.36702246325365023,0.8438564995388829
1648624937854460632,33954,3,0,0.00685351761058,0.0454158857465,0.00939397979528,0.0,38.5,0.0022921463580535114,0.015189259446989964,0.0031417992626354514,38.5,0.0,0.015531306203969125,0.0468809155005723
1648624937854481806,33955,3,1,0.0322656407952,0.0161153152585,-0.0299507156014,0.0,38.5,0.010791184212441471,0.005389737544648829,-0.010016961739598661,38.5,0.0,0.016184825739373573,0.04688091644626481
1648624937854486791,33956,3,2,1.06721675396,-0.101086974144,0.116088464856,0.0,38.5,0.35692868025418056,-0.03380835255652174,0.03882557353043478,38.5,0.0,0.5059043094089712,1.0782609646774435
1648624937854709792,33957,3,3,1.28955686092,-1.34782636166,0.192144617438,0.0,38.5,0.4312899200401338,-0.45077804737792637,0.06426241385886287,38.5,0.0,0.7584344653655358,1.8752366124683766
1648624937854728721,33958,3,4,0.665114104748,-0.323771327734,0.296589612961,-0.0809188112617,38.5,0.22244618887892975,-0.10828472499464883,0.09919385048862876,38.5,-0.010934974494824324,0.33270136092400904,0.7969755601734136
1648624937854731427,33959,3,5,0.637464642525,-0.0498109720647,-0.475739121437,-0.0809188112617,38.5,0.2131988770986622,-0.016659187981505015,-0.1591100740591973,38.5,-0.010934974494824324,0.3019686257485437,0.7969755423306321
1648624938049450177,33960,5,0,0.00681872852147,0.0454158857465,0.00941926240921,0.0,17.8999996185,0.0022805112111939797,0.015189259446989964,0.0031502549863578594,17.8999996185,0.0,0.015527880258320411,0.04688091553203933
1648624938049454895,33961,5,1,0.0321953073144,0.0161153152585,-0.0300263054669,0.0,17.8999996185,0.010767661309163878,0.005389737544648829,-0.010042242631070234,17.8999996185,0.0,0.01615346188709797,0.0468809152954706
1648624938049605358,33962,5,2,1.00453341007,-0.128922522068,0.195029705763,0.0,17.8999996185,0.33596435119397994,-0.04311790035719063,0.06522732634214046,17.8999996185,0.0,0.47707781742352723,1.0313801310735238
1648624938049609678,33963,5,3,0.722409188747,-0.34281668067,0.269620925188,0.161837622523,17.8999996185,0.24160842433010032,-0.1146544082508361,0.09017422247090301,17.8999996185,0.021869948989594594,0.3604093433110427,0.8438564782182622
1648624938154423579,33964,6,0,0.00685351761058,0.0454158857465,0.00939397979528,0.0,35.2000007629,0.0022921463580535114,0.015189259446989964,0.0031417992626354514,35.2000007629,0.0,0.015531306203969125,0.0468809155005723
1648624938154434891,33965,6,1,0.0321796387434,0.0161153152585,-0.0300430990756,0.0,35.2000007629,0.010762420984414715,0.005389737544648829,-0.010047859222608695,35.2000007629,0.0,0.016146475828853105,0.04688091656103676
1648624938154499376,33966,6,2,1.01443696022,-0.096691891551,0.159101486206,0.0,35.2000007629,0.33927657532441474,-0.032338425267892976,0.0532111994,35.2000007629,0.0,0.4808980795101324,1.0313801195801005
1648624938154629401,33967,6,3,1.28357291222,-1.34782636166,0.228729203343,0.0,35.2000007629,0.4292885994046822,-0.45077804737792637,0.07649806131872909,35.2000007629,0.0,0.7561602020441988,1.8752366172386052
1648624938154642841,33968,6,4,2.60095024109,-0.594801604748,0.524153351784,0.0,35.2000007629,0.8698830237759196,-0.19893030259130434,0.1753021243424749,35.2000007629,0.0,1.2461806511883189,2.719093202121495
1648624938154653895,33969,6,5,0.754630744457,-0.34281668067,0.158439040184,0.161837622523,35.2000007629,0.2523848643668896,-0.1146544082508361,0.052989645546488294,35.2000007629,0.021869948989594594,0.374889147421389,0.8438564845278786
1648624938154974692,33970,6,6,0.720147550106,-0.361862063408,0.379284262657,0.404594063759,35.2000007629,0.24085202344682272,-0.12102410147424747,0.12685092396555184,35.2000007629,0.05467487348094594,0.36147783823425,0.8907374465895286
