%time,field.header.seq,field.header.frame_id,field.point_id,field.x,field.y,field.z,field.velocity,field.intensity,normalized_x,normalized_y,normalized_z,normalized_intensity,normalized_velocity,normalized_range,range
1648634423855690991,34007,0,0,0.00720767956227,0.0454158857465,0.00912507064641,0.0,28.8999996185,0.002410595171327759,0.015189259446989964,0.0030518630924448154,28.8999996185,0.0,0.015567130137184287,0.04688091548928497
1648634423855693967,34008,0,1,0.0342556610703,0.0146502861753,-0.0284559112042,0.0,28.8999996185,0.011456742832876255,0.0048997612626421405,-0.009517027158595318,28.8999996185,0.0,0.016926948133323128,0.04688091384393833
1648634423855696233,34009,0,2,1.34237217903,-0.169943317771,0.132374584675,0.0,28.8999996185,0.4489539060301003,-0.05683723002374581,0.04427243634615384,28.8999996185,0.0,0.6374556378259906,1.3595465526993344
1648634423855701630,34010,0,3,0.910966992378,-0.36918720603,0.0554855428636,0.161837622523,28.8999996185,0.3046712349090301,-0.12347398194983276,0.01855703774702341,28.8999996185,0.021869948989594594,0.4482130598058633,0.9844992126788753
1648634423855712834,34011,0,4,0.901339888573,-0.338421612978,0.205659732223,0.566431701183,28.8999996185,0.3014514677501672,-0.11318448594581938,0.06878251913812708,28.8999996185,0.07654482448418919,0.44108582234785054,0.9844992170242977
1648634423960646535,34012,1,0,0.00720767956227,0.0454158857465,0.00912507064641,0.0,29.3999996185,0.002410595171327759,0.015189259446989964,0.0030518630924448154,29.3999996185,0.0,0.015567130137184287,0.04688091548928497
1648634423960670347,34013,1,1,0.0342556610703,0.0146502861753,-0.0284559112042,0.0,29.3999996185,0.011456742832876255,0.0048997612626421405,-0.009517027158595318,29.3999996185,0.0,0.016926948133323128,0.04688091384393833
1648634423960680758,34014,1,2,1.34473526478,-0.169943317771,0.105703167617,0.0,29.3999996185,0.44974423571237454,-0.05683723002374581,0.0353522299722408,29.3999996185,0.0,0.6385688888677462,1.3595465505977422
1648634423960686627,34015,1,3,0.979371368885,-0.32230630517,0.0263705477118,0.161837622523,29.3999996185,0.3275489528043478,-0.10779475089297658,0.008819581174515048,29.3999996185,0.021869948989594594,0.47560103162895745,1.031380161885343
1648634423960708441,34016,1,4,1.06156122684,-0.533270418644,-0.27283129096,0.161837622523,29.3999996185,0.35503719961204017,-0.1783513105832776,-0.0912479233979933,29.3999996185,0.021869948989594594,0.5328339480583909,1.2189038071388953
1648634423960837021,34017,1,5,0.968967318535,-0.290075659752,0.201751083136,0.485512852669,29.3999996185,0.32406933730267556,-0.09701527082006689,0.06747527864080266,29.3999996185,0.06560984495527027,0.4684589987735122,1.031380168665277
1648634424156178241,34018,3,0,0.00720767956227,0.0454158857465,0.00912507064641,0.0,34.5,0.002410595171327759,0.015189259446989964,0.0030518630924448154,34.5,0.0,0.015567130137184287,0.04688091548928497
1648634424156230293,34019,3,1,0.0342556610703,0.0146502861753,-0.0284559112042,0.0,34.5,0.011456742832876255,0.0048997612626421405,-0.009517027158595318,34.5,0.0,0.016926948133323128,0.04688091384393833
1648634424156247667,34020,3,2,1.02248835564,-0.303260922432,0.158735588193,-0.323675245047,34.5,0.3419693497123745,-0.10142505766956521,0.05308882548260869,34.5,-0.04373989797932432,0.49413876047997213,1.0782609199320339
1648634424156374131,34021,3,3,0.959842681885,-0.32230630517,0.196381404996,-0.161837622523,34.5,0.32101761935953177,-0.10779475089297658,0.06567939966421404,34.5,-0.021869948989594594,0.4666094000324054,1.0313801358125574
1648634424261148398,34022,4,0,0.00720767956227,0.0454158857465,0.00912507064641,0.0,29.2999992371,0.002410595171327759,0.015189259446989964,0.0030518630924448154,29.2999992371,0.0,0.015567130137184287,0.04688091548928497
1648634424261183728,34023,4,1,0.0342556610703,0.0146502861753,-0.0284559112042,0.0,29.2999992371,0.011456742832876255,0.0048997612626421405,-0.009517027158595318,29.2999992371,0.0,0.016926948133323128,0.04688091384393833
1648634424261223594,34024,4,2,1.0722206831,-0.0336956568062,0.108877293766,0.0,29.2999992371,0.35860223515050166,-0.011269450436856187,0.036413810624080264,29.2999992371,0.0,0.5072653414368264,1.078261033170002
1648634424261611536,34025,4,3,1.39249706268,-0.175803437829,0.089908182621,0.0,29.2999992371,0.4657180811638795,-0.05879713639765886,0.030069626294648828,29.2999992371,0.0,0.6612441043173819,1.4064275308835268
1648634424261667373,34026,4,4,0.49212294817,0.307656019926,-1.28109371662,0.0,29.2999992371,0.16458961477257525,0.10289498994180601,-0.4284594369966555,29.2999992371,0.0,0.25449334281488345,1.4064275073659092
1648634424261704755,34027,4,5,0.924152195454,-0.338421612978,0.0255381278694,-0.242756426334,29.2999992371,0.3090810018240802,-0.11318448594581938,0.008541179889431438,29.2999992371,-0.03280492247756756,0.4515228224973501,0.9844991947524148
1648634424261731154,34028,4,6,0.447592139244,-0.34281668067,-1.08067774773,-0.242756426334,29.2999992371,0.14969636764013378,-0.1146544082508361,-0.3614306848595318,29.2999992371,-0.03280492247756756,0.24075638787091314,1.2189037673653333
1648634424456232625,34029,6,0,0.00718372128904,0.0454158857465,0.00914394389838,0.0,21.3999996185,0.0024025823709163878,0.015189259446989964,0.003058175216849498,21.3999996185,0.0,0.01556465247431019,0.04688091551702535
1648634424456272696,34030,6,1,0.0342556610703,0.0146502861753,-0.0284559112042,0.0,21.3999996185,0.011456742832876255,0.0048997612626421405,-0.009517027158595318,21.3999996185,0.0,0.016926948133323128,0.04688091384393833
1648634424456307226,34031,6,2,1.37724399567,-0.175803437829,0.224344804883,0.0,21.3999996185,0.46061672095986617,-0.05879713639765886,0.07503170731872909,21.3999996185,0.0,0.6540585833885244,1.4064275537117272
1648634424456343167,34032,6,3,0.770402669907,-0.417533159256,0.15987162292,-0.323675245047,21.3999996185,0.2576597558217391,-0.13964319707558526,0.05346877020735786,21.3999996185,-0.04373989797932432,0.3902272697156456,0.8907374184871796
1648634424456393937,34033,6,4,0.804750084877,-0.46880915761,0.108274690807,-0.161837622523,21.3999996185,0.26914718557759193,-0.15679236040468228,0.0362122711729097,21.3999996185,-0.021869948989594594,0.4116603688599975,0.9376183306857262
1648634424561088641,34034,7,0,0.00714846141636,0.0454158857465,0.00917153526098,0.0,32.4000015259,0.0023907897713578595,0.015189259446989964,0.0030674030973177253,32.4000015259,0.0,0.015561020339606033,0.0468809154966467
1648634424561123401,34035,7,1,0.0342556610703,0.0146502861753,-0.0284559112042,0.0,32.4000015259,0.011456742832876255,0.0048997612626421405,-0.009517027158595318,32.4000015259,0.0,0.016926948133323128,0.04688091384393833
1648634424561133968,34036,7,2,1.34472620487,-0.169943317771,0.105819307268,0.0,32.4000015259,0.44974120564214043,-0.05683723002374581,0.03539107266488294,32.4000015259,0.0,0.6385646207093408,1.3595466241029646
1648634424561144561,34037,7,3,0.776060700417,-0.676843225956,0.0579483471811,-0.323675245047,32.4000015259,0.2595520737180602,-0.22636897189163876,0.01938071812076923,32.4000015259,-0.04373989797932432,0.43125105145143505,1.0313801307933321
1648634424756138435,34038,9,0,0.00712418882176,0.0454158857465,0.00919040199369,0.0,25.1000003815,0.002382671846742475,0.015189259446989964,0.0030737130413678927,25.1000003815,0.0,0.015558529905055048,0.046880915448750074
1648634424756161520,34039,9,1,0.0342556610703,0.0146502861753,-0.0284559112042,0.0,25.1000003815,0.011456742832876255,0.0048997612626421405,-0.009517027158595318,25.1000003815,0.0,0.016926948133323128,0.04688091384393833
1648634424756183569,34040,9,2,1.34774899483,-0.127457484603,0.125275671482,0.0,25.1000003815,0.4507521721839465,-0.04262792127190635,0.04189821788695652,25.1000003815,0.0,0.6388835426969895,1.3595465263505568
1648634424861178029,34041,10,0,0.00714846141636,0.0454158857465,0.00917153526098,0.0,11.6999998093,0.0023907897713578595,0.015189259446989964,0.0030674030973177253,11.6999998093,0.0,0.015561020339606033,0.0468809154966467
1648634424861205764,34042,10,1,0.0342556610703,0.0146502861753,-0.0284559112042,0.0,11.6999998093,0.011456742832876255,0.0048997612626421405,-0.009517027158595318,11.6999998093,0.0,0.016926948133323128,0.04688091384393833
1648634424861228693,34043,10,2,1.06977391243,-0.0673913136125,0.116999492049,0.0,11.6999998093,0.3577839172006689,-0.02253890087374582,0.0391302648993311,11.6999998093,0.0,0.5064846146404712,1.0782609582127751
1648634424861254513,34044,10,3,0.737667143345,-0.707608819008,0.343196243048,0.0,11.6999998093,0.24671141917892978,-0.23665846789565215,0.11478135218996655,11.6999998093,0.0,0.4215925510884658,1.0782609685743667
1648634424861273844,34045,10,4,1.34575295448,-0.127457484603,0.14515735209,0.0,11.6999998093,0.4500846001605351,-0.04262792127190635,0.048547609394648826,11.6999998093,0.0,0.6379415602351843,1.3595466456649263
1648634425056127091,34046,12,0,0.00703071663156,0.0454158857465,0.00926210451871,0.0,11.5,0.002351410244668896,0.015189259446989964,0.003097693818966555,11.5,0.0,0.015549014850640589,0.04688091546256263
1648634425056139535,34047,12,1,0.0343429744244,0.0146502861753,-0.0283504724503,0.0,11.5,0.01148594462354515,0.0048997612626421405,-0.009481763361304347,11.5,0.0,0.01696648190466073,0.046880913658848396
1648634425056147610,34048,12,2,1.07466948032,-0.0336956568062,0.0812220498919,0.0,11.5,0.35942123087625416,-0.011269450436856187,0.027164565181237457,11.5,0.0,0.5084232910895722,1.0782610586530066
1648634425056230726,34049,12,3,1.34179401398,-0.169943317771,0.138112157583,0.0,11.5,0.4487605397926421,-0.05683723002374581,0.04619135705117056,11.5,0.0,0.6371832663109878,1.359546569735589
1648634425161184199,34050,13,0,0.00703071663156,0.0454158857465,0.00926210451871,0.0,11.8000001907,0.002351410244668896,0.015189259446989964,0.003097693818966555,11.8000001907,0.0,0.015549014850640589,0.04688091546256263
1648634425161193604,34051,13,1,0.0342556610703,0.0146502861753,-0.0284559112042,0.0,11.8000001907,0.011456742832876255,0.0048997612626421405,-0.009517027158595318,11.8000001907,0.0,0.016926948133323128,0.04688091384393833
1648634425161206851,34052,13,2,1.0767582655,-0.0336956568062,0.0458585172892,0.0,11.8000001907,0.36011982123745817,-0.011269450436856187,0.015337296752240801,11.8000001907,0.0,0.5094110047980378,1.0782609903071396
1648634425161219357,34053,13,3,1.38564574718,-0.175803437829,0.164673507214,0.0,11.8000001907,0.46342667129765885,-0.05879713639765886,0.05507475157658863,11.8000001907,0.0,0.6580164607277098,1.4064275130303285
1648634425161265138,34054,13,4,0.777804374695,-0.417533159256,0.118741698563,0.323675245047,11.8000001907,0.2601352423729097,-0.13964319707558526,0.0397129426632107,11.8000001907,0.04373989797932432,0.39349829877436027,0.8907374334508472
1648634425356158409,34055,15,0,0.00703071663156,0.0454158857465,0.00926210451871,0.0,30.0,0.002351410244668896,0.015189259446989964,0.003097693818966555,30.0,0.0,0.015549014850640589,0.04688091546256263
1648634425356185891,34056,15,1,0.0342556610703,0.0146502861753,-0.0284559112042,0.0,30.0,0.011456742832876255,0.0048997612626421405,-0.009517027158595318,30.0,0.0,0.016926948133323128,0.04688091384393833
1648634425356212391,34057,15,2,1.34662818909,-0.127457484603,0.136799305677,0.0,30.0,0.45037732076588627,-0.04262792127190635,0.04575227614615384,30.0,0.0,0.6383546050530848,1.3595465935622972
1648634425356254086,34058,15,3,0.880632817745,-0.430718421936,0.0905880630016,0.161837622523,30.0,0.2945260260016722,-0.14405298392508362,0.03029701103732441,30.0,0.021869948989594594,0.4407294205772923,0.9844992208442415
1648634425461209265,34059,16,0,0.00711832381785,0.0454158857465,0.00919494591653,0.0,30.1000003815,0.002380710306973244,0.015189259446989964,0.0030752327480033444,30.1000003815,0.0,0.015557929350637609,0.04688091554697736
1648634425461279955,34060,16,1,0.0342400819063,0.0146502861753,-0.0284746550024,0.0,30.1000003815,0.011451532410133778,0.0048997612626421405,-0.009523295987424747,30.1000003815,0.0,0.016919895079804046,0.046880913722687
1648634425461297381,34061,16,2,0.968306779861,-0.354536950588,0.0207511074841,0.161837622523,30.1000003815,0.32384842135819397,-0.11857423096588628,0.006940169727123745,30.1000003815,0.021869948989594594,0.47309137413563146,1.0313801809802405
1648634425461305079,34062,16,3,1.07248067856,-0.571361124516,-0.0951744019985,0.161837622523,30.1000003815,0.35868919015384615,-0.19109067709565214,-0.03183090367842809,30.1000003815,0.021869948989594594,0.5420622816054617,1.2189038137968387
