%time,field.header.seq,field.header.frame_id,field.point_id,field.x,field.y,field.z,field.velocity,field.intensity,normalized_x,normalized_y,normalized_z,normalized_intensity,normalized_velocity,normalized_range,range
1648624952854289751,34455,0,0,0.00683013908565,0.0454158857465,0.00941099133343,0.0,15.5,0.0022843274533946487,0.015189259446989964,0.0031474887402775913,15.5,0.0,0.015529002104985331,0.046880915476837266
1648624952854296662,34456,0,1,0.0322656407952,0.0161153152585,-0.0299507156014,0.0,15.5,0.010791184212441471,0.005389737544648829,-0.010016961739598661,15.5,0.0,0.016184825739373573,0.04688091644626481
1648624952854302613,34457,0,2,1.00239396095,-0.128922522068,0.205743148923,0.0,15.5,0.3352488163712375,-0.04311790035719063,0.06881041769999999,15.5,0.0,0.4760700485095067,1.0313801011141122
1648624952854305331,34458,0,3,0.823284626007,-0.306190997362,0.147860378027,0.161837622523,15.5,0.27534602876488296,-0.10240501584013377,0.04945163144715719,15.5,0.021869948989594594,0.40263837172132705,0.8907374437371034
1648624953049944651,34459,2,0,0.00688796397299,0.0454158857465,0.00936875212938,0.0,39.2000007629,0.002303666880598662,0.015189259446989964,0.003133361916180602,39.2000007629,0.0,0.01553471482652669,0.046880915544538077
1648624953050001461,34460,2,1,0.0321796387434,0.0161153152585,-0.0300430990756,0.0,39.2000007629,0.010762420984414715,0.005389737544648829,-0.010047859222608695,39.2000007629,0.0,0.016146475828853105,0.04688091656103676
1648624953050022121,34461,2,2,1.01816833019,-0.128922522068,0.102260820568,0.0,39.2000007629,0.34052452514715714,-0.04311790035719063,0.03420094333377926,39.2000007629,0.0,0.48350083535047417,1.0313801630444068
1648624953050043963,34462,2,3,0.797009050846,-0.306190997362,0.253843992949,0.0809188112617,39.2000007629,0.26655821098528426,-0.10240501584013377,0.08489765650468227,39.2000007629,0.010934974494824324,0.3906319840419735,0.8907374061710164
1648624953154865296,34463,3,0,0.00685351761058,0.0454158857465,0.00939397979528,0.0,23.2999992371,0.0022921463580535114,0.015189259446989964,0.0031417992626354514,23.2999992371,0.0,0.015531306203969125,0.0468809155005723
1648624953154909261,34464,3,1,0.0321796387434,0.0161153152585,-0.0300430990756,0.0,23.2999992371,0.010762420984414715,0.005389737544648829,-0.010047859222608695,23.2999992371,0.0,0.016146475828853105,0.04688091656103676
1648624953154962064,34465,3,2,0.818121910095,-0.306190997362,0.174174517393,0.0,23.2999992371,0.27361936792474917,-0.10240501584013377,0.0582523469541806,23.2999992371,0.0,0.40027728423718545,0.8907374187447792
1648624953155026618,34466,3,3,1.01662969589,-0.128922522068,0.116567842662,0.0,23.2999992371,0.340009931735786,-0.04311790035719063,0.03898590055585284,23.2999992371,0.0,0.48277599431740625,1.0313801516437286
1648624953349855070,34467,5,0,0.00683013908565,0.0454158857465,0.00941099133343,0.0,16.7999992371,0.0022843274533946487,0.015189259446989964,0.0031474887402775913,16.7999992371,0.0,0.015529002104985331,0.046880915476837266
1648624953349904120,34468,5,1,0.0322054363787,0.0161153152585,-0.0300154425204,0.0,16.7999992371,0.010771048956086956,0.005389737544648829,-0.010038609538595318,16.7999992371,0.0,0.016157978277898537,0.046880916244446125
1648624953349920133,34469,5,2,0.840357899666,-0.0527410283685,0.0557738021016,0.0,16.7999992371,0.28105615373444814,-0.017639139922575247,0.018653445518929765,16.7999992371,0.0,0.3978646281855321,0.8438564644566553
1648624953349930686,34470,5,3,0.80103713274,-0.263705134392,0.0298810377717,0.0,16.7999992371,0.26790539556521736,-0.08819569712107023,0.009993658117625417,16.7999992371,0.0,0.38900524795506647,0.8438564820817204
1648624953349983323,34471,5,4,1.01397848129,-0.096691891551,0.161997959018,0.0,16.7999992371,0.33912323788963206,-0.032338425267892976,0.05417991940401337,16.7999992371,0.0,0.4806817187103157,1.0313801535500298
1648624953350042940,34472,5,5,0.81907838583,-0.334026515484,0.104642316699,-0.0809188112617,16.7999992371,0.2739392594749164,-0.11171455367357858,0.03499743033411371,16.7999992371,-0.010934974494824324,0.4031942177980954,0.8907374077832338
1648624953454884225,34473,6,0,0.00688796397299,0.0454158857465,0.00936875212938,0.0,18.7000007629,0.002303666880598662,0.015189259446989964,0.003133361916180602,18.7000007629,0.0,0.01553471482652669,0.046880915544538077
1648624953454930631,34474,6,1,0.032153852284,0.0161153152585,-0.0300706923008,0.0,18.7000007629,0.010753796750501672,0.005389737544648829,-0.010057087726020066,18.7000007629,0.0,0.016134979389587016,0.046880914432544156
1648624953454946995,34475,6,2,0.84256207943,-0.0263705141842,-0.0385678932071,0.0,18.7000007629,0.2817933376020067,-0.008819569961270902,-0.012898960938829432,18.7000007629,0.0,0.398613540974286,0.8438564712663991
1648624953454963486,34476,6,3,1.02061772346,-0.096691891551,0.112850219011,0.0,18.7000007629,0.3413437202207358,-0.032338425267892976,0.03774254816421404,18.7000007629,0.0,0.4838148865186674,1.0313801584591464
1648624953454981464,34477,6,4,0.80342912674,-0.306190997362,0.232726931572,0.161837622523,18.7000007629,0.2687053935585284,-0.10240501584013377,0.07783509417123745,18.7000007629,0.021869948989594594,0.39356316433846467,0.8907373985853819
