%time,field.header.seq,field.header.frame_id,field.point_id,field.x,field.y,field.z,field.velocity,field.intensity,normalized_x,normalized_y,normalized_z,normalized_intensity,normalized_velocity,normalized_range,range
1648624719748053911,26508,0,0,0.00677556637675,0.0454158857465,0.00945035740733,0.0,20.0,0.0022660757112876254,0.015189259446989964,0.0031606546512809365,20.0,0.0,0.015523652946602141,0.046880915445319145
1648624719748067049,26509,0,1,0.0344546698034,0.0146502861753,-0.0282146241516,0.0,20.0,0.011523300937591973,0.0048997612626421405,-0.009436329147692307,20.0,0.0,0.01701706759190621,0.046880914797981066
1648624719748074894,26510,0,2,1.01958811283,-0.096691891551,0.121802084148,0.0,20.0,0.34099936883946486,-0.032338425267892976,0.04073648299264214,20.0,0.0,0.48332899028160303,1.0313801381734804
1648624719748092740,26511,0,3,0.983369648457,-0.235869601369,0.374160915613,0.566431701183,20.0,0.32888617005250836,-0.07888615430401337,0.12513742997090302,20.0,0.07654482448418919,0.47175761895754426,1.0782609726447365
1648624719748096845,26512,0,4,0.825730681419,-0.334026515484,0.00288885738701,-0.161837622523,20.0,0.2761641074979933,-0.11171455367357858,0.0009661730391337792,20.0,-0.021869948989594594,0.4062183772834672,0.8907374567065603
1648624719853012264,26513,1,0,0.0069007538259,0.0454158857465,0.00935933552682,0.0,27.7000007629,0.002307944423377926,0.015189259446989964,0.00313021255077592,27.7000007629,0.0,0.015535984599335069,0.046880915552156295
1648624719853062093,26514,1,1,0.0344546698034,0.0146502861753,-0.0282146241516,0.0,27.7000007629,0.011523300937591973,0.0048997612626421405,-0.009436329147692307,27.7000007629,0.0,0.01701706759190621,0.046880914797981066
1648624719853068492,26515,1,2,1.08825981617,-0.293005734682,0.321676850319,0.485512852669,27.7000007629,0.3639664937023411,-0.09799522899063544,0.10758423087591973,27.7000007629,0.06560984495527027,0.5239716423442013,1.172022945201182
1648624719853089686,26516,1,3,1.01562786102,-0.128922522068,0.124996319413,-0.0809188112617,27.7000007629,0.3396748699063545,-0.04311790035719063,0.041804789101337794,27.7000007629,-0.010934974494824324,0.48230404085287354,1.031380166884758
1648624720048007330,26517,3,0,0.00677556637675,0.0454158857465,0.00945035740733,0.0,21.1000003815,0.0022660757112876254,0.015189259446989964,0.0031606546512809365,21.1000003815,0.0,0.015523652946602141,0.046880915445319145
1648624720048012891,26518,3,1,0.0322126448154,0.0161153152585,-0.0300077050924,0.0,21.1000003815,0.010773459804481605,0.005389737544648829,-0.010036021770033444,21.1000003815,0.0,0.01616119250296088,0.046880915485903306
1648624720048151136,26519,3,2,0.989883244038,-0.064461261034,0.282348811626,0.0,21.1000003815,0.33106463011304343,-0.021558950178595316,0.09443104067759196,21.1000003815,0.0,0.46869218785528705,1.031380115392915
1648624720048155265,26520,3,3,0.773530364037,-0.808695793152,0.116646289825,0.0,21.1000003815,0.25870580737023413,-0.2704668204521739,0.03901213706521739,21.1000003815,0.0,0.45498317606223404,1.1251419763207193
1648624720048221238,26521,3,4,0.812316417694,-0.334026515484,0.148261472583,0.0809188112617,21.1000003815,0.27167773167023407,-0.11171455367357858,0.049585776783612034,21.1000003815,0.010934974494824324,0.40012213294624716,0.8907374134693544
1648624720048223574,26522,3,5,0.759893655777,-0.0278355441988,-0.463896512985,0.0809188112617,21.1000003815,0.25414503537692307,-0.009309546554782609,-0.1551493354464883,21.1000003815,0.010934974494824324,0.3595359031731471,0.8907374250420935
1648624720153084894,26523,4,0,0.00687576876953,0.0454158857465,0.00937770586461,0.0,13.1000003815,0.0022995882172341135,0.015189259446989964,0.003136356476458194,13.1000003815,0.0,0.015533506187775437,0.04688091553707464
1648624720153089251,26524,4,1,0.0322126448154,0.0161153152585,-0.0300077050924,0.0,13.1000003815,0.010773459804481605,0.005389737544648829,-0.010036021770033444,13.1000003815,0.0,0.01616119250296088,0.046880915485903306
1648624720153093938,26525,4,2,0.845676481724,-0.278355449438,0.027617495507,0.0,13.1000003815,0.2828349437204013,-0.09309546803946488,0.00923662057090301,13.1000003815,0.0,0.41067989596294113,0.8907374439367601
1648624720153096990,26526,4,3,0.680361509323,-0.879017174244,0.174303084612,0.0,13.1000003815,0.22754565529197324,-0.29398567700468226,0.05829534602408026,13.1000003815,0.0,0.4358688205967575,1.1251420093878974
1648624720153107075,26527,4,4,0.923187792301,-0.175803437829,0.618677556515,0.0,13.1000003815,0.30875845896354515,-0.05879713639765886,0.20691557074080266,13.1000003815,0.0,0.44059127909168977,1.125141976615156
1648624720153129290,26528,4,5,1.00603115559,-0.064461261034,0.217924535275,0.0809188112617,13.1000003815,0.33646526942809357,-0.021558950178595316,0.07288445995819397,13.1000003815,0.010934974494824324,0.4763218905272382,1.0313801642782687
1648624720153232185,26529,4,6,0.887354254723,-0.276890397072,0.324303507805,-0.566431701183,13.1000003815,0.296773998235117,-0.09260548397056856,0.10846271164046822,13.1000003815,-0.07654482448418919,0.4297969145053716,0.9844991775214077
1648624720348013169,26530,6,0,0.0069007538259,0.0454158857465,0.00935933552682,0.0,25.7000007629,0.002307944423377926,0.015189259446989964,0.00313021255077592,25.7000007629,0.0,0.015535984599335069,0.046880915552156295
1648624720348059420,26531,6,1,0.0322126448154,0.0161153152585,-0.0300077050924,0.0,25.7000007629,0.010773459804481605,0.005389737544648829,-0.010036021770033444,25.7000007629,0.0,0.01616119250296088,0.046880915485903306
1648624720348063928,26532,6,2,1.00317680836,-0.064461261034,0.230707600713,0.0809188112617,25.7000007629,0.33551063824749155,-0.021558950178595316,0.0771597326799331,25.7000007629,0.010934974494824324,0.47497322565306926,1.0313801239272542
1648624720348086953,26533,6,3,0.752889096737,-0.34281668067,0.166518554091,-0.485512852669,25.7000007629,0.25180237349063544,-0.1146544082508361,0.05569182411070234,25.7000007629,-0.06560984495527027,0.3741049370462576,0.8438564435895537
1648624720452975817,26534,7,0,0.00677556637675,0.0454158857465,0.00945035740733,0.0,42.5,0.0022660757112876254,0.015189259446989964,0.0031606546512809365,42.5,0.0,0.015523652946602141,0.046880915445319145
1648624720452981810,26535,7,1,0.0322376936674,0.0161153152585,-0.0299807935953,0.0,42.5,0.010781837346956522,0.005389737544648829,-0.010027021269331103,42.5,0.0,0.016172362349163777,0.04688091577047047
1648624720452985439,26536,7,2,1.01458275318,-0.064461261034,0.173815250397,0.0,42.5,0.3393253355117057,-0.021558950178595316,0.05813219076822742,42.5,0.0,0.480362524530241,1.0313802201394857
