%time,field.header.seq,field.header.frame_id,field.point_id,field.x,field.y,field.z,field.velocity,field.intensity,normalized_x,normalized_y,normalized_z,normalized_intensity,normalized_velocity,normalized_range,range
1648634481456433711,35808,0,0,0.00709097320214,0.0454158857465,0.00921605434269,0.0,12.6999998093,0.0023715629438595316,0.015189259446989964,0.0030822924223043472,12.6999998093,0.0,0.015555134976635503,0.046880915485301954
1648634481456438174,35809,0,1,0.0342400819063,0.0146502861753,-0.0284746550024,0.0,12.6999998093,0.011451532410133778,0.0048997612626421405,-0.009523295987424747,12.6999998093,0.0,0.016919895079804046,0.046880913722687
1648634481456442618,35810,0,2,1.11704874039,-0.0351606868207,0.130039483309,0.0,12.6999998093,0.373594896451505,-0.011759427030334446,0.043491465989632105,12.6999998093,0.0,0.5284738190613639,1.125141959720577
1648634481456508426,35811,0,3,1.38614726067,-0.219754293561,0.0913345962763,0.0,12.6999998093,0.46359440156187287,-0.07349641925117056,0.030546687717826086,12.6999998093,0.0,0.659728172781613,1.4064274550357705
1648634481561577683,35812,1,0,0.00718372128904,0.0454158857465,0.00914394389838,0.0,12.6000003815,0.0024025823709163878,0.015189259446989964,0.003058175216849498,12.6000003815,0.0,0.01556465247431019,0.04688091551702535
1648634481561582354,35813,1,1,0.0342400819063,0.0146502861753,-0.0284746550024,0.0,12.6000003815,0.011451532410133778,0.0048997612626421405,-0.009523295987424747,12.6000003815,0.0,0.016919895079804046,0.046880913722687
1648634481561584302,35814,1,2,1.38337481022,-0.219754293561,0.126572221518,0.0,12.6000003815,0.46266716060869567,-0.07349641925117056,0.042331846661538455,12.6000003815,0.0,0.6584250349539946,1.4064275105207935
1648634481561586822,35815,1,3,0.899192810059,-0.399952799082,0.0269965194166,-0.0809188112617,12.6000003815,0.3007333812906354,-0.13376347795384613,0.009028936259732442,12.6000003815,-0.010934974494824324,0.44584055589336696,0.9844992449036912
1648634481756672440,35816,3,0,0.00715419463813,0.0454158857465,0.00916706398129,0.0,18.2000007629,0.002392707236832776,0.015189259446989964,0.0030659076860501673,18.2000007629,0.0,0.015561609762179417,0.04688091553176467
1648634481756689512,35817,3,1,0.0342400819063,0.0146502861753,-0.0284746550024,0.0,18.2000007629,0.011451532410133778,0.0048997612626421405,-0.009523295987424747,18.2000007629,0.0,0.016919895079804046,0.046880913722687
1648634481756691356,35818,3,2,1.12451124191,-0.0351606868207,-0.0135126495734,0.0,18.2000007629,0.3760907163578595,-0.011759427030334446,-0.004519280793779263,18.2000007629,0.0,0.5320025732881539,1.1251419460575485
1648634481756693116,35819,3,3,0.893867909908,-0.668053030968,0.143700316548,0.0,18.2000007629,0.2989524782301003,-0.22342910734715715,0.04806030653779264,18.2000007629,0.0,0.4781900610529088,1.1251419792740929
1648634481756805125,35820,3,4,1.38451659679,-0.219754293561,0.113402374089,0.0,18.2000007629,0.4630490290267558,-0.07349641925117056,0.037927215414381266,18.2000007629,0.0,0.6589617061772152,1.4064274793868607
1648634481756807390,35821,3,5,2.19056081772,-0.805765748024,0.216184929013,0.0,18.2000007629,0.7326290360267559,-0.26948687224882945,0.0723026518438127,18.2000007629,0.0,1.0705670381500842,2.3440458741993826
1648634481756809089,35822,3,6,0.877101540565,-0.430718421936,0.120055355132,0.161837622523,18.2000007629,0.29334499684448156,-0.14405298392508362,0.04015229268628762,18.2000007629,0.021869948989594594,0.43915126838607466,0.9844992431446583
1648634481861873095,35823,4,0,0.00703660352156,0.0454158857465,0.00925763323903,0.0,31.5,0.0023533791042006686,0.015189259446989964,0.003096198407702341,31.5,0.0,0.0155496105727491,0.04688091552483979
1648634481861962321,35824,4,1,0.0342400819063,0.0146502861753,-0.0284746550024,0.0,31.5,0.011451532410133778,0.0048997612626421405,-0.009523295987424747,31.5,0.0,0.016919895079804046,0.046880913722687
1648634481861967816,35825,4,2,0.940564095974,-0.41899818182,-0.0593692399561,0.0,31.5,0.3145699317638796,-0.14013317117725752,-0.01985593309568562,31.5,0.0,0.46641804167941264,1.031380144106342
1648634481861969660,35826,4,3,0.896131396294,-0.032230630517,0.509563267231,0.0,31.5,0.29970949708829425,-0.010779475089297658,0.17042249740167223,31.5,0.0,0.4239902857059786,1.031380151194742
1648634481862333996,35827,4,4,1.39215528965,-0.175803437829,0.0950540080667,0.0,31.5,0.46560377580267553,-0.05879713639765886,0.03179063814939799,31.5,0.0,0.6610830926078667,1.4064275536630084
1648634482056616383,35828,6,0,0.00714846141636,0.0454158857465,0.00917153526098,0.0,12.6999998093,0.0023907897713578595,0.015189259446989964,0.0030674030973177253,12.6999998093,0.0,0.015561020339606033,0.0468809154966467
1648634482056628392,35829,6,1,0.0342556610703,0.0146502861753,-0.0284559112042,0.0,12.6999998093,0.011456742832876255,0.0048997612626421405,-0.009517027158595318,12.6999998093,0.0,0.016926948133323128,0.04688091384393833
1648634482056638874,35830,6,2,0.90917891264,-0.36918720603,0.0795812234282,0.0,12.6999998093,0.30407321492976586,-0.12347398194983276,0.02661579378869565,12.6999998093,0.0,0.4474001165556339,0.9844991921824109
1648634482056650157,35831,6,3,1.39103341103,-0.175803437829,0.11026211828,0.0,12.6999998093,0.46522856556187286,-0.05879713639765886,0.0368769626354515,12.6999998093,0.0,0.6605545697957744,1.406427578683611
1648634482161803553,35832,7,0,0.00714846141636,0.0454158857465,0.00917153526098,0.0,13.1000003815,0.0023907897713578595,0.015189259446989964,0.0030674030973177253,13.1000003815,0.0,0.015561020339606033,0.0468809154966467
1648634482161805334,35833,7,1,0.0342180393636,0.0146502861753,-0.0285011399537,0.0,13.1000003815,0.011444160322274247,0.0048997612626421405,-0.009532153830668895,13.1000003815,0.0,0.016909916362735828,0.046880913830336754
1648634482161811749,35834,7,2,1.39189231396,-0.175803437829,0.0988290458918,0.0,13.1000003815,0.46551582406688957,-0.05879713639765886,0.03305319260595317,13.1000003815,0.0,0.660959203099492,1.4064274751032495
1648634482161813654,35835,7,3,0.899406373501,-0.399952799082,0.0185643211007,-0.0809188112617,13.1000003815,0.30080480719096986,-0.13376347795384613,0.006208803043712374,13.1000003815,-0.010934974494824324,0.44593691492486043,0.9844992129025176
1648634482356727513,35836,9,0,0.00712122442201,0.0454158857465,0.00919269956648,0.0,22.1000003815,0.0023816804086989963,0.015189259446989964,0.003074481460361204,22.1000003815,0.0,0.015558226302709931,0.046880915527827895
1648634482356729418,35837,9,1,0.0342400819063,0.0146502861753,-0.0284746550024,0.0,22.1000003815,0.011451532410133778,0.0048997612626421405,-0.009523295987424747,22.1000003815,0.0,0.016919895079804046,0.046880913722687
1648634482356731838,35838,9,2,1.3914399147,-0.175803437829,0.105006955564,0.0,22.1000003815,0.46536451996655515,-0.05879713639765886,0.03511938313177257,22.1000003815,0.0,0.6607460753844623,1.4064275117081784
1648634482461760877,35839,10,0,0.00703660352156,0.0454158857465,0.00925763323903,0.0,12.1999998093,0.0023533791042006686,0.015189259446989964,0.003096198407702341,12.1999998093,0.0,0.0155496105727491,0.04688091552483979
1648634482461769793,35840,10,1,0.0342400819063,0.0146502861753,-0.0284746550024,0.0,12.1999998093,0.011451532410133778,0.0048997612626421405,-0.009523295987424747,12.1999998093,0.0,0.016919895079804046,0.046880913722687
1648634482461771438,35841,10,2,1.38630914688,-0.219754293561,0.0888450443745,0.0,12.1999998093,0.4636485441070234,-0.07349641925117056,0.029714061663712373,12.1999998093,0.0,0.6598042653301573,1.4064275460085223
1648634482656672760,35842,12,0,0.00715419463813,0.0454158857465,0.00916706398129,0.0,12.6999998093,0.002392707236832776,0.015189259446989964,0.0030659076860501673,12.6999998093,0.0,0.015561609762179417,0.04688091553176467
1648634482656675790,35843,12,1,0.0342400819063,0.0146502861753,-0.0284746550024,0.0,12.6999998093,0.011451532410133778,0.0048997612626421405,-0.009523295987424747,12.6999998093,0.0,0.016919895079804046,0.046880913722687
1648634482656804739,35844,12,2,1.05066549778,-0.0,0.24238166213,0.0,12.6999998093,0.3513931430702341,-0.0,0.08106410104682274,12.6999998093,0.0,0.49694494865483446,1.0782610344263566
1648634482656808388,35845,12,3,1.38631892204,-0.219754293561,0.0886912792921,0.0,12.6999998093,0.46365181339130435,-0.07349641925117056,0.02966263521474916,12.6999998093,0.0,0.659808860022987,1.4064274763268496
1648634482761825422,35846,13,0,0.00721333594993,0.0454158857465,0.00912060029805,0.0,12.6000003815,0.0024124869397759196,0.015189259446989964,0.0030503679926588622,12.6000003815,0.0,0.015567716242826133,0.04688091555699913
1648634482761834461,35847,13,1,0.0342400819063,0.0146502861753,-0.0284746550024,0.0,12.6000003815,0.011451532410133778,0.0048997612626421405,-0.009523295987424747,12.6000003815,0.0,0.016919895079804046,0.046880913722687
1648634482761836425,35848,13,2,0.884396255016,-0.430718421936,0.0395433306694,0.0,12.6000003815,0.2957847006742475,-0.14405298392508362,0.013225194203812709,12.6000003815,0.0,0.4424120709063314,0.9844992482890952
1648634482761839025,35849,13,3,1.05638539791,-0.0336956568062,0.213451355696,0.0,12.6000003815,0.35330615314715713,-0.011269450436856187,0.07138841327625417,12.6000003815,0.0,0.49977742667754976,1.0782610942872466
1648634482761946641,35850,13,4,1.38680577278,-0.219754293561,0.0807224288583,0.0,12.6000003815,0.4638146397257525,-0.07349641925117056,0.026997467845585283,12.6000003815,0.0,0.6600376986889483,1.406427499544577
1648634482956596146,35851,15,0,0.00712418882176,0.0454158857465,0.00919040199369,0.0,12.6999998093,0.002382671846742475,0.015189259446989964,0.0030737130413678927,12.6999998093,0.0,0.015558529905055048,0.046880915448750074
1648634482956624230,35852,15,1,0.0342400819063,0.0146502861753,-0.0284746550024,0.0,12.6999998093,0.011451532410133778,0.0048997612626421405,-0.009523295987424747,12.6999998093,0.0,0.016919895079804046,0.046880913722687
1648634482956628412,35853,15,2,1.12443733215,-0.0351606868207,0.0186799969524,0.0,12.6999998093,0.37606599737458196,-0.011759427030334446,0.006247490619531772,12.6999998093,0.0,0.5319676239084105,1.125142004422755
1648634482956652502,35854,15,3,0.858925521374,-0.703213751316,0.183526217937,0.0,12.6999998093,0.28726606066020066,-0.23518854559063543,0.06138000599899665,12.6999998093,0.0,0.4694222312497551,1.1251419928070314
1648634482956657526,35855,15,4,1.39331126213,-0.175803437829,0.0762588828802,0.0,12.6999998093,0.46599038867224074,-0.05879713639765886,0.025504643103745818,12.6999998093,0.0,0.6616276807377219,1.406427580485012
1648634483061850918,35856,16,0,0.00709678046405,0.0454158857465,0.00921158306301,0.0,11.8999996185,0.002373505171923077,0.015189259446989964,0.003080797011040134,11.8999996185,0.0,0.01555572743880096,0.04688091545203438
1648634483061863027,35857,16,1,0.0342400819063,0.0146502861753,-0.0284746550024,0.0,11.8999996185,0.011451532410133778,0.0048997612626421405,-0.009523295987424747,11.8999996185,0.0,0.016919895079804046,0.046880913722687
1648634483061865132,35858,16,2,1.07074224949,-0.0336956568062,0.122565858066,0.0,11.8999996185,0.35810777574916386,-0.011269450436856187,0.04099192577458194,11.8999996185,0.0,0.5065662430691327,1.0782609849632703
1648634483061867596,35859,16,3,1.39394772053,-0.175803437829,0.0635702386498,0.0,11.8999996185,0.4662032510133779,-0.05879713639765886,0.021260949381204014,11.8999996185,0.0,0.6619275230411938,1.4064274853561667
