%time,field.header.seq,field.header.frame_id,field.point_id,field.x,field.y,field.z,field.velocity,field.intensity,normalized_x,normalized_y,normalized_z,normalized_intensity,normalized_velocity,normalized_range,range
1648634362354670512,32139,0,0,0.00712418882176,0.0454158857465,0.00919040199369,0.0,11.8000001907,0.002382671846742475,0.015189259446989964,0.0030737130413678927,11.8000001907,0.0,0.015558529905055048,0.046880915448750074
1648634362354673959,32140,0,1,0.0342776104808,0.0146502861753,-0.0284294709563,0.0,11.8000001907,0.011464083772842807,0.0048997612626421405,-0.009508184266321069,11.8000001907,0.0,0.016936885603097283,0.046880915990909794
1648634362354675769,32141,0,2,1.34765064716,-0.169943317771,0.0576541498303,0.0,11.8000001907,0.45071927998662203,-0.05683723002374581,0.019282324357959863,11.8000001907,0.0,0.6399423485128095,1.3595466152502593
1648634362354684263,32142,0,3,0.820617198944,0.297400802374,1.04235649109,0.0,11.8000001907,0.274453912690301,0.09946515129565217,0.3486142110668896,11.8000001907,0.0,0.4006784455199677,1.3595465710937793
1648634362354690009,32143,0,4,0.940311610699,-0.41899818182,-0.0632421448827,-0.0809188112617,11.8000001907,0.31448548852809366,-0.14013317117725752,-0.02115121902431438,11.8000001907,-0.010934974494824324,0.4663041396489013,1.0313801289889086
1648634362459587814,32144,1,0,0.00712418882176,0.0454158857465,0.00919040199369,0.0,15.3999996185,0.002382671846742475,0.015189259446989964,0.0030737130413678927,15.3999996185,0.0,0.015558529905055048,0.046880915448750074
1648634362459597592,32145,1,1,0.0342556610703,0.0146502861753,-0.0284559112042,0.0,15.3999996185,0.011456742832876255,0.0048997612626421405,-0.009517027158595318,15.3999996185,0.0,0.016926948133323128,0.04688091384393833
1648634362459600491,32146,1,2,1.38626098633,-0.219754293561,0.0895932763815,0.0,15.3999996185,0.4636324368996655,-0.07349641925117056,0.02996430648210702,15.3999996185,0.0,0.659781628066278,1.4064275405906592
1648634362459632454,32147,1,3,0.353116482496,0.307656019926,1.32615792751,0.0,15.3999996185,0.11809915802541804,0.10289498994180601,0.44353107943478254,15.3999996185,0.0,0.19616880793783115,1.4064275045322008
1648634362654636312,32148,3,0,0.00711832381785,0.0454158857465,0.00919494591653,0.0,13.1000003815,0.002380710306973244,0.015189259446989964,0.0030752327480033444,13.1000003815,0.0,0.015557929350637609,0.04688091554697736
1648634362654643864,32149,3,1,0.0342556610703,0.0146502861753,-0.0284559112042,0.0,13.1000003815,0.011456742832876255,0.0048997612626421405,-0.009517027158595318,13.1000003815,0.0,0.016926948133323128,0.04688091384393833
1648634362654739908,32150,3,2,1.07189488411,-0.0673913136125,0.0956374779344,0.0,13.1000003815,0.3584932722775919,-0.02253890087374582,0.03198577857337792,13.1000003815,0.0,0.5074868023793209,1.0782609883127838
1648634362654743636,32151,3,3,1.39060616493,-0.175803437829,0.115525439382,0.0,13.1000003815,0.4650856738896321,-0.05879713639765886,0.038637270696321065,13.1000003815,0.0,0.660353292839001,1.406427560110446
1648634362654745524,32152,3,4,0.819622635841,0.307656019926,-1.10072922707,0.0,13.1000003815,0.27412128288996657,0.10289498994180601,-0.36813686524080264,13.1000003815,0.0,0.40108893580053606,1.406427503679367
1648634362654746525,32153,3,5,0.812030136585,-0.49224960804,0.259876996279,0.242756426334,13.1000003815,0.2715819854799331,-0.16463197593311035,0.08691538337090302,13.1000003815,0.03280492247756756,0.417872273756091,0.9844991988482179
1648634362759686273,32154,4,0,0.00709390081465,0.0454158857465,0.00921380147338,0.0,24.5,0.0023725420784782604,0.015189259446989964,0.0030815389543076923,24.5,0.0,0.015555433596537056,0.04688091556804424
1648634362759698908,32155,4,1,0.0342776104808,0.0146502861753,-0.0284294709563,0.0,24.5,0.011464083772842807,0.0048997612626421405,-0.009508184266321069,24.5,0.0,0.016936885603097283,0.046880915990909794
1648634362759700586,32156,4,2,1.34786987305,-0.169943317771,0.0522770285606,0.0,24.5,0.45079259968227425,-0.05683723002374581,0.017483956040334446,24.5,0.0,0.6400456285089201,1.3595465470685306
1648634362759705946,32157,4,3,0.738728523254,0.254914969206,1.11250412464,0.0,24.5,0.24706639573712372,0.0852558425438127,0.3720749580735786,24.5,0.0,0.3596556220788456,1.359546578803148
1648634362954714315,32158,6,0,0.00699976179749,0.0454158857465,0.00928552076221,0.0,12.6000003815,0.002341057457354515,0.015189259446989964,0.0031055253385317725,12.6000003815,0.0,0.015545890215270539,0.04688091551139093
1648634362954719930,32159,6,1,0.0342556610703,0.0146502861753,-0.0284559112042,0.0,12.6000003815,0.011456742832876255,0.0048997612626421405,-0.009517027158595318,12.6000003815,0.0,0.016926948133323128,0.04688091384393833
1648634362954863900,32160,6,2,1.34880888462,-0.169943317771,-0.014163707383,0.0,12.6000003815,0.45110665037458186,-0.05683723002374581,-0.004737025880602007,12.6000003815,0.0,0.6404880098340036,1.3595465233274273
1648634362954870584,32161,6,3,0.993644535542,0.254914969206,0.892219603062,0.0,12.6000003815,0.3323225871377926,0.0852558425438127,0.29840120503745815,12.6000003815,0.0,0.47764543600014325,1.3595465878835802
1648634363059602017,32162,7,0,0.00711832381785,0.0454158857465,0.00919494591653,0.0,12.6000003815,0.002380710306973244,0.015189259446989964,0.0030752327480033444,12.6000003815,0.0,0.015557929350637609,0.04688091554697736
1648634363059626281,32163,7,1,0.0342556610703,0.0146502861753,-0.0284559112042,0.0,12.6000003815,0.011456742832876255,0.0048997612626421405,-0.009517027158595318,12.6000003815,0.0,0.016926948133323128,0.04688091384393833
1648634363059630528,32164,7,2,1.34731280804,-0.169943317771,0.0650728344917,0.0,12.6000003815,0.45060629031438126,-0.05683723002374581,0.02176348979655518,12.6000003815,0.0,0.6397831886338912,1.3595466184550016
1648634363059632417,32165,7,3,1.44460105896,-0.70467877388,-0.65220528841,-0.161837622523,12.6000003815,0.48314416687625417,-0.2356785196923077,-0.21812885899999998,12.6000003815,-0.021869948989594594,0.7227730879172639,1.7345939386886329
1648634363254608422,32166,9,0,0.0070604425855,0.0454158857465,0.00923946499825,0.0,12.6999998093,0.002361352035284281,0.015189259446989964,0.0030901220729933104,12.6999998093,0.0,0.015552027823311542,0.046880915531761644
1648634363254611412,32167,9,1,0.0342556610703,0.0146502861753,-0.0284559112042,0.0,12.6999998093,0.011456742832876255,0.0048997612626421405,-0.009517027158595318,12.6999998093,0.0,0.016926948133323128,0.04688091384393833
1648634363254623880,32168,9,2,1.38749849796,-0.175803437829,0.148254290223,0.0,12.6999998093,0.46404632038795984,-0.05879713639765886,0.04958337465652173,12.6999998093,0.0,0.6588892761153236,1.4064274830801895
1648634363254727499,32169,9,3,0.847155511379,0.307656019926,-1.07968223095,0.0,12.6999998093,0.28332960246789296,0.10289498994180601,-0.3610977361036789,12.6999998093,0.0,0.4136891420189233,1.4064275334640215
1648634363359725499,32170,10,0,0.00717794056982,0.0454158857465,0.00914848223329,0.0,12.3000001907,0.002400649020006689,0.015189259446989964,0.0030596930546120398,12.3000001907,0.0,0.015564055833313243,0.04688091547885805
1648634363359730872,32171,10,1,0.0342556610703,0.0146502861753,-0.0284559112042,0.0,12.3000001907,0.011456742832876255,0.0048997612626421405,-0.009517027158595318,12.3000001907,0.0,0.016926948133323128,0.04688091384393833
1648634363359736187,32172,10,2,1.02935564518,-0.0,0.321051061153,0.0,12.3000001907,0.34426610206688957,-0.0,0.10737493684046821,12.3000001907,0.0,0.4868657906083155,1.0782610204080463
1648634363359741079,32173,10,3,1.37899839878,-0.219754293561,0.167659953237,0.0,12.3000001907,0.4612034778528428,-0.07349641925117056,0.056073562955518394,12.3000001907,0.0,0.6563680519417892,1.4064275286326458
1648634363359743107,32174,10,4,0.992025852203,0.307656019926,-0.948298931122,0.0,12.3000001907,0.3317812214725752,0.10289498994180601,-0.31715683315117055,12.3000001907,0.0,0.4803591747836117,1.4064275241913191
1648634363359744857,32175,10,5,0.884898066521,-0.430718421936,0.0259963925928,0.161837622523,12.3000001907,0.2959525306090301,-0.14405298392508362,0.008694445683210702,12.3000001907,0.021869948989594594,0.4426364907296937,0.9844992430446461
1648634363554630899,32176,12,0,0.00709097320214,0.0454158857465,0.00921605434269,0.0,28.5,0.0023715629438595316,0.015189259446989964,0.0030822924223043472,28.5,0.0,0.015555134976635503,0.046880915485301954
1648634363554636664,32177,12,1,0.0342556610703,0.0146502861753,-0.0284559112042,0.0,28.5,0.011456742832876255,0.0048997612626421405,-0.009517027158595318,28.5,0.0,0.016926948133323128,0.04688091384393833
1648634363554639037,32178,12,2,1.34817349911,-0.169943317771,0.0437528528273,0.0,28.5,0.4508941468595318,-0.05683723002374581,0.01463306114625418,28.5,0.0,0.6401886706754051,1.35954655201212
1648634363554761502,32179,12,3,0.917929291725,0.297400802374,0.957771122456,0.0,28.5,0.30699976311872906,0.09946515129565217,0.32032479011906356,28.5,0.0,0.4454110746626968,1.3595465953287829
1648634363659665234,32180,13,0,0.00702961953357,0.0454158857465,0.00926293712109,0.0,12.5,0.0023510433222642137,0.015189259446989964,0.003097972281301003,12.5,0.0,0.015548903882727559,0.04688091544578835
1648634363659677406,32181,13,1,0.0342556610703,0.0146502861753,-0.0284559112042,0.0,12.5,0.011456742832876255,0.0048997612626421405,-0.009517027158595318,12.5,0.0,0.016926948133323128,0.04688091384393833
1648634363659701331,32182,13,2,0.909288287163,-0.483459472656,0.0566281117499,0.0,12.5,0.3041097950377926,-0.16169213132307692,0.018939167809331102,12.5,0.0,0.4594669522475535,1.0313801403522365
1648634363659703003,32183,13,3,1.00531506538,0.032230630517,-0.228140369058,0.0,12.5,0.33622577437458195,0.010779475089297658,-0.07630112677525083,12.5,0.0,0.4756172198215445,1.0313802510313244
1648634363659704744,32184,13,4,1.35048413277,-0.127457484603,0.0911827012897,0.0,12.5,0.45166693403678926,-0.04262792127190635,0.03049588671896321,12.5,0.0,0.640174334284303,1.3595466480630038
1648634363854673169,32185,15,0,0.00714792404324,0.0454158857465,0.00917195435613,0.0,13.8000001907,0.0023906100479063543,0.015189259446989964,0.0030675432629197323,13.8000001907,0.0,0.015560965116286185,0.046880915551831985
1648634363854686017,32186,15,1,0.0342712774873,0.0146502861753,-0.0284371003509,0.0,13.8000001907,0.011461965714816053,0.0048997612626421405,-0.009510735903311036,13.8000001907,0.0,0.01693401832189058,0.04688091319499717
1648634363854691022,32187,15,2,1.06370842457,-0.0336956568062,0.173308610916,0.0,13.8000001907,0.35575532594314374,-0.011269450436856187,0.0579627461257525,13.8000001907,0.0,0.5032402054555792,1.0782610465033158
1648634363854818036,32188,15,3,1.34693050385,-0.169943317771,0.0725552067161,0.0,13.8000001907,0.45047842938127086,-0.05683723002374581,0.024265955423444813,13.8000001907,0.0,0.639603081131107,1.3595465315605222
1648634363854820748,32189,15,4,0.758217155933,0.254914969206,1.09931433201,0.0,13.8000001907,0.25358433308795986,0.0852558425438127,0.36766365619063546,13.8000001907,0.0,0.36861712746857833,1.359546577958628
