%time,field.header.seq,field.header.frame_id,field.point_id,field.x,field.y,field.z,field.velocity,field.intensity,normalized_x,normalized_y,normalized_z,normalized_intensity,normalized_velocity,normalized_range,range
1648624838348915177,30517,0,0,0.00677622901276,0.0454158857465,0.00944988243282,0.0,40.5,0.002266297328682274,0.015189259446989964,0.003160495796929766,40.5,0.0,0.015523717651128505,0.046880915474920404
1648624838348958423,30518,0,1,0.0322126448154,0.0161153152585,-0.0300077050924,0.0,40.5,0.010773459804481605,0.005389737544648829,-0.010036021770033444,40.5,0.0,0.01616119250296088,0.046880915485903306
1648624838348978416,30519,0,2,0.791086018085,-0.290075659752,0.0461820662022,0.0,40.5,0.2645772635735786,-0.09701527082006689,0.015445507091036788,40.5,0.0,0.38654135557849,0.8438564804685945
1648624838348980565,30520,0,3,1.00804924965,-0.128922522068,0.175956442952,0.0,40.5,0.3371402172742475,-0.04311790035719063,0.05884830867959866,40.5,0.0,0.47873396112942124,1.0313801317810143
1648624838453657387,30521,1,0,0.00687695061788,0.0454158857465,0.00937683880329,0.0,17.5,0.0022999834842408026,0.015189259446989964,0.003136066489394649,17.5,0.0,0.015533623228453006,0.046880915454828594
1648624838453663551,30522,1,1,0.0343631058931,0.0146502861753,-0.0283260699362,0.0,17.5,0.011492677556220736,0.0048997612626421405,-0.009473601985351169,17.5,0.0,0.01697559822961795,0.046880914769968855
1648624838453671779,30523,1,2,1.01597428322,-0.128922522068,0.122148841619,0.0,17.5,0.33979073017391304,-0.04311790035719063,0.0408524553909699,17.5,0.0,0.4824672361471342,1.0313801919610588
1648624838453674698,30524,1,3,0.739685595036,-0.316446185112,0.254599273205,-0.0809188112617,17.5,0.24738648663411367,-0.10583484451906354,0.08515025859698995,17.5,-0.010934974494824324,0.3655149269902877,0.8438564792026033
1648624838453678306,30525,1,4,0.560681283474,-0.0263705141842,-0.630106985569,-0.0809188112617,17.5,0.18751882390434782,-0.008819569961270902,-0.21073812226387958,17.5,-0.010934974494824324,0.26533828116433067,0.8438564563474307
1648624838649221644,30526,3,0,0.00677622901276,0.0454158857465,0.00944988243282,0.0,20.8999996185,0.002266297328682274,0.015189259446989964,0.003160495796929766,20.8999996185,0.0,0.015523717651128505,0.046880915474920404
1648624838649233337,30527,3,1,0.0322126448154,0.0161153152585,-0.0300077050924,0.0,20.8999996185,0.010773459804481605,0.005389737544648829,-0.010036021770033444,20.8999996185,0.0,0.01616119250296088,0.046880915485903306
1648624838649424349,30528,3,2,0.830574274063,-0.131852567196,-0.0696778669953,0.0,20.8999996185,0.2777840381481605,-0.04409784856053511,-0.023303634446588627,20.8999996185,0.0,0.3953132478775095,0.8438564625340437
1648624838649438687,30529,3,3,1.02586019039,-0.0,-0.106564171612,0.0,20.8999996185,0.34309705364214044,-0.0,-0.03564019117458194,20.8999996185,0.0,0.4852125064709643,1.0313801689475897
1648624838754027276,30530,4,0,0.00677622901276,0.0454158857465,0.00944988243282,0.0,11.6999998093,0.002266297328682274,0.015189259446989964,0.003160495796929766,11.6999998093,0.0,0.015523717651128505,0.046880915474920404
1648624838754047615,30531,4,1,0.0343631058931,0.0146502861753,-0.0283260699362,0.0,11.6999998093,0.011492677556220736,0.0048997612626421405,-0.009473601985351169,11.6999998093,0.0,0.01697559822961795,0.046880914769968855
1648624838754056869,30532,4,2,0.992568075657,-0.096691891551,0.263067007065,0.0,11.6999998093,0.3319625671093645,-0.032338425267892976,0.0879822766103679,11.6999998093,0.0,0.47057843732207466,1.031380122414276
1648624838754063001,30533,4,3,0.754740536213,-0.316446185112,0.205723777413,0.0809188112617,11.6999998093,0.25242158401772574,-0.10583484451906354,0.0688039389341137,11.6999998093,0.010934974494824324,0.37233630828917275,0.8438564674564617
1648624838754071858,30534,4,4,0.686331987381,-0.0263705141842,-0.490251660347,0.0809188112617,11.6999998093,0.2295424706959866,-0.008819569961270902,-0.16396376600234114,11.6999998093,0.010934974494824324,0.3247418613618169,0.8438564400380449
1648624838949364482,30535,6,0,0.00677622901276,0.0454158857465,0.00944988243282,0.0,21.5,0.002266297328682274,0.015189259446989964,0.003160495796929766,21.5,0.0,0.015523717651128505,0.046880915474920404
1648624838949386820,30536,6,1,0.0321876145899,0.0161153152585,-0.0300345532596,0.0,21.5,0.010765088491605351,0.005389737544648829,-0.010045001090167224,21.5,0.0,0.016150031927658383,0.04688091624928565
1648624838949403090,30537,6,2,1.01408648491,-0.161153152585,0.0969710797071,0.0,21.5,0.3391593595016722,-0.05389737544648829,0.032431799233143814,21.5,0.0,0.48266247974665355,1.0313802052418715
1648624838949519210,30538,6,3,0.764384627342,-0.290075659752,0.20896409452,0.0809188112617,21.5,0.2556470325558528,-0.09701527082006689,0.06988765703010033,21.5,0.010934974494824324,0.3743297654228387,0.8438564686579643
