%time,field.header.seq,field.header.frame_id,field.point_id,field.x,field.y,field.z,field.velocity,field.intensity,normalized_x,normalized_y,normalized_z,normalized_intensity,normalized_velocity,normalized_range,range
1648624867053727445,31507,0,0,0.00674185110256,0.0454158857465,0.00947443954647,0.0,17.0,0.0022547996998528424,0.015189259446989964,0.00316870887841806,17.0,0.0,0.015520368743070726,0.0468809155109832
1648624867053736565,31508,0,1,0.0343963243067,0.0146502861753,-0.0282857250422,0.0,17.0,0.01150378739354515,0.0048997612626421405,-0.009460108709765887,17.0,0.0,0.016990641813147175,0.04688091564797777
1648624867053745619,31509,0,2,1.04954123497,-0.101086974144,0.225591093302,0.0,17.0,0.3510171354414715,-0.03380835255652174,0.07544852618795986,17.0,0.0,0.4975631250903334,1.0782609710182105
1648624867248819438,31510,2,0,0.00690207956359,0.0454158857465,0.00935835763812,0.0,13.6999998093,0.002308387813909699,0.015189259446989964,0.003129885497698997,13.6999998093,0.0,0.015536116346976405,0.046880915500064915
1648624867248825165,31511,2,1,0.0343417190015,0.0146502861753,-0.028351996094,0.0,13.6999998093,0.011485524749665552,0.0048997612626421405,-0.009482272941137123,13.6999998093,0.0,0.016965913414291857,0.046880915429525945
1648624867248827706,31512,2,2,0.727745473385,-0.843856453896,0.155683517456,0.0,13.6999998093,0.2433931349113712,-0.28222623876120395,0.05206806603879598,13.6999998093,0.0,0.445120305186436,1.1251420116686435
1648624867248833169,31513,2,3,0.586001396179,-0.375047326088,0.280328154564,0.566431701183,13.6999998093,0.19598708902307693,-0.1254338883237458,0.09375523564013377,13.6999998093,0.07654482448418919,0.30422941749195276,0.7500946656061179
1648624867354092170,31514,3,0,0.00686878943816,0.0454158857465,0.00938281882554,0.0,28.7999992371,0.0022972539926956518,0.015189259446989964,0.00313806649683612,28.7999992371,0.0,0.015532815403586244,0.04688091547312005
1648624867354098477,31515,3,1,0.0345020703971,0.0146502861753,-0.0281566400081,0.0,28.7999992371,0.01153915397896321,0.0048997612626421405,-0.009416936457558528,28.7999992371,0.0,0.017038538949432653,0.04688091427489835
1648624867354102443,31516,3,2,1.06020450592,-0.168478280306,0.101135000587,0.0,28.7999992371,0.35458344679598663,-0.05634725093846154,0.033824414912040135,28.7999992371,0.0,0.5046125782932551,1.0782610136936563
1648624867354105114,31517,3,3,0.741362035275,-0.775000095367,0.111373156309,0.0,28.7999992371,0.2479471689882943,-0.25919735631003343,0.037248547260535114,28.7999992371,0.0,0.4360491563307169,1.0782610050967152
1648624867354108559,31518,3,4,1.28252089024,-1.34782636166,0.23455658555,0.0,28.7999992371,0.42893675258862873,-0.45077804737792637,0.07844701857859532,28.7999992371,0.0,0.7557607580712384,1.8752366589080187
1648624867549182797,31519,5,0,0.00686878943816,0.0454158857465,0.00938281882554,0.0,11.1999998093,0.0022972539926956518,0.015189259446989964,0.00313806649683612,11.1999998093,0.0,0.015532815403586244,0.04688091547312005
1648624867549189621,31520,5,1,0.0343963243067,0.0146502861753,-0.0282857250422,0.0,11.1999998093,0.01150378739354515,0.0048997612626421405,-0.009460108709765887,11.1999998093,0.0,0.016990641813147175,0.04688091564797777
1648624867549423339,31521,5,2,0.700080156326,-0.843856453896,0.252465009689,0.0,11.1999998093,0.23414052051036785,-0.28222623876120395,0.08443645808996654,11.1999998093,0.0,0.4350807011751131,1.125142000451781
1648624867549427798,31522,5,3,1.28819108009,-1.34782636166,0.201098069549,0.0,11.1999998093,0.43083313715384614,-0.45077804737792637,0.06725687944782609,11.1999998093,0.0,0.7579150560171672,1.8752366766852147
1648624867549429461,31523,5,4,0.568066120148,-0.351606875658,0.219506472349,-0.323675245047,11.1999998093,0.18998866894581937,-0.11759427279531771,0.07341353590267558,11.1999998093,-0.04373989797932432,0.29329132556191956,0.7032137678352753
1648624867654039523,31524,6,0,0.00683569489047,0.0454158857465,0.00940695684403,0.0,32.0999984741,0.0022861855820969896,0.015189259446989964,0.0031461394127190634,32.0999984741,0.0,0.015529548981845873,0.04688091551836612
1648624867654050089,31525,6,1,0.0344176255167,0.0146502861753,-0.0282597988844,0.0,32.0999984741,0.011510911544046824,0.0048997612626421405,-0.009451437753979932,32.0999984741,0.0,0.01700028910285438,0.04688091364524289
1648624867654053609,31526,6,2,1.05289888382,-0.202173948288,0.114788807929,-0.0809188112617,32.0999984741,0.3521400949230769,-0.06761670511304348,0.03839090566187291,32.0999984741,-0.010934974494824324,0.5025707032002676,1.0782610237514485
