%time,field.header.seq,field.header.frame_id,field.point_id,field.x,field.y,field.z,field.velocity,field.intensity,normalized_x,normalized_y,normalized_z,normalized_intensity,normalized_velocity,normalized_range,range
1648624775053400142,28297,0,0,0.0068351640366,0.0454158857465,0.00940734241158,0.0,39.5999984741,0.0022860080389966553,0.015189259446989964,0.003146268365076923,39.5999984741,0.0,0.015529496709703394,0.04688091548588917
1648624775053418710,28298,0,1,0.0322126448154,0.0161153152585,-0.0300077050924,0.0,39.5999984741,0.010773459804481605,0.005389737544648829,-0.010036021770033444,39.5999984741,0.0,0.01616119250296088,0.046880915485903306
1648624775053427196,28299,0,2,0.833240449429,-0.0527410283685,0.122566245496,0.0,39.5999984741,0.27867573559498326,-0.017639139922575247,0.04099205534983277,39.5999984741,0.0,0.39450154686137573,0.843856473088282
1648624775053437854,28300,0,3,1.06889200211,-0.101086974144,0.0994889289141,0.0,39.5999984741,0.3574889639163879,-0.03380835255652174,0.03327388926892976,39.5999984741,0.0,0.5066949016386598,1.0782609774506302
1648624775053446195,28301,0,4,0.671937465668,-0.842391431332,-0.0390316843987,0.0,39.5999984741,0.22472824938729094,-0.2817362646595318,-0.01305407504973244,39.5999984741,0.0,0.4247127205178326,1.0782609859106052
1648624775053464671,28302,0,5,0.782173335552,-0.290075659752,0.127101257443,0.242756426334,39.5999984741,0.2615964332949832,-0.09701527082006689,0.0425087817535117,39.5999984741,0.03280492247756756,0.3824622211377277,0.8438564717253114
1648624775248500494,28303,2,0,0.00677556637675,0.0454158857465,0.00945035740733,0.0,39.2000007629,0.0022660757112876254,0.015189259446989964,0.0031606546512809365,39.2000007629,0.0,0.015523652946602141,0.046880915445319145
1648624775248523109,28304,2,1,0.0322126448154,0.0161153152585,-0.0300077050924,0.0,39.2000007629,0.010773459804481605,0.005389737544648829,-0.010036021770033444,39.2000007629,0.0,0.01616119250296088,0.046880915485903306
1648624775248632469,28305,2,2,0.822878301144,-0.105482056737,0.154397547245,0.0,39.2000007629,0.2752101341618729,-0.035278279845150494,0.05163797566722407,39.2000007629,0.0,0.3908014750735019,0.8438564838776645
1648624775248635731,28306,2,3,0.726583063602,-0.843856453896,0.161021262407,0.0,39.2000007629,0.24300436909765885,-0.28222623876120395,0.05385326501906354,39.2000007629,0.0,0.4446952851632211,1.1251419955020538
1648624775248639863,28307,2,4,1.49098312855,0.492249637842,-2.10404968262,0.161837622523,39.2000007629,0.4986565647324414,0.16463198590033443,-0.7036955460267558,39.2000007629,0.021869948989594594,0.7241687854934145,2.6253314957371856
1648624775248641911,28308,2,5,2.44606637955,-0.574291229248,0.761126637459,0.161837622523,39.2000007629,0.8180824011872909,-0.1920706452334448,0.25455740383244146,39.2000007629,0.021869948989594594,1.1727782241434734,2.625331390016443
1648624775248643314,28309,2,6,0.994865119457,-0.128922522068,0.239515066147,-0.161837622523,39.2000007629,0.3327308091829431,-0.04311790035719063,0.08010537329331104,39.2000007629,-0.021869948989594594,0.4725237942054187,1.0313801867012797
1648624775353523688,28310,3,0,0.00680970214307,0.0454158857465,0.00942579004914,0.0,34.2000007629,0.002277492355541806,0.015189259446989964,0.0031524381435250833,34.2000007629,0.0,0.015526994087944924,0.046880915514385384
1648624775353544858,28311,3,1,0.0322126448154,0.0161153152585,-0.0300077050924,0.0,34.2000007629,0.010773459804481605,0.005389737544648829,-0.010036021770033444,34.2000007629,0.0,0.01616119250296088,0.046880915485903306
1648624775353547987,28312,3,2,0.834871888161,-0.105482056737,-0.0628980472684,0.0,34.2000007629,0.2792213672779264,-0.035278279845150494,-0.02103613621016722,34.2000007629,0.0,0.39645138531469665,0.8438564441213676
1648624775353591406,28313,3,3,0.724773705006,-0.843856453896,0.168978765607,0.0,34.2000007629,0.24239923244347825,-0.28222623876120395,0.05651463732675585,34.2000007629,0.0,0.4440342617677952,1.12514197391979
1648624775353641629,28314,3,4,2.09046578407,-1.04603040218,0.502297997475,0.0,34.2000007629,0.6991524361438127,-0.34984294387290965,0.16799264129598662,34.2000007629,0.0,1.048817592963295,2.3909266142898757
1648624775353733482,28315,3,5,1.1898214817,-0.152362972498,0.216417983174,-0.242756426334,34.2000007629,0.39793360591973237,-0.05095751588561872,0.07238059637926421,34.2000007629,-0.03280492247756756,0.5650654633454383,1.2189037604110964
1648624775353736986,28316,3,6,1.00632071495,-0.128922522068,0.185587316751,-0.0809188112617,34.2000007629,0.33656211202341135,-0.04311790035719063,0.06206933670602006,34.2000007629,-0.010934974494824324,0.47791972529969007,1.0313801676262195
1648624775548503218,28317,5,0,0.00677556637675,0.0454158857465,0.00945035740733,0.0,17.3999996185,0.0022660757112876254,0.015189259446989964,0.0031606546512809365,17.3999996185,0.0,0.015523652946602141,0.046880915445319145
1648624775548506796,28318,5,1,0.0344002954662,0.0146502861753,-0.0282808933407,0.0,17.3999996185,0.011505115540535116,0.0048997612626421405,-0.009458492756086956,17.3999996185,0.0,0.01699244030835518,0.04688091446770313
1648624775548511922,28319,5,2,0.788094997406,-0.0498109720647,-0.107680663466,0.0,17.3999996185,0.2635769222093645,-0.016659187981505015,-0.03601359982140468,17.3999996185,0.0,0.3731261400477403,0.796975522308478
1648624775548518366,28320,5,3,0.993889689445,-0.193383783102,0.196293100715,0.0,17.3999996185,0.33240457840969895,-0.06467685053578595,0.06564986645986622,17.3999996185,0.0,0.47451944374354965,1.031380135420607
1648624775548580529,28321,5,4,2.11890482903,-0.9713139534,0.532278776169,0.0,17.3999996185,0.7086638224180601,-0.3248541650167224,0.17801965758160535,17.3999996185,0.0,1.0535364516413581,2.3909264242372994
1648624775653555901,28322,6,0,0.00680120009929,0.0454158857465,0.00943192653358,0.0,11.8000001907,0.0022746488626387957,0.015189259446989964,0.003154490479458194,11.8000001907,0.0,0.015526160421835845,0.046880915510094025
1648624775653561453,28323,6,1,0.0345178097486,0.0146502861753,-0.0281373411417,0.0,11.8000001907,0.0115444179761204,0.0048997612626421405,-0.009410481987190635,11.8000001907,0.0,0.017045669046582834,0.04688091340175802
1648624775653564455,28324,6,2,0.783944189548,-0.0249054860324,-0.141354829073,0.0,11.8000001907,0.26218869215652174,-0.00832959399076923,-0.04727586256622074,11.8000001907,0.0,0.37088435222525323,0.7969755098262666
1648624775653569162,28325,6,3,1.00139665604,-0.161153152585,0.187028080225,0.0,11.8000001907,0.3349152695785953,-0.05389737544648829,0.06255119739966555,11.8000001907,0.0,0.4766984399741896,1.0313801937737739
1648624775653578720,28326,6,4,0.778532028198,-0.808695793152,0.076442681253,0.0,11.8000001907,0.260378604748495,-0.2704668204521739,0.02556611413143812,11.8000001907,0.0,0.4568876629840802,1.1251419858440008
1648624775653682729,28327,6,5,2.129144907,-0.9713139534,0.489714473486,0.0,11.8000001907,0.7120885976588629,-0.3248541650167224,0.16378410484481604,11.8000001907,0.0,1.0581448721041196,2.3909264097029936
