%time,field.header.seq,field.header.frame_id,field.point_id,field.x,field.y,field.z,field.velocity,field.intensity,normalized_x,normalized_y,normalized_z,normalized_intensity,normalized_velocity,normalized_range,range
1648624597347219100,22399,0,0,0.00669720815495,0.0454158857465,0.00950604863465,0.0,31.3999996185,0.0022398689481438125,0.015189259446989964,0.0031792804798160532,31.3999996185,0.0,0.0155160442238894,0.04688091547585437
1648624597347230034,22400,0,1,0.0321789383888,0.0161153152585,-0.0300438497216,0.0,31.3999996185,0.010762186752107024,0.005389737544648829,-0.010048110274782607,31.3999996185,0.0,0.01614616357450441,0.04688091688315315
1648624597347234063,22401,0,2,0.868413329124,-0.293005734682,0.197823107243,-0.242756426334,31.3999996185,0.290439240509699,-0.09799522899063544,0.06616157432876255,31.3999996185,-0.03280492247756756,0.4222712040390969,0.937618287212895
1648624597452118186,22402,1,0,0.00679915398359,0.0454158857465,0.00943340174854,0.0,32.2000007629,0.002273964543006689,0.015189259446989964,0.0031549838623879597,32.2000007629,0.0,0.01552595993920109,0.046880915536933215
1648624597452129646,22403,1,1,0.0321789383888,0.0161153152585,-0.0300438497216,0.0,32.2000007629,0.010762186752107024,0.005389737544648829,-0.010048110274782607,32.2000007629,0.0,0.01614616357450441,0.04688091688315315
1648624597452136191,22404,1,2,0.729548096657,-0.843856453896,0.147004678845,0.0,32.2000007629,0.24399601894882944,-0.28222623876120395,0.04916544442976588,32.2000007629,0.0,0.44577995061582926,1.1251419980251849
1648624597452142937,22405,1,3,1.10177946091,0.210964113474,0.0867214873433,0.0,32.2000007629,0.3684881140167224,0.07055655969030099,0.029003841920836118,32.2000007629,0.0,0.5258756587431415,1.1251419706081696
1648624597647510354,22406,3,0,0.00676460005343,0.0454158857465,0.00945821031928,0.0,11.1999998093,0.002262408044625418,0.015189259446989964,0.003163281043237458,11.1999998093,0.0,0.015522582996033409,0.046880915461045995
1648624597647519361,22407,3,1,0.0322040766478,0.0161153152585,-0.0300168991089,0.0,11.1999998093,0.010770594196588627,0.005389737544648829,-0.010039096691939798,11.1999998093,0.0,0.016157371986043226,0.04688091478130628
1648624597647661032,22408,3,2,0.769075393677,-0.44536870718,0.0598574131727,0.0,11.1999998093,0.2572158507280936,-0.14895274487625418,0.02001920173,11.1999998093,0.0,0.3930736673166041,0.8907374228168167
1648624597647668228,22409,3,3,0.729087531567,-0.843856453896,0.149271965027,0.0,11.1999998093,0.24384198380167224,-0.28222623876120395,0.049923734122742466,11.1999998093,0.0,0.4456113508136502,1.1251419746020566
1648624597647677186,22410,3,4,1.10727393627,0.105482056737,0.169594660401,0.0,11.1999998093,0.3703257311939799,0.035278279845150494,0.0567206222076923,11.1999998093,0.0,0.5249065168175611,1.1251419390782915
1648624597647815895,22411,3,5,1.28146922588,-0.246124818921,0.1426551193,0.0,11.1999998093,0.4285850253779264,-0.08231599295016721,0.04771074224080267,11.1999998093,0.0,0.6116748896691506,1.3126657177015322
1648624597947415087,22412,6,0,0.00676460005343,0.0454158857465,0.00945821031928,0.0,13.6000003815,0.002262408044625418,0.015189259446989964,0.003163281043237458,13.6000003815,0.0,0.015522582996033409,0.046880915461045995
1648624597947416958,22413,6,1,0.0321789383888,0.0161153152585,-0.0300438497216,0.0,13.6000003815,0.010762186752107024,0.005389737544648829,-0.010048110274782607,13.6000003815,0.0,0.01614616357450441,0.04688091688315315
1648624597947418832,22414,6,2,0.69176530838,-0.741304516792,0.188873976469,0.161837622523,13.6000003815,0.231359634909699,-0.2479279320374582,0.06316855400301002,13.6000003815,0.021869948989594594,0.4105153113045467,1.031380146930078
1648624598052489412,22415,7,0,0.00663548940793,0.0454158857465,0.00954923219979,0.0,24.7000007629,0.0022192272267324412,0.015189259446989964,0.003193723143742475,24.7000007629,0.0,0.01551011094466171,0.046880915449971736
1648624598052492631,22416,7,1,0.034386638552,0.0146502861753,-0.0282974988222,0.0,24.7000007629,0.01150054801070234,0.0048997612626421405,-0.00946404642882943,24.7000007629,0.0,0.01698625531198173,0.04688091547225256
1648624598052586580,22417,7,2,0.73647159338,-0.843856453896,0.107052959502,0.0,24.7000007629,0.2463115696923077,-0.28222623876120395,0.035803665385284275,24.7000007629,0.0,0.4483195607754286,1.125141972719774
1648624598052587859,22418,7,3,1.08656287193,-0.0703213736415,0.283514648676,0.0,24.7000007629,0.36339895382274245,-0.023518854060702338,0.09482095273444816,24.7000007629,0.0,0.5144615979597078,1.125142002709646
1648624598052588941,22419,7,4,1.27437007427,-0.287145614624,0.128916487098,0.0,24.7000007629,0.42621072718060193,-0.0960353226167224,0.043115881972575244,24.7000007629,0.0,0.6103555939923324,1.3126656660545397
1648624598052597015,22420,7,5,1.08059763908,0.205104023218,-0.716472148895,0.0,24.7000007629,0.36140389266889633,0.06859666328361204,-0.23962279227257524,24.7000007629,0.0,0.5156850293406893,1.3126657068986372
1648624598052601559,22421,7,6,0.742793977261,-0.395557701588,0.0623296573758,-0.161837622523,24.7000007629,0.248426079351505,-0.13229354568160534,0.0208460392561204,24.7000007629,-0.021869948989594594,0.375409930653055,0.8438564890604213
