%time,field.header.seq,field.header.frame_id,field.point_id,field.x,field.y,field.z,field.velocity,field.intensity,normalized_x,normalized_y,normalized_z,normalized_intensity,normalized_velocity,normalized_range,range
1648634352454397726,31838,0,0,0.00714792404324,0.0454158857465,0.00917195435613,0.0,31.7999992371,0.0023906100479063543,0.015189259446989964,0.0030675432629197323,31.7999992371,0.0,0.015560965116286185,0.046880915551831985
1648634352454403916,31839,0,1,0.0342556610703,0.0146502861753,-0.0284559112042,0.0,31.7999992371,0.011456742832876255,0.0048997612626421405,-0.009517027158595318,31.7999992371,0.0,0.016926948133323128,0.04688091384393833
1648634352454407988,31840,0,2,1.11776554585,-0.0351606868207,0.12372649461,0.0,31.7999992371,0.37383463071906353,-0.011759427030334446,0.041380098531772574,31.7999992371,0.0,0.5288127706228348,1.1251419176510713
1648634352559407481,31841,1,0,0.00700471783057,0.0454158857465,0.00928178243339,0.0,13.3000001907,0.002342714993501672,0.015189259446989964,0.003104275061334448,13.3000001907,0.0,0.015546389601110894,0.0468809154685127
1648634352559443329,31842,1,1,0.0342776104808,0.0146502861753,-0.0284294709563,0.0,13.3000001907,0.011464083772842807,0.0048997612626421405,-0.009508184266321069,13.3000001907,0.0,0.016936885603097283,0.046880915990909794
1648634352559449084,31843,1,2,1.06580662727,-0.0336956568062,0.159898787737,0.0,13.3000001907,0.3564570659765886,-0.011269450436856187,0.05347785543043478,13.3000001907,0.0,0.5042323673490475,1.078261001028979
1648634352559455968,31844,1,3,1.39210247993,-0.175803437829,0.0958243906498,0.0,13.3000001907,0.46558611368896313,-0.05879713639765886,0.032048291187224076,13.3000001907,0.0,0.6610582136003977,1.4064275584697408
1648634352754602197,31845,3,0,0.00711832381785,0.0454158857465,0.00919494591653,0.0,12.5,0.002380710306973244,0.015189259446989964,0.0030752327480033444,12.5,0.0,0.015557929350637609,0.04688091554697736
1648634352754608796,31846,3,1,0.0342556610703,0.0146502861753,-0.0284559112042,0.0,12.5,0.011456742832876255,0.0048997612626421405,-0.009517027158595318,12.5,0.0,0.016926948133323128,0.04688091384393833
1648634352859569680,31847,4,0,0.00717794056982,0.0454158857465,0.00914848223329,0.0,19.0,0.002400649020006689,0.015189259446989964,0.0030596930546120398,19.0,0.0,0.015564055833313243,0.04688091547885805
1648634352859578049,31848,4,1,0.0342712774873,0.0146502861753,-0.0284371003509,0.0,19.0,0.011461965714816053,0.0048997612626421405,-0.009510735903311036,19.0,0.0,0.01693401832189058,0.04688091319499717
1648634352859586458,31849,4,2,1.12470054626,-0.0,-0.0315168239176,0.0,19.0,0.3761540288494983,-0.0,-0.010540743785150502,19.0,0.0,0.5319621291402409,1.1251420483420729
1648634352859590376,31850,4,3,0.879844069481,-0.111342176795,0.0830087587237,0.404594063759,19.0,0.29426223059565215,-0.037238186219063545,0.027762126663444815,19.0,0.05467487348094594,0.41781240194989805,0.8907374029191686
1648634353054462174,31851,6,0,0.00711832381785,0.0454158857465,0.00919494591653,0.0,26.8999996185,0.002380710306973244,0.015189259446989964,0.0030752327480033444,26.8999996185,0.0,0.015557929350637609,0.04688091554697736
1648634353054467123,31852,6,1,0.0343317501247,0.0146502861753,-0.0283640641719,0.0,26.8999996185,0.01148219067715719,0.0048997612626421405,-0.009486309087591972,26.8999996185,0.0,0.016961399291452326,0.046880913898842524
1648634353054470337,31853,6,2,1.37710261345,-0.219754293561,0.182577997446,0.0,26.8999996185,0.46056943593645483,-0.07349641925117056,0.0610628754,26.8999996185,0.0,0.6554770280340816,1.4064274893007125
1648634353054476523,31854,6,3,0.945094823837,0.307656019926,-0.995078861713,0.0,26.8999996185,0.31608522536354516,0.10289498994180601,-0.33280229488729096,26.8999996185,0.0,0.45870155694238784,1.4064275287650756
1648634353054481212,31855,6,4,0.91448110342,-0.338421612978,0.135771155357,0.242756426334,26.8999996185,0.3058465228829431,-0.11318448594581938,0.04540841316287625,26.8999996185,0.03280492247756756,0.44709609591003213,0.9844992043012867
1648634353159465921,31856,7,0,0.00700471783057,0.0454158857465,0.00928178243339,0.0,35.5999984741,0.002342714993501672,0.015189259446989964,0.003104275061334448,35.5999984741,0.0,0.015546389601110894,0.0468809154685127
1648634353159470481,31857,7,1,0.0342556610703,0.0146502861753,-0.0284559112042,0.0,35.5999984741,0.011456742832876255,0.0048997612626421405,-0.009517027158595318,35.5999984741,0.0,0.016926948133323128,0.04688091384393833
1648634353159478926,31858,7,2,1.39528489113,-0.175803437829,0.0176511742175,0.0,35.5999984741,0.4666504652608695,-0.05879713639765886,0.005903402748327759,35.5999984741,0.0,0.6625574818119081,1.4064275097278947
1648634353159483149,31859,7,3,1.1528211832,0.219754293561,0.775080382824,0.0,35.5999984741,0.38555892414715714,0.07349641925117056,0.2592242083023411,35.5999984741,0.0,0.5501936855524338,1.4064274705123405
1648634353159489371,31860,7,4,0.901543796062,-0.36918720603,0.141979932785,0.0809188112617,35.5999984741,0.3015196642347826,-0.12347398194983276,0.04748492735284281,35.5999984741,0.010934974494824324,0.44393021980831593,0.9844992181956022
1648634353354621058,31861,9,0,0.0071538365446,0.0454158857465,0.00916734337807,0.0,18.7999992371,0.0023925874731103676,0.015189259446989964,0.0030660011297892974,18.7999992371,0.0,0.015561572934023835,0.04688091552068325
1648634353354644538,31862,9,1,0.0342556610703,0.0146502861753,-0.0284559112042,0.0,18.7999992371,0.011456742832876255,0.0048997612626421405,-0.009517027158595318,18.7999992371,0.0,0.016926948133323128,0.04688091384393833
1648634353354716836,31863,9,2,1.38643753529,-0.219754293561,0.0868179053068,0.0,18.7999992371,0.46369148337458194,-0.07349641925117056,0.029036088731371236,18.7999992371,0.0,0.6598646127433901,1.4064275087900424
1648634353354719665,31864,9,3,0.506692707539,0.307656019926,1.27540135384,0.0,18.7999992371,0.16946244399297658,0.10289498994180601,0.4265556367357859,18.7999992371,0.0,0.2608110787586866,1.406427509630985
1648634353354722446,31865,9,4,0.904620110989,-0.668053030968,0.0362235121429,-0.242756426334,18.7999992371,0.3025485321033444,-0.22342910734715715,0.01211488700431438,18.7999992371,-0.03280492247756756,0.48269223586642074,1.1251420089140967
1648634353459557266,31866,10,0,0.00712367706001,0.0454158857465,0.00919079873711,0.0,24.8999996185,0.002382500688966555,0.015189259446989964,0.003073845731474916,24.8999996185,0.0,0.015558477483797252,0.04688091546056366
1648634353459563801,31867,10,1,0.0342776104808,0.0146502861753,-0.0284294709563,0.0,24.8999996185,0.011464083772842807,0.0048997612626421405,-0.009508184266321069,24.8999996185,0.0,0.016936885603097283,0.046880915990909794
1648634353459566262,31868,10,2,1.03768873215,-0.0,0.292999595404,0.0,24.8999996185,0.34705308767558524,-0.0,0.09799317572040134,24.8999996185,0.0,0.4908071834542715,1.0782609460320736
1648634353459568853,31869,10,3,1.38135528564,-0.175803437829,0.197456628084,0.0,24.8999996185,0.46199173432775914,-0.05879713639765886,0.06603900604816053,24.8999996185,0.0,0.6559952960371792,1.406427528844755
1648634353459584598,31870,10,4,0.853283762932,-0.461484014988,0.167863205075,-0.161837622523,24.8999996185,0.2853791849270903,-0.15434247992909697,0.05614154015886287,24.8999996185,-0.021869948989594594,0.43209276722709034,0.9844992289437762
1648634353654466750,31871,12,0,0.00702961953357,0.0454158857465,0.00926293712109,0.0,26.8999996185,0.0023510433222642137,0.015189259446989964,0.003097972281301003,26.8999996185,0.0,0.015548903882727559,0.04688091544578835
1648634353654471808,31872,12,1,0.0342556610703,0.0146502861753,-0.0284559112042,0.0,26.8999996185,0.011456742832876255,0.0048997612626421405,-0.009517027158595318,26.8999996185,0.0,0.016926948133323128,0.04688091384393833
1648634353654474453,31873,12,2,1.05291509628,-0.0336956568062,0.229959309101,0.0,26.8999996185,0.35214551715050163,-0.011269450436856187,0.07690946792675585,26.8999996185,0.0,0.49813645822358477,1.0782610449720105
1648634353654477030,31874,12,3,1.38469588757,-0.219754293561,0.111192621291,0.0,26.8999996185,0.4631089924983277,-0.07349641925117056,0.03718816765585284,26.8999996185,0.0,0.6590459782961855,1.4064275486569964
1648634353654599142,31875,12,4,0.764056742191,-0.615311980247,0.0827478021383,-0.161837622523,26.8999996185,0.2555373719702341,-0.2057899599488294,0.02767485021347826,26.8999996185,-0.021869948989594594,0.41587041799417324,0.9844992316308468
1648634353759645686,31876,13,0,0.0071538365446,0.0454158857465,0.00916734337807,0.0,25.6000003815,0.0023925874731103676,0.015189259446989964,0.0030660011297892974,25.6000003815,0.0,0.015561572934023835,0.04688091552068325
1648634353759648138,31877,13,1,0.0342932231724,0.0146502861753,-0.0284106340259,0.0,25.6000003815,0.011469305408829431,0.0048997612626421405,-0.009501884289598661,25.6000003815,0.0,0.016943954483912442,0.04688091473429082
1648634353759651217,31878,13,2,1.07381546497,-0.0336956568062,0.0918250977993,0.0,25.6000003815,0.35913560701337793,-0.011269450436856187,0.030710735049933106,25.6000003815,0.0,0.5080194572680102,1.0782610531231245
1648634353759654596,31879,13,3,1.38082122803,-0.175803437829,0.201157480478,0.0,25.6000003815,0.4618131197424749,-0.05879713639765886,0.06727674932374582,25.6000003815,0.0,0.6557437139470876,1.4064275468302765
1648634353759751836,31880,13,4,0.985644519329,0.307656019926,-0.954929828644,0.0,25.6000003815,0.3296469964311037,0.10289498994180601,-0.3193745246301003,25.6000003815,0.0,0.47741141949813115,1.4064275035401086
1648634353954511847,31881,15,0,0.0069746770896,0.0454158857465,0.00930437725037,0.0,12.0,0.0023326679229431434,0.015189259446989964,0.0031118318563110366,12.0,0.0,0.015543367776174816,0.046880915463123535
1648634353954517660,31882,15,1,0.0342932231724,0.0146502861753,-0.0284106340259,0.0,12.0,0.011469305408829431,0.0048997612626421405,-0.009501884289598661,12.0,0.0,0.016943954483912442,0.04688091473429082
1648634353954521504,31883,15,2,1.08227193356,-0.0351606868207,0.305607199669,0.0,12.0,0.36196385737792636,-0.011759427030334446,0.10220976577558528,12.0,0.0,0.5120292493792687,1.1251420232836975
1648634353954523491,31884,15,3,0.751580178738,-0.556710898876,-0.0657900348306,0.161837622523,12.0,0.2513646082735786,-0.18619093607892975,-0.022003356130635452,12.0,0.021869948989594594,0.4012921594835953,0.9376183224970487
1648634354059578547,31885,16,0,0.00702961953357,0.0454158857465,0.00926293712109,0.0,27.0,0.0023510433222642137,0.015189259446989964,0.003097972281301003,27.0,0.0,0.015548903882727559,0.04688091544578835
1648634354059581620,31886,16,1,0.0342556610703,0.0146502861753,-0.0284559112042,0.0,27.0,0.011456742832876255,0.0048997612626421405,-0.009517027158595318,27.0,0.0,0.016926948133323128,0.04688091384393833
1648634354059586499,31887,16,2,1.06058299541,-0.0336956568062,0.191507399082,0.0,27.0,0.35471003190969896,-0.011269450436856187,0.06404929735183947,27.0,0.0,0.5017623082575136,1.0782609940749974
1648634354059617124,31888,16,3,1.38433933258,-0.219754293561,0.115546070039,0.0,27.0,0.4629897433377926,-0.07349641925117056,0.038644170581605346,27.0,0.0,0.6588783867412361,1.4064274711367064
1648634354059706073,31889,16,4,0.892397463322,0.307656019926,-1.04259908199,0.0,27.0,0.29846069007424747,0.10289498994180601,-0.34869534514715717,27.0,0.0,0.43444786337869856,1.406427497209379
1648634354059709688,31890,16,5,0.753601551056,-0.556710898876,0.0358587317169,0.161837622523,27.0,0.2520406525270903,-0.18619093607892975,0.011992886861839466,27.0,0.021869948989594594,0.40213933621384396,0.9376183505679042
