%time,field.header.seq,field.header.frame_id,field.point_id,field.x,field.y,field.z,field.velocity,field.intensity,normalized_x,normalized_y,normalized_z,normalized_intensity,normalized_velocity,normalized_range,range
1648624746253086008,27368,0,0,0.00677556637675,0.0454158857465,0.00945035740733,0.0,36.2999992371,0.0022660757112876254,0.015189259446989964,0.0031606546512809365,36.2999992371,0.0,0.015523652946602141,0.046880915445319145
1648624746253097057,27369,0,1,0.0322296023369,0.0161153152585,-0.0299894902855,0.0,36.2999992371,0.010779131216354513,0.005389737544648829,-0.010029929861371236,36.2999992371,0.0,0.01616875413750156,0.046880914882920656
1648624746253100630,27370,0,2,0.824417054653,-0.0527410283685,-0.172187685966,0.0,36.2999992371,0.27572476744247487,-0.017639139922575247,-0.05758785483812709,36.2999992371,0.0,0.3903324660076611,0.8438564423374514
1648624746253109961,27371,0,3,1.01978003979,-0.096691891551,0.12018468976,0.0,36.2999992371,0.34106355845819397,-0.032338425267892976,0.04019554841471572,36.2999992371,0.0,0.4834195647314441,1.031380148683555
1648624746448294368,27372,2,0,0.00674987118691,0.0454158857465,0.00946872774512,0.0,17.3999996185,0.0022574820023110367,0.015189259446989964,0.0031667985769632105,17.3999996185,0.0,0.01552114855703309,0.046880915565827255
1648624746448306215,27373,2,1,0.0344546698034,0.0146502861753,-0.0282146241516,0.0,17.3999996185,0.011523300937591973,0.0048997612626421405,-0.009436329147692307,17.3999996185,0.0,0.01701706759190621,0.046880914797981066
1648624746448465429,27374,2,2,0.78828316927,-0.263705134392,0.145475059748,0.0809188112617,17.3999996185,0.26363985594314376,-0.08819569712107023,0.04865386613645485,17.3999996185,0.010934974494824324,0.3831323900091387,0.8438564723148969
1648624746448469015,27375,2,3,0.680060863495,0.0263705141842,-0.498914301395,0.0809188112617,17.3999996185,0.22744510484782604,0.008819569961270902,-0.16686097036622072,17.3999996185,0.010934974494824324,0.32177684231898807,0.8438564227475933
1648624746448471601,27376,2,4,1.01788163185,-0.096691891551,0.135323986411,-0.0809188112617,17.3999996185,0.3404286394147157,-0.032338425267892976,0.04525885833143812,17.3999996185,-0.010934974494824324,0.48252366865918206,1.0313801043492616
1648624746553178237,27377,3,0,0.0069007538259,0.0454158857465,0.00935933552682,0.0,17.7000007629,0.002307944423377926,0.015189259446989964,0.00313021255077592,17.7000007629,0.0,0.015535984599335069,0.046880915552156295
1648624746553181982,27378,3,1,0.0344851948321,0.0146502861753,-0.0281773079187,0.0,17.7000007629,0.011533509977290968,0.0048997612626421405,-0.009423848802240802,17.7000007629,0.0,0.017030894434040426,0.046880915404579254
1648624746553184375,27379,3,2,0.743816673756,-0.843856453896,0.024239230901,0.0,17.7000007629,0.24876811831304346,-0.28222623876120395,0.008106766187625418,17.7000007629,0.0,0.4510241714402022,1.1251419907078588
1648624746553189234,27380,3,3,1.11037063599,-0.140642747283,0.115070402622,0.0,17.7000007629,0.37136141671906353,-0.047037708121404675,0.038485084488963206,17.7000007629,0.0,0.5272865915614529,1.1251420040118207
1648624746748370704,27381,5,0,0.00677556637675,0.0454158857465,0.00945035740733,0.0,13.1000003815,0.0022660757112876254,0.015189259446989964,0.0031606546512809365,13.1000003815,0.0,0.015523652946602141,0.046880915445319145
1648624746748372818,27382,5,1,0.0344002954662,0.0146502861753,-0.0282808933407,0.0,13.1000003815,0.011505115540535116,0.0048997612626421405,-0.009458492756086956,13.1000003815,0.0,0.01699244030835518,0.04688091446770313
1648624746748374720,27383,5,2,1.01393413544,-0.096691891551,0.162275403738,0.0,13.1000003815,0.33910840650167223,-0.032338425267892976,0.054272710280267554,13.1000003815,0.0,0.4806607914829478,1.031380172177312
1648624746853264961,27384,6,0,0.00680844113231,0.0454158857465,0.00942670088261,0.0,17.7999992371,0.002277070612812709,0.015189259446989964,0.003152742770103679,17.7999992371,0.0,0.015526870376848143,0.0468809155021686
1648624746853269113,27385,6,1,0.0344546698034,0.0146502861753,-0.0282146241516,0.0,17.7999992371,0.011523300937591973,0.0048997612626421405,-0.009436329147692307,17.7999992371,0.0,0.01701706759190621,0.046880914797981066
1648624746853308467,27386,6,2,1.01505327225,-0.032230630517,0.179925277829,0.0,17.7999992371,0.3394826997491639,-0.010779475089297658,0.060175678203678924,17.7999992371,0.0,0.48022203608452074,1.0313801746450233
1648624746853312996,27387,6,3,1.42554318905,-0.421928226948,0.200926095247,0.161837622523,17.7999992371,0.47677029734113713,-0.14111311938060198,0.06719936295886288,17.7999992371,0.021869948989594594,0.6888633720229553,1.500189357479093
