%time,field.header.seq,field.header.frame_id,field.point_id,field.x,field.y,field.z,field.velocity,field.intensity,normalized_x,normalized_y,normalized_z,normalized_intensity,normalized_velocity,normalized_range,range
1648624790348311199,28815,0,0,0.00680970214307,0.0454158857465,0.00942579004914,0.0,14.1999998093,0.002277492355541806,0.015189259446989964,0.0031524381435250833,14.1999998093,0.0,0.015526994087944924,0.046880915514385384
1648624790348319599,28816,0,1,0.0344546698034,0.0146502861753,-0.0282146241516,0.0,14.1999998093,0.011523300937591973,0.0048997612626421405,-0.009436329147692307,14.1999998093,0.0,0.01701706759190621,0.046880914797981066
1648624790348332736,28817,0,2,0.76305860281,-0.290075659752,0.213755533099,0.0,14.1999998093,0.255203546090301,-0.09701527082006689,0.07149014484916387,14.1999998093,0.0,0.37372404611747917,0.8438564733610481
1648624790348340842,28818,0,3,1.05712723732,-0.134782627225,0.164202496409,0.0,14.1999998093,0.35355425997324413,-0.04507780174749164,0.05491722287926421,14.1999998093,0.0,0.5020291203713613,1.0782610130726402
1648624790348345248,28819,0,4,0.74736726284,-0.775000095367,0.0588537715375,0.0,14.1999998093,0.24995560630100333,-0.25919735631003343,0.019683535631270902,14.1999998093,0.0,0.4383364914773978,1.0782609794516358
1648624790453292956,28820,1,0,0.00680970214307,0.0454158857465,0.00942579004914,0.0,14.6000003815,0.002277492355541806,0.015189259446989964,0.0031524381435250833,14.6000003815,0.0,0.015526994087944924,0.046880915514385384
1648624790453304059,28821,1,1,0.0344334580004,0.0146502861753,-0.0282405056059,0.0,14.6000003815,0.011516206689096989,0.0048997612626421405,-0.009444985152474916,14.6000003815,0.0,0.017007459935066523,0.04688091372574095
1648624790453309180,28822,1,2,1.06775689125,-0.101086974144,0.111010767519,0.0,14.6000003815,0.3571093281772575,-0.03380835255652174,0.03712734699632107,14.6000003815,0.0,0.506159213336091,1.07826098216462
1648624790453312352,28823,1,3,0.776678085327,-0.290075659752,0.157229140401,0.0809188112617,14.6000003815,0.25975855696555183,-0.09701527082006689,0.052584996789632105,14.6000003815,0.010934974494824324,0.3799486525912977,0.8438564683635542
1648624790648406442,28824,3,0,0.00674192188308,0.0454158857465,0.00947438925505,0.0,22.6000003815,0.0022548233722675583,0.015189259446989964,0.0031686920585451504,22.6000003815,0.0,0.015520375621363743,0.046880915526180816
1648624790648419020,28825,3,1,0.0322126448154,0.0161153152585,-0.0300077050924,0.0,22.6000003815,0.010773459804481605,0.005389737544648829,-0.010036021770033444,22.6000003815,0.0,0.01616119250296088,0.046880915485903306
1648624790648426373,28826,3,2,1.01655936241,-0.096691891551,0.144922882318,0.0,22.6000003815,0.3399864088327759,-0.032338425267892976,0.048469191410702335,22.6000003815,0.0,0.48189966811653023,1.031380095316219
1648624790648438150,28827,3,3,0.782147049904,-0.290075659752,0.127262860537,-0.0809188112617,22.6000003815,0.26158764210836116,-0.09701527082006689,0.04256282961103679,22.6000003815,-0.010934974494824324,0.3824501951626055,0.8438564639357503
1648624790753532974,28828,4,0,0.00680970214307,0.0454158857465,0.00942579004914,0.0,22.7999992371,0.002277492355541806,0.015189259446989964,0.0031524381435250833,22.7999992371,0.0,0.015526994087944924,0.046880915514385384
1648624790753539537,28829,4,1,0.0322126448154,0.0161153152585,-0.0300077050924,0.0,22.7999992371,0.010773459804481605,0.005389737544648829,-0.010036021770033444,22.7999992371,0.0,0.01616119250296088,0.046880915485903306
1648624790948484175,28830,6,0,0.0068351640366,0.0454158857465,0.00940734241158,0.0,18.7000007629,0.0022860080389966553,0.015189259446989964,0.003146268365076923,18.7000007629,0.0,0.015529496709703394,0.04688091548588917
1648624790948491319,28831,6,1,0.0322126448154,0.0161153152585,-0.0300077050924,0.0,18.7000007629,0.010773459804481605,0.005389737544648829,-0.010036021770033444,18.7000007629,0.0,0.01616119250296088,0.046880915485903306
1648624790948493079,28832,6,2,1.02148485184,-0.096691891551,0.104711003602,0.0,18.7000007629,0.34163372971237455,-0.032338425267892976,0.03502040254247491,18.7000007629,0.0,0.48422410545447103,1.0313801523713917
1648624790948500901,28833,6,3,0.738677024841,-0.843856453896,0.0905925780535,0.0,18.7000007629,0.24704917218762537,-0.28222623876120395,0.03029852108812709,18.7000007629,0.0,0.4491305342575564,1.1251419808220928
1648624790948706399,28834,6,4,0.771582603455,-0.290075659752,0.180582687259,0.161837622523,18.7000007629,0.25805438242642137,-0.09701527082006689,0.06039554757826087,18.7000007629,0.021869948989594594,0.3776189764183659,0.8438564506316436
1648624791053551991,28835,7,0,0.00677622901276,0.0454158857465,0.00944988243282,0.0,36.0,0.002266297328682274,0.015189259446989964,0.003160495796929766,36.0,0.0,0.015523717651128505,0.046880915474920404
1648624791053555271,28836,7,1,0.0344546698034,0.0146502861753,-0.0282146241516,0.0,36.0,0.011523300937591973,0.0048997612626421405,-0.009436329147692307,36.0,0.0,0.01701706759190621,0.046880914797981066
1648624791053568947,28837,7,2,0.786557793617,-0.290075659752,0.0963153019547,0.0,36.0,0.2630628072297658,-0.09701527082006689,0.03221247557013378,36.0,0.0,0.3844685212959584,0.8438564383062004
1648624791053572968,28838,7,3,0.72213602066,-0.0527410283685,0.433395504951,0.0,36.0,0.24151706376588628,-0.017639139922575247,0.14494832941505015,36.0,0.0,0.3420118761642621,0.8438564523186152
1648624791053575745,28839,7,4,1.00159013271,-0.096691891551,0.226302504539,0.0,36.0,0.33497997749498326,-0.032338425267892976,0.07568645636755852,36.0,0.0,0.474835702526554,1.031380113922297
1648624791053582685,28840,7,5,0.362256735563,0.257845044136,-0.93060785532,0.0,36.0,0.12115609885050166,0.08623580071438126,-0.3112400853913043,36.0,0.0,0.19181817927974276,1.0313801382756733
1648624791053759036,28841,7,6,0.77345263958,-0.293005734682,0.441640943289,0.161837622523,36.0,0.2586798125685619,-0.09799522899063544,0.14770600109999998,36.0,0.021869948989594594,0.37872622798789585,0.9376182960133647
