%time,field.header.seq,field.header.frame_id,field.point_id,field.x,field.y,field.z,field.velocity,field.intensity,normalized_x,normalized_y,normalized_z,normalized_intensity,normalized_velocity,normalized_range,range
1648634430260846039,34211,0,0,0.00717832520604,0.0454158857465,0.00914818048477,0.0,12.6999998093,0.002400777660882943,0.015189259446989964,0.003059592135374582,12.6999998093,0.0,0.0155640955182742,0.04688091548897843
1648634430260850273,34212,0,1,0.0342400819063,0.0146502861753,-0.0284746550024,0.0,12.6999998093,0.011451532410133778,0.0048997612626421405,-0.009523295987424747,12.6999998093,0.0,0.016919895079804046,0.046880913722687
1648634430260874085,34213,0,2,1.07361876965,-0.0673913136125,0.0738100707531,0.0,12.6999998093,0.35906982262541803,-0.02253890087374582,0.024685642392341136,12.6999998093,0.0,0.5083013644415042,1.0782609972728197
1648634430260877293,34214,0,3,1.39146471024,-0.175803437829,0.104678332806,0.0,12.6999998093,0.4653728127892976,-0.05879713639765886,0.035009475854849495,12.6999998093,0.0,0.6607577566819857,1.406427545931473
1648634430455899589,34215,2,0,0.00703071663156,0.0454158857465,0.00926210451871,0.0,12.8000001907,0.002351410244668896,0.015189259446989964,0.003097693818966555,12.8000001907,0.0,0.015549014850640589,0.04688091546256263
1648634430456045247,34216,2,1,0.0342400819063,0.0146502861753,-0.0284746550024,0.0,12.8000001907,0.011451532410133778,0.0048997612626421405,-0.009523295987424747,12.8000001907,0.0,0.016919895079804046,0.046880913722687
1648634430456048612,34217,2,2,1.39028680325,-0.175803437829,0.119307331741,0.0,12.8000001907,0.46497886396321064,-0.05879713639765886,0.03990211763913043,12.8000001907,0.0,0.6602028408857393,1.406427560683719
1648634430456053228,34218,2,3,0.89457654953,-0.36918720603,0.180754736066,0.404594063759,12.8000001907,0.2991894814481605,-0.12347398194983276,0.06045308898528428,12.8000001907,0.05467487348094594,0.44076582879913223,0.9844991979049691
1648634430560837077,34219,3,0,0.00714846141636,0.0454158857465,0.00917153526098,0.0,26.5,0.0023907897713578595,0.015189259446989964,0.0030674030973177253,26.5,0.0,0.015561020339606033,0.0468809154966467
1648634430560840954,34220,3,1,0.0342556610703,0.0146502861753,-0.0284559112042,0.0,26.5,0.011456742832876255,0.0048997612626421405,-0.009517027158595318,26.5,0.0,0.016926948133323128,0.04688091384393833
1648634430560842840,34221,3,2,1.38998830318,-0.175803437829,0.122735984623,0.0,26.5,0.4648790311638796,-0.05879713639765886,0.041048824288628764,26.5,0.0,0.6600622171282792,1.406427550089619
1648634430756036719,34222,5,0,0.00703071663156,0.0454158857465,0.00926210451871,0.0,12.6999998093,0.002351410244668896,0.015189259446989964,0.003097693818966555,12.6999998093,0.0,0.015549014850640589,0.04688091546256263
1648634430756069635,34223,5,1,0.0342556610703,0.0146502861753,-0.0284559112042,0.0,12.6999998093,0.011456742832876255,0.0048997612626421405,-0.009517027158595318,12.6999998093,0.0,0.016926948133323128,0.04688091384393833
1648634430756074729,34224,5,2,1.38535261154,-0.175803437829,0.167121514678,0.0,12.6999998093,0.4633286326220735,-0.05879713639765886,0.05589348316989966,12.6999998093,0.0,0.6578783678336335,1.406427498210079
1648634430756119762,34225,5,3,0.842097878456,-0.380907446146,0.157825171947,-0.242756426334,12.6999998093,0.2816380864401338,-0.12739379469765885,0.0527843384438127,12.6999998093,-0.03280492247756756,0.41817365100492615,0.9376183148433397
1648634430860919265,34226,6,0,0.00714846141636,0.0454158857465,0.00917153526098,0.0,26.3999996185,0.0023907897713578595,0.015189259446989964,0.0030674030973177253,26.3999996185,0.0,0.015561020339606033,0.0468809154966467
1648634430860927116,34227,6,1,0.0342556610703,0.0146502861753,-0.0284559112042,0.0,26.3999996185,0.011456742832876255,0.0048997612626421405,-0.009517027158595318,26.3999996185,0.0,0.016926948133323128,0.04688091384393833
1648634430860934527,34228,6,2,1.06293320656,-0.0673913136125,0.168161168694,0.0,26.3999996185,0.35549605570568554,-0.02253890087374582,0.05624119354314381,26.3999996185,0.0,0.5032523157395268,1.0782609931806277
1648634430860937055,34229,6,3,0.79784309864,-0.707608819008,-0.159320279956,0.0,26.3999996185,0.26683715673578595,-0.23665846789565215,-0.05328437456722408,26.3999996185,0.0,0.44543390851662185,1.0782610084718038
1648634430860938945,34230,6,4,1.39209938049,-0.175803437829,0.095869012177,0.0,26.3999996185,0.46558507708695646,-0.05879713639765886,0.03206321477491639,26.3999996185,0.0,0.6610567534339993,1.4064275315169745
1648634431056021349,34231,8,0,0.00703071663156,0.0454158857465,0.00926210451871,0.0,11.3000001907,0.002351410244668896,0.015189259446989964,0.003097693818966555,11.3000001907,0.0,0.015549014850640589,0.04688091546256263
1648634431056026939,34232,8,1,0.0342400819063,0.0146502861753,-0.0284746550024,0.0,11.3000001907,0.011451532410133778,0.0048997612626421405,-0.009523295987424747,11.3000001907,0.0,0.016919895079804046,0.046880913722687
1648634431056029106,34233,8,2,1.06105065346,-0.0673913136125,0.179657280445,0.0,11.3000001907,0.3548664392842809,-0.02253890087374582,0.0600860469715719,11.3000001907,0.0,0.5023627986955295,1.0782610151420688
1648634431056192930,34234,8,3,0.811089515686,-0.707608819008,-0.0637986585498,0.0,11.3000001907,0.27126739655050164,-0.23665846789565215,-0.02133734399658863,11.3000001907,0.0,0.45075406963142506,1.0782609665690401
1648634431056195939,34235,8,4,1.39087176323,-0.175803437829,0.112281873822,0.0,11.3000001907,0.4651745027525083,-0.05879713639765886,0.03755246616120401,11.3000001907,0.0,0.6604784169605027,1.4064275060208413
1648634431160831884,34236,9,0,0.00703071663156,0.0454158857465,0.00926210451871,0.0,11.6000003815,0.002351410244668896,0.015189259446989964,0.003097693818966555,11.6000003815,0.0,0.015549014850640589,0.04688091546256263
1648634431160852683,34237,9,1,0.0342556610703,0.0146502861753,-0.0284559112042,0.0,11.6000003815,0.011456742832876255,0.0048997612626421405,-0.009517027158595318,11.6000003815,0.0,0.016926948133323128,0.04688091384393833
1648634431160855266,34238,9,2,2.20314574242,-0.747164547443,0.551746726036,0.0,11.6000003815,0.7368380409431438,-0.2498878085093645,0.18453067760401334,11.6000003815,0.0,1.0715897134647536,2.3909266975360244
1648634431160859844,34239,9,3,0.946868896484,-0.24612480402,0.110002674162,0.161837622523,11.6000003815,0.3166785606969899,-0.08231598796655518,0.03679019202742475,11.6000003815,0.021869948989594594,0.45535320739525303,0.984499220215792
1648634431160863443,34240,9,4,1.06294035912,-0.0673913136125,0.168115928769,-0.0809188112617,11.6000003815,0.3554984478662207,-0.02253890087374582,0.05622606313344481,11.6000003815,-0.010934974494824324,0.503255695370833,1.0782609896042963
1648634431355949016,34241,11,0,0.0070613711141,0.0454158857465,0.00923875533044,0.0,16.7999992371,0.002361662579966555,0.015189259446989964,0.0030898847258996652,16.7999992371,0.0,0.015552122132725246,0.04688091552226685
1648634431355954068,34242,11,1,0.0342556610703,0.0146502861753,-0.0284559112042,0.0,16.7999992371,0.011456742832876255,0.0048997612626421405,-0.009517027158595318,16.7999992371,0.0,0.016926948133323128,0.04688091384393833
1648634431355959018,34243,11,2,1.05806255341,-0.101086974144,0.181470960379,0.0,16.7999992371,0.35386707471906353,-0.03380835255652174,0.06069262888929766,16.7999992371,0.0,0.5015843078117982,1.0782609390731706
1648634431355968270,34244,11,3,2.19090294838,-0.747164547443,0.598514616489,0.0,16.7999992371,0.7327434609966555,-0.2498878085093645,0.20017211253812706,16.7999992371,0.0,1.065959603412966,2.390926668956381
1648634431460920022,34245,12,0,0.00714846141636,0.0454158857465,0.00917153526098,0.0,12.3000001907,0.0023907897713578595,0.015189259446989964,0.0030674030973177253,12.3000001907,0.0,0.015561020339606033,0.0468809154966467
1648634431461164893,34246,12,1,0.0342556610703,0.0146502861753,-0.0284559112042,0.0,12.3000001907,0.011456742832876255,0.0048997612626421405,-0.009517027158595318,12.3000001907,0.0,0.016926948133323128,0.04688091384393833
1648634431461176105,34247,12,2,1.05895197392,-0.101086974144,0.176206991076,0.0,12.3000001907,0.3541645397725752,-0.03380835255652174,0.05893210403879598,12.3000001907,0.0,0.5020040310268695,1.0782609902591818
1648634431461239385,34248,12,3,2.20136666298,-0.747164547443,0.558802068233,0.0,12.3000001907,0.7362430310969899,-0.2498878085093645,0.18689032382374582,12.3000001907,0.0,1.0707714595185003,2.3909265562323077
1648634431655942817,34249,14,0,0.00708608981222,0.0454158857465,0.00921980943531,0.0,13.1000003815,0.002369929703083612,0.015189259446989964,0.003083548306123746,13.1000003815,0.0,0.015554637126692793,0.04688091544530056
1648634431655947271,34250,14,1,0.0342556610703,0.0146502861753,-0.0284559112042,0.0,13.1000003815,0.011456742832876255,0.0048997612626421405,-0.009517027158595318,13.1000003815,0.0,0.016926948133323128,0.04688091384393833
1648634431655949059,34251,14,2,1.08319509029,-0.0351606868207,0.302318572998,0.0,13.1000003815,0.36227260544816053,-0.011759427030334446,0.10110989063478261,13.1000003815,0.0,0.5124657700183292,1.1251419453142841
1648634431656108613,34252,14,3,2.21773266792,-0.747164547443,0.489833474159,0.0,13.1000003815,0.7417166113444815,-0.2498878085093645,0.16382390440100333,13.1000003815,0.0,1.0783000417000337,2.3909265734693608
1648634431760876679,34253,15,0,0.00714846141636,0.0454158857465,0.00917153526098,0.0,13.1999998093,0.0023907897713578595,0.015189259446989964,0.0030674030973177253,13.1999998093,0.0,0.015561020339606033,0.0468809154966467
1648634431760882257,34254,15,1,0.0342556610703,0.0146502861753,-0.0284559112042,0.0,13.1999998093,0.011456742832876255,0.0048997612626421405,-0.009517027158595318,13.1999998093,0.0,0.016926948133323128,0.04688091384393833
1648634431760886950,34255,15,2,1.01693916321,-0.064461261034,0.159450337291,0.0,13.1999998093,0.34011343251170567,-0.021558950178595316,0.053327872003678924,13.1999998093,0.0,0.48147594154079215,1.0313801073835787
1648634431760893037,34256,15,3,2.2275993824,-0.747164547443,0.44280526042,0.0,13.1999998093,0.7450165158528428,-0.2498878085093645,0.14809540482274247,13.1999998093,0.0,1.08284030892308,2.390926675596763
