%time,field.header.seq,field.header.frame_id,field.point_id,field.x,field.y,field.z,field.velocity,field.intensity,normalized_x,normalized_y,normalized_z,normalized_intensity,normalized_velocity,normalized_range,range
1648634255552448268,28910,0,0,0.00709323305637,0.0454158857465,0.00921431556344,0.0,12.3000001907,0.0023723187479498327,0.015189259446989964,0.0030817108907826084,12.3000001907,0.0,0.015555365474064645,0.046880915569491324
1648634255552459042,28911,0,1,0.0342932231724,0.0146502861753,-0.0284106340259,0.0,12.3000001907,0.011469305408829431,0.0048997612626421405,-0.009501884289598661,12.3000001907,0.0,0.016943954483912442,0.04688091473429082
1648634255552468037,28912,0,2,1.0672134161,-0.0673913136125,0.138421878219,0.0,12.3000001907,0.3569275639130434,-0.02253890087374582,0.046294942548160536,12.3000001907,0.0,0.5052747508182018,1.0782609521928936
1648634255552471662,28913,0,3,1.38676035404,-0.219754293561,0.0814998745918,0.0,12.3000001907,0.46379944951170565,-0.07349641925117056,0.02725748314107023,12.3000001907,0.0,0.6600163500834402,1.40642755186114
1648634255552475793,28914,0,4,0.430887371302,0.263705164194,1.31256771088,0.0,12.3000001907,0.14410948872976587,0.0881957070882943,0.4389858564816053,12.3000001907,0.0,0.2220665941394906,1.4064275082686968
1648634255657266817,28915,1,0,0.00703246146441,0.0454158857465,0.00926078017801,0.0,11.3999996185,0.00235199380080602,0.015189259446989964,0.0030972508956555182,11.3999996185,0.0,0.015549191368879403,0.04688091554025983
1648634255657275478,28916,1,1,0.0342932231724,0.0146502861753,-0.0284106340259,0.0,11.3999996185,0.011469305408829431,0.0048997612626421405,-0.009501884289598661,11.3999996185,0.0,0.016943954483912442,0.04688091473429082
1648634255852549130,28917,3,0,0.00712367706001,0.0454158857465,0.00919079873711,0.0,18.8999996185,0.002382500688966555,0.015189259446989964,0.003073845731474916,18.8999996185,0.0,0.015558477483797252,0.04688091546056366
1648634255852624639,28918,3,1,0.034308873117,0.0146502861753,-0.0283917337656,0.0,18.8999996185,0.011474539504013377,0.0048997612626421405,-0.009495563132307691,18.8999996185,0.0,0.016951040501668787,0.046880915155245236
1648634255852628449,28919,3,2,1.02320492268,-0.0,0.12960267067,0.0,18.8999996185,0.34220900424080264,-0.0,0.04334537480602006,18.8999996185,0.0,0.4839566149635351,1.031380223797888
1648634255852710518,28920,3,3,0.852194488049,-0.580151319504,-0.0305612143129,0.0,18.8999996185,0.28501487894615385,-0.19403054164013378,-0.010221141910668896,18.8999996185,0.0,0.4473419425121516,1.031380136905694
1648634255852713101,28921,3,4,1.38744556904,-0.219754293561,0.0688556730747,0.0,18.8999996185,0.4640286184080267,-0.07349641925117056,0.0230286532022408,18.8999996185,0.0,0.6603384291755766,1.4064274813518802
1648634255852714331,28922,3,5,0.220136329532,0.307656019926,1.35459446907,0.0,18.8999996185,0.07362419047892976,0.10289498994180601,0.453041628451505,18.8999996185,0.0,0.14638449987098984,1.4064275330821576
1648634255957294455,28923,4,0,0.00709323305637,0.0454158857465,0.00921431556344,0.0,11.6000003815,0.0023723187479498327,0.015189259446989964,0.0030817108907826084,11.6000003815,0.0,0.015555365474064645,0.046880915569491324
1648634255957301129,28924,4,1,0.0342932231724,0.0146502861753,-0.0284106340259,0.0,11.6000003815,0.011469305408829431,0.0048997612626421405,-0.009501884289598661,11.6000003815,0.0,0.016943954483912442,0.04688091473429082
1648634255957312184,28925,4,2,1.00937700272,-0.096691891551,0.188556984067,0.0,11.6000003815,0.3375842818461538,-0.032338425267892976,0.06306253647725751,11.6000003815,0.0,0.4785102595012712,1.031380139304691
1648634255957318548,28926,4,3,0.828361392021,-0.451228827238,0.417079150677,0.0,11.6000003815,0.2770439438197324,-0.15091265125016723,0.13949135474147156,11.6000003815,0.0,0.41985869280239596,1.0313801763903538
1648634255957326648,28927,4,4,1.38496911526,-0.219754293561,0.107736252248,0.0,11.6000003815,0.4632003729966555,-0.07349641925117056,0.03603219138729097,11.6000003815,0.0,0.6591744038805097,1.4064275664999624
1648634255957354344,28928,4,5,0.355608403683,0.307656019926,-1.32549190521,0.0,11.6000003815,0.11893257648260869,0.10289498994180601,-0.4433083295016722,11.6000003815,0.0,0.1971732599839732,1.4064275147137568
1648634256152590575,28929,6,0,0.00709323305637,0.0454158857465,0.00921431556344,0.0,12.8999996185,0.0023723187479498327,0.015189259446989964,0.0030817108907826084,12.8999996185,0.0,0.015555365474064645,0.046880915569491324
1648634256152593128,28930,6,1,0.0343307182193,0.0146502861753,-0.0283653140068,0.0,12.8999996185,0.011481845558294313,0.0048997612626421405,-0.00948672709257525,12.8999996185,0.0,0.01696093202863375,0.046880914423414646
1648634256152596038,28931,6,2,0.716816604137,-0.512760043144,-0.772585868835,0.242756426334,12.8999996185,0.23973799469464882,-0.17149165322541807,-0.25838992268729094,12.8999996185,0.03280492247756756,0.37994473193664624,1.17202296502034
1648634256257322832,28932,7,0,0.00709323305637,0.0454158857465,0.00921431556344,0.0,27.1000003815,0.0023723187479498327,0.015189259446989964,0.0030817108907826084,27.1000003815,0.0,0.015555365474064645,0.046880915569491324
1648634256257351894,28933,7,1,0.034315072,0.0146502861753,-0.0283842384815,0.0,27.1000003815,0.011476612709030101,0.0048997612626421405,-0.009493056348327759,27.1000003815,0.0,0.01695384732080099,0.04688091344628468
1648634256257363411,28934,7,2,0.947927117348,-0.354536950588,0.198702692986,0.0809188112617,27.1000003815,0.3170324807183946,-0.11857423096588628,0.0664557501625418,27.1000003815,0.010934974494824324,0.46376614355736434,1.031380157524768
1648634256257366503,28935,7,3,0.964314579964,-0.0,-0.365844875574,0.0809188112617,27.1000003815,0.32251323744615384,-0.0,-0.12235614567692306,27.1000003815,0.010934974494824324,0.4561025944412051,1.0313801831113982
1648634256257391618,28936,7,4,0.669514000416,-0.75888478756,-1.40877997875,0.242756426334,27.1000003815,0.22391772589163877,-0.25380762125752504,-0.47116387249163877,27.1000003815,0.03280492247756756,0.40582829441202034,1.734593942705287
1648634256452610483,28937,9,0,0.00706249661744,0.0454158857465,0.00923789478838,0.0,11.3999996185,0.002362039002488294,0.015189259446989964,0.003089596919190635,11.3999996185,0.0,0.01555223646446149,0.046880915485212865
1648634256452655445,28938,9,1,0.0342932231724,0.0146502861753,-0.0284106340259,0.0,11.3999996185,0.011469305408829431,0.0048997612626421405,-0.009501884289598661,11.3999996185,0.0,0.016943954483912442,0.04688091473429082
1648634256452658894,28939,9,2,1.00158548355,-0.064461261034,0.237520813942,0.0,11.3999996185,0.3349784225919732,-0.021558950178595316,0.07943839931170568,11.3999996185,0.0,0.47422133602065636,1.0313800812929494
1648634256452679477,28940,9,3,1.37924742699,-0.219754293561,0.165598675609,0.0,11.3999996185,0.4612867648795986,-0.07349641925117056,0.0553841724444816,11.3999996185,0.0,0.6564850969739648,1.406427508178251
1648634256452683086,28941,9,4,0.980408430099,0.263705164194,-0.973291993141,0.0,11.3999996185,0.32789579601973246,0.0881957070882943,-0.3255157167695652,11.3999996185,0.0,0.47202731789975055,1.4064275336270087
1648634256557579793,28942,10,0,0.00711762346327,0.0454158857465,0.00919548794627,0.0,11.3999996185,0.0023804760746722405,0.015189259446989964,0.0030754140288528427,11.3999996185,0.0,0.015557857668462833,0.04688091552512632
1648634256557582523,28943,10,1,0.0342932231724,0.0146502861753,-0.0284106340259,0.0,11.3999996185,0.011469305408829431,0.0048997612626421405,-0.009501884289598661,11.3999996185,0.0,0.016943954483912442,0.04688091473429082
1648634256752612414,28944,12,0,0.00711762346327,0.0454158857465,0.00919548794627,0.0,18.8999996185,0.0023804760746722405,0.015189259446989964,0.0030754140288528427,18.8999996185,0.0,0.015557857668462833,0.04688091552512632
1648634256752641642,28945,12,1,0.0342932231724,0.0146502861753,-0.0284106340259,0.0,18.8999996185,0.011469305408829431,0.0048997612626421405,-0.009501884289598661,18.8999996185,0.0,0.016943954483912442,0.04688091473429082
1648634256752643779,28946,12,2,1.07477641106,-0.0673913136125,0.0544125139713,0.0,18.8999996185,0.35945699366555184,-0.02253890087374582,0.018198165207792643,18.8999996185,0.0,0.5088483690086367,1.0782609353018913
1648634256857492425,28947,13,0,0.00709323305637,0.0454158857465,0.00921431556344,0.0,13.0,0.0023723187479498327,0.015189259446989964,0.0030817108907826084,13.0,0.0,0.015555365474064645,0.046880915569491324
1648634256857507563,28948,13,1,0.0342932231724,0.0146502861753,-0.0284106340259,0.0,13.0,0.011469305408829431,0.0048997612626421405,-0.009501884289598661,13.0,0.0,0.016943954483912442,0.04688091473429082
1648634256857511550,28949,13,2,1.00837516785,-0.032230630517,0.21420930326,0.0,13.0,0.33724922001672236,-0.010779475089297658,0.07164190744481605,13.0,0.0,0.47706421987713143,1.0313801036878563
1648634257052626876,28950,15,0,0.00706249661744,0.0454158857465,0.00923789478838,0.0,14.5,0.002362039002488294,0.015189259446989964,0.003089596919190635,14.5,0.0,0.01555223646446149,0.046880915485212865
1648634257052727938,28951,15,1,0.0342932231724,0.0146502861753,-0.0284106340259,0.0,14.5,0.011469305408829431,0.0048997612626421405,-0.009501884289598661,14.5,0.0,0.016943954483912442,0.04688091473429082
1648634257052731366,28952,15,2,1.38735604286,-0.219754293561,0.0706374421716,0.0,14.5,0.463998676541806,-0.07349641925117056,0.023624562599197325,14.5,0.0,0.6602963480951859,1.4064275265491637
1648634257052735870,28953,15,3,0.396455347538,0.263705164194,1.32337486744,0.0,14.5,0.13259376171839463,0.0881957070882943,0.4426002901137124,14.5,0.0,0.207221364830157,1.406427494037961
1648634257052739616,28954,15,4,0.955479204655,-0.354536950588,0.15845516324,-0.242756426334,14.5,0.3195582624264214,-0.11857423096588628,0.0529950378729097,14.5,-0.03280492247756756,0.467220306086046,1.0313801426330664
1648634257052744509,28955,15,5,0.912626087666,-0.36918720603,-0.0072864969261,-0.0809188112617,14.5,0.3052261162762541,-0.12347398194983276,-0.0024369554936789295,14.5,-0.010934974494824324,0.44896746912523455,0.9844991935102034
1648634257157622973,28956,16,0,0.00706249661744,0.0454158857465,0.00923789478838,0.0,17.8999996185,0.002362039002488294,0.015189259446989964,0.003089596919190635,17.8999996185,0.0,0.01555223646446149,0.046880915485212865
1648634257157634917,28957,16,1,0.0342932231724,0.0146502861753,-0.0284106340259,0.0,17.8999996185,0.011469305408829431,0.0048997612626421405,-0.009501884289598661,17.8999996185,0.0,0.016943954483912442,0.04688091473429082
1648634257157637925,28958,16,2,0.979846715927,-0.032230630517,0.320322662592,0.0,17.8999996185,0.32770793174816054,-0.010779475089297658,0.10713132528160534,17.8999996185,0.0,0.46357434586537993,1.0313801473881872
1648634257157645406,28959,16,3,1.38578104973,-0.219754293561,0.0967331677675,0.0,17.8999996185,0.46347192298662204,-0.07349641925117056,0.03235223002257525,17.8999996185,0.0,0.6595560404064074,1.4064275214441768
1648634257157648129,28960,16,4,0.45029553771,0.263705164194,1.30603671074,0.0,17.8999996185,0.15060051428428092,0.0881957070882943,0.4368015754983277,17.8999996185,0.0,0.23052009143279464,1.4064275220233287
1648634257157657877,28961,16,5,1.55047023296,-0.723724126816,-0.495901316404,-0.323675245047,17.8999996185,0.5185519173779264,-0.24204820294849494,-0.16585328307826086,17.8999996185,-0.04373989797932432,0.772256119809512,1.7814748582682378
1648634257157670324,28962,16,6,0.898564398289,-0.399952799082,-0.0431110411882,-0.0809188112617,17.8999996185,0.3005232101301003,-0.13376347795384613,-0.014418408424147156,17.8999996185,-0.010934974494824324,0.4455570307919177,0.9844992540567667
1648634257157718383,28963,16,7,0.706800699234,-0.0307656005025,0.68463486433,-0.0809188112617,17.8999996185,0.2363881937237458,-0.010289498495819397,0.2289748710133779,17.8999996185,-0.010934974494824324,0.3344617019080747,0.9844991864232842
