%time,field.header.seq,field.header.frame_id,field.point_id,field.x,field.y,field.z,field.velocity,field.intensity,normalized_x,normalized_y,normalized_z,normalized_intensity,normalized_velocity,normalized_range,range
1648634321553692253,30931,0,0,0.00702961953357,0.0454158857465,0.00926293712109,0.0,31.2999992371,0.0023510433222642137,0.015189259446989964,0.003097972281301003,31.2999992371,0.0,0.015548903882727559,0.04688091544578835
1648634321553696378,30932,0,1,0.0342776104808,0.0146502861753,-0.0284294709563,0.0,31.2999992371,0.011464083772842807,0.0048997612626421405,-0.009508184266321069,31.2999992371,0.0,0.016936885603097283,0.046880915990909794
1648634321553698301,30933,0,2,1.07269632816,-0.0,0.1094045192,0.0809188112617,31.2999992371,0.3587613137658862,-0.0,0.03659014020066889,31.2999992371,0.010934974494824324,0.5073651155825056,1.0782609894034605
1648634321553703243,30934,0,3,1.00844633579,-0.571361124516,-0.377238631248,0.161837622523,31.2999992371,0.33727302200334447,-0.19109067709565214,-0.12616676630367893,31.2999992371,0.021869948989594594,0.513830545623177,1.2189038238033099
1648634321553706583,30935,0,4,0.870926976204,-0.451228827238,0.318784892559,0.242756426334,31.2999992371,0.2912799251518394,-0.15091265125016723,0.10661702092274247,31.2999992371,0.03280492247756756,0.4387056164448741,1.031380172455471
1648634321658674962,30936,1,0,0.00700471783057,0.0454158857465,0.00928178243339,0.0,33.2000007629,0.002342714993501672,0.015189259446989964,0.003104275061334448,33.2000007629,0.0,0.015546389601110894,0.0468809154685127
1648634321658698065,30937,1,1,0.0342932231724,0.0146502861753,-0.0284106340259,0.0,33.2000007629,0.011469305408829431,0.0048997612626421405,-0.009501884289598661,33.2000007629,0.0,0.016943954483912442,0.04688091473429082
1648634321658701817,30938,1,2,0.932750165462,-0.386767566204,0.210078537464,-0.0809188112617,33.2000007629,0.31195657707759195,-0.1293537010715719,0.07026038042274246,33.2000007629,-0.010934974494824324,0.45974579056784054,1.031380149770087
1648634321853850163,30939,3,0,0.00702961953357,0.0454158857465,0.00926293712109,0.0,21.3999996185,0.0023510433222642137,0.015189259446989964,0.003097972281301003,21.3999996185,0.0,0.015548903882727559,0.04688091544578835
1648634321853858731,30940,3,1,0.0342932231724,0.0146502861753,-0.0284106340259,0.0,21.3999996185,0.011469305408829431,0.0048997612626421405,-0.009501884289598661,21.3999996185,0.0,0.016943954483912442,0.04688091473429082
1648634321853865023,30941,3,2,1.07258820534,-0.0,0.110459193587,0.0,21.3999996185,0.3587251522876254,-0.0,0.036942874109364546,21.3999996185,0.0,0.5073139755295137,1.078260957135318
1648634321853871758,30942,3,3,0.87642210722,-0.399952799082,0.202881142497,-0.0809188112617,21.3999996185,0.2931177616120401,-0.13376347795384613,0.06785322491538462,21.3999996185,-0.010934974494824324,0.435578594950687,0.9844992176220151
1648634321854012251,30943,3,4,0.66263538599,-0.0,-0.728116095066,-0.0809188112617,21.3999996185,0.22161718594983276,-0.0,-0.24351708865083607,21.3999996185,-0.010934974494824324,0.3134140300252136,0.9844992141491412
1648634321958961820,30944,4,0,0.00712367706001,0.0454158857465,0.00919079873711,0.0,20.6000003815,0.002382500688966555,0.015189259446989964,0.003073845731474916,20.6000003815,0.0,0.015558477483797252,0.04688091546056366
1648634321958973488,30945,4,1,0.0342776104808,0.0146502861753,-0.0284294709563,0.0,20.6000003815,0.011464083772842807,0.0048997612626421405,-0.009508184266321069,20.6000003815,0.0,0.016936885603097283,0.046880915990909794
1648634321958976655,30946,4,2,1.06848490238,-0.0,0.144867882133,0.0,20.6000003815,0.3573528101605351,-0.0,0.0484507967,20.6000003815,0.0,0.5053731906811667,1.078260956303111
1648634321958978880,30947,4,3,0.875325381756,-0.399952799082,0.20756188035,-0.242756426334,20.6000003815,0.2927509637979933,-0.13376347795384613,0.06941868908026756,20.6000003815,-0.03280492247756756,0.4350849591098468,0.9844992126021441
1648634322153898472,30948,6,0,0.0071538365446,0.0454158857465,0.00916734337807,0.0,36.4000015259,0.0023925874731103676,0.015189259446989964,0.0030660011297892974,36.4000015259,0.0,0.015561572934023835,0.04688091552068325
1648634322153905134,30949,6,1,0.0342776104808,0.0146502861753,-0.0284294709563,0.0,36.4000015259,0.011464083772842807,0.0048997612626421405,-0.009508184266321069,36.4000015259,0.0,0.016936885603097283,0.046880915990909794
1648634322154049831,30950,6,2,1.07077980042,-0.0,0.126796022058,0.0,36.4000015259,0.35812033458862874,-0.0,0.042406696340468224,36.4000015259,0.0,0.5064586341368295,1.0782609202772897
1648634322154053310,30951,6,3,0.868331611156,-0.399952799082,0.235109865665,-0.0809188112617,36.4000015259,0.29041191008561873,-0.13376347795384613,0.07863206209531771,36.4000015259,-0.010934974494824324,0.4319384482463492,0.9844992012994809
1648634322258823344,30952,7,0,0.00706332270056,0.0454158857465,0.00923726335168,0.0,19.1000003815,0.0023623152844682274,0.015189259446989964,0.003089385736347826,19.1000003815,0.0,0.015552320391325477,0.04688091551942728
1648634322258837755,30953,7,1,0.0342932231724,0.0146502861753,-0.0284106340259,0.0,19.1000003815,0.011469305408829431,0.0048997612626421405,-0.009501884289598661,19.1000003815,0.0,0.016943954483912442,0.04688091473429082
1648634322258850765,30954,7,2,1.07112324238,-0.0336956568062,0.119191162288,0.0,19.1000003815,0.3582351981204013,-0.011269450436856187,0.039863264979264214,19.1000003815,0.0,0.5067464009323353,1.0782610680265747
1648634322258858228,30955,7,3,0.937844157219,-0.354536950588,0.241861253977,0.242756426334,19.1000003815,0.3136602532505017,-0.11857423096588628,0.08089005149732441,19.1000003815,0.03280492247756756,0.45915722491047556,1.0313801329952896
1648634322453858408,30956,9,0,0.00708789983764,0.0454158857465,0.00921841803938,0.0,41.4000015259,0.0023705350627558526,0.015189259446989964,0.003083082956314381,41.4000015259,0.0,0.015554821616318321,0.04688091544964033
1648634322453861156,30957,9,1,0.0342381596565,0.0146502861753,-0.028476966545,0.0,41.4000015259,0.011450889517224078,0.0048997612626421405,-0.009524069078595317,41.4000015259,0.0,0.016919024850807245,0.046880913870009186
1648634322453863142,30958,9,2,1.06420123577,-0.0336956568062,0.170255750418,0.0,41.4000015259,0.3559201457424749,-0.011269450436856187,0.05694172254782608,41.4000015259,0.0,0.5034732374256231,1.0782609554520615
1648634322558876785,30959,10,0,0.00717794056982,0.0454158857465,0.00914848223329,0.0,13.3000001907,0.002400649020006689,0.015189259446989964,0.0030596930546120398,13.3000001907,0.0,0.015564055833313243,0.04688091547885805
1648634322558878582,30960,10,1,0.0342776104808,0.0146502861753,-0.0284294709563,0.0,13.3000001907,0.011464083772842807,0.0048997612626421405,-0.009508184266321069,13.3000001907,0.0,0.016936885603097283,0.046880915990909794
1648634322558880323,30961,10,2,0.912029802799,-0.41899818182,0.237459897995,-0.0809188112617,13.3000001907,0.30502668989933107,-0.14013317117725752,0.07941802608528428,13.3000001907,-0.010934974494824324,0.4535635223053987,1.0313801630426311
1648634322753887873,30962,12,0,0.00712367706001,0.0454158857465,0.00919079873711,0.0,22.2000007629,0.002382500688966555,0.015189259446989964,0.003073845731474916,22.2000007629,0.0,0.015558477483797252,0.04688091546056366
1648634322753892712,30963,12,1,0.0342932231724,0.0146502861753,-0.0284106340259,0.0,22.2000007629,0.011469305408829431,0.0048997612626421405,-0.009501884289598661,22.2000007629,0.0,0.016943954483912442,0.04688091473429082
1648634322753894732,30964,12,2,0.922592520714,-0.386767566204,0.250955969095,0.0,22.2000007629,0.3085593714762542,-0.1293537010715719,0.08393176223913043,22.2000007629,0.0,0.4551375082681668,1.031380147166499
1648634322858840905,30965,13,0,0.00714792404324,0.0454158857465,0.00917195435613,0.0,18.2999992371,0.0023906100479063543,0.015189259446989964,0.0030675432629197323,18.2999992371,0.0,0.015560965116286185,0.046880915551831985
1648634322858844806,30966,13,1,0.0342932231724,0.0146502861753,-0.0284106340259,0.0,18.2999992371,0.011469305408829431,0.0048997612626421405,-0.009501884289598661,18.2999992371,0.0,0.016943954483912442,0.04688091473429082
1648634322858900041,30967,13,2,1.07726633549,-0.0336956568062,0.0317580997944,0.0,18.2999992371,0.3602897443110368,-0.011269450436856187,0.01062143805832776,18.2999992371,0.0,0.5096512535298753,1.0782609757244326
1648634323053820446,30968,15,0,0.0071538365446,0.0454158857465,0.00916734337807,0.0,18.0,0.0023925874731103676,0.015189259446989964,0.0030660011297892974,18.0,0.0,0.015561572934023835,0.04688091552068325
1648634323053824154,30969,15,1,0.0342932231724,0.0146502861753,-0.0284106340259,0.0,18.0,0.011469305408829431,0.0048997612626421405,-0.009501884289598661,18.0,0.0,0.016943954483912442,0.04688091473429082
1648634323053829553,30970,15,2,1.06763315201,-0.0336956568062,0.147210478783,0.0,18.0,0.3570679438160535,-0.011269450436856187,0.049234273840468225,18.0,0.0,0.5050960636504679,1.0782610396476027
1648634323053833556,30971,15,3,0.793828070164,0.0498109720647,-0.0502578802407,0.161837622523,18.0,0.26549433784749166,0.016659187981505015,-0.01680865559889632,18.0,0.021869948989594594,0.3758350907011734,0.7969755281340948
1648634323158865277,30972,16,0,0.00711832381785,0.0454158857465,0.00919494591653,0.0,28.3999996185,0.002380710306973244,0.015189259446989964,0.0030752327480033444,28.3999996185,0.0,0.015557929350637609,0.04688091554697736
1648634323158875570,30973,16,1,0.0341685786843,0.0146502861753,-0.0285604204983,0.0,28.3999996185,0.011427618289063543,0.0048997612626421405,-0.009551980099765886,28.3999996185,0.0,0.016887527348666758,0.046880915875898814
1648634323158878403,30974,16,2,1.07099246979,-0.0336956568062,0.120359696448,0.0,28.3999996185,0.3581914614682274,-0.011269450436856187,0.04025407907959866,28.3999996185,0.0,0.5066845632645995,1.0782609721971486
1648634323158880332,30975,16,3,0.795931100845,-0.0,-0.0407884158194,0.242756426334,28.3999996185,0.26619769259030096,-0.0,-0.013641610641939798,28.3999996185,0.03280492247756756,0.37646038713362756,0.7969755405013317
