%time,field.header.seq,field.header.frame_id,field.point_id,field.x,field.y,field.z,field.velocity,field.intensity,normalized_x,normalized_y,normalized_z,normalized_intensity,normalized_velocity,normalized_range,range
1648624682647800201,25332,0,0,0.00677556637675,0.0454158857465,0.00945035740733,0.0,35.5,0.0022660757112876254,0.015189259446989964,0.0031606546512809365,35.5,0.0,0.015523652946602141,0.046880915445319145
1648624682647809625,25333,0,1,0.0322376936674,0.0161153152585,-0.0299807935953,0.0,35.5,0.010781837346956522,0.005389737544648829,-0.010027021269331103,35.5,0.0,0.016172362349163777,0.04688091577047047
1648624682647834403,25334,0,2,0.79237896204,-0.263705134392,0.121197767556,0.0,35.5,0.26500968630100336,-0.08819569712107023,0.040534370420066884,35.5,0.0,0.3850178549851733,0.8438564547651745
1648624682647850493,25335,0,3,0.572669327259,0.0263705141842,-0.619231879711,0.0,35.5,0.1915282030966555,0.008819569961270902,-0.20710096311404683,35.5,0.0,0.2710053320087433,0.8438564352139724
1648624682647853642,25336,0,4,1.06830513477,-0.101086974144,0.105604104698,0.0,35.5,0.35729268721404683,-0.03380835255652174,0.03531909856120401,35.5,0.0,0.506417943378644,1.0782609444130877
1648624682647937581,25337,0,5,0.863753378391,-0.083506628871,0.200922504067,0.161837622523,35.5,0.2888807285588628,-0.027928638418394644,0.06719816189531772,35.5,0.021869948989594594,0.4094925634358995,0.8907373958624497
1648624682752937511,25338,1,0,0.00686722435057,0.0454158857465,0.00938396435231,0.0,32.5,0.0022967305520301003,0.015189259446989964,0.0031384496161571906,32.5,0.0,0.015532660590035142,0.046880915470856876
1648624682752947252,25339,1,1,0.0344546698034,0.0146502861753,-0.0282146241516,0.0,32.5,0.011523300937591973,0.0048997612626421405,-0.009436329147692307,32.5,0.0,0.01701706759190621,0.046880914797981066
1648624682752949331,25340,1,2,0.832305014133,-0.079111546278,-0.114470168948,0.0,32.5,0.2783628809809364,-0.026458711129765885,-0.038284337440802674,32.5,0.0,0.3945527219658513,0.8438564409213294
1648624682752952155,25341,1,3,1.06679081917,-0.101086974144,0.119939401746,0.0,32.5,0.35678622714715713,-0.03380835255652174,0.04011351228963211,32.5,0.0,0.5057033008260788,1.0782609555660345
1648624682752992149,25342,1,4,0.707357287407,-0.775000095367,0.248329117894,0.0,32.5,0.23657434361438126,-0.25919735631003343,0.08305321668695652,32.5,0.0,0.4232234748111937,1.078261021580888
1648624682947872096,25343,3,0,0.0066722468473,0.0454158857465,0.00952358543873,0.0,14.6999998093,0.002231520684715719,0.015189259446989964,0.0031851456316822737,14.6999998093,0.0,0.015513638247703281,0.04688091547462823
1648624682947926587,25344,3,1,0.0343919284642,0.0146502861753,-0.0282910689712,0.0,14.6999998093,0.011502317212107023,0.0048997612626421405,-0.009461895976989966,14.6999998093,0.0,0.01698865100373645,0.04688091522184728
1648624682947975248,25345,3,2,1.00623583794,-0.064461261034,0.216977223754,0.0,14.6999998093,0.3365337250635451,-0.021558950178595316,0.0725676333625418,14.6999998093,0.0,0.476418602221927,1.0313801100258337
1648624682948098482,25346,3,3,0.792322874069,-0.290075659752,0.0132043557242,0.0809188112617,14.6999998093,0.26499092778227423,-0.09701527082006689,0.004416172483010033,14.6999998093,0.010934974494824324,0.38710766769222216,0.8438564926358094
1648624683052892797,25347,4,0,0.00687576876953,0.0454158857465,0.00937770586461,0.0,19.1000003815,0.0022995882172341135,0.015189259446989964,0.003136356476458194,19.1000003815,0.0,0.015533506187775437,0.04688091553707464
1648624683052923569,25348,4,1,0.0321619398892,0.0161153152585,-0.0300620421767,0.0,19.1000003815,0.010756501635183945,0.005389737544648829,-0.01005419470792642,19.1000003815,0.0,0.01613858499545815,0.04688091448714548
1648624683052926302,25349,4,2,0.745296955109,-0.34281668067,0.197744548321,0.0,19.1000003815,0.24926319568862873,-0.1146544082508361,0.06613530044180602,19.1000003815,0.0,0.3706884335680905,0.8438564654199312
1648624683052928827,25350,4,3,0.742293477058,-0.0527410283685,-0.39788505435,0.0,19.1000003815,0.24825868797926418,-0.017639139922575247,-0.13307192453177255,19.1000003815,0.0,0.3515336279384655,0.8438564680271906
1648624683247914944,25351,6,0,0.00674108136445,0.0454158857465,0.00947498716414,0.0,14.6999998093,0.0022545422623578594,0.015189259446989964,0.003168892028140468,14.6999998093,0.0,0.015520293946104541,0.046880915497267056
1648624683247925080,25352,6,1,0.0344002954662,0.0146502861753,-0.0282808933407,0.0,14.6999998093,0.011505115540535116,0.0048997612626421405,-0.009458492756086956,14.6999998093,0.0,0.01699244030835518,0.04688091446770313
1648624683247929086,25353,6,2,0.808851420879,-0.306190997362,0.213118702173,0.0,14.6999998093,0.2705188698591973,-0.10240501584013377,0.0712771579173913,14.6999998093,0.0,0.3960400297558477,0.8907374075110001
1648624683248093479,25354,6,3,0.789956450462,-0.0703213736415,0.798102915287,-0.242756426334,14.6999998093,0.2641994817598662,-0.023518854060702338,0.2669240519354515,14.6999998093,-0.03280492247756756,0.3743739692081868,1.1251420144172726
1648624683248099110,25355,6,4,0.544302880764,-0.562570989132,-0.808203399181,-0.242756426334,14.6999998093,0.18204109724548495,-0.1881508324856187,-0.27030214019431437,14.6999998093,-0.03280492247756756,0.31887091108740473,1.1251419813822026
