%time,field.header.seq,field.header.frame_id,field.point_id,field.x,field.y,field.z,field.velocity,field.intensity,normalized_x,normalized_y,normalized_z,normalized_intensity,normalized_velocity,normalized_range,range
1648624584147126081,22073,0,0,0.00677367113531,0.0454158857465,0.00945171620697,0.0,34.9000015259,0.0022654418512742473,0.015189259446989964,0.00316110909932107,34.9000015259,0.0,0.015523467915094992,0.046880915499226045
1648624584147326876,22074,0,1,0.0322796143591,0.0161153152585,-0.0299356523901,0.0,34.9000015259,0.010795857645183945,0.005389737544648829,-0.010011923876287625,34.9000015259,0.0,0.016191057883608174,0.046880914806282925
1648624584147337904,22075,0,2,0.734750807285,-0.501039803028,-0.0501353889704,0.0,34.9000015259,0.2457360559481605,-0.16757184047759197,-0.016767688618862873,34.9000015259,0.0,0.38581438556249104,0.8907374418152127
1648624584147346580,22076,0,3,0.719335019588,-0.843856453896,0.190808534622,0.0,34.9000015259,0.24058027410969895,-0.28222623876120395,0.0638155634187291,34.9000015259,0.0,0.4420513391300742,1.1251419830724454
1648624584147355128,22077,0,4,1.27589797974,-0.246124818921,0.186005800962,0.0,34.9000015259,0.42672173235451505,-0.08231599295016721,0.062209297980602006,34.9000015259,0.0,0.6090638689190557,1.3126656997061452
1648624584147493678,22078,0,5,0.98838353157,0.205104023218,-0.839119553566,0.0,34.9000015259,0.33056305403678926,0.06859666328361204,-0.2806419911591973,34.9000015259,0.0,0.47249271698292217,1.3126657194410916
1648624584147499382,22079,0,6,0.706648647785,-0.741304516792,0.121902808547,-0.242756426334,34.9000015259,0.23633734039632107,-0.2479279320374582,0.04077017008260869,34.9000015259,-0.03280492247756756,0.4161477338825523,1.0313801397953308
1648624584447311327,22080,3,0,0.00663548940793,0.0454158857465,0.00954923219979,0.0,23.7999992371,0.0022192272267324412,0.015189259446989964,0.003193723143742475,23.7999992371,0.0,0.01551011094466171,0.046880915449971736
1648624584447316178,22081,3,1,0.0344916433096,0.0146502861753,-0.0281694121659,0.0,23.7999992371,0.011535666658729097,0.0048997612626421405,-0.009421208082240801,23.7999992371,0.0,0.017033815513663307,0.046880914293422386
1648624584447318852,22082,3,2,1.26157546043,-0.246124818921,0.266348183155,0.0,23.7999992371,0.42193159211705683,-0.08231599295016721,0.08907965991806019,23.7999992371,0.0,0.6023524379864672,1.312665769919377
1648624584447443940,22083,3,3,0.639955699444,1.1075617075,0.294711828232,0.0,23.7999992371,0.21403200650301002,0.3704219757525083,0.09856582884013376,23.7999992371,0.0,0.4783637107220832,1.312665720917181
1648624584747170965,22084,6,0,0.00677367113531,0.0454158857465,0.00945171620697,0.0,12.1000003815,0.0022654418512742473,0.015189259446989964,0.00316110909932107,12.1000003815,0.0,0.015523467915094992,0.046880915499226045
1648624584747176103,22085,6,1,0.0322040766478,0.0161153152585,-0.0300168991089,0.0,12.1000003815,0.010770594196588627,0.005389737544648829,-0.010039096691939798,12.1000003815,0.0,0.016157371986043226,0.04688091478130628
1648624584747178837,22086,6,2,0.965136349201,-0.0922968015075,0.170973300934,0.0,12.1000003815,0.3227880766558528,-0.03086849548745819,0.05718170599799331,12.1000003815,0.0,0.4575337680172127,0.9844992340016409
1648624584747185102,22087,6,3,1.26910078526,-0.287145614624,0.173267841339,0.0,12.1000003815,0.4244484231638796,-0.0960353226167224,0.05794911081571906,12.1000003815,0.0,0.6078944900578599,1.3126656664922793
1648624584747191529,22088,6,4,1.0621201992,0.164083212614,-0.753703296185,0.0,12.1000003815,0.3552241468896321,0.054877328633444813,-0.25207468099832775,12.1000003815,0.0,0.5053512741300619,1.3126657140683278
1648624584747222812,22089,6,5,0.721331834793,-0.473204255104,0.22174616158,-0.161837622523,12.1000003815,0.2412481052819398,-0.15826229267692307,0.07416259584615384,12.1000003815,-0.021869948989594594,0.3760960647063565,0.8907374714863132
1648624584852219719,22090,7,0,0.00679915398359,0.0454158857465,0.00943340174854,0.0,28.7000007629,0.002273964543006689,0.015189259446989964,0.0031549838623879597,28.7000007629,0.0,0.01552595993920109,0.046880915536933215
1648624584852249023,22091,7,1,0.0322040766478,0.0161153152585,-0.0300168991089,0.0,28.7000007629,0.010770594196588627,0.005389737544648829,-0.010039096691939798,28.7000007629,0.0,0.016157371986043226,0.04688091478130628
1648624584852258888,22092,7,2,1.02837002277,-0.064461261034,0.0452196113765,0.0,28.7000007629,0.3439364624648829,-0.021558950178595316,0.015123615844983276,28.7000007629,0.0,0.48687715982424024,1.0313801293214375
1648624584852261059,22093,7,3,0.735142290592,-0.843856453896,0.115829989314,0.0,28.7000007629,0.24586698682006686,-0.28222623876120395,0.03873912686086956,28.7000007629,0.0,0.4478312184978331,1.1251419859836649
1648624584852362999,22094,7,4,0.753220438957,-0.417533159256,0.227460324764,-0.161837622523,28.7000007629,0.25191319028662207,-0.13964319707558526,0.07607368721204012,28.7000007629,-0.021869948989594594,0.3826496222005955,0.8907374293710894
