%time,field.header.seq,field.header.frame_id,field.point_id,field.x,field.y,field.z,field.velocity,field.intensity,normalized_x,normalized_y,normalized_z,normalized_intensity,normalized_velocity,normalized_range,range
1648633943249935651,20397,0,0,0.006935544312,0.0454158857465,0.00933358352631,0.0,32.0999984741,0.0023195800374581936,0.015189259446989964,0.0031215998415752505,32.0999984741,0.0,0.015539449978951089,0.04688091546125633
1648633943249939976,20398,0,1,0.0342975780368,0.0146502861753,-0.0284053757787,0.0,32.0999984741,0.011470761885217392,0.0048997612626421405,-0.009500125678494982,32.0999984741,0.0,0.016945926262249597,0.046880914211838154
1648633943249941672,20399,0,2,0.775055110455,-0.527410328388,-0.0160017311573,0.0809188112617,32.0999984741,0.2592157560050167,-0.1763914141765886,-0.005351749550936455,32.0999984741,0.010934974494824324,0.4068163557647621,0.9376183307363294
1648633943355515390,20400,1,0,0.00689730374143,0.0454158857465,0.00936187803745,0.0,11.6000003815,0.002306790548973244,0.015189259446989964,0.003131062888779264,11.6000003815,0.0,0.015535641854189304,0.046880915492647696
1648633943355541221,20401,1,1,0.0343193672597,0.0146502861753,-0.0283790472895,0.0,11.6000003815,0.011478049250735785,0.0048997612626421405,-0.009491320163712375,11.6000003815,0.0,0.016955792214919396,0.046880914871448826
1648633943355546495,20402,1,2,0.862879753113,-0.461484014988,0.108211636543,0.242756426334,11.6000003815,0.28858854619163876,-0.15434247992909697,0.036191182790301,11.6000003815,0.03280492247756756,0.43633507662881166,0.9844992243293597
1648633943355578687,20403,1,3,0.872172296047,-0.703213751316,0.103683948517,0.485512852669,11.6000003815,0.29169642008260865,-0.23518854559063543,0.03467690585852842,11.6000003815,0.06560984495527027,0.47485498307910573,1.1251419711360395
1648633943550254944,20404,3,0,0.00696068489924,0.0454158857465,0.00931484997272,0.0,29.0,0.0023279882606153843,0.015189259446989964,0.003115334439036789,29.0,0.0,0.01554196452290057,0.046880915545879975
1648633943550257028,20405,3,1,0.0342817641795,0.0146502861753,-0.0284244585782,0.0,29.0,0.01146547296973244,0.0048997612626421405,-0.009506507885685618,29.0,0.0,0.01693876622632885,0.046880913874847226
1648633943550281835,20406,3,2,0.177335694432,-0.606521844864,-0.873687624931,-0.647350490093,29.0,0.059309596799999996,-0.20285011533913042,-0.2922032190404682,29.0,-0.08747979595851352,0.2195072341364987,1.078260990101414
1648633943550403592,20407,3,3,1.04806828499,-0.168478280306,0.189247488976,-0.647350490093,29.0,0.3505245100301003,-0.05634725093846154,0.06329347457391303,29.0,-0.08747979595851352,0.498908685985728,1.0782609484816132
1648633943655204876,20408,4,0,0.00687180366367,0.0454158857465,0.00938061159104,0.0,29.6000003815,0.0022982620948729096,0.015189259446989964,0.0031373282913177256,29.6000003815,0.0,0.015533113656361145,0.04688091549397392
1648633943655214210,20409,4,1,0.0342975780368,0.0146502861753,-0.0284053757787,0.0,29.6000003815,0.011470761885217392,0.0048997612626421405,-0.009500125678494982,29.6000003815,0.0,0.016945926262249597,0.046880914211838154
1648633943655222165,20410,4,2,0.968521058559,-0.354536950588,0.00394470058382,0.161837622523,29.6000003815,0.3239200864745819,-0.11857423096588628,0.0013192978541204012,29.6000003815,0.021869948989594594,0.4731894896260404,1.0313801679629
1648633943655225275,20411,4,3,1.04850125313,-0.351606875658,0.207273125648,0.323675245047,29.6000003815,0.3506693154280936,-0.11759427279531771,0.06932211560133779,29.6000003815,0.04373989797932432,0.509672787737265,1.1251419561286709
1648633943850299812,20412,6,0,0.00705611845478,0.0454158857465,0.00924276746809,0.0,28.7999992371,0.0023599058377190636,0.015189259446989964,0.0030912265779565215,28.7999992371,0.0,0.015551588782943526,0.04688091548014193
1648633943850305545,20413,6,1,0.0342975780368,0.0146502861753,-0.0284053757787,0.0,28.7999992371,0.011470761885217392,0.0048997612626421405,-0.009500125678494982,28.7999992371,0.0,0.016945926262249597,0.046880914211838154
1648633943850310429,20414,6,2,1.14692568779,-0.0366257168353,0.238448634744,0.0,28.7999992371,0.38358718655183943,-0.012249403623846153,0.0797487072722408,28.7999992371,0.0,0.542612483511623,1.1720229212167916
1648633943850312401,20415,6,3,1.03471970558,-0.303260922432,0.00588548230007,0.0809188112617,28.7999992371,0.34606010220066885,-0.10142505766956521,0.0019683887291204014,28.7999992371,0.010934974494824324,0.4998021918654913,1.0782609587162904
1648633943955384372,20416,7,0,0.00696764234453,0.0454158857465,0.0093096466735,0.0,14.5,0.0023303151653946484,0.015189259446989964,0.003113594205183946,14.5,0.0,0.01554266193700778,0.04688091551117404
1648633943955393064,20417,7,1,0.0342975780368,0.0146502861753,-0.0284053757787,0.0,14.5,0.011470761885217392,0.0048997612626421405,-0.009500125678494982,14.5,0.0,0.016945926262249597,0.046880914211838154
1648633943955395375,20418,7,2,1.14458227158,-0.0366257168353,0.249454975128,0.0,14.5,0.3828034353110368,-0.012249403623846153,0.08342975756789296,14.5,0.0,0.5415043749232338,1.1720229537705493
1648633943955397301,20419,7,3,1.02934598923,-0.303260922432,0.105481676757,-0.0809188112617,14.5,0.3442628726521739,-0.10142505766956521,0.03527815276153846,14.5,-0.010934974494824324,0.4973136769652816,1.078260978033455
1648633943955406011,20420,7,4,0.683525502682,0.101086974144,-0.827780783176,-0.0809188112617,14.5,0.22860384705083608,0.03380835255652174,-0.27684976025953173,14.5,-0.010934974494824324,0.32505759870439915,1.078260967555509
1648633944150327828,20421,9,0,0.006935544312,0.0454158857465,0.00933358352631,0.0,13.3000001907,0.0023195800374581936,0.015189259446989964,0.0031215998415752505,13.3000001907,0.0,0.015539449978951089,0.04688091546125633
1648633944150336207,20422,9,1,0.0343035645783,0.0146502861753,-0.0283981487155,0.0,13.3000001907,0.011472764073010032,0.0048997612626421405,-0.009497708600501671,13.3000001907,0.0,0.016948636859074773,0.04688091592816249
1648633944150479940,20423,9,2,1.15532720089,-0.0732514336705,0.18300537765,0.0,13.3000001907,0.3863970571538461,-0.02449880724765886,0.06120581192307692,13.3000001907,0.0,0.5469968584104146,1.1720229016106831
1648633944150483385,20424,9,3,0.997194170952,-0.370652228594,0.175691157579,-0.647350490093,13.3000001907,0.33350975617123746,-0.12396395605150501,0.05875958447458193,13.3000001907,-0.08747979595851352,0.4876726128487594,1.0782609480055347
1648633944150486575,20425,9,4,0.965266346931,-0.354536950588,0.079432502389,-0.404594063759,13.3000001907,0.32283155415752507,-0.11857423096588628,0.02656605431070234,13.3000001907,-0.05467487348094594,0.4716993459489608,1.0313801880419917
1648633944255213498,20426,10,0,0.00687180366367,0.0454158857465,0.00938061159104,0.0,31.2000007629,0.0022982620948729096,0.015189259446989964,0.0031373282913177256,31.2000007629,0.0,0.015533113656361145,0.04688091549397392
1648633944255227001,20427,10,1,0.0342975780368,0.0146502861753,-0.0284053757787,0.0,31.2000007629,0.011470761885217392,0.0048997612626421405,-0.009500125678494982,31.2000007629,0.0,0.016945926262249597,0.046880914211838154
1648633944255231278,20428,10,2,1.20900845528,-0.076181486249,0.134986519814,0.0,31.2000007629,0.4043506539397993,-0.02547875794280936,0.04514599324882943,31.2000007629,0.0,0.5724055116693016,1.2189037797616076
1648633944255235244,20429,10,3,0.442352563143,-0.307655990124,-0.823960363865,0.566431701183,31.2000007629,0.14794400105117056,-0.10289497997458194,-0.27557202804849495,31.2000007629,0.07654482448418919,0.23315709682106425,0.9844992024369059
1648633944255358459,20430,10,4,0.869192540646,-0.430718421936,0.168002173305,-0.485512852669,31.2000007629,0.29069984636989965,-0.14405298392508362,0.056188017827759194,31.2000007629,-0.06560984495527027,0.4356191725999751,0.9844992442581608
1648633944450246393,20431,12,0,0.00708736246452,0.0454158857465,0.0092188315466,0.0,34.2000007629,0.002370355339304348,0.015189259446989964,0.003083221253043478,34.2000007629,0.0,0.015554766839046837,0.046880915519294374
1648633944450253702,20432,12,1,0.0342817641795,0.0146502861753,-0.0284244585782,0.0,34.2000007629,0.01146547296973244,0.0048997612626421405,-0.009506507885685618,34.2000007629,0.0,0.01693876622632885,0.046880913874847226
1648633944450256633,20433,12,2,1.16147685051,-0.0732514336705,0.13872089982,0.0,34.2000007629,0.3884537961571906,-0.02449880724765886,0.046394949772575245,34.2000007629,0.0,0.5499026232474459,1.1720229242008378
1648633944450398733,20434,12,3,0.779824733734,-0.741304457188,0.0706250891089,-0.242756426334,34.2000007629,0.2608109477371237,-0.24792791210301002,0.023620431140100335,34.2000007629,-0.03280492247756756,0.44442429109898035,1.078261015154373
1648633944750265835,20435,15,0,0.00690435990691,0.0454158857465,0.00935667566955,0.0,24.8999996185,0.0023091504705384613,0.015189259446989964,0.0031293229664046823,24.8999996185,0.0,0.015536343016911989,0.04688091555684932
1648633944750274319,20436,15,1,0.0342975780368,0.0146502861753,-0.0284053757787,0.0,24.8999996185,0.011470761885217392,0.0048997612626421405,-0.009500125678494982,24.8999996185,0.0,0.016945926262249597,0.046880914211838154
1648633944750278749,20437,15,2,0.851995706558,-0.49224960804,-0.0321302786469,0.161837622523,24.8999996185,0.28494839684214046,-0.16463197593311035,-0.010745912590936452,24.8999996185,0.021869948989594594,0.435310079397953,0.9844992206267748
1648633944750417530,20438,15,3,0.781185865402,-0.498109728098,0.144095256925,0.323675245047,24.8999996185,0.26126617571973243,-0.1665918823070234,0.048192393620401335,24.8999996185,0.04373989797932432,0.4053059145892462,0.9376183128533789
