%time,field.header.seq,field.header.frame_id,field.point_id,field.x,field.y,field.z,field.velocity,field.intensity,normalized_x,normalized_y,normalized_z,normalized_intensity,normalized_velocity,normalized_range,range
1648624770553353260,28136,0,0,0.00680120009929,0.0454158857465,0.00943192653358,0.0,18.7000007629,0.0022746488626387957,0.015189259446989964,0.003154490479458194,18.7000007629,0.0,0.015526160421835845,0.046880915510094025
1648624770553359649,28137,0,1,0.0322944484651,0.0161153152585,-0.029919648543,0.0,18.7000007629,0.010800818884648828,0.005389737544648829,-0.010006571419063545,18.7000007629,0.0,0.016197674152734726,0.04688091462932954
1648624770553465036,28138,0,2,0.839840650558,-0.079111546278,0.0224237199873,0.0,18.7000007629,0.2808831607217391,-0.026458711129765885,0.007499571902107023,18.7000007629,0.0,0.3981089842602362,0.8438564915329203
1648624770553468096,28139,0,3,1.0237557888,-0.064461261034,0.107302345335,0.0,18.7000007629,0.34239324040133773,-0.021558950178595316,0.035887072018394646,18.7000007629,0.0,0.48469686452241434,1.0313801251672419
1648624770553477517,28140,0,4,0.700805544853,-0.273960351944,0.262654393911,-0.647350490093,18.7000007629,0.2343831253688963,-0.09162553576722407,0.08784427889999999,18.7000007629,-0.08747979595851352,0.34389844099677797,0.7969755433981304
1648624770748399434,28141,2,0,0.0068351640366,0.0454158857465,0.00940734241158,0.0,39.5999984741,0.0022860080389966553,0.015189259446989964,0.003146268365076923,39.5999984741,0.0,0.015529496709703394,0.04688091548588917
1648624770748406666,28142,2,1,0.0322126448154,0.0161153152585,-0.0300077050924,0.0,39.5999984741,0.010773459804481605,0.005389737544648829,-0.010036021770033444,39.5999984741,0.0,0.01616119250296088,0.046880915485903306
1648624770748570388,28143,2,2,0.83956182003,-0.079111546278,0.0311612952501,0.0,39.5999984741,0.2807899063645485,-0.026458711129765885,0.010421837876287624,39.5999984741,0.0,0.3979773943669065,0.8438564526791545
1648624770748664404,28144,2,3,1.00718104839,-0.128922522068,0.18086014688,0.0,39.5999984741,0.33684984895986625,-0.04311790035719063,0.06048834343812708,39.5999984741,0.0,0.47832498870515017,1.0313801790134465
1648624770748669333,28145,2,4,0.378827303648,-0.228544458747,-0.419152647257,0.566431701183,39.5999984741,0.12669809486555184,-0.07643627382842809,-0.14018483185852842,39.5999984741,0.07654482448418919,0.19480071468527824,0.6094519155074699
1648624770748671645,28146,2,5,0.615950167179,-0.307656019926,0.143048033118,-0.242756426334,39.5999984741,0.20600340039431436,-0.10289498994180601,0.0478421515444816,39.5999984741,-0.03280492247756756,0.30896954688636347,0.7032137476069945
1648624770853367124,28147,3,0,0.00680970214307,0.0454158857465,0.00942579004914,0.0,30.6000003815,0.002277492355541806,0.015189259446989964,0.0031524381435250833,30.6000003815,0.0,0.015526994087944924,0.046880915514385384
1648624770853370955,28148,3,1,0.0322126448154,0.0161153152585,-0.0300077050924,0.0,30.6000003815,0.010773459804481605,0.005389737544648829,-0.010036021770033444,30.6000003815,0.0,0.01616119250296088,0.046880915485903306
1648624770853373585,28149,3,2,1.00985467434,-0.096691891551,0.185981780291,0.0,30.6000003815,0.3377440382408027,-0.032338425267892976,0.06220126431137123,30.6000003815,0.0,0.4787356728751438,1.0313801470739428
1648624771048471832,28150,5,0,0.00680970214307,0.0454158857465,0.00942579004914,0.0,13.6000003815,0.002277492355541806,0.015189259446989964,0.0031524381435250833,13.6000003815,0.0,0.015526994087944924,0.046880915514385384
1648624771048644538,28151,5,1,0.0344808995724,0.0146502861753,-0.0281825643033,0.0,13.6000003815,0.011532073435585283,0.0048997612626421405,-0.009425606790401338,13.6000003815,0.0,0.017028948760224514,0.04688091563791987
1648624771048648761,28152,5,2,0.806698799133,-0.0263705141842,-0.246242418885,0.0,13.6000003815,0.2697989294759197,-0.008819569961270902,-0.08235532404180601,13.6000003815,0.0,0.38165522334563473,0.8438564364862658
1648624771048650351,28153,5,3,1.02220523357,-0.096691891551,0.0974274203181,0.0,13.6000003815,0.3418746600568562,-0.032338425267892976,0.03258442151107024,13.6000003815,0.0,0.48456407226164533,1.0313801256856991
1648624771048651838,28154,5,4,0.233669370413,-0.430718421936,-0.436638385057,-0.647350490093,13.6000003815,0.07815029110802675,-0.14405298392508362,-0.14603290470133778,13.6000003815,-0.08747979595851352,0.18156596095705563,0.6563328522704246
1648624771048662674,28155,5,5,0.601716339588,-0.184593617916,0.18610599637,-0.647350490093,13.6000003815,0.2012429229391304,-0.061736995958528426,0.06224280815050167,13.6000003815,-0.08747979595851352,0.29121965032626645,0.6563328416187704
1648624771153454267,28156,6,0,0.0069007538259,0.0454158857465,0.00935933552682,0.0,38.7999992371,0.002307944423377926,0.015189259446989964,0.00313021255077592,38.7999992371,0.0,0.015535984599335069,0.046880915552156295
1648624771153469772,28157,6,1,0.0344176255167,0.0146502861753,-0.0282597988844,0.0,38.7999992371,0.011510911544046824,0.0048997612626421405,-0.009451437753979932,38.7999992371,0.0,0.01700028910285438,0.04688091364524289
1648624771153474647,28158,6,2,1.01709616184,-0.096691891551,0.141107141972,0.0,38.7999992371,0.3401659404147157,-0.032338425267892976,0.047193024070903006,38.7999992371,0.0,0.48215299209406853,1.0313802159421501
1648624771153477096,28159,6,3,0.370351463556,-0.39555773139,-0.44820022583,-0.566431701183,38.7999992371,0.12386336573779264,-0.13229355564882941,-0.14989974108026755,38.7999992371,-0.07654482448418919,0.2195127595608016,0.703213742651932
1648624771153478829,28160,6,4,0.646890640259,-0.131852582097,0.242192044854,-0.566431701183,38.7999992371,0.21635138470200668,-0.04409785354414715,0.08100068389765885,38.7999992371,-0.07654482448418919,0.3091285558018742,0.7032137587184334
