%time,field.header.seq,field.header.frame_id,field.point_id,field.x,field.y,field.z,field.velocity,field.intensity,normalized_x,normalized_y,normalized_z,normalized_intensity,normalized_velocity,normalized_range,range
1648634299053373968,30228,0,0,0.00714792404324,0.0454158857465,0.00917195435613,0.0,17.2999992371,0.0023906100479063543,0.015189259446989964,0.0030675432629197323,17.2999992371,0.0,0.015560965116286185,0.046880915551831985
1648634299053378840,30229,0,1,0.0342932231724,0.0146502861753,-0.0284106340259,0.0,17.2999992371,0.011469305408829431,0.0048997612626421405,-0.009501884289598661,17.2999992371,0.0,0.016943954483912442,0.04688091473429082
1648634299053386176,30230,0,2,1.34738218784,-0.127457484603,0.129161939025,0.0,17.2999992371,0.45062949426086957,-0.04262792127190635,0.0431979729180602,17.2999992371,0.0,0.6387104366358655,1.359546607138765
1648634299158367117,30231,1,0,0.00714792404324,0.0454158857465,0.00917195435613,0.0,12.6999998093,0.0023906100479063543,0.015189259446989964,0.0030675432629197323,12.6999998093,0.0,0.015560965116286185,0.046880915551831985
1648634299158373065,30232,1,1,0.0342932231724,0.0146502861753,-0.0284106340259,0.0,12.6999998093,0.011469305408829431,0.0048997612626421405,-0.009501884289598661,12.6999998093,0.0,0.016943954483912442,0.04688091473429082
1648634299158375234,30233,1,2,1.05792069435,-0.0673913136125,0.197253555059,0.0,12.6999998093,0.35381963021739127,-0.02253890087374582,0.06597108864849498,12.6999998093,0.0,0.5008838822590916,1.078260984023728
1648634299353444668,30234,3,0,0.00711762346327,0.0454158857465,0.00919548794627,0.0,15.0,0.0023804760746722405,0.015189259446989964,0.0030754140288528427,15.0,0.0,0.015557857668462833,0.04688091552512632
1648634299353523277,30235,3,1,0.0342932231724,0.0146502861753,-0.0284106340259,0.0,15.0,0.011469305408829431,0.0048997612626421405,-0.009501884289598661,15.0,0.0,0.016943954483912442,0.04688091473429082
1648634299353574447,30236,3,2,1.01121687889,-0.0673913136125,0.368165075779,0.0,15.0,0.3381996250468227,-0.02253890087374582,0.12313213236755852,15.0,0.0,0.4788172666228939,1.078260955578847
1648634299353580275,30237,3,3,0.767633795738,0.303260922432,-0.693842828274,0.0,15.0,0.25673371094916386,0.10142505766956521,-0.2320544576167224,15.0,0.0,0.3769767088279225,1.0782609618180101
1648634299353582266,30238,3,4,1.39378774166,-0.175803437829,0.0669880434871,0.0,15.0,0.4661497463745819,-0.05879713639765886,0.02240402792210702,15.0,0.0,0.6618521551968679,1.406427572086244
1648634299353584844,30239,3,5,0.803878247738,-0.523015201092,0.222426429391,-0.323675245047,15.0,0.2688556012501672,-0.1749214719371237,0.07439011016421404,15.0,-0.04373989797932432,0.418526211833653,0.9844991895635323
1648634299458441688,30240,4,0,0.00717794056982,0.0454158857465,0.00914848223329,0.0,27.5,0.002400649020006689,0.015189259446989964,0.0030596930546120398,27.5,0.0,0.015564055833313243,0.04688091547885805
1648634299458444784,30241,4,1,0.0342932231724,0.0146502861753,-0.0284106340259,0.0,27.5,0.011469305408829431,0.0048997612626421405,-0.009501884289598661,27.5,0.0,0.016943954483912442,0.04688091473429082
1648634299458449860,30242,4,2,0.827396452427,-0.439508587122,0.0370865985751,0.0,27.5,0.2767212215474916,-0.14699283850234113,0.012403544673946488,27.5,0.0,0.4180384712923527,0.9376183143671161
1648634299458454094,30243,4,3,1.05107116699,-0.0673913136125,0.230985805392,0.0,27.5,0.3515288183913043,-0.02253890087374582,0.07725277772307691,27.5,0.0,0.4976474880593388,1.0782609283103648
1648634299458456839,30244,4,4,1.39397990704,-0.175803437829,0.0628607422113,0.0,27.5,0.4662140157324415,-0.05879713639765886,0.021023659602441472,27.5,0.0,0.6619426864761807,1.4064274964942551
1648634299653389176,30245,6,0,0.00712367706001,0.0454158857465,0.00919079873711,0.0,12.3000001907,0.002382500688966555,0.015189259446989964,0.003073845731474916,12.3000001907,0.0,0.015558477483797252,0.04688091546056366
1648634299653398452,30246,6,1,0.0342776104808,0.0146502861753,-0.0284294709563,0.0,12.3000001907,0.011464083772842807,0.0048997612626421405,-0.009508184266321069,12.3000001907,0.0,0.016936885603097283,0.046880915990909794
1648634299653400160,30247,6,2,1.07035410404,-0.0673913136125,0.11156732589,0.0,12.3000001907,0.3579779612173913,-0.02253890087374582,0.037313486919732436,12.3000001907,0.0,0.5067587626152278,1.0782609913151524
1648634299653401958,30248,6,3,1.39680492878,-0.131852582097,0.0979246422648,0.0,12.3000001907,0.4671588390568561,-0.04409785354414715,0.03275071647652174,12.3000001907,0.0,0.6621324508775418,1.4064275125410608
1648634299758411921,30249,7,0,0.00700471783057,0.0454158857465,0.00928178243339,0.0,11.3999996185,0.002342714993501672,0.015189259446989964,0.003104275061334448,11.3999996185,0.0,0.015546389601110894,0.0468809154685127
1648634299758414342,30250,7,1,0.0342932231724,0.0146502861753,-0.0284106340259,0.0,11.3999996185,0.011469305408829431,0.0048997612626421405,-0.009501884289598661,11.3999996185,0.0,0.016943954483912442,0.04688091473429082
1648634299758420345,30251,7,2,1.12078738213,-0.0,0.0988939031959,0.0,11.3999996185,0.37484527830434783,-0.0,0.033074884012006686,11.3999996185,0.0,0.5301112763695259,1.1251419288388194
1648634299758435847,30252,7,3,1.39249539375,-0.175803437829,0.0899348407984,0.0,11.3999996185,0.465717522993311,-0.05879713639765886,0.030078542073043477,11.3999996185,0.0,0.6612433180718087,1.4064275829053183
1648634299758458999,30253,7,4,2.19023156166,-0.805765748024,0.219495892525,0.0,11.3999996185,0.7325189169431437,-0.26948687224882945,0.0734099975,11.3999996185,0.0,1.0704163216588065,2.34404589998055
1648634299953441583,30254,9,0,0.00714792404324,0.0454158857465,0.00917195435613,0.0,11.3000001907,0.0023906100479063543,0.015189259446989964,0.0030675432629197323,11.3000001907,0.0,0.015560965116286185,0.046880915551831985
1648634299953458708,30255,9,1,0.0342932231724,0.0146502861753,-0.0284106340259,0.0,11.3000001907,0.011469305408829431,0.0048997612626421405,-0.009501884289598661,11.3000001907,0.0,0.016943954483912442,0.04688091473429082
1648634299953495527,30256,9,2,1.04854035378,-0.101086974144,0.230198591948,0.0,11.3000001907,0.3506823925685618,-0.03380835255652174,0.0769894956347826,11.3000001907,0.0,0.4970908223029348,1.0782610266449952
1648634299953501884,30257,9,3,1.39490222931,-0.175803437829,0.0371403470635,0.0,11.3000001907,0.4665224847190635,-0.05879713639765886,0.012421520757023411,11.3000001907,0.0,0.6623772042767343,1.4064275606893162
1648634299953870881,30258,9,4,0.828226685524,-0.439508587122,0.000950159621425,0.0809188112617,11.3000001907,0.27699889147959866,-0.14699283850234113,0.0003177791376003344,11.3000001907,0.010934974494824324,0.4184061021696843,0.9376183357695996
1648634299953889076,30259,9,5,0.840031385422,0.117202289402,-0.399673640728,0.0809188112617,11.3000001907,0.2809469516461538,0.03919809010100334,-0.13367011395585282,11.3000001907,0.010934974494824324,0.3992478798266798,0.937618325454366
1648634299953934922,30260,9,6,0.769443392754,-0.584546387196,0.18841740489,0.566431701183,11.3000001907,0.2573389273424749,-0.1955004639451505,0.06301585447826087,11.3000001907,0.07654482448418919,0.4131187219847585,0.9844992290002895
1648634300058388116,30261,10,0,0.00712367706001,0.0454158857465,0.00919079873711,0.0,29.6000003815,0.002382500688966555,0.015189259446989964,0.003073845731474916,29.6000003815,0.0,0.015558477483797252,0.04688091546056366
1648634300058391397,30262,10,1,0.0342932231724,0.0146502861753,-0.0284106340259,0.0,29.6000003815,0.011469305408829431,0.0048997612626421405,-0.009501884289598661,29.6000003815,0.0,0.016943954483912442,0.04688091473429082
1648634300058394852,30263,10,2,1.04305541515,-0.101086974144,0.253896862268,0.0,29.6000003815,0.3488479649331103,-0.03380835255652174,0.08491533855117056,29.6000003815,0.0,0.4945025884447231,1.0782610036929205
1648634300058416517,30264,10,3,0.81547743082,0.303260922432,-0.636927068233,0.0,29.6000003815,0.27273492669565214,0.10142505766956521,-0.21301908636555184,29.6000003815,0.0,0.3988179068229511,1.078260969106728
1648634300058418114,30265,10,4,1.39472806454,-0.175803437829,0.0431893579662,0.0,29.6000003815,0.466464235632107,-0.05879713639765886,0.014444601326488293,29.6000003815,0.0,0.6622951528557767,1.4064275819996996
1648634300253411422,30266,12,0,0.00714792404324,0.0454158857465,0.00917195435613,0.0,11.8999996185,0.0023906100479063543,0.015189259446989964,0.0030675432629197323,11.8999996185,0.0,0.015560965116286185,0.046880915551831985
1648634300253429343,30267,12,1,0.0342776104808,0.0146502861753,-0.0284294709563,0.0,11.8999996185,0.011464083772842807,0.0048997612626421405,-0.009508184266321069,11.8999996185,0.0,0.016936885603097283,0.046880915990909794
1648634300253432419,30268,12,2,1.39370715618,-0.175803437829,0.0686431527138,0.0,11.8999996185,0.46612279470903006,-0.05879713639765886,0.02295757615846154,11.8999996185,0.0,0.6618141904970595,1.4064275197657106
1648634300253533302,30269,12,3,0.973042011261,-0.404347896576,0.228776738048,-0.242756426334,11.8999996185,0.3254321107896321,-0.13523341022608695,0.07651395921337792,11.8999996185,-0.03280492247756756,0.47968759907607356,1.078260994850584
1648634300253535663,30270,12,4,0.900161206722,-0.36918720603,0.150496736169,-0.0809188112617,11.8999996185,0.3010572597732441,-0.12347398194983276,0.050333356578260866,11.8999996185,-0.010934974494824324,0.44330212219534526,0.9844991918640494
1648634300253541235,30271,12,5,0.698576509953,-0.0307656005025,-0.69302457571,-0.0809188112617,11.8999996185,0.23363762874682273,-0.010289498495819397,-0.23178079455183945,11.8999996185,-0.010934974494824324,0.33057367849266495,0.9844992254798471
1648634300358459082,30272,13,0,0.00712367706001,0.0454158857465,0.00919079873711,0.0,14.6000003815,0.002382500688966555,0.015189259446989964,0.003073845731474916,14.6000003815,0.0,0.015558477483797252,0.04688091546056366
1648634300358464764,30273,13,1,0.0342932231724,0.0146502861753,-0.0284106340259,0.0,14.6000003815,0.011469305408829431,0.0048997612626421405,-0.009501884289598661,14.6000003815,0.0,0.016943954483912442,0.04688091473429082
1648634300358466949,30274,13,2,1.02040612698,-0.101086974144,0.3334659338,0.0,14.6000003815,0.34127295216722403,-0.03380835255652174,0.1115270681605351,14.6000003815,0.0,0.4838155231743302,1.0782609931389615
1648634300358470053,30275,13,3,0.879653871059,0.303260922432,-0.544874846935,0.0,14.6000003815,0.29419861908327755,0.10142505766956521,-0.1822323902792642,14.6000003815,0.0,0.42824373581441855,1.078260969694179
1648634300358510804,30276,13,4,0.896975696087,-0.399952799082,0.06863707304,-0.0809188112617,14.6000003815,0.2999918716010033,-0.13376347795384613,0.02295554282274247,14.6000003815,-0.010934974494824324,0.44484032425990205,0.9844992070386767
1648634300553431220,30277,15,0,0.00711762346327,0.0454158857465,0.00919548794627,0.0,16.7000007629,0.0023804760746722405,0.015189259446989964,0.0030754140288528427,16.7000007629,0.0,0.015557857668462833,0.04688091552512632
1648634300553437625,30278,15,1,0.0342712774873,0.0146502861753,-0.0284371003509,0.0,16.7000007629,0.011461965714816053,0.0048997612626421405,-0.009510735903311036,16.7000007629,0.0,0.01693401832189058,0.04688091319499717
1648634300553439817,30279,15,2,0.856433749199,-0.380907446146,0.0236407406628,0.0,16.7000007629,0.2864326920397993,-0.12739379469765885,0.007906602228361204,16.7000007629,0.0,0.42463696620266383,0.9376183306205192
1648634300553578873,30280,15,3,1.06967401505,-0.0336956568062,0.131562978029,0.0,16.7000007629,0.3577505067056856,-0.011269450436856187,0.04400099599632107,16.7000007629,0.0,0.5060611135124871,1.078260966996695
1648634300553582513,30281,15,4,1.38913810253,-0.219754293561,-0.00646624341607,0.0,16.7000007629,0.4645946831204013,-0.07349641925117056,-0.0021626232160769226,16.7000007629,0.0,0.6611339976209332,1.4064275415900596
1648634300553584541,30282,15,5,1.00649821758,0.263705164194,0.946287095547,0.0,16.7000007629,0.33662147745150495,0.0881957070882943,0.31648397844381265,16.7000007629,0.0,0.4841554718394416,1.4064275106855235
1648634300658464247,30283,16,0,0.00714792404324,0.0454158857465,0.00917195435613,0.0,11.3999996185,0.0023906100479063543,0.015189259446989964,0.0030675432629197323,11.3999996185,0.0,0.015560965116286185,0.046880915551831985
1648634300658475028,30284,16,1,0.0342932231724,0.0146502861753,-0.0284106340259,0.0,11.3999996185,0.011469305408829431,0.0048997612626421405,-0.009501884289598661,11.3999996185,0.0,0.016943954483912442,0.04688091473429082
1648634300658625524,30285,16,2,1.07142782211,-0.0336956568062,0.116420887411,0.0,11.3999996185,0.3583370642508361,-0.011269450436856187,0.03893675164247491,11.3999996185,0.0,0.5068904257775684,1.0782610065770457
1648634300658740320,30286,16,3,1.39534950256,-0.175803437829,0.0114486301318,0.0,11.3999996185,0.4666720744347826,-0.05879713639765886,0.0038289732882274244,11.3999996185,0.0,0.6625879212324138,1.4064274436240318
1648634300658743950,30287,16,4,1.12191843987,0.219754293561,0.819173574448,0.0,11.3999996185,0.3752235584849498,0.07349641925117056,0.27397109513311035,11.3999996185,0.0,0.5357118267566631,1.4064274884730963
1648634300658745602,30288,16,5,0.865871787071,-0.351606875658,0.0759388357401,0.0809188112617,11.3999996185,0.28958922644515045,-0.11759427279531771,0.025397603926454848,11.3999996185,0.010934974494824324,0.42608948959163595,0.937618287699781
1648634300658746676,30289,16,6,0.631469428539,-0.0,-0.693090498447,0.0809188112617,11.3999996185,0.2111937888090301,-0.0,-0.23180284228996653,11.3999996185,0.010934974494824324,0.29867312042268956,0.93761830091828
1648634300658750235,30290,16,7,0.962435424328,-0.32230630517,0.183253124356,0.242756426334,11.3999996185,0.32188475730033445,-0.10779475089297658,0.061288670353177255,11.3999996185,0.03280492247756756,0.4678026317632996,1.0313801471523438
