%time,field.header.seq,field.header.frame_id,field.point_id,field.x,field.y,field.z,field.velocity,field.intensity,normalized_x,normalized_y,normalized_z,normalized_intensity,normalized_velocity,normalized_range,range
1648624970449642991,34993,0,0,0.00683013908565,0.0454158857465,0.00941099133343,0.0,20.1000003815,0.0022843274533946487,0.015189259446989964,0.0031474887402775913,20.1000003815,0.0,0.015529002104985331,0.046880915476837266
1648624970449760086,34994,0,1,0.0321796387434,0.0161153152585,-0.0300430990756,0.0,20.1000003815,0.010762420984414715,0.005389737544648829,-0.010047859222608695,20.1000003815,0.0,0.016146475828853105,0.04688091656103676
1648624970449774646,34995,0,2,0.82404756546,-0.306190997362,0.143547475338,0.0,20.1000003815,0.27560119246153847,-0.10240501584013377,0.04800918907625418,20.1000003815,0.0,0.40298737181413263,0.8907374443021934
1648624970449781088,34996,0,3,1.05647146702,-0.134782627225,0.168370440602,0.0,20.1000003815,0.3533349388026755,-0.04507780174749164,0.05631118414782608,20.1000003815,0.0,0.5017202070554534,1.0782610641665475
1648624970449784391,34997,0,4,0.0586191751063,0.26956525445,-1.04237473011,0.0,20.1000003815,0.019605075286387958,0.09015560349498328,-0.34862031107357855,20.1000003815,0.0,0.09432258899921335,1.0782609665886693
1648624970555203411,34998,1,0,0.00683013908565,0.0454158857465,0.00941099133343,0.0,13.8999996185,0.0022843274533946487,0.015189259446989964,0.0031474887402775913,13.8999996185,0.0,0.015529002104985331,0.046880915476837266
1648624970555228046,34999,1,1,0.0321796387434,0.0161153152585,-0.0300430990756,0.0,13.8999996185,0.010762420984414715,0.005389737544648829,-0.010047859222608695,13.8999996185,0.0,0.016146475828853105,0.04688091656103676
1648624970555239564,35000,1,2,0.811287224293,-0.306190997362,0.203649997711,0.0,13.8999996185,0.2713335198304348,-0.10240501584013377,0.06811036712742474,13.8999996185,0.0,0.397153050141081,0.8907374521901879
1648624970555257268,35001,1,3,0.633862495422,-0.0,-0.625804662704,0.0,13.8999996185,0.21199414562608696,-0.0,-0.20929921829565218,13.8999996185,0.0,0.2998049958881091,0.8907374130262365
1648624970555517229,35002,1,4,1.0249761343,-0.096691891551,0.0618026442826,0.0,13.8999996185,0.34280138270903004,-0.032338425267892976,0.02066978069652174,13.8999996185,0.0,0.48587174205056716,1.0313801261497157
1648624970555540745,35003,1,5,0.81230276823,-0.307655990124,0.463411927223,-0.566431701183,13.8999996185,0.271673166632107,-0.10289497997458194,0.1549872666297659,13.8999996185,-0.07654482448418919,0.3977436307972797,0.9844991670010874
1648624970750004644,35004,3,0,0.0068647256121,0.0454158857465,0.00938579253852,0.0,27.7000007629,0.0022958948535451505,0.015189259446989964,0.0031390610496722406,27.7000007629,0.0,0.015532413492598119,0.04688091549281755
1648624970750023070,35005,3,1,0.0321953073144,0.0161153152585,-0.0300263054669,0.0,27.7000007629,0.010767661309163878,0.005389737544648829,-0.010042242631070234,27.7000007629,0.0,0.01615346188709797,0.0468809152954706
1648624970750061582,35006,3,2,0.77912735939,-0.316446185112,0.0701145455241,0.0,27.7000007629,0.2605777121705685,-0.10583484451906354,0.023449680777290968,27.7000007629,0.0,0.383409053720005,0.8438564331188235
1648624970750086811,35007,3,3,0.772607147694,-0.0263705141842,-0.338343799114,0.0,27.7000007629,0.25839703936254177,-0.008819569961270902,-0.11315846124214045,27.7000007629,0.0,0.3655350116157899,0.8438564659259845
1648624970750097012,35008,3,4,0.994828820229,-0.096691891551,0.254384219646,0.0,27.7000007629,0.3327186689729097,-0.032338425267892976,0.08507833432976587,27.7000007629,0.0,0.471645204698422,1.031380160103363
1648624970750133597,35009,3,5,0.775572776794,-0.306190997362,0.313284426928,-0.161837622523,27.7000007629,0.2593888885598662,-0.10240501584013377,0.10477740031036789,27.7000007629,-0.021869948989594594,0.38085690001083533,0.8907374423055862
1648624970854963141,35010,4,0,0.00683013908565,0.0454158857465,0.00941099133343,0.0,31.5,0.0022843274533946487,0.015189259446989964,0.0031474887402775913,31.5,0.0,0.015529002104985331,0.046880915476837266
1648624970855008245,35011,4,1,0.0321796387434,0.0161153152585,-0.0300430990756,0.0,31.5,0.010762420984414715,0.005389737544648829,-0.010047859222608695,31.5,0.0,0.016146475828853105,0.04688091656103676
1648624970855025884,35012,4,2,0.837304472923,-0.278355449438,0.121871322393,0.0,31.5,0.2800349407769231,-0.09309546803946488,0.04075963959632107,31.5,0.0,0.4068241662946741,0.8907374224935833
1648624970855145624,35013,4,3,0.724324703217,-0.0,0.518427312374,0.0,31.5,0.24224906462107024,-0.0,0.17338706099464882,31.5,0.0,0.3425919126593138,0.8907374214131368
1648624970855200268,35014,4,4,1.00868403912,-0.128922522068,0.172280520201,0.0,31.5,0.33735252144481603,-0.04311790035719063,0.05761890307725752,31.5,0.0,0.4790329850663342,1.0313801845646147
1648624970855248528,35015,4,5,0.62576520443,-0.32230630517,-0.619406700134,-0.647350490093,31.5,0.209286021548495,-0.10779475089297658,-0.20715943148294313,31.5,-0.08747979595851352,0.31499362842964473,0.9376183155199923
1648624970855368725,35016,4,6,0.881285488605,0.0293005723506,0.318756103516,-0.647350490093,31.5,0.2947443105702341,0.009799522525284281,0.10660739248026754,31.5,-0.08747979595851352,0.41694657675626595,0.9376183069322661
