%time,field.header.seq,field.header.frame_id,field.point_id,field.x,field.y,field.z,field.velocity,field.intensity,normalized_x,normalized_y,normalized_z,normalized_intensity,normalized_velocity,normalized_range,range
1648634252457236613,28812,0,0,0.00709323305637,0.0454158857465,0.00921431556344,0.0,12.8000001907,0.0023723187479498327,0.015189259446989964,0.0030817108907826084,12.8000001907,0.0,0.015555365474064645,0.046880915569491324
1648634252457252082,28813,0,1,0.0342932231724,0.0146502861753,-0.0284106340259,0.0,12.8000001907,0.011469305408829431,0.0048997612626421405,-0.009501884289598661,12.8000001907,0.0,0.016943954483912442,0.04688091473429082
1648634252457260002,28814,0,2,0.927319586277,0.0293005723506,0.13545447588,0.0,12.8000001907,0.3101403298585284,0.009799522525284281,0.04530250029431438,12.8000001907,0.0,0.4387141199588146,0.9376182878276984
1648634252457280830,28815,0,3,1.02234327793,-0.096691891551,0.0959684699774,0.0,12.8000001907,0.3419208287391304,-0.032338425267892976,0.03209647825331103,12.8000001907,0.0,0.4846292190944687,1.0313801661124624
1648634252457285478,28816,0,4,0.890256881714,-0.515690088272,-0.0724666640162,0.0,12.8000001907,0.29774477649297654,-0.17247160142876253,-0.024236342480334447,12.8000001907,0.0,0.4550278641546109,1.0313801432908987
1648634252457290837,28817,0,5,2.18697428703,-0.821880996227,0.508118987083,0.0,12.8000001907,0.7314295274347825,-0.2748765873668896,0.16993946056287623,12.8000001907,0.0,1.070296895954298,2.390926558705582
1648634252652505736,28818,2,0,0.00711762346327,0.0454158857465,0.00919548794627,0.0,12.6999998093,0.0023804760746722405,0.015189259446989964,0.0030754140288528427,12.6999998093,0.0,0.015557857668462833,0.04688091552512632
1648634252652509975,28819,2,1,0.0342932231724,0.0146502861753,-0.0284106340259,0.0,12.6999998093,0.011469305408829431,0.0048997612626421405,-0.009501884289598661,12.6999998093,0.0,0.016943954483912442,0.04688091473429082
1648634252652512178,28820,2,2,0.93276232481,0.0879017189145,-0.0368211902678,0.0,12.6999998093,0.3119606437491639,0.02939856819882943,-0.012314779353779264,12.6999998093,0.0,0.44215739540227833,0.9376182948438119
1648634252652514628,28821,2,3,1.01741337776,-0.032230630517,0.166060686111,0.0,12.6999998093,0.34027203269565215,-0.010779475089297658,0.05553869100702341,12.6999998093,0.0,0.48133804083290854,1.0313801172507602
1648634252652609407,28822,2,4,2.1885676384,-0.821880996227,0.501211583614,0.0,12.6999998093,0.7319624208695651,-0.2748765873668896,0.1676292921785953,12.6999998093,0.0,1.0710252608659312,2.390926542443262
1648634252757480018,28823,3,0,0.00711762346327,0.0454158857465,0.00919548794627,0.0,12.1000003815,0.0023804760746722405,0.015189259446989964,0.0030754140288528427,12.1000003815,0.0,0.015557857668462833,0.04688091552512632
1648634252757486019,28824,3,1,0.0342932231724,0.0146502861753,-0.0284106340259,0.0,12.1000003815,0.011469305408829431,0.0048997612626421405,-0.009501884289598661,12.1000003815,0.0,0.016943954483912442,0.04688091473429082
1648634252757497179,28825,3,2,1.02807581425,-0.064461261034,0.051476098597,0.0,12.1000003815,0.3438380649665551,-0.021558950178595316,0.01721608648729097,12.1000003815,0.0,0.48673814127587445,1.031380105851699
1648634252757503440,28826,3,3,2.19002103806,-0.821880996227,0.494821935892,0.0,12.1000003815,0.7324485077123745,-0.2748765873668896,0.165492286251505,12.1000003815,0.0,1.0716896804498193,2.3909264454065484
1648634252757510174,28827,3,4,0.192907869816,-0.438043534756,-0.96620452404,0.242756426334,12.1000003815,0.06451768221270902,-0.1465028544334448,-0.3231453257658863,12.1000003815,0.03280492247756756,0.17259243608381955,1.0782609919930521
1648634252952535014,28828,5,0,0.00708704302087,0.0454158857465,0.00921907741576,0.0,26.5,0.0023702485019632103,0.015189259446989964,0.0030833034835317723,26.5,0.0,0.015554734278350484,0.046880915576773666
1648634252952580918,28829,5,1,0.034308873117,0.0146502861753,-0.0283917337656,0.0,26.5,0.011474539504013377,0.0048997612626421405,-0.009495563132307691,26.5,0.0,0.016951040501668787,0.046880915155245236
1648634252952585847,28830,5,2,1.02085661888,-0.0,0.1469579041,0.0,26.5,0.341423618354515,-0.0,0.04914980070234114,26.5,0.0,0.48284591159145074,1.0313800763484673
1648634252952599872,28831,5,3,0.87366694212,-0.547920703888,-0.0152979427949,0.0,26.5,0.29219630171237454,-0.18325107153444814,-0.005116368827725752,26.5,0.0,0.4520379549189442,1.0313801678121353
1648634252952659193,28832,5,4,1.38658499718,-0.219754293561,0.0844301432371,0.0,26.5,0.4637408017324414,-0.07349641925117056,0.028237506099364547,26.5,0.0,0.659933925499848,1.4064275143178164
1648634252952661710,28833,5,5,2.18443512917,-0.821880996227,0.518926441669,0.0,26.5,0.7305803107591973,-0.2748765873668896,0.17355399386923076,26.5,0.0,1.0691362491378158,2.390926568795933
1648634253057503909,28834,6,0,0.00708704302087,0.0454158857465,0.00921907741576,0.0,12.0,0.0023702485019632103,0.015189259446989964,0.0030833034835317723,12.0,0.0,0.015554734278350484,0.046880915576773666
1648634253057509398,28835,6,1,0.0342932231724,0.0146502861753,-0.0284106340259,0.0,12.0,0.011469305408829431,0.0048997612626421405,-0.009501884289598661,12.0,0.0,0.016943954483912442,0.04688091473429082
1648634253057514779,28836,6,2,0.981622219086,-0.064461261034,0.309850782156,0.0,12.0,0.32830174551371233,-0.021558950178595316,0.10362902413244146,12.0,0.0,0.464789049513329,1.0313801153697415
1648634253057592120,28837,6,3,1.3867931366,-0.219754293561,0.0809400677681,0.0,12.0,0.46381041357859526,-0.07349641925117056,0.027070256778628763,12.0,0.0,0.6600317591833282,1.406427548020041
1648634253057598966,28838,6,4,2.17015743256,-0.821880996227,0.575723648071,0.0,12.0,0.7258051613913042,-0.2748765873668896,0.19254971507391302,12.0,0.0,1.062611595498083,2.390926467502227
1648634253057623223,28839,6,5,0.943055570126,-0.695888638496,0.00479645095766,0.161837622523,12.0,0.3154032007110368,-0.23273867508227425,0.0016041641998862874,12.0,0.021869948989594594,0.5031159398355269,1.1720229568891902
1648634253252622003,28840,8,0,0.00709323305637,0.0454158857465,0.00921431556344,0.0,26.2999992371,0.0023723187479498327,0.015189259446989964,0.0030817108907826084,26.2999992371,0.0,0.015555365474064645,0.046880915569491324
1648634253252627266,28841,8,1,0.034308873117,0.0146502861753,-0.0283917337656,0.0,26.2999992371,0.011474539504013377,0.0048997612626421405,-0.009495563132307691,26.2999992371,0.0,0.016951040501668787,0.046880915155245236
1648634253252634787,28842,8,2,1.38709378242,-0.219754293561,0.0756117552519,0.0,26.2999992371,0.4639109640200669,-0.07349641925117056,0.02528821245882943,26.2999992371,0.0,0.6601730748211406,1.4064274770847554
1648634253252644631,28843,8,3,1.06825530529,-0.75888478756,-1.13654768467,0.323675245047,26.2999992371,0.35727602183612034,-0.25380762125752504,-0.38011628249832774,26.2999992371,0.04373989797932432,0.5654295890440215,1.734593946028567
1648634253357521523,28844,9,0,0.00709323305637,0.0454158857465,0.00921431556344,0.0,14.3999996185,0.0023723187479498327,0.015189259446989964,0.0030817108907826084,14.3999996185,0.0,0.015555365474064645,0.046880915569491324
1648634253357541703,28845,9,1,0.0342932231724,0.0146502861753,-0.0284106340259,0.0,14.3999996185,0.011469305408829431,0.0048997612626421405,-0.009501884289598661,14.3999996185,0.0,0.016943954483912442,0.04688091473429082
1648634253357545633,28846,9,2,0.934845685959,0.0586011447012,0.0419233106077,0.0,14.3999996185,0.3126574200531772,0.019599045050568562,0.014021174116287624,14.3999996185,0.0,0.4425985169377683,0.9376183203674904
1648634253357598696,28847,9,3,1.38484752178,-0.219754293561,0.109286494553,0.0,14.3999996185,0.46315970628093645,-0.07349641925117056,0.03655066707458194,14.3999996185,0.0,0.6591172510921183,1.4064274407200625
1648634253357603825,28848,9,4,0.954433739185,-0.354536950588,0.164635539055,0.0809188112617,14.3999996185,0.3192086084230769,-0.11857423096588628,0.05506205319565217,14.3999996185,0.010934974494824324,0.4667420268541776,1.0313801784729184
1648634253357612689,28849,9,5,0.765332639217,-0.533270418644,0.784611463547,0.242756426334,14.3999996185,0.25596409338361203,-0.1783513105832776,0.26241186071806016,14.3999996185,0.03280492247756756,0.40353986691547794,1.218903825894796
1648634253552554939,28850,11,0,0.00706249661744,0.0454158857465,0.00923789478838,0.0,17.2000007629,0.002362039002488294,0.015189259446989964,0.003089596919190635,17.2000007629,0.0,0.01555223646446149,0.046880915485212865
1648634253552562634,28851,11,1,0.0342932231724,0.0146502861753,-0.0284106340259,0.0,17.2000007629,0.011469305408829431,0.0048997612626421405,-0.009501884289598661,17.2000007629,0.0,0.016943954483912442,0.04688091473429082
1648634253552570357,28852,11,2,1.02887034416,-0.0,0.0719090104103,0.0,17.2000007629,0.3441037940334448,-0.0,0.024049836257625416,17.2000007629,0.0,0.4866362523861358,1.0313801873558097
1648634253552591653,28853,11,3,0.729325830936,-0.354536950588,0.637285172939,0.0,17.2000007629,0.24392168258729097,-0.11857423096588628,0.21313885382575248,17.2000007629,0.0,0.3647676283904338,1.031380147496846
1648634253657492146,28854,12,0,0.00706249661744,0.0454158857465,0.00923789478838,0.0,13.8000001907,0.002362039002488294,0.015189259446989964,0.003089596919190635,13.8000001907,0.0,0.01555223646446149,0.046880915485212865
1648634253657497127,28855,12,1,0.034315072,0.0146502861753,-0.0283842384815,0.0,13.8000001907,0.011476612709030101,0.0048997612626421405,-0.009493056348327759,13.8000001907,0.0,0.01695384732080099,0.04688091344628468
1648634253657499068,28856,12,2,0.929091453552,-0.0293005723506,0.122713707387,-0.0809188112617,13.8000001907,0.3107329276093645,-0.009799522525284281,0.041041373708026754,13.8000001907,-0.010934974494824324,0.4395519710376654,0.9376183160455555
1648634253852587990,28857,14,0,0.00711762346327,0.0454158857465,0.00919548794627,0.0,15.8999996185,0.0023804760746722405,0.015189259446989964,0.0030754140288528427,15.8999996185,0.0,0.015557857668462833,0.04688091552512632
1648634253852596627,28858,14,1,0.0342932231724,0.0146502861753,-0.0284106340259,0.0,15.8999996185,0.011469305408829431,0.0048997612626421405,-0.009501884289598661,15.8999996185,0.0,0.016943954483912442,0.04688091473429082
1648634253852607811,28859,14,2,1.07125914097,-0.0336956568062,0.11796284467,0.0,15.8999996185,0.35828064915384616,-0.011269450436856187,0.03945245641137123,15.8999996185,0.0,0.5068106625055866,1.0782609967545067
1648634253957424019,28860,15,0,0.00709323305637,0.0454158857465,0.00921431556344,0.0,16.1000003815,0.0023723187479498327,0.015189259446989964,0.0030817108907826084,16.1000003815,0.0,0.015555365474064645,0.046880915569491324
1648634253957431486,28861,15,1,0.0342932231724,0.0146502861753,-0.0284106340259,0.0,16.1000003815,0.011469305408829431,0.0048997612626421405,-0.009501884289598661,16.1000003815,0.0,0.016943954483912442,0.04688091473429082
1648634253957541704,28862,15,2,1.01674461365,-0.032230630517,0.170107349753,0.0,16.1000003815,0.34004836576923075,-0.010779475089297658,0.05689209021839464,16.1000003815,0.0,0.48102180741401934,1.031380111001662
1648634253957544741,28863,15,3,1.38938069344,-0.175803437829,0.12943340838,0.0,16.1000003815,0.4646758172040133,-0.05879713639765886,0.0432887653444816,16.1000003815,0.0,0.6597759721579743,1.4064275904792163
1648634253957547475,28864,15,4,1.02104461193,-0.609451889992,0.267885714769,-0.242756426334,16.1000003815,0.34148649228428096,-0.20383006354247488,0.0895938845381271,16.1000003815,-0.03280492247756756,0.5241876988531626,1.2189037951960784
1648634253957549367,28865,15,5,0.884424090385,0.0278355441988,0.102139137685,-0.0809188112617,16.1000003815,0.29579401016220735,0.009309546554782609,0.034160246717391304,16.1000003815,-0.010934974494824324,0.41841947917459066,0.8907374431454048
1648634254055290637,28866,16,0,0.00711762346327,0.0454158857465,0.00919548794627,0.0,14.1000003815,0.0023804760746722405,0.015189259446989964,0.0030754140288528427,14.1000003815,0.0,0.015557857668462833,0.04688091552512632
1648634254055300387,28867,16,1,0.0342932231724,0.0146502861753,-0.0284106340259,0.0,14.1000003815,0.011469305408829431,0.0048997612626421405,-0.009501884289598661,14.1000003815,0.0,0.016943954483912442,0.04688091473429082
1648634254055304901,28868,16,2,1.03104901314,-0.0,0.0261340104043,0.0,14.1000003815,0.34483244586622075,-0.0,0.008740471707123745,14.1000003815,0.0,0.4876667216902955,1.0313801694800904
1648634254055309940,28869,16,3,1.38878810406,-0.175803437829,0.135643437505,0.0,14.1000003815,0.46447762677591975,-0.05879713639765886,0.045365698162207355,14.1000003815,0.0,0.659496804237402,1.4064275270589799
1648634254055384382,28870,16,4,0.928219735622,-0.117202289402,0.0616428256035,-0.242756426334,14.1000003815,0.31044138315117054,-0.03919809010100334,0.02061632963327759,14.1000003815,-0.03280492247756756,0.4407768086154149,0.937618308368405
1648634254055388336,28871,16,5,0.442755669355,-0.512760043144,-0.95639026165,-0.242756426334,14.1000003815,0.14807881918227422,-0.17149165322541807,-0.31986296376254175,14.1000003815,-0.03280492247756756,0.2706733465024223,1.1720229422541122
1648634254055390394,28872,16,6,0.841430664062,0.0527410283685,0.0361452586949,-0.161837622523,14.1000003815,0.2814149378133779,0.017639139922575247,0.01208871528257525,14.1000003815,-0.021869948989594594,0.3983715272283185,0.8438564203840049
1648634254055395936,28873,16,7,0.912591338158,-0.36918720603,0.0107957562432,-0.0809188112617,14.1000003815,0.30521449436722403,-0.12347398194983276,0.0036106208171237456,14.1000003815,-0.010934974494824324,0.4489516670669885,0.9844992086995852
1648634254055450559,28874,16,8,0.851448059082,-0.0,-0.494241714478,-0.0809188112617,14.1000003815,0.2847652371511706,-0.0,-0.16529823226688964,14.1000003815,-0.010934974494824324,0.4027188604715762,0.9844991973814188
