%time,field.header.seq,field.header.frame_id,field.point_id,field.x,field.y,field.z,field.velocity,field.intensity,normalized_x,normalized_y,normalized_z,normalized_intensity,normalized_velocity,normalized_range,range
1648624658747789979,24594,0,0,0.00670625036582,0.0454158857465,0.00949967186898,0.0,27.0,0.0022428930989364547,0.015189259446989964,0.0031771477822675584,27.0,0.0,0.015516917910928298,0.04688091549582295
1648624658747801536,24595,0,1,0.0344546698034,0.0146502861753,-0.0282146241516,0.0,27.0,0.011523300937591973,0.0048997612626421405,-0.009436329147692307,27.0,0.0,0.01701706759190621,0.046880914797981066
1648624658747863655,24596,0,2,1.01046895981,-0.128922522068,0.161482349038,0.0,27.0,0.3379494848862876,-0.04311790035719063,0.05400747459464882,27.0,0.0,0.4798737979938339,1.0313801842612198
1648624658852697437,24597,1,0,0.00683336379007,0.0454158857465,0.00940864998847,0.0,19.8999996185,0.002285405949856187,0.015189259446989964,0.0031467056817625415,19.8999996185,0.0,0.015529319471865146,0.04688091545002206
1648624658852708945,24598,1,1,0.0344546698034,0.0146502861753,-0.0282146241516,0.0,19.8999996185,0.011523300937591973,0.0048997612626421405,-0.009436329147692307,19.8999996185,0.0,0.01701706759190621,0.046880914797981066
1648624658852725876,24599,1,2,1.00796771049,-0.161153152585,0.147566586733,0.0,19.8999996185,0.3371129466521739,-0.05389737544648829,0.04935337348929765,19.8999996185,0.0,0.4797866241164322,1.031380211899843
1648624658852728212,24600,1,3,0.585749208927,-0.266635209322,0.128749087453,0.242756426334,19.8999996185,0.1959027454605351,-0.0891756552916388,0.04305989546923077,19.8999996185,0.03280492247756756,0.2910465063433052,0.656332840964684
1648624658852731561,24601,1,4,0.649508774281,-0.241729721427,0.119225353003,0.323675245047,19.8999996185,0.21722701480969897,-0.08084606067792642,0.03987470000100334,19.8999996185,0.04373989797932432,0.31766529154662976,0.7032137590291248
1648624658852737620,24602,1,5,0.217813894153,-0.306190997362,-0.353186130524,-0.647350490093,19.8999996185,0.07284745623846153,-0.10240501584013377,-0.11812245168026755,19.8999996185,-0.08747979595851352,0.14525939222662052,0.5156900834281638
1648624658852804128,24603,1,6,0.485423713923,-0.096691891551,0.144743770361,-0.647350490093,19.8999996185,0.16234906820167222,-0.032338425267892976,0.04840928774615384,19.8999996185,-0.08747979595851352,0.23186248864512243,0.5156900842452051
1648624658949781616,24604,2,0,0.00680804625154,0.0454158857465,0.00942698586732,0.0,17.7999992371,0.0022769385456655514,0.015189259446989964,0.0031528380827157186,17.7999992371,0.0,0.015526831641692036,0.046880915460823715
1648624658949868145,24605,2,1,0.0344546698034,0.0146502861753,-0.0282146241516,0.0,17.7999992371,0.011523300937591973,0.0048997612626421405,-0.009436329147692307,17.7999992371,0.0,0.01701706759190621,0.046880914797981066
1648624658949917416,24606,2,2,1.00317239761,-0.128922522068,0.201913818717,0.0,17.7999992371,0.3355091630802675,-0.04311790035719063,0.06752970525652174,17.7999992371,0.0,0.47643672229673445,1.031380175401802
1648624659053139406,24607,3,0,0.00684207398444,0.0454158857465,0.00940231792629,0.0,17.7999992371,0.002288319058341137,0.015189259446989964,0.0031445879352140467,17.7999992371,0.0,0.01553017742247359,0.04688091548737851
1648624659053185595,24608,3,1,0.034370675683,0.0146502861753,-0.0283168815076,0.0,17.7999992371,0.011495209258528427,0.0048997612626421405,-0.009470528932307692,17.7999992371,0.0,0.016979026244917695,0.046880913069602355
1648624659053263476,24609,3,2,1.00456297398,-0.161153152585,0.1691981107,0.0,17.7999992371,0.3359742387892976,-0.05389737544648829,0.0565879968896321,17.7999992371,0.0,0.4781864754885019,1.0313801956330535
1648624659053273468,24610,3,3,0.767410039902,-0.808695793152,0.151780948043,0.0,17.7999992371,0.25665887622140465,-0.2704668204521739,0.05076285887725752,17.7999992371,0.0,0.452658655558443,1.1251419961022535
1648624659053307094,24611,3,4,0.844275891781,0.0439508594573,-1.12396836281,0.242756426334,17.7999992371,0.282366518990301,0.014699284099431437,-0.3759091514414715,17.7999992371,0.03280492247756756,0.3995970108076834,1.4064275097165264
1648624659053322110,24612,3,5,1.20669412613,-0.527410328388,0.493726730347,0.242756426334,17.7999992371,0.403576630812709,-0.1763914141765886,0.1651259967715719,17.7999992371,0.03280492247756756,0.5973793810230581,1.4064275497821142
1648624659053330576,24613,3,6,1.39131724834,-0.328166425228,0.455094575882,0.242756426334,17.7999992371,0.4653234944280936,-0.10975465726688963,0.15220554377324413,17.7999992371,0.03280492247756756,0.6671566485656247,1.500189308444948
1648624659053343270,24614,3,7,0.120740316808,-0.93761831522,-1.1648440361,0.242756426334,17.7999992371,0.04038137685886287,-0.31358472080936456,-0.3895799451839465,17.7999992371,0.03280492247756756,0.31874235413437313,1.5001893072464643
1648624659053350842,24615,3,8,0.289933770895,-0.328166425228,-0.609005093575,-0.647350490093,17.7999992371,0.0969678163528428,-0.10975465726688963,-0.20368063330267558,17.7999992371,-0.08747979595851352,0.17564623425581802,0.7500946594614665
1648624659053365538,24616,3,9,0.734585404396,-0.0703213736415,0.13446636498,-0.647350490093,17.7999992371,0.24568073725618725,-0.023518854060702338,0.04497202842140468,17.7999992371,-0.08747979595851352,0.34824012665661613,0.7500946708605499
1648624659248260163,24617,5,0,0.00684207398444,0.0454158857465,0.00940231792629,0.0,41.5,0.002288319058341137,0.015189259446989964,0.0031445879352140467,41.5,0.0,0.01553017742247359,0.04688091548737851
1648624659248293519,24618,5,1,0.0322376936674,0.0161153152585,-0.0299807935953,0.0,41.5,0.010781837346956522,0.005389737544648829,-0.010027021269331103,41.5,0.0,0.016172362349163777,0.04688091577047047
1648624659248340758,24619,5,2,0.817017555237,-0.210964113474,-0.00838050898165,0.0809188112617,41.5,0.27325001847391306,-0.07055655969030099,-0.0028028458132608692,41.5,0.010934974494824324,0.39282231773069953,0.8438564899733288
1648624659248356851,24620,5,3,0.725362539291,-0.421928226948,-0.749513328075,-0.242756426334,41.5,0.24259616698695652,-0.14111311938060198,-0.25067335387123746,41.5,-0.03280492247756756,0.37096996230806967,1.1251419781806353
1648624659248363830,24621,5,4,1.05834329128,-0.0,0.38190844655,-0.242756426334,41.5,0.35396096698327756,-0.0,0.12772857744147156,41.5,-0.03280492247756756,0.5005764000584465,1.125142028254041
1648624659248373062,24622,5,5,1.01400434971,-0.128922522068,0.137546896935,-0.0809188112617,41.5,0.339131889535117,-0.04311790035719063,0.046002306667224074,41.5,-0.010934974494824324,0.4815392303130974,1.0313801368960047
1648624659353414714,24623,6,0,0.00686722435057,0.0454158857465,0.00938396435231,0.0,24.1000003815,0.0022967305520301003,0.015189259446989964,0.0031384496161571906,24.1000003815,0.0,0.015532660590035142,0.046880915470856876
1648624659353491523,24624,6,1,0.0344546698034,0.0146502861753,-0.0282146241516,0.0,24.1000003815,0.011523300937591973,0.0048997612626421405,-0.009436329147692307,24.1000003815,0.0,0.01701706759190621,0.046880914797981066
1648624659353514768,24625,6,2,1.01564991474,-0.096691891551,0.151165261865,0.0,24.1000003815,0.33968224573244143,-0.032338425267892976,0.05055694376755853,24.1000003815,0.0,0.48147048702955464,1.0313801469864512
