%time,field.header.seq,field.header.frame_id,field.point_id,field.x,field.y,field.z,field.velocity,field.intensity,normalized_x,normalized_y,normalized_z,normalized_intensity,normalized_velocity,normalized_range,range
1648633365648821203,5024,0,0,0.00627378607169,0.0454158857465,0.00979066733271,0.0,13.6999998093,0.0020982562112675583,0.015189259446989964,0.00327447067983612,13.6999998093,0.0,0.015476400124196184,0.04688091548415269
1648633365648827690,5025,0,1,0.0341975837946,0.0146502861753,-0.0285256803036,0.0,13.6999998093,0.011437318994849498,0.0048997612626421405,-0.00954036130555184,13.6999998093,0.0,0.016900656555612827,0.04688091359167468
1648633365648829708,5026,0,2,2.36932516098,-1.06654083729,0.375704884529,0.0,13.6999998093,0.792416441799331,-0.35670262116722407,0.1256538075347826,13.6999998093,0.0,1.1760460851579726,2.625331452658713
1648633365648835926,5027,0,3,1.20510923862,0.0380907431245,0.178849503398,-0.485512852669,13.6999998093,0.4030465681003344,0.01273937897140468,0.05981588742408026,13.6999998093,-0.06560984495527027,0.570136267826817,1.2189037396713343
1648633365648877079,5028,0,4,1.10973644257,0.105482056737,-0.152653411031,-0.161837622523,13.6999998093,0.37114931189632105,0.035278279845150494,-0.05105465251872909,13.6999998093,-0.021869948989594594,0.5260686081406664,1.1251419911108047
1648633365844208072,5029,2,0,0.00623534247279,0.0454158857465,0.00981519557536,0.0,25.1000003815,0.002085398820331104,0.015189259446989964,0.0032826741054715718,25.1000003815,0.0,0.015472924061975183,0.04688091549953655
1648633365844220842,5030,2,1,0.0340934358537,0.0146502861753,-0.0286500770599,0.0,25.1000003815,0.011402486907591972,0.0048997612626421405,-0.00958196557187291,25.1000003815,0.0,0.016853518202040226,0.046880914761411714
1648633365844227871,5031,2,2,1.98232293129,-1.29508531094,0.579702913761,0.0,25.1000003815,0.6629842579565217,-0.4331388999799331,0.19388057316421403,25.1000003815,0.0,1.0328143876186786,2.4378075467012827
1648633365844262603,5032,2,3,2.33422422409,-1.1485824585,0.352874606848,0.0,25.1000003815,0.7806769980234114,-0.38414129046822737,0.1180182631598662,25.1000003815,0.0,1.1689643628136344,2.6253313848846966
1648633365949130210,5033,3,0,0.00627378607169,0.0454158857465,0.00979066733271,0.0,14.1999998093,0.0020982562112675583,0.015189259446989964,0.00327447067983612,14.1999998093,0.0,0.015476400124196184,0.04688091548415269
1648633365949159837,5034,3,1,0.0341759957373,0.0146502861753,-0.0285515431315,0.0,14.1999998093,0.011430098908795986,0.0048997612626421405,-0.00954901108076923,14.1999998093,0.0,0.016890884599706637,0.04688091493181462
1648633365949194558,5035,3,2,2.36702179909,-1.06654083729,0.389953702688,0.0,14.1999998093,0.791646086652174,-0.35670262116722407,0.13041929855785953,14.1999998093,0.0,1.1750080054922907,2.625331492443306
1648633366144149432,5036,5,0,0.00637219380587,0.0454158857465,0.00972690619528,0.0,13.3999996185,0.002131168496946488,0.015189259446989964,0.00325314588470903,13.3999996185,0.0,0.015485391854025785,0.04688091547922764
1648633366144190690,5037,5,1,0.0341304428875,0.0146502861753,-0.028605978936,0.0,13.3999996185,0.011414863841973244,0.0048997612626421405,-0.009567217035451504,13.3999996185,0.0,0.01687026655072364,0.046880913468083804
1648633366144200329,5038,5,2,2.32651734352,-1.1485824585,0.400549978018,0.0,13.3999996185,0.7780994459933109,-0.38414129046822737,0.13396320335050166,13.3999996185,0.0,1.1655222120375013,2.6253313883324294
1648633366249305546,5039,6,0,0.00630229339004,0.0454158857465,0.00977234169841,0.0,14.3999996185,0.0021077904314515047,0.015189259446989964,0.003268341705153846,14.3999996185,0.0,0.015478991037978248,0.04688091554549426
1648633366249340214,5040,6,1,0.0341151505709,0.0146502861753,-0.0286242160946,0.0,14.3999996185,0.011409749354816052,0.0048997612626421405,-0.009573316419598661,14.3999996185,0.0,0.01686334548985874,0.046880914352471006
1648633366249387482,5041,6,2,2.32733178139,-1.1485824585,0.395790815353,0.0,14.3999996185,0.7783718332408026,-0.38414129046822737,0.132371510151505,14.3999996185,0.0,1.1658859089155726,2.625331456056482
1648633366444136541,5042,8,0,0.00623534247279,0.0454158857465,0.00981519557536,0.0,14.1000003815,0.002085398820331104,0.015189259446989964,0.0032826741054715718,14.1000003815,0.0,0.015472924061975183,0.04688091549953655
1648633366444253750,5043,8,1,0.0341975837946,0.0146502861753,-0.0285256803036,0.0,14.1000003815,0.011437318994849498,0.0048997612626421405,-0.00954036130555184,14.1000003815,0.0,0.016900656555612827,0.04688091359167468
1648633366444266026,5044,8,2,2.3691573143,-1.06654083729,0.376761078835,0.0,14.1000003815,0.7923603057859532,-0.35670262116722407,0.12600704977759197,14.1000003815,0.0,1.175970436838438,2.625331340618429
1648633366549167090,5045,9,0,0.00626406958327,0.0454158857465,0.00979688670486,0.0,14.1999998093,0.0020950065495886285,0.015189259446989964,0.0032765507374113707,14.1999998093,0.0,0.015475519617564135,0.046880915466648604
1648633366549210164,5046,9,1,0.0341151505709,0.0146502861753,-0.0286242160946,0.0,14.1999998093,0.011409749354816052,0.0048997612626421405,-0.009573316419598661,14.1999998093,0.0,0.01686334548985874,0.046880914352471006
1648633366549244285,5047,9,2,2.37173199654,-1.06654083729,0.360198199749,0.0,14.1999998093,0.7932214035250835,-0.35670262116722407,0.12046762533411372,14.1999998093,0.0,1.177130897550555,2.6253313627276254
1648633366549256580,5048,9,3,0.867600142956,0.351606875658,-0.0526370368898,-0.242756426334,14.1999998093,0.29016727189163877,0.11759427279531771,-0.01760436016381271,14.1999998093,-0.03280492247756756,0.4268752796172812,0.9376182915876747
1648633366744178266,5049,11,0,0.00623534247279,0.0454158857465,0.00981519557536,0.0,21.3999996185,0.002085398820331104,0.015189259446989964,0.0032826741054715718,21.3999996185,0.0,0.015472924061975183,0.04688091549953655
1648633366744199907,5050,11,1,0.0340621061623,0.0146502861753,-0.0286873169243,0.0,21.3999996185,0.01139200874993311,0.0048997612626421405,-0.009594420376020065,21.3999996185,0.0,0.016839340460599806,0.04688091417138974
1648633366744211745,5051,11,2,2.33447003365,-1.1485824585,0.351245313883,0.0,21.3999996185,0.7807592085785953,-0.38414129046822737,0.11747334912474916,21.3999996185,0.0,1.169074169846868,2.625331459551061
1648633366849142117,5052,12,0,0.00626406958327,0.0454158857465,0.00979688670486,0.0,13.8999996185,0.0020950065495886285,0.015189259446989964,0.0032765507374113707,13.8999996185,0.0,0.015475519617564135,0.046880915466648604
1648633366849171438,5053,12,1,0.0341451726854,0.0146502861753,-0.0285883955657,0.0,13.8999996185,0.011419790195785953,0.0048997612626421405,-0.009561336309598661,13.8999996185,0.0,0.016876933271848485,0.04688091364036017
1648633366849184888,5054,12,2,2.33077597618,-1.1485824585,0.374976366758,0.0,13.8999996185,0.7795237378528428,-0.38414129046822737,0.1254101561063545,13.8999996185,0.0,1.1674241075096616,2.6253315201586953
1648633366849233177,5055,12,3,1.06001257896,0.168478280306,0.10312731564,0.485512852669,13.8999996185,0.35451925717725746,0.05634725093846154,0.03449074101672241,13.8999996185,0.06560984495527027,0.5045223682923788,1.0782610267089363
1648633367044170154,5056,14,0,0.00623534247279,0.0454158857465,0.00981519557536,0.0,39.7000007629,0.002085398820331104,0.015189259446989964,0.0032826741054715718,39.7000007629,0.0,0.015472924061975183,0.04688091549953655
1648633367044265007,5057,14,1,0.0341151505709,0.0146502861753,-0.0286242160946,0.0,39.7000007629,0.011409749354816052,0.0048997612626421405,-0.009573316419598661,39.7000007629,0.0,0.01686334548985874,0.046880914352471006
1648633367044312332,5058,14,2,2.33322787285,-1.1485824585,0.359404176474,0.0,39.7000007629,0.7803437701839465,-0.38414129046822737,0.12020206571036789,39.7000007629,0.0,1.1685192896877599,2.6253314710118025
1648633367044358720,5059,14,3,1.11463618279,0.105482056737,-0.111374169588,0.161837622523,39.7000007629,0.37278802099999997,0.035278279845150494,-0.03724888614983277,39.7000007629,0.021869948989594594,0.5283808988135601,1.125141986564161
1648633367044372776,5060,14,4,1.15752446651,0.0732514336705,0.168550178409,0.566431701183,39.7000007629,0.3871319285986622,0.02449880724765886,0.05637129712675585,39.7000007629,0.07654482448418919,0.5480350826704412,1.172022962977155
1648633367148928308,5061,15,0,0.00626406958327,0.0454158857465,0.00979688670486,0.0,29.0,0.0020950065495886285,0.015189259446989964,0.0032765507374113707,29.0,0.0,0.015475519617564135,0.046880915466648604
1648633367148972979,5062,15,1,0.0340934358537,0.0146502861753,-0.0286500770599,0.0,29.0,0.011402486907591972,0.0048997612626421405,-0.00958196557187291,29.0,0.0,0.016853518202040226,0.046880914761411714
1648633367148996277,5063,15,2,2.37411403656,-1.06654083729,0.344148755074,0.0,29.0,0.7940180724280936,-0.35670262116722407,0.11509991808494982,29.0,0.0,1.1782046335982637,2.6253314422787564
