%time,field.header.seq,field.header.frame_id,field.point_id,field.x,field.y,field.z,field.velocity,field.intensity,normalized_x,normalized_y,normalized_z,normalized_intensity,normalized_velocity,normalized_range,range
1648633552944160744,10808,0,0,0.00664110854268,0.0454158857465,0.00954532530159,0.0,14.1000003815,0.002221106536013378,0.015189259446989964,0.003192416488826087,14.1000003815,0.0,0.015510648956011367,0.04688091547664116
1648633552944164727,10809,0,1,0.034306101501,0.0146502861753,-0.0283950809389,0.0,14.1000003815,0.011473612542140466,0.0048997612626421405,-0.009496682588260868,14.1000003815,0.0,0.016949785543339906,0.04688091409882899
1648633552944168584,10810,0,2,1.22371280193,-0.276890397072,0.167539790273,0.0,14.1000003815,0.40926849562876255,-0.09260548397056856,0.056033374673244145,14.1000003815,0.0,0.5861545689405518,1.2657846953264928
1648633552944170366,10811,0,3,2.35667729378,-1.06654083729,0.448249042034,0.0,14.1000003815,0.7881863858795986,-0.35670262116722407,0.14991606756989967,14.1000003815,0.0,1.1703470928401776,2.625331298771619
1648633553049222293,10812,1,0,0.00663239276037,0.0454158857465,0.00955138355494,0.0,13.1000003815,0.0022181915586521736,0.015189259446989964,0.0031944426605150502,13.1000003815,0.0,0.01550981463879325,0.04688091551666337
1648633553049226078,10813,1,1,0.0342542342842,0.0146502861753,-0.028457628563,0.0,13.1000003815,0.01145626564688963,0.0048997612626421405,-0.009517601526086956,13.1000003815,0.0,0.01692630218255291,0.046880913758636594
1648633553049230139,10814,1,2,1.22445547581,-0.276890397072,0.162023335695,0.0,13.1000003815,0.409516881541806,-0.09260548397056856,0.05418840658695651,13.1000003815,0.0,0.5865014306861275,1.2657847627229195
1648633553049236501,10815,1,3,2.36595916748,-1.06654083729,0.39634886384,0.0,13.1000003815,0.7912906914648828,-0.35670262116722407,0.13255814844147157,13.1000003815,0.0,1.174529129798624,2.625331324167898
1648633553049238994,10816,1,4,1.4029147625,-0.0,0.0993411317468,-0.0809188112617,13.1000003815,0.4692022617056856,-0.0,0.03322445877819397,13.1000003815,-0.010934974494824324,0.6635522020003108,1.4064275634732015
1648633553244242391,10817,3,0,0.00666756927967,0.0454158857465,0.00952686090022,0.0,15.3999996185,0.0022299562808260867,0.015189259446989964,0.0031862411037525086,15.3999996185,0.0,0.015513188343366598,0.04688091548648001
1648633553244251872,10818,3,1,0.034306101501,0.0146502861753,-0.0283950809389,0.0,15.3999996185,0.011473612542140466,0.0048997612626421405,-0.009496682588260868,15.3999996185,0.0,0.016949785543339906,0.04688091409882899
1648633553244394628,10819,3,2,1.22882771492,-0.276890397072,0.124600470066,0.0,15.3999996185,0.4109791688695652,-0.09260548397056856,0.04167239801538461,15.3999996185,0.0,0.5885435669097577,1.2657847850590032
1648633553244399725,10820,3,3,1.971108675,-1.29508531094,0.616758048534,0.0,15.3999996185,0.6592336705685619,-0.4331388999799331,0.20627359482742472,15.3999996185,0.0,1.0280016398325562,2.437807593249369
1648633553244401971,10821,3,4,2.35825800896,-1.06654083729,0.439857810736,0.0,15.3999996185,0.7887150531638796,-0.35670262116722407,0.14710963569765886,15.3999996185,0.0,1.1710591915535997,2.625331424429439
1648633553244538189,10822,3,5,1.35072374344,0.0849716588855,0.129197746515,0.0809188112617,15.3999996185,0.45174707138461534,0.028418615011872907,0.04320994866722407,15.3999996185,0.010934974494824324,0.6394985931871521,1.359546568386267
1648633553349332434,10823,4,0,0.00666756927967,0.0454158857465,0.00952686090022,0.0,19.2000007629,0.0022299562808260867,0.015189259446989964,0.0031862411037525086,19.2000007629,0.0,0.015513188343366598,0.04688091548648001
1648633553349347419,10824,4,1,0.0342845097184,0.0146502861753,-0.0284211467952,0.0,19.2000007629,0.011466391210167222,0.0048997612626421405,-0.009505400265953177,19.2000007629,0.0,0.016940009303423913,0.0468809137795282
1648633553349351617,10825,4,2,1.226978302,-0.276890397072,0.141657918692,0.0,19.2000007629,0.4103606361204013,-0.09260548397056856,0.047377230331772574,19.2000007629,0.0,0.5876797418796262,1.2657847413749475
1648633553349353501,10826,4,3,2.36386489868,-1.06654083729,0.408654123545,0.0,19.2000007629,0.7905902671170568,-0.35670262116722407,0.13667361991471572,19.2000007629,0.0,1.1735854041645228,2.625331371371811
1648633553349361118,10827,4,4,1.37426578999,0.131852582097,0.268415331841,0.0809188112617,19.2000007629,0.4596206655484949,0.04409785354414715,0.08977101399364548,19.2000007629,0.010934974494824324,0.6514959194697107,1.406427515128241
1648633553349363415,10828,4,5,0.744286596775,-1.74191904068,0.326023697853,0.242756426334,19.2000007629,0.2489252832023411,-0.5825816189565217,0.10903802603779264,19.2000007629,0.03280492247756756,0.6806826984584913,1.9221175650787303
1648633553544279086,10829,6,0,0.00660574575886,0.0454158857465,0.00956983212382,0.0,17.7000007629,0.0022092795180133776,0.015189259446989964,0.0032006127504414714,17.7000007629,0.0,0.015507270376355754,0.04688091554191253
1648633553544280894,10830,6,1,0.0343218483031,0.0146502861753,-0.0283760484308,0.0,17.7000007629,0.011478879031137123,0.0048997612626421405,-0.009490317200936455,17.7000007629,0.0,0.016956915640936814,0.04688091595208334
1648633553544282877,10831,6,2,1.22205030918,-0.276890397072,0.179264754057,0.0,17.7000007629,0.408712477986622,-0.09260548397056856,0.0599547672431438,17.7000007629,0.0,0.5853781299171956,1.2657847772053272
1648633553544285335,10832,6,3,1.37323796749,0.219754293561,0.209675714374,0.0,17.7000007629,0.45927691220401334,0.07349641925117056,0.0701256569812709,17.7000007629,0.0,0.6536606824722211,1.4064275203837586
1648633553544286396,10833,6,4,2.36603617668,-1.06654083729,0.39588907361,0.0,17.7000007629,0.7913164470501672,-0.35670262116722407,0.13240437244481604,17.7000007629,0.0,1.1745638333831705,2.625331351576321
1648633553544287477,10834,6,5,1.35999763012,0.263705164194,0.242702573538,-0.161837622523,17.7000007629,0.4548487057257525,0.0881957070882943,0.08117142927692307,17.7000007629,-0.021869948989594594,0.6492712629938188,1.406427568969184
1648633553649255263,10835,7,0,0.00663239276037,0.0454158857465,0.00955138355494,0.0,21.7000007629,0.0022181915586521736,0.015189259446989964,0.0031944426605150502,21.7000007629,0.0,0.01550981463879325,0.04688091551666337
1648633553649266209,10836,7,1,0.0343218483031,0.0146502861753,-0.0283760484308,0.0,21.7000007629,0.011478879031137123,0.0048997612626421405,-0.009490317200936455,21.7000007629,0.0,0.016956915640936814,0.04688091595208334
1648633553649269547,10837,7,2,1.21739923954,-0.276890397072,0.208522960544,0.0,21.7000007629,0.4071569363010033,-0.09260548397056856,0.06974012058327758,21.7000007629,0.0,0.5832060675417067,1.265784746904976
1648633553649272357,10838,7,3,2.32345175743,-1.1485824585,0.417965501547,0.0,21.7000007629,0.7770741663645484,-0.38414129046822737,0.13978779315953177,21.7000007629,0.0,1.164153362364646,2.6253313873798665
1648633553649274894,10839,7,4,1.33898460865,0.351606875658,0.248054817319,0.0809188112617,21.7000007629,0.447820939347826,0.11759427279531771,0.08296147736421404,21.7000007629,0.010934974494824324,0.6441394262354992,1.4064275202109549
1648633553844190417,10840,9,0,0.00666756927967,0.0454158857465,0.00952686090022,0.0,11.3999996185,0.0022299562808260867,0.015189259446989964,0.0031862411037525086,11.3999996185,0.0,0.015513188343366598,0.04688091548648001
1648633553844192414,10841,9,1,0.034306101501,0.0146502861753,-0.0283950809389,0.0,11.3999996185,0.011473612542140466,0.0048997612626421405,-0.009496682588260868,11.3999996185,0.0,0.016949785543339906,0.04688091409882899
1648633553844194187,10842,9,2,2.36948299408,-1.06654083729,0.374707788229,0.0,11.3999996185,0.7924692287892977,-0.35670262116722407,0.12532033051137123,11.3999996185,0.0,1.176117220817456,2.62533139687184
1648633553949237683,10843,10,0,0.00666756927967,0.0454158857465,0.00952686090022,0.0,12.8999996185,0.0022299562808260867,0.015189259446989964,0.0031862411037525086,12.8999996185,0.0,0.015513188343366598,0.04688091548648001
1648633553949254842,10844,10,1,0.034375783056,0.0146502861753,-0.0283106844872,0.0,12.8999996185,0.011496917410033445,0.0048997612626421405,-0.009468456350234114,12.8999996185,0.0,0.016981339178555644,0.046880915113350234
1648633553949435060,10845,10,2,2.37516760826,-1.06654083729,0.336800187826,0.0,12.8999996185,0.7943704375451505,-0.35670262116722407,0.11264220328628763,12.8999996185,0.0,1.1786795764918114,2.625331386978492
1648633553949440670,10846,10,3,1.32036793232,0.483459442854,-0.0305604394525,-0.242756426334,12.8999996185,0.4415946261939799,0.16169212135585284,-0.010220882760033445,12.8999996185,-0.03280492247756756,0.6451015190459232,1.4064275488069842
1648633554144111464,10847,12,0,0.00666756927967,0.0454158857465,0.00952686090022,0.0,21.6000003815,0.0022299562808260867,0.015189259446989964,0.0031862411037525086,21.6000003815,0.0,0.015513188343366598,0.04688091548648001
1648633554144114694,10848,12,1,0.0343218483031,0.0146502861753,-0.0283760484308,0.0,21.6000003815,0.011478879031137123,0.0048997612626421405,-0.009490317200936455,21.6000003815,0.0,0.016956915640936814,0.04688091595208334
1648633554144120783,10849,12,2,2.36685585976,-1.06654083729,0.390958458185,0.0,21.6000003815,0.7915905885484948,-0.35670262116722407,0.13075533718561871,21.6000003815,0.0,1.1749332235087546,2.6253313189984033
1648633554144280729,10850,12,3,1.27869856358,0.424858301878,0.181086659431,-0.161837622523,21.6000003815,0.42765838246822735,0.14209307755117057,0.060564100144147155,21.6000003815,-0.021869948989594594,0.6212679187586014,1.3595466050857146
1648633554249145755,10851,13,0,0.00664110854268,0.0454158857465,0.00954532530159,0.0,25.2000007629,0.002221106536013378,0.015189259446989964,0.003192416488826087,25.2000007629,0.0,0.015510648956011367,0.04688091547664116
1648633554249153511,10852,13,1,0.0343002602458,0.0146502861753,-0.0284021347761,0.0,25.2000007629,0.011471658945083611,0.0048997612626421405,-0.009499041731137123,25.2000007629,0.0,0.016947140712684314,0.046880912936797026
1648633554249157788,10853,13,2,1.20408785343,0.164083212614,0.49632704258,0.0,25.2000007629,0.4027049677023411,0.054877328633444813,0.1659956664147157,25.2000007629,0.0,0.5721486723066219,1.3126657581561292
1648633554249162497,10854,13,3,1.27096247673,-0.328166425228,0.00724460696802,0.0,25.2000007629,0.425071062451505,-0.10975465726688963,0.0024229454742541803,25.2000007629,0.0,0.6110784737323636,1.3126657244830846
1648633554249165024,10855,13,4,2.37651896477,-1.06654083729,0.327129453421,0.0,25.2000007629,0.7948223962441471,-0.35670262116722407,0.1094078439535117,25.2000007629,0.0,1.1792887869771949,2.6253314889389205
1648633554249309320,10856,13,5,1.33720529079,0.169943317771,0.177110031247,0.0809188112617,25.2000007629,0.4472258497625418,0.05683723002374581,0.05923412416287625,25.2000007629,0.010934974494824324,0.635021568223023,1.3595464994401982
1648633554444133379,10857,15,0,0.00660010753199,0.0454158857465,0.00957372132689,0.0,16.5,0.0022073938234080264,0.015189259446989964,0.0032019134872541804,16.5,0.0,0.015506733296578416,0.046880915494665
1648633554444136557,10858,15,1,0.0342370457947,0.0146502861753,-0.0284783039242,0.0,16.5,0.011450516988193979,0.0048997612626421405,-0.009524516362608695,16.5,0.0,0.0169185205920827,0.04688091279151545
1648633554444139217,10859,15,2,1.95736014843,-1.29508531094,0.659091234207,0.0,16.5,0.6546355011471572,-0.4331388999799331,0.22043185090535117,16.5,0.0,1.0221079127960049,2.4378076151089063
1648633554444239424,10860,15,3,2.35692191124,-1.06654083729,0.446960985661,0.0,16.5,0.7882681977391305,-0.35670262116722407,0.14948527948528428,16.5,0.0,1.170457288020952,2.625331288807857
1648633554444254602,10861,15,4,1.33179914951,0.307656019926,0.331205636263,-0.242756426334,16.5,0.4454177757558528,0.10289498994180601,0.1107711158070234,16.5,-0.03280492247756756,0.6382643409072033,1.4064275220304263
