%time,field.header.seq,field.header.frame_id,field.point_id,field.x,field.y,field.z,field.velocity,field.intensity,normalized_x,normalized_y,normalized_z,normalized_intensity,normalized_velocity,normalized_range,range
1648624020444167949,9573,0,0,0.00627646408975,0.0454158857465,0.0097889509052,0.0,15.1000003815,0.0020991518694816053,0.015189259446989964,0.0032738966238127086,15.1000003815,0.0,0.01547664303685622,0.04688091551402851
1648624020444171627,9574,0,1,0.0344239994884,0.0146502861753,-0.0282520335168,0.0,15.1000003815,0.01151304330715719,0.0048997612626421405,-0.009448840641070233,15.1000003815,0.0,0.0170031759626207,0.0468809132124145
1648624020444179208,9575,0,2,1.06260049343,-0.0673913136125,0.170251056552,0.0,15.1000003815,0.3553847804113712,-0.02253890087374582,0.05694015269297659,15.1000003815,0.0,0.5030951066634157,1.0782610166583833
1648624020639212593,9576,2,0,0.00627646408975,0.0454158857465,0.0097889509052,0.0,15.1000003815,0.0020991518694816053,0.015189259446989964,0.0032738966238127086,15.1000003815,0.0,0.01547664303685622,0.04688091551402851
1648624020639222781,9577,2,1,0.0321224629879,0.0161153152585,-0.0301042236388,0.0,15.1000003815,0.010743298658160535,0.005389737544648829,-0.010068302220334446,15.1000003815,0.0,0.016120986412656798,0.046880916108633514
1648624020639381732,9578,2,2,0.90918213129,0.205104008317,0.102216854692,0.0809188112617,15.1000003815,0.3040742914013378,0.06859665829999999,0.03418623902742474,15.1000003815,0.010934974494824324,0.43546280083651046,0.9376183058515082
1648624020639387792,9579,2,3,0.916622579098,0.146502867341,0.132166907191,0.0809188112617,15.1000003815,0.3065627354842809,0.04899761449531772,0.04420297899364548,15.1000003815,0.010934974494824324,0.43630515445206713,0.9376183306697019
1648624020639389549,9580,2,4,1.02150905132,-0.0336956568062,0.343556165695,0.566431701183,15.1000003815,0.3416418231839465,-0.011269450436856187,0.11490172765719063,15.1000003815,0.07654482448418919,0.48328591041954727,1.0782610899978438
1648624020744156290,9581,3,0,0.00620788149536,0.0454158857465,0.00983258709311,0.0,25.3999996185,0.0020762145469431434,0.015189259446989964,0.003288490666591973,25.3999996185,0.0,0.015470453653265973,0.04688091551733144
1648624020744181802,9582,3,1,0.0321475751698,0.0161153152585,-0.0300774052739,0.0,25.3999996185,0.010751697381204012,0.005389737544648829,-0.010059332867525084,25.3999996185,0.0,0.016132181004259023,0.046880915980697435
1648624020744184771,9583,3,2,0.905470430851,0.175803437829,0.168358385563,0.0809188112617,25.3999996185,0.3028329200170568,0.05879713639765886,0.056307152362207354,25.3999996185,0.010934974494824324,0.4322877029718509,0.9376183103413512
1648624020744189530,9584,3,3,1.03977942467,-0.0,0.429887533188,0.404594063759,25.3999996185,0.3477523159431438,-0.0,0.1437750947117057,25.3999996185,0.05467487348094594,0.49179604155344747,1.1251420102180614
1648624020939176677,9585,5,0,0.00628540525213,0.0454158857465,0.0097832120955,0.0,29.7999992371,0.002102142224792642,0.015189259446989964,0.0032719772894648828,29.7999992371,0.0,0.01547745477830532,0.04688091547984299
1648624020939178347,9586,5,1,0.032228551805,0.0161153152585,-0.0299906209111,0.0,29.7999992371,0.010778779867892975,0.005389737544648829,-0.01003030799702341,29.7999992371,0.0,0.01616828567539512,0.0468809159462752
1648624020939180611,9587,5,2,0.962915718555,0.12306240201,0.163974493742,0.0,29.7999992371,0.3220453908210702,0.04115799398327759,0.054840967806688956,29.7999992371,0.0,0.45729689258393086,0.9844991977786006
1648624021044127371,9588,6,0,0.00631321547553,0.0454158857465,0.00976528879255,0.0,14.3000001907,0.002111443302852843,0.015189259446989964,0.0032659828737625417,14.3000001907,0.0,0.015479986698647325,0.04688091544521625
1648624021044131504,9589,6,1,0.0344239994884,0.0146502861753,-0.0282520335168,0.0,14.3000001907,0.01151304330715719,0.0048997612626421405,-0.009448840641070233,14.3000001907,0.0,0.0170031759626207,0.0468809132124145
1648624021044144975,9590,6,2,1.07030546665,-0.101086974144,0.0829114019871,0.0,14.3000001907,0.35796169453177257,-0.03380835255652174,0.02772956588197324,14.3000001907,0.0,0.5073619558133051,1.078260946553259
1648624021044146897,9591,6,3,1.07530665398,-0.0336956568062,0.0722974762321,0.0,14.3000001907,0.3596343324347826,-0.011269450436856187,0.024179757937157192,14.3000001907,0.0,0.5087245882054181,1.0782609714029325
