%time,field.header.seq,field.header.frame_id,field.point_id,field.x,field.y,field.z,field.velocity,field.intensity,normalized_x,normalized_y,normalized_z,normalized_intensity,normalized_velocity,normalized_range,range
1648633607349113583,12496,0,0,0.00682799052447,0.0454158857465,0.00941255036741,0.0,14.8000001907,0.0022836088710602004,0.015189259446989964,0.0031480101563244145,14.8000001907,0.0,0.015528790728834733,0.046880915489785645
1648633607349134189,12497,0,1,0.0343002602458,0.0146502861753,-0.0284021347761,0.0,14.8000001907,0.011471658945083611,0.0048997612626421405,-0.009499041731137123,14.8000001907,0.0,0.016947140712684314,0.046880912936797026
1648633607349147068,12498,0,2,1.23237133026,-0.237334638834,0.164755448699,0.0,14.8000001907,0.4121643245016722,-0.07937613338929765,0.05510215675551839,14.8000001907,0.0,0.5882681627758509,1.2657848096391724
1648633607349170894,12499,0,3,2.37936067581,-1.06654083729,0.305775672197,0.0,14.8000001907,0.7957728012742474,-0.35670262116722407,0.10226611110267558,14.8000001907,0.0,1.1805699735480712,2.6253314733392816
1648633607544617366,12500,2,0,0.00689343269914,0.0454158857465,0.00936472881585,0.0,14.8000001907,0.0023054958859999998,0.015189259446989964,0.003132016326371237,14.8000001907,0.0,0.01553525748446738,0.046880915502058244
1648633607544658726,12501,2,1,0.0343002602458,0.0146502861753,-0.0284021347761,0.0,14.8000001907,0.011471658945083611,0.0048997612626421405,-0.009499041731137123,14.8000001907,0.0,0.016947140712684314,0.046880912936797026
1648633607544715774,12502,2,2,1.23040831089,-0.197778865695,0.22178798914,0.0,14.8000001907,0.41150779628428086,-0.06614677782441471,0.07417658499665551,14.8000001907,0.0,0.5857070334408174,1.2657847381563534
1648633607544749192,12503,2,3,2.37998247147,-1.06654083729,0.300896406174,0.0,14.8000001907,0.7959807596889631,-0.35670262116722407,0.10063424955652173,14.8000001907,0.0,1.1808503290161736,2.625331325634944
1648633607649783289,12504,3,0,0.00670238444582,0.0454158857465,0.0095023997128,0.0,15.6000003815,0.002241600149103679,0.015189259446989964,0.0031780601046153844,15.6000003815,0.0,0.015516544235263764,0.04688091547421544
1648633607649820591,12505,3,1,0.0343002602458,0.0146502861753,-0.0284021347761,0.0,15.6000003815,0.011471658945083611,0.0048997612626421405,-0.009499041731137123,15.6000003815,0.0,0.016947140712684314,0.046880912936797026
1648633607649847951,12506,3,2,2.37870359421,-1.06654083729,0.310846030712,0.0,15.6000003815,0.795553041541806,-0.35670262116722407,0.10396188318127089,15.6000003815,0.0,1.1802737156102414,2.6253314841223827
1648633607649873186,12507,3,3,0.996474444866,0.257845044136,0.0655711218715,-0.242756426334,15.6000003815,0.3332690451056856,0.08623580071438126,0.021930141094147152,15.6000003815,-0.03280492247756756,0.4791378989144581,1.0313801229808464
1648633607844592039,12508,5,0,0.00667610531673,0.0454158857465,0.00952088087797,0.0,24.7000007629,0.0022328111427190635,0.015189259446989964,0.0031842410963110364,24.7000007629,0.0,0.015514009596041723,0.046880915445751556
1648633607844623453,12509,5,1,0.0343160517514,0.0146502861753,-0.0283830538392,0.0,24.7000007629,0.01147694038508361,0.0048997612626421405,-0.00949266014688963,24.7000007629,0.0,0.016954290950565134,0.046880913366335715
1648633607844631533,12510,5,2,2.37913155556,-1.06654083729,0.307553231716,0.0,24.7000007629,0.7956961724280935,-0.35670262116722407,0.10286061261404682,24.7000007629,0.0,1.1804666694070634,2.6253314660452984
1648633607844682462,12511,5,3,0.973963975906,0.32230630517,-0.106103114784,0.242756426334,24.7000007629,0.32574046016923075,0.10779475089297658,-0.03548599156655518,24.7000007629,0.03280492247756756,0.4731103498155618,1.0313801683578308
1648633607949721348,12512,6,0,0.00682799052447,0.0454158857465,0.00941255036741,0.0,21.6000003815,0.0022836088710602004,0.015189259446989964,0.0031480101563244145,21.6000003815,0.0,0.015528790728834733,0.046880915489785645
1648633607949754777,12513,6,1,0.0343160517514,0.0146502861753,-0.0283830538392,0.0,21.6000003815,0.01147694038508361,0.0048997612626421405,-0.00949266014688963,21.6000003815,0.0,0.016954290950565134,0.046880913366335715
1648633607949766179,12514,6,2,1.98560988903,-1.29508531094,0.56834256649,0.0,21.6000003815,0.6640835749264213,-0.4331388999799331,0.19008112591638796,21.6000003815,0.0,1.0342259403292582,2.437807594317223
1648633607949776241,12515,6,3,2.37996339798,-1.06654083729,0.301048249006,0.0,21.6000003815,0.7959743805953177,-0.35670262116722407,0.10068503311237459,21.6000003815,0.0,1.180841729054223,2.625331442229979
1648633608144610780,12516,8,0,0.00670238444582,0.0454158857465,0.0095023997128,0.0,15.1000003815,0.002241600149103679,0.015189259446989964,0.0031780601046153844,15.1000003815,0.0,0.015516544235263764,0.04688091547421544
1648633608144636606,12517,8,1,0.0343002602458,0.0146502861753,-0.0284021347761,0.0,15.1000003815,0.011471658945083611,0.0048997612626421405,-0.009499041731137123,15.1000003815,0.0,0.016947140712684314,0.046880912936797026
1648633608144678417,12518,8,2,2.38122415543,-1.06654083729,0.290908634663,0.0,15.1000003815,0.7963960386053511,-0.35670262116722407,0.09729385774682273,15.1000003815,0.0,1.1814101999560356,2.6253315352031374
1648633608249685748,12519,9,0,0.00682799052447,0.0454158857465,0.00941255036741,0.0,15.1000003815,0.0022836088710602004,0.015189259446989964,0.0031480101563244145,15.1000003815,0.0,0.015528790728834733,0.046880915489785645
1648633608249743415,12520,9,1,0.0343002602458,0.0146502861753,-0.0284021347761,0.0,15.1000003815,0.011471658945083611,0.0048997612626421405,-0.009499041731137123,15.1000003815,0.0,0.016947140712684314,0.046880912936797026
1648633608249758031,12521,9,2,2.38250851631,-1.06654083729,0.280194550753,0.0,15.1000003815,0.7968255907391304,-0.35670262116722407,0.09371055209130434,15.1000003815,0.0,1.1819893417713614,2.625331440822017
1648633608444663377,12522,11,0,0.00670238444582,0.0454158857465,0.0095023997128,0.0,14.6999998093,0.002241600149103679,0.015189259446989964,0.0031780601046153844,14.6999998093,0.0,0.015516544235263764,0.04688091547421544
1648633608444699724,12523,11,1,0.0343160517514,0.0146502861753,-0.0283830538392,0.0,14.6999998093,0.01147694038508361,0.0048997612626421405,-0.00949266014688963,14.6999998093,0.0,0.016954290950565134,0.046880913366335715
1648633608444758419,12524,11,2,2.37884068489,-1.06654083729,0.309794068336,0.0,14.6999998093,0.7955988912675586,-0.35670262116722407,0.10361005629966553,14.6999998093,0.0,1.1803355249758032,2.625331355557113
1648633608549718800,12525,12,0,0.00666756927967,0.0454158857465,0.00952686090022,0.0,14.8999996185,0.0022299562808260867,0.015189259446989964,0.0031862411037525086,14.8999996185,0.0,0.015513188343366598,0.04688091548648001
1648633608549794167,12526,12,1,0.0343160517514,0.0146502861753,-0.0283830538392,0.0,14.8999996185,0.01147694038508361,0.0048997612626421405,-0.00949266014688963,14.8999996185,0.0,0.016954290950565134,0.046880913366335715
1648633608549817143,12527,12,2,2.38191485405,-1.06654083729,0.285196095705,0.0,14.8999996185,0.7966270414882943,-0.35670262116722407,0.09538330960033443,14.8999996185,0.0,1.1817216450621328,2.6253313205301656
1648633608744656208,12528,14,0,0.00670238444582,0.0454158857465,0.0095023997128,0.0,15.3000001907,0.002241600149103679,0.015189259446989964,0.0031780601046153844,15.3000001907,0.0,0.015516544235263764,0.04688091547421544
1648633608744695719,12529,14,1,0.0343002602458,0.0146502861753,-0.0284021347761,0.0,15.3000001907,0.011471658945083611,0.0048997612626421405,-0.009499041731137123,15.3000001907,0.0,0.016947140712684314,0.046880912936797026
1648633608744709487,12530,14,2,2.38477039337,-1.06654083729,0.260241210461,0.0,15.3000001907,0.7975820713612041,-0.35670262116722407,0.08703719413411372,15.3000001907,0.0,1.1830093326179747,2.625331345625456
1648633608744721376,12531,14,3,1.20286297798,0.0380907431245,0.193380847573,0.485512852669,15.3000001907,0.402295310361204,0.01273937897140468,0.06467586875351171,15.3000001907,0.06560984495527027,0.5690740946957715,1.2189037700797969
1648633608849859328,12532,15,0,0.00670238444582,0.0454158857465,0.0095023997128,0.0,33.0,0.002241600149103679,0.015189259446989964,0.0031780601046153844,33.0,0.0,0.015516544235263764,0.04688091547421544
1648633608850019239,12533,15,1,0.0342785902321,0.0146502861753,-0.028428286314,0.0,33.0,0.011464411448862875,0.0048997612626421405,-0.009507788064882942,33.0,0.0,0.01693732919230552,0.04688091398500212
1648633608850031163,12534,15,2,1.20602238178,-0.276890397072,0.266557216644,0.0,33.0,0.40335196715050164,-0.09260548397056856,0.08914957078394649,33.0,0.0,0.5778939301202097,1.26578474753411
1648633608850042375,12535,15,3,0.915824890137,0.197778865695,-0.851092994213,0.0,33.0,0.30629594987859526,0.06614677782441471,-0.28464648635886286,33.0,0.0,0.4381892445515001,1.2657847344270268
1648633608850051629,12536,15,4,2.38047909737,-1.06654083729,0.296943426132,0.0,33.0,0.7961468553076922,-0.35670262116722407,0.09931218265284279,33.0,0.0,1.1810742526954954,2.6253315007719986
1648633608850255036,12537,15,5,1.14598119259,0.109877154231,-0.219754308462,0.0809188112617,33.0,0.3832713018695652,0.0367482121173913,-0.0734964242347826,33.0,0.010934974494824324,0.5432717669522387,1.1720229685801868
