%time,field.header.seq,field.header.frame_id,field.point_id,field.x,field.y,field.z,field.velocity,field.intensity,normalized_x,normalized_y,normalized_z,normalized_intensity,normalized_velocity,normalized_range,range
1648623744237759097,1411,0,0,0.0320195220411,0.0161153152585,-0.0302136894315,0.0,20.7999992371,0.01070887024785953,0.005389737544648829,-0.01010491285334448,20.7999992371,0.0,0.016075107302011372,0.046880915164749785
1648623744237768822,1412,0,1,0.0055513237603,0.0454158857465,0.0102176498622,0.0,20.7999992371,0.0018566300201672242,0.015189259446989964,0.0034172742014046817,20.7999992371,0.0,0.015414530567342821,0.04688091554499899
1648623744237785726,1413,0,2,1.06453299522,-0.134782627225,0.106066353619,0.0,20.7999992371,0.35603110208026756,-0.04507780174749164,0.03547369686254181,20.7999992371,0.0,0.5055178528077579,1.0782610657367577
1648623744237800349,1414,0,3,1.15060925484,0.219754308462,-0.0380012355745,0.0,20.7999992371,0.3848191487759197,0.0734964242347826,-0.012709443335953176,20.7999992371,0.0,0.5491568800484484,1.172022912453618
1648623744237808848,1415,0,4,1.16621422768,0.276890397072,0.406801015139,0.161837622523,20.7999992371,0.3900382032374582,0.09260548397056856,0.13605385121705685,20.7999992371,0.021869948989594594,0.5593168830196642,1.2657847300201048
1648623744342764113,1416,1,0,0.0320195220411,0.0161153152585,-0.0302136894315,0.0,26.7000007629,0.01070887024785953,0.005389737544648829,-0.01010491285334448,26.7000007629,0.0,0.016075107302011372,0.046880915164749785
1648623744342772350,1417,1,1,0.00566204637289,0.0454158857465,0.0101567115635,0.0,26.7000007629,0.0018936609942775918,0.015189259446989964,0.003396893499498328,26.7000007629,0.0,0.015423537417546944,0.046880915488629625
1648623744342780675,1418,1,2,1.14336252213,0.256380021572,0.0250851791352,0.0,26.7000007629,0.3823954923511705,0.08574582661270903,0.008389692018461539,26.7000007629,0.0,0.5475444930984924,1.172022968497196
1648623744342888034,1419,1,3,1.16232085228,0.410208046436,0.451476305723,0.161837622523,26.7000007629,0.38873607099665547,0.13719332656722408,0.15099541997424748,26.7000007629,0.021869948989594594,0.5666158086767563,1.3126657074956414
1648623744342894412,1420,1,4,1.12713289261,0.34281668067,0.312689065933,0.242756426334,26.7000007629,0.3769675226120401,0.1146544082508361,0.10457828292073577,26.7000007629,0.03280492247756756,0.5453023560740108,1.21890372306554
1648623744537784735,1421,3,0,0.0319419167936,0.0161153152585,-0.0302957240492,0.0,21.6000003815,0.010682915315585283,0.005389737544648829,-0.010132349180334448,21.6000003815,0.0,0.01604053085406248,0.04688091647990026
1648623744537792180,1422,3,1,0.00553553458303,0.0454158857465,0.0102262124419,0.0,21.6000003815,0.0018513493588729097,0.015189259446989964,0.0034201379404347823,21.6000003815,0.0,0.015413260247110996,0.04688091554317101
1648623744537797196,1423,3,2,1.14241981506,0.256380021572,-0.0527642220259,0.0,21.6000003815,0.38208020570568557,0.08574582661270903,-0.017646896998628762,21.6000003815,0.0,0.5471041162024782,1.1720229572960517
1648623744642749730,1424,4,0,0.0341847538948,0.0146502861753,-0.0285410564393,0.0,17.1000003815,0.011433028058461539,0.0048997612626421405,-0.009545503825852843,17.1000003815,0.0,0.016894848966534922,0.04688091494987633
1648623744642767455,1425,4,1,0.00570862088352,0.0454158857465,0.010130607523,0.0,17.1000003815,0.0019092377536856187,0.015189259446989964,0.0033881630511705687,17.1000003815,0.0,0.015427377617345434,0.0468809155127752
1648623744642788651,1426,4,2,1.13430798054,0.293005734682,-0.0336284898221,0.0,17.1000003815,0.37936721757190633,0.09799522899063544,-0.011246986562575249,17.1000003815,0.0,0.5453824680363564,1.1720229650484613
1648623744837699389,1427,6,0,0.0341482646763,0.0146502861753,-0.0285847019404,0.0,15.1999998093,0.011420824306454849,0.0048997612626421405,-0.009560100983411372,15.1999998093,0.0,0.01687833274078658,0.04688091349837727
1648623744837702984,1428,6,1,0.00563676934689,0.0454158857465,0.0101707614958,0.0,15.1999998093,0.0018852071394280935,0.015189259446989964,0.0034015924735117057,15.1999998093,0.0,0.015421466028399349,0.046880915479687764
1648623744837705862,1429,6,2,1.16246116161,0.146502867341,-0.029304496944,0.0,15.1999998093,0.3887829971939799,0.04899761449531772,-0.009800835098327758,15.1999998093,0.0,0.5520010906153177,1.1720229502582047
1648623744942771304,1430,7,0,0.0320195220411,0.0161153152585,-0.0302136894315,0.0,15.8000001907,0.01070887024785953,0.005389737544648829,-0.01010491285334448,15.8000001907,0.0,0.016075107302011372,0.046880915164749785
1648623744942779144,1431,7,1,0.00558354146779,0.0454158857465,0.0102000795305,0.0,15.8000001907,0.001867405173173913,0.015189259446989964,0.0034113978362876256,15.8000001907,0.0,0.015417133543871482,0.046880915476238266
1648623744942786665,1432,7,2,1.15097010136,0.219754308462,0.0247696135193,0.0,15.8000001907,0.3849398332307692,0.0734964242347826,0.008284151678695652,15.8000001907,0.0,0.5493260186726676,1.1720228940025685
1648623744942794369,1433,7,3,1.09225809574,0.553780794144,0.320171743631,-0.0809188112617,15.8000001907,0.36530371094983277,0.18521096794113712,0.10708085071270902,15.8000001907,-0.010934974494824324,0.5488139075434686,1.2657846819629495
