%time,field.header.seq,field.header.frame_id,field.point_id,field.x,field.y,field.z,field.velocity,field.intensity,normalized_x,normalized_y,normalized_z,normalized_intensity,normalized_velocity,normalized_range,range
1648624133139582352,12989,0,0,0.00646896893159,0.0454158857465,0.00966281536967,0.0,17.2000007629,0.002163534759729097,0.015189259446989964,0.0032317108259765884,17.2000007629,0.0,0.015494365681146356,0.04688091549922366
1648624133139668803,12990,0,1,0.032303031534,0.0161153152585,-0.0299103800207,0.0,17.2000007629,0.01080368947625418,0.005389737544648829,-0.01000347157882943,17.2000007629,0.0,0.01620150250436199,0.04688091365524067
1648624133139674036,12991,0,2,1.06498622894,-0.101086974144,0.135027855635,0.0,17.2000007629,0.35618268526421404,-0.03380835255652174,0.04515981793812709,17.2000007629,0.0,0.5048516765017607,1.0782609915835861
1648624133139676357,12992,0,3,0.909641444683,0.175803437829,0.144130885601,0.0809188112617,17.2000007629,0.3042279079207358,0.05879713639765886,0.04820430956555183,17.2000007629,0.010934974494824324,0.43424226321745824,0.9376183225713963
1648624133139679491,12993,0,4,0.951161563396,0.12306240201,0.222229614854,-0.161837622523,17.2000007629,0.3181142352494983,0.04115799398327759,0.07432428590434782,17.2000007629,-0.021869948989594594,0.45176023929234166,0.9844992007048817
1648624133245087127,12994,1,0,0.00650684023276,0.0454158857465,0.0096373539418,0.0,28.2000007629,0.002176200746742475,0.015189259446989964,0.0032231952982608694,28.2000007629,0.0,0.015497912824900612,0.046880915508907606
1648624133245150114,12995,1,1,0.0322042368352,0.0161153152585,-0.0300167296082,0.0,28.2000007629,0.010770647770969899,0.005389737544648829,-0.010039040002742474,28.2000007629,0.0,0.01615744341202515,0.04688091629213625
1648624133245171474,12996,1,2,0.891932487488,0.205104008317,0.203756913543,0.0809188112617,28.2000007629,0.2983051797618729,0.06859665829999999,0.06814612493076923,28.2000007629,0.010934974494824324,0.42740784044686586,0.9376183105511543
1648624133440106100,12997,3,0,0.00646896893159,0.0454158857465,0.00966281536967,0.0,20.2999992371,0.002163534759729097,0.015189259446989964,0.0032317108259765884,20.2999992371,0.0,0.015494365681146356,0.04688091549922366
1648624133440201762,12998,3,1,0.032212652266,0.0161153152585,-0.0300076976418,0.0,20.2999992371,0.01077346229632107,0.005389737544648829,-0.010036019278193978,20.2999992371,0.0,0.01616119582520738,0.04688091583632691
1648624133440264442,12999,3,2,1.11636042595,-0.105482056737,0.0925054773688,0.0,20.2999992371,0.3733646909531772,-0.035278279845150494,0.030938286745418056,20.2999992371,0.0,0.5291946163085522,1.1251419147218553
1648624133440276779,13000,3,3,0.899845302105,0.205104008317,0.165344938636,0.0809188112617,20.2999992371,0.30095160605518395,0.06859665829999999,0.055299310580602,20.2999992371,0.010934974494824324,0.43110235432471977,0.9376183502260829
1648624133440295823,13001,3,4,0.298152089119,0.556710898876,-0.693041443825,0.0809188112617,20.2999992371,0.09971641776555183,0.18619093607892975,-0.23178643606187288,20.2999992371,0.010934974494824324,0.23356753332159894,0.9376183317493257
1648624133545094401,13002,4,0,0.00646896893159,0.0454158857465,0.00966281536967,0.0,17.5,0.002163534759729097,0.015189259446989964,0.0032317108259765884,17.5,0.0,0.015494365681146356,0.04688091549922366
1648624133545230004,13003,4,1,0.032212652266,0.0161153152585,-0.0300076976418,0.0,17.5,0.01077346229632107,0.005389737544648829,-0.010036019278193978,17.5,0.0,0.01616119582520738,0.04688091583632691
1648624133545246252,13004,4,2,1.10436487198,-0.105482056737,0.187606304884,0.0,17.5,0.36935279999331105,-0.035278279845150494,0.06274458357324415,17.5,0.0,0.523533703551768,1.1251419289978923
1648624133545253184,13005,4,3,0.901496350765,0.205104008317,0.156092450023,0.0809188112617,17.5,0.3015037962424749,0.06859665829999999,0.05220483278361204,17.5,0.010934974494824324,0.4318733377127773,0.9376183539289825
1648624133740063291,13006,6,0,0.00646896893159,0.0454158857465,0.00966281536967,0.0,22.7999992371,0.002163534759729097,0.015189259446989964,0.0032317108259765884,22.7999992371,0.0,0.015494365681146356,0.04688091549922366
1648624133740117892,13007,6,1,0.0321875400841,0.0161153152585,-0.0300346314907,0.0,22.7999992371,0.01076506357327759,0.005389737544648829,-0.010045027254414715,22.7999992371,0.0,0.01614999870816135,0.04688091521428027
1648624133740133037,13008,6,2,1.07017326355,-0.101086974144,0.0846012085676,0.0,22.7999992371,0.35791747944816055,-0.03380835255652174,0.028294718584481605,22.7999992371,0.0,0.5072995652389571,1.0782609864267307
1648624133740146460,13009,6,3,0.894957542419,0.205104008317,0.190030217171,-0.0809188112617,22.7999992371,0.29931690381906356,0.06859665829999999,0.06355525657892976,22.7999992371,-0.010934974494824324,0.42882014802663837,0.9376183340775786
