%time,field.header.seq,field.header.frame_id,field.point_id,field.x,field.y,field.z,field.velocity,field.intensity,normalized_x,normalized_y,normalized_z,normalized_intensity,normalized_velocity,normalized_range,range
1648623845338467067,4384,0,0,0.00575783010572,0.0454158857465,0.0101027199998,0.0,15.1999998093,0.0019256956875317725,0.015189259446989964,0.0033788361203344478,15.1999998093,0.0,0.015431468183874494,0.04688091548871284
1648623845338475768,4385,0,1,0.0321309380233,0.0161153152585,-0.0300951786339,0.0,15.1999998093,0.010746133118160533,0.005389737544648829,-0.01006527713508361,15.1999998093,0.0,0.016124764332747638,0.04688091659880744
1648623845338493687,4386,0,2,0.953217744827,0.24612480402,0.00610403344035,0.0,15.1999998093,0.3188019213468227,0.08231598796655518,0.0020414827559699,15.1999998093,0.0,0.4583069407981528,0.9844992368870561
1648623845338517726,4387,0,3,0.438145637512,0.615311980247,-0.631393909454,0.0,15.1999998093,0.14653700251237456,0.2057899599488294,-0.21116853158996654,15.1999998093,0.0,0.2920542652083071,0.9844992136116145
1648623845338524254,4388,0,4,0.995271325111,0.235869601369,0.341243624687,0.404594063759,15.1999998093,0.33286666391672237,0.07888615430401337,0.11412830257090299,15.1999998093,0.05467487348094594,0.47730855558534985,1.0782609567389978
1648623845338528985,4389,0,5,0.904924511909,0.146502867341,-0.730264604092,-0.647350490093,15.1999998093,0.30265033843110367,0.04899761449531772,-0.2442356535424749,15.1999998093,-0.08747979595851352,0.43080763796752136,1.1720229751939686
1648623845338532022,4390,0,6,0.927160322666,0.586011469364,0.413040101528,-0.647350490093,15.1999998093,0.3100870644367893,0.19599045798127088,0.13814050218327759,15.1999998093,-0.08747979595851352,0.48033346196341487,1.1720229654842673
1648623845443740727,4391,1,0,0.00598430028185,0.0454158857465,0.00997024122626,0.0,21.2999992371,0.002001438221354515,0.015189259446989964,0.0033345288382140466,21.2999992371,0.0,0.01545073177735512,0.046880915499937774
1648623845443777837,4392,1,1,0.032114289701,0.0161153152585,-0.0301129426807,0.0,21.2999992371,0.010740565117391304,0.005389737544648829,-0.010071218287859531,21.2999992371,0.0,0.016117343108652957,0.04688091622154713
1648623845443835076,4393,1,2,1.06614851952,-0.101086974144,0.125520944595,0.0,21.2999992371,0.3565714112107023,-0.03380835255652174,0.04198024902842809,21.2999992371,0.0,0.5054001852870352,1.0782609839683055
1648623845443844024,4394,1,3,0.556316912174,0.26956525445,-0.883455038071,0.0,21.2999992371,0.18605916795117056,0.09015560349498328,-0.29546991239832776,21.2999992371,0.0,0.27814395696996264,1.0782609783677324
1648623845443866353,4395,1,4,1.20888531208,0.079111546278,0.366808980703,0.161837622523,21.2999992371,0.4043094689230769,0.026458711129765885,0.12267858886387958,21.2999992371,0.021869948989594594,0.572391786031534,1.2657848011576174
1648623845443875032,4396,1,5,0.391339063644,0.474669277668,-1.10623407364,0.161837622523,21.2999992371,0.1308826299812709,0.1587522667785953,-0.36997795105016723,21.2999992371,0.021869948989594594,0.24384996999993835,1.2657847414065997
1648623845443900993,4397,1,6,1.04006719589,0.24612480402,0.351606875658,0.242756426334,21.2999992371,0.34784856049832774,0.08231598796655518,0.11759427279531771,21.2999992371,0.03280492247756756,0.4987716551252964,1.1251420293146779
1648623845638780136,4398,3,0,0.00598430028185,0.0454158857465,0.00997024122626,0.0,22.3999996185,0.002001438221354515,0.015189259446989964,0.0033345288382140466,22.3999996185,0.0,0.01545073177735512,0.046880915499937774
1648623845638816773,4399,3,1,0.032114289701,0.0161153152585,-0.0301129426807,0.0,22.3999996185,0.010740565117391304,0.005389737544648829,-0.010071218287859531,22.3999996185,0.0,0.016117343108652957,0.04688091622154713
1648623845638852416,4400,3,2,1.02184283733,-0.064461261034,0.124204963446,0.0,22.3999996185,0.3417534573010033,-0.021558950178595316,0.04154012155384615,22.3999996185,0.0,0.4837929717215625,1.031380100312848
1648623845743756080,4401,4,0,0.00598430028185,0.0454158857465,0.00997024122626,0.0,14.8000001907,0.002001438221354515,0.015189259446989964,0.0033345288382140466,14.8000001907,0.0,0.01545073177735512,0.046880915499937774
1648623845743838126,4402,4,1,0.0320179201663,0.0161153152585,-0.0302153881639,0.0,14.8000001907,0.010708334503779263,0.005389737544648829,-0.010105480991270902,14.8000001907,0.0,0.01607439350301765,0.046880915941900615
1648623845743845355,4403,4,2,1.05749022961,-0.134782627225,0.161848649383,0.0,14.8000001907,0.353675662076923,-0.04507780174749164,0.05412998307123745,14.8000001907,0.0,0.5022001155928639,1.0782610665462167
