%time,field.header.seq,field.header.frame_id,field.point_id,field.x,field.y,field.z,field.velocity,field.intensity,normalized_x,normalized_y,normalized_z,normalized_intensity,normalized_velocity,normalized_range,range
1648633555944021474,10900,0,0,0.00663239276037,0.0454158857465,0.00955138355494,0.0,12.8999996185,0.0022181915586521736,0.015189259446989964,0.0031944426605150502,12.8999996185,0.0,0.01550981463879325,0.04688091551666337
1648633555944032255,10901,0,1,0.0343218483031,0.0146502861753,-0.0283760484308,0.0,12.8999996185,0.011478879031137123,0.0048997612626421405,-0.009490317200936455,12.8999996185,0.0,0.016956915640936814,0.04688091595208334
1648633555944034972,10902,0,2,2.36913251877,-1.06654083729,0.376917332411,0.0,12.8999996185,0.7923520129665551,-0.35670262116722407,0.1260593084986622,12.8999996185,0.0,1.1759592615613315,2.6253313932859146
1648633555944134485,10903,0,3,1.2807636261,0.287145614624,0.0168224833906,0.0809188112617,12.8999996185,0.42834903882943137,0.0960353226167224,0.005626248625618728,12.8999996185,0.010934974494824324,0.6133421405074768,1.3126656336958176
1648633555944139384,10904,0,4,0.977925479412,-0.164083212614,0.860133528709,0.0809188112617,12.8999996185,0.32706537772976585,-0.054877328633444813,0.2876700764913043,12.8999996185,0.010934974494824324,0.4657843318714917,1.3126656966472146
1648633556049137386,10905,1,0,0.00663239276037,0.0454158857465,0.00955138355494,0.0,14.5,0.0022181915586521736,0.015189259446989964,0.0031944426605150502,14.5,0.0,0.01550981463879325,0.04688091551666337
1648633556049141204,10906,1,1,0.0343002602458,0.0146502861753,-0.0284021347761,0.0,14.5,0.011471658945083611,0.0048997612626421405,-0.009499041731137123,14.5,0.0,0.016947140712684314,0.046880912936797026
1648633556049143898,10907,1,2,2.37650084496,-1.06654083729,0.32725995779,0.0,14.5,0.7948163361070233,-0.35670262116722407,0.10945149089966555,14.5,0.0,1.1792806181027284,2.625331351215606
1648633556049147012,10908,1,3,1.28453159332,0.246124818921,0.11177021265,0.0809188112617,14.5,0.42960922853511707,0.08231599295016721,0.03738134202341137,14.5,0.010934974494824324,0.6131101868183637,1.3126657690219317
1648633556244043525,10909,3,0,0.00666756927967,0.0454158857465,0.00952686090022,0.0,15.0,0.0022299562808260867,0.015189259446989964,0.0031862411037525086,15.0,0.0,0.015513188343366598,0.04688091548648001
1648633556244045696,10910,3,1,0.0342845097184,0.0146502861753,-0.0284211467952,0.0,15.0,0.011466391210167222,0.0048997612626421405,-0.009505400265953177,15.0,0.0,0.016940009303423913,0.0468809137795282
1648633556244047880,10911,3,2,2.36184930801,-1.06654083729,0.420146733522,0.0,15.0,0.7899161565250835,-0.35670262116722407,0.1405173021812709,15.0,0.0,1.1726772056394243,2.6253313674741663
1648633556244121657,10912,3,3,1.26447045803,0.164083212614,0.311901032925,-0.0809188112617,15.0,0.42289981873913035,0.054877328633444813,0.10431472673076922,15.0,-0.010934974494824324,0.6005830788301663,1.3126656444929192
1648633556349113280,10913,4,0,0.00660010753199,0.0454158857465,0.00957372132689,0.0,17.5,0.0022073938234080264,0.015189259446989964,0.0032019134872541804,17.5,0.0,0.015506733296578416,0.046880915494665
1648633556349116248,10914,4,1,0.0343600958586,0.0146502861753,-0.028329718858,0.0,17.5,0.011491670855719062,0.0048997612626421405,-0.009474822360535116,17.5,0.0,0.016974235138681633,0.04688091341904174
1648633556349125294,10915,4,2,2.36452770233,-1.06654083729,0.404802203178,0.0,17.5,0.7908119405785953,-0.35670262116722407,0.1353853522334448,17.5,0.0,1.1738840703710633,2.6253314907628345
1648633556544071042,10916,6,0,0.00663239276037,0.0454158857465,0.00955138355494,0.0,12.3999996185,0.0022181915586521736,0.015189259446989964,0.0031944426605150502,12.3999996185,0.0,0.01550981463879325,0.04688091551666337
1648633556544079123,10917,6,1,0.0343542844057,0.0146502861753,-0.0283367689699,0.0,12.3999996185,0.011489727225986622,0.0048997612626421405,-0.009477180257491637,12.3999996185,0.0,0.01697160345654013,0.04688091528222754
1648633556544081545,10918,6,2,2.00082325935,-1.21890377998,0.673710346222,0.0,12.3999996185,0.669171658645485,-0.407660127083612,0.22532118602742474,12.3999996185,0.0,1.0304213685102448,2.4378075745661425
1648633556544199156,10919,6,3,2.36843299866,-1.06654083729,0.381288290024,0.0,12.3999996185,0.7921180597525083,-0.35670262116722407,0.12752116723210702,12.3999996185,0.0,1.1756439942090142,2.6253314051483634
1648633556649106255,10920,7,0,0.00663239276037,0.0454158857465,0.00955138355494,0.0,13.1000003815,0.0022181915586521736,0.015189259446989964,0.0031944426605150502,13.1000003815,0.0,0.01550981463879325,0.04688091551666337
1648633556649115243,10921,7,1,0.0343542844057,0.0146502861753,-0.0283367689699,0.0,13.1000003815,0.011489727225986622,0.0048997612626421405,-0.009477180257491637,13.1000003815,0.0,0.01697160345654013,0.04688091528222754
1648633556649119207,10922,7,2,1.5836776495,-0.149432912469,0.101561993361,0.0,13.1000003815,0.5296580767558529,-0.04997756269866221,0.03396722185986622,13.1000003815,0.0,0.7507150679976502,1.593951044213803
1648633556649123895,10923,7,3,2.36184501648,-1.06654083729,0.420171707869,0.0,13.1000003815,0.7899147212307691,-0.35670262116722407,0.1405256548056856,13.1000003815,0.0,1.1726752720091507,2.6253315035576397
1648633556844073384,10924,9,0,0.00663239276037,0.0454158857465,0.00955138355494,0.0,12.8999996185,0.0022181915586521736,0.015189259446989964,0.0031944426605150502,12.8999996185,0.0,0.01550981463879325,0.04688091551666337
1648633556844080072,10925,9,1,0.0343218483031,0.0146502861753,-0.0283760484308,0.0,12.8999996185,0.011478879031137123,0.0048997612626421405,-0.009490317200936455,12.8999996185,0.0,0.016956915640936814,0.04688091595208334
1648633556844081984,10926,9,2,1.35638713837,0.0849716588855,0.0368850789964,0.0,12.8999996185,0.45364118340133774,0.028418615011872907,0.01233614682153846,12.8999996185,0.0,0.642174636866581,1.3595465277076328
1648633556844216738,10927,9,3,2.35865068436,-1.06654083729,0.437746971846,0.0,12.8999996185,0.788846382729097,-0.35670262116722407,0.14640366951371236,12.8999996185,0.0,1.171236095344201,2.625331373331659
1648633556949093434,10928,10,0,0.00663239276037,0.0454158857465,0.00955138355494,0.0,13.1999998093,0.0022181915586521736,0.015189259446989964,0.0031944426605150502,13.1999998093,0.0,0.01550981463879325,0.04688091551666337
1648633556949095985,10929,10,1,0.0342370457947,0.0146502861753,-0.0284783039242,0.0,13.1999998093,0.011450516988193979,0.0048997612626421405,-0.009524516362608695,13.1999998093,0.0,0.0169185205920827,0.04688091279151545
1648633556949105173,10930,10,2,2.36755919456,-1.06654083729,0.386676818132,0.0,13.1999998093,0.7918258175785953,-0.35670262116722407,0.1293233505458194,13.1999998093,0.0,1.1752501906894506,2.6253313808038667
1648633556949126163,10931,10,3,1.23225295544,0.246124818921,0.379560977221,0.0809188112617,13.1999998093,0.4121247342608695,0.08231599295016721,0.1269434706424749,13.1999998093,0.010934974494824324,0.5886166119593946,1.3126657259593815
1648633556949157715,10932,10,4,1.32971513271,0.0424858294427,-0.280034542084,-0.0809188112617,13.1999998093,0.44472078017056854,0.01420930750591973,-0.09365703748628763,13.1999998093,-0.010934974494824324,0.629090652490431,1.3595465143280692
1648633557144098899,10933,12,0,0.00666756927967,0.0454158857465,0.00952686090022,0.0,14.1000003815,0.0022299562808260867,0.015189259446989964,0.0031862411037525086,14.1000003815,0.0,0.015513188343366598,0.04688091548648001
1648633557144321673,10934,12,1,0.0343218483031,0.0146502861753,-0.0283760484308,0.0,14.1000003815,0.011478879031137123,0.0048997612626421405,-0.009490317200936455,14.1000003815,0.0,0.016956915640936814,0.04688091595208334
1648633557144326300,10935,12,2,2.35717010498,-1.06654083729,0.445650786161,0.0,14.1000003815,0.7883512056789297,-0.35670262116722407,0.14904708567257524,14.1000003815,0.0,1.170569095328598,2.6253313856777387
1648633557144330740,10936,12,3,1.23107600212,0.509829938412,0.269985765219,0.485512852669,14.1000003815,0.41173110438795985,0.1705116850876254,0.09029624254816052,14.1000003815,0.06560984495527027,0.606728307723053,1.3595466165298766
1648633557144333897,10937,12,4,1.283005476,0.246124818921,0.12810485065,-0.161837622523,14.1000003815,0.42909882140468225,0.08231599295016721,0.04284443165551839,14.1000003815,-0.021869948989594594,0.6123949050711859,1.3126657345626649
1648633557249162862,10938,13,0,0.00666756927967,0.0454158857465,0.00952686090022,0.0,22.6000003815,0.0022299562808260867,0.015189259446989964,0.0031862411037525086,22.6000003815,0.0,0.015513188343366598,0.04688091548648001
1648633557249170499,10939,13,1,0.0343002602458,0.0146502861753,-0.0284021347761,0.0,22.6000003815,0.011471658945083611,0.0048997612626421405,-0.009499041731137123,22.6000003815,0.0,0.016947140712684314,0.046880912936797026
1648633557249176178,10940,13,2,2.36479353905,-1.06654083729,0.403246670961,0.0,22.6000003815,0.7909008491806019,-0.35670262116722407,0.13486510734481605,22.6000003815,0.0,1.1740038613295796,2.625331544316071
1648633557249310692,10941,13,3,1.29590010643,0.123062409461,-0.169085308909,0.0809188112617,22.6000003815,0.4334114068327759,0.041157996475250834,-0.056550270538127084,22.6000003815,0.010934974494824324,0.6143165924988424,1.3126657168359674
1648633557249316197,10942,13,4,0.294752061367,0.533270418644,1.16268444061,0.0809188112617,22.6000003815,0.09857928473812708,0.1783513105832776,0.38885767244481606,22.6000003815,0.010934974494824324,0.2263734541542674,1.3126656945001007
1648633557249318388,10943,13,5,1.34707736969,0.54499065876,0.0217452365905,-0.161837622523,22.6000003815,0.4505275483913043,0.18227112333110365,0.007272654378093645,22.6000003815,-0.021869948989594594,0.662701219343484,1.453308333899233
1648633557444052025,10944,15,0,0.00666756927967,0.0454158857465,0.00952686090022,0.0,19.0,0.0022299562808260867,0.015189259446989964,0.0031862411037525086,19.0,0.0,0.015513188343366598,0.04688091548648001
1648633557444054082,10945,15,1,0.0343218483031,0.0146502861753,-0.0283760484308,0.0,19.0,0.011478879031137123,0.0048997612626421405,-0.009490317200936455,19.0,0.0,0.016956915640936814,0.04688091595208334
1648633557444056237,10946,15,2,2.36531090736,-1.06654083729,0.400199890137,0.0,19.0,0.7910738820602007,-0.35670262116722407,0.13384611710267558,19.0,0.0,1.1742370006532585,2.625331407298726
1648633557549128677,10947,16,0,0.00663239276037,0.0454158857465,0.00955138355494,0.0,13.6000003815,0.0022181915586521736,0.015189259446989964,0.0031944426605150502,13.6000003815,0.0,0.01550981463879325,0.04688091551666337
1648633557549135102,10948,16,1,0.0343542844057,0.0146502861753,-0.0283367689699,0.0,13.6000003815,0.011489727225986622,0.0048997612626421405,-0.009477180257491637,13.6000003815,0.0,0.01697160345654013,0.04688091528222754
1648633557549136809,10949,16,2,2.37168502808,-1.06654083729,0.360507339239,0.0,13.6000003815,0.7932056950100334,-0.35670262116722407,0.12057101646789298,13.6000003815,0.0,1.1771097268905173,2.6253313641655347
