%time,field.header.seq,field.header.frame_id,field.point_id,field.x,field.y,field.z,field.velocity,field.intensity,normalized_x,normalized_y,normalized_z,normalized_intensity,normalized_velocity,normalized_range,range
1648633436948890053,7181,0,0,0.00643185013905,0.0454158857465,0.00968756247312,0.0,28.8999996185,0.002151120447842809,0.015189259446989964,0.003239987449204013,28.8999996185,0.0,0.015490908330702522,0.04688091553095931
1648633436948896243,7182,0,1,0.0341843105853,0.0146502861753,-0.0285415872931,0.0,28.8999996185,0.011432879794414715,0.0048997612626421405,-0.009545681368929766,28.8999996185,0.0,0.016894648301102957,0.04688091488463176
1648633436948898420,7183,0,2,2.37553143501,-1.06654083729,0.334224849939,0.0,28.8999996185,0.7944921187324414,-0.35670262116722407,0.11178088626722407,28.8999996185,0.0,1.1788435915775661,2.625331447007153
1648633436948920453,7184,0,3,1.23959219456,0.197778865695,0.16280528903,-0.161837622523,28.8999996185,0.4145793292842809,0.06614677782441471,0.05444992944147157,28.8999996185,-0.021869948989594594,0.5900232510301275,1.2657846778444664
1648633437143870999,7185,2,0,0.00640409626067,0.0454158857465,0.00970593187958,0.0,33.9000015259,0.0021418382142709027,0.015189259446989964,0.003246131063404682,33.9000015259,0.0,0.015488335753727584,0.04688091552760159
1648633437143874702,7186,2,1,0.0341998450458,0.0146502861753,-0.0285229682922,0.0,33.9000015259,0.011438075266153846,0.0048997612626421405,-0.009539454278327758,33.9000015259,0.0,0.016901680153738836,0.04688091302836117
1648633437143879617,7187,2,2,2.38707733154,-1.06654083729,0.238153293729,0.0,33.9000015259,0.7983536225886287,-0.35670262116722407,0.07964993101304346,33.9000015259,0.0,1.1840497343221448,2.6253313192192245
1648633437143889535,7188,2,3,1.20461511612,0.237334638834,0.307872831821,-0.161837622523,33.9000015259,0.40288130973913044,0.07937613338929765,0.1029675022812709,33.9000015259,-0.021869948989594594,0.5752627834529798,1.265784732625871
1648633437249104004,7189,3,0,0.00646870210767,0.0454158857465,0.0096629941836,0.0,32.7000007629,0.0021634455209598663,0.015189259446989964,0.0032317706299665547,32.7000007629,0.0,0.015494340760171003,0.04688091553808653
1648633437249110493,7190,3,1,0.0341304279864,0.0146502861753,-0.0286059994251,0.0,32.7000007629,0.01141485885832776,0.0048997612626421405,-0.00956722388799331,32.7000007629,0.0,0.01687025980659385,0.04688091512184723
1648633437249138410,7191,3,2,2.38647079468,-1.06654083729,0.244156569242,0.0,32.7000007629,0.798150767451505,-0.35670262116722407,0.08165771546555183,32.7000007629,0.0,1.1837761845528154,2.625331339425915
1648633437249143073,7192,3,3,1.16603147984,0.304725944996,0.182315677404,-0.0809188112617,32.7000007629,0.3899770835585284,0.10191503177123744,0.06097514294448161,32.7000007629,-0.010934974494824324,0.5608483976107654,1.2189037368713105
1648633437443953806,7193,5,0,0.00646870210767,0.0454158857465,0.0096629941836,0.0,13.8000001907,0.0021634455209598663,0.015189259446989964,0.0032317706299665547,13.8000001907,0.0,0.015494340760171003,0.04688091553808653
1648633437443959303,7194,5,1,0.0342214778066,0.0146502861753,-0.0284970123321,0.0,13.8000001907,0.011445310303210702,0.0048997612626421405,-0.00953077335521739,13.8000001907,0.0,0.01691147291942516,0.046880914455049424
1648633437443961829,7195,5,2,2.38532066345,-1.06654083729,0.255149364471,0.0,13.8000001907,0.7977661081772575,-0.35670262116722407,0.0853342356090301,13.8000001907,0.0,1.1832574895854848,2.6253314501751506
1648633437549033337,7196,6,0,0.00643185013905,0.0454158857465,0.00968756247312,0.0,15.1999998093,0.002151120447842809,0.015189259446989964,0.003239987449204013,15.1999998093,0.0,0.015490908330702522,0.04688091553095931
1648633437549039090,7197,6,1,0.0341843105853,0.0146502861753,-0.0285415872931,0.0,15.1999998093,0.011432879794414715,0.0048997612626421405,-0.009545681368929766,15.1999998093,0.0,0.016894648301102957,0.04688091488463176
1648633437549047972,7198,6,2,2.38396835327,-1.06654083729,0.267489135265,0.0,15.1999998093,0.7973138305250835,-0.35670262116722407,0.08946124925250835,15.1999998093,0.0,1.1826476434850455,2.625331389460185
1648633437549049876,7199,6,3,1.17947638035,0.304725944996,0.0412804931402,0.0809188112617,15.1999998093,0.39447370580267554,0.10191503177123744,0.013806184996722407,15.1999998093,0.010934974494824324,0.567102885586314,1.218903815922791
1648633437743956991,7200,8,0,0.00646870210767,0.0454158857465,0.0096629941836,0.0,16.2000007629,0.0021634455209598663,0.015189259446989964,0.0032317706299665547,16.2000007629,0.0,0.015494340760171003,0.04688091553808653
1648633437744006973,7201,8,1,0.0341304279864,0.0146502861753,-0.0286059994251,0.0,16.2000007629,0.01141485885832776,0.0048997612626421405,-0.00956722388799331,16.2000007629,0.0,0.01687025980659385,0.04688091512184723
1648633437744113555,7202,8,2,2.38470315933,-1.06654083729,0.260856330395,0.0,16.2000007629,0.7975595850602005,-0.35670262116722407,0.08724291986454849,16.2000007629,0.0,1.1829790122357906,2.6253313202018678
1648633437744116982,7203,8,3,1.13376748562,0.39555773139,0.400395184755,0.242756426334,16.2000007629,0.37918645004013374,0.13229355564882941,0.1339114330284281,16.2000007629,0.03280492247756756,0.5523280842527272,1.2657847108756255
1648633437849024326,7204,9,0,0.00643185013905,0.0454158857465,0.00968756247312,0.0,31.5,0.002151120447842809,0.015189259446989964,0.003239987449204013,31.5,0.0,0.015490908330702522,0.04688091553095931
1648633437849033257,7205,9,1,0.0341998450458,0.0146502861753,-0.0285229682922,0.0,31.5,0.011438075266153846,0.0048997612626421405,-0.009539454278327758,31.5,0.0,0.016901680153738836,0.04688091302836117
1648633437849038693,7206,9,2,2.38659667969,-1.06654083729,0.24292460084,0.0,31.5,0.7981928694615383,-0.35670262116722407,0.08124568589966555,31.5,0.0,1.1838329585148646,2.625331489699512
1648633438043965157,7207,11,0,0.00643185013905,0.0454158857465,0.00968756247312,0.0,14.8000001907,0.002151120447842809,0.015189259446989964,0.003239987449204013,14.8000001907,0.0,0.015490908330702522,0.04688091553095931
1648633438043969511,7208,11,1,0.0341843105853,0.0146502861753,-0.0285415872931,0.0,14.8000001907,0.011432879794414715,0.0048997612626421405,-0.009545681368929766,14.8000001907,0.0,0.016894648301102957,0.04688091488463176
1648633438044170271,7209,11,2,2.38445615768,-1.06654083729,0.263106077909,0.0,14.8000001907,0.7974769758127089,-0.35670262116722407,0.08799534378227424,14.8000001907,0.0,1.1828676231304736,2.6253314712123457
1648633438044173562,7210,11,3,1.23467123508,0.123062409461,0.428408592939,0.404594063759,14.8000001907,0.41293352343812706,0.041157996475250834,0.14328046586588628,14.8000001907,0.05467487348094594,0.5854247776033307,1.3126657372919783
1648633438044175392,7211,11,4,1.43132567406,-0.0,0.251817286015,-0.161837622523,14.8000001907,0.47870423881605345,-0.0,0.08421982809866219,14.8000001907,-0.021869948989594594,0.6769900268991518,1.4533083398781117
1648633438149025652,7212,12,0,0.00656402530149,0.0454158857465,0.00959849637002,0.0,17.1000003815,0.0021953261877892976,0.015189259446989964,0.0032101994548561874,17.1000003815,0.0,0.015503306637280992,0.04688091550794448
1648633438149073509,7213,12,1,0.0342059470713,0.0146502861753,-0.0285156536847,0.0,17.1000003815,0.01144011607735786,0.0048997612626421405,-0.009537007921304347,17.1000003815,0.0,0.016904442379378628,0.04688091514815499
1648633438149076632,7214,12,2,2.37959170341,-1.06654083729,0.30397221446,0.0,17.1000003815,0.7958500680301003,-0.35670262116722407,0.1016629479799331,17.1000003815,0.0,1.1806741385812591,2.6253314342590492
1648633438149079209,7215,12,3,1.30004298687,-0.0424858294427,0.39553758502,0.404594063759,17.1000003815,0.4347969855752508,-0.01420930750591973,0.13228681773244147,17.1000003815,0.05467487348094594,0.6150599497207142,1.359546540055455
1648633438343963664,7216,14,0,0.00643185013905,0.0454158857465,0.00968756247312,0.0,24.2000007629,0.002151120447842809,0.015189259446989964,0.003239987449204013,24.2000007629,0.0,0.015490908330702522,0.04688091553095931
1648633438343969561,7217,14,1,0.0341521464288,0.0146502861753,-0.0285800658166,0.0,24.2000007629,0.011422122551438126,0.0048997612626421405,-0.009558550440334448,24.2000007629,0.0,0.016880089679590902,0.04688091458998609
1648633438343972664,7218,14,2,2.37460684776,-1.06654083729,0.34073227644,0.0,24.2000007629,0.7941828922274247,-0.35670262116722407,0.113957283090301,24.2000007629,0.0,1.1784267871026195,2.625331507304158
1648633438448982778,7219,15,0,0.00646870210767,0.0454158857465,0.0096629941836,0.0,13.6000003815,0.0021634455209598663,0.015189259446989964,0.0032317706299665547,13.6000003815,0.0,0.015494340760171003,0.04688091553808653
1648633438448988229,7220,15,1,0.0342214778066,0.0146502861753,-0.0284970123321,0.0,13.6000003815,0.011445310303210702,0.0048997612626421405,-0.00953077335521739,13.6000003815,0.0,0.01691147291942516,0.046880914455049424
1648633438448993413,7221,15,2,2.37466859818,-1.06654083729,0.340301066637,0.0,13.6000003815,0.794203544541806,-0.35670262116722407,0.11381306576488294,13.6000003815,0.0,1.1784546237649987,2.6253314314089375
1648633438448995631,7222,15,3,1.22540640831,-0.237334638834,0.21038633585,0.0809188112617,13.6000003815,0.4098349191672241,-0.07937613338929765,0.07036332302675585,13.6000003815,0.010934974494824324,0.5850041815999658,1.265784739452198
1648633438643992807,7223,17,0,0.00643185013905,0.0454158857465,0.00968756247312,0.0,15.1999998093,0.002151120447842809,0.015189259446989964,0.003239987449204013,15.1999998093,0.0,0.015490908330702522,0.04688091553095931
1648633438644107071,7224,17,1,0.0341843105853,0.0146502861753,-0.0285415872931,0.0,15.1999998093,0.011432879794414715,0.0048997612626421405,-0.009545681368929766,15.1999998093,0.0,0.016894648301102957,0.04688091488463176
1648633438644123867,7225,17,2,1.22606694698,0.197778865695,0.244651317596,0.0,15.1999998093,0.41005583511036786,0.06614677782441471,0.08182318314247491,15.1999998093,0.0,0.5836668330757495,1.265784699462716
1648633438644129985,7226,17,3,1.9687962532,-1.29508531094,0.624100267887,0.0,15.1999998093,0.6584602853511705,-0.4331388999799331,0.20872918658428094,15.1999998093,0.0,1.0270098351258943,2.437807579281749
1648633438644134614,7227,17,4,2.37964844704,-1.06654083729,0.30352756381,0.0,15.1999998093,0.795869045832776,-0.35670262116722407,0.10151423538795987,15.1999998093,0.0,1.1806997231206224,2.625331421192298
1648633438644135617,7228,17,5,1.23768818378,0.082041606307,0.429520994425,-0.404594063759,15.1999998093,0.4139425363812709,0.027438664316722407,0.1436525064966555,15.1999998093,-0.05467487348094594,0.5860458404860539,1.3126656657679094
