%time,field.header.seq,field.header.frame_id,field.point_id,field.x,field.y,field.z,field.velocity,field.intensity,normalized_x,normalized_y,normalized_z,normalized_intensity,normalized_velocity,normalized_range,range
1648624051244168595,10518,0,0,0.00639195926487,0.0454158857465,0.00971392914653,0.0,31.6000003815,0.0021377790183511707,0.015189259446989964,0.003248805734625418,31.6000003815,0.0,0.015487214107468743,0.04688091552910101
1648624051244175033,10519,0,1,0.0323015227914,0.0161153152585,-0.0299120135605,0.0,31.6000003815,0.01080318488006689,0.005389737544648829,-0.0100040179132107,31.6000003815,0.0,0.016200829543761296,0.046880916328157586
1648624051244179187,10520,0,2,1.06408274174,-0.134782627225,0.110491931438,0.0,31.6000003815,0.35588051563210704,-0.04507780174749164,0.03695382322341137,31.6000003815,0.0,0.5053057401450481,1.0782610559523556
1648624051244226115,10521,0,3,0.915304124355,0.146502867341,0.141008242965,0.161837622523,31.6000003815,0.30612178072073576,0.04899761449531772,0.04715994747993311,31.6000003815,0.021869948989594594,0.43568550066475725,0.9376182884225778
1648624051439291140,10522,2,0,0.00631628325209,0.0454158857465,0.00976330507547,0.0,36.4000015259,0.0021124693150802675,0.015189259446989964,0.0032653194232341136,36.4000015259,0.0,0.015480266656691843,0.046880915501475356
1648624051439293860,10523,2,1,0.0322208553553,0.0161153152585,-0.0299988891929,0.0,36.4000015259,0.01077620580444816,0.005389737544648829,-0.010033073308662207,36.4000015259,0.0,0.016164853660947307,0.04688091571754865
1648624051439295870,10524,2,2,1.06488740444,-0.134782627225,0.102446421981,0.0,36.4000015259,0.35614963359197327,-0.04507780174749164,0.03426301738494983,36.4000015259,0.0,0.505684814114266,1.0782610120528993
1648624051439394292,10525,2,3,0.965048611164,0.184593603015,0.0620089806616,0.0809188112617,36.4000015259,0.3227587328307692,0.06173699097491638,0.020738789518929764,36.4000015259,0.010934974494824324,0.46060596532359915,0.9844992299978276
1648624051544336123,10526,3,0,0.00639195926487,0.0454158857465,0.00971392914653,0.0,17.2000007629,0.0021377790183511707,0.015189259446989964,0.003248805734625418,17.2000007629,0.0,0.015487214107468743,0.04688091552910101
1648624051544340626,10527,3,1,0.0322600826621,0.0161153152585,-0.0299566984177,0.0,17.2000007629,0.010789325305050168,0.005389737544648829,-0.010018962681505017,17.2000007629,0.0,0.016182346921154205,0.046880914019837516
1648624051544342475,10528,3,2,1.07115519047,-0.101086974144,0.0710956826806,0.0,17.2000007629,0.35824588310033445,-0.03380835255652174,0.02377782029451505,17.2000007629,0.0,0.507762966569307,1.078260921348925
1648624051739309482,10529,5,0,0.00622412096709,0.0454158857465,0.00982231553644,0.0,18.5,0.002081645808391304,0.015189259446989964,0.0032850553633578593,18.5,0.0,0.015471913297687524,0.046880915546195355
1648624051739337067,10530,5,1,0.032284989953,0.0161153152585,-0.0299298539758,0.0,18.5,0.010797655502675583,0.005389737544648829,-0.010009984607290969,18.5,0.0,0.01619345545302539,0.0468809142525918
1648624051739352710,10531,5,2,1.06801068783,-0.101086974144,0.108541674912,0.0,18.5,0.3571942099765886,-0.03380835255652174,0.03630156351571906,18.5,0.0,0.5062789863150401,1.0782609613880128
1648624051739501327,10532,5,3,0.945279836655,0.24612480402,0.122911982238,-0.161837622523,18.5,0.3161471025602007,0.08231598796655518,0.041107686367224075,18.5,-0.021869948989594594,0.4546140151703752,0.9844992352044065
1648624051844261095,10533,6,0,0.00635281205177,0.0454158857465,0.00973957590759,0.0,33.5,0.0021246863049397993,0.015189259446989964,0.0032573832466856185,33.5,0.0,0.01548361024880087,0.04688091549835565
1648624051844277163,10534,6,1,0.0322208553553,0.0161153152585,-0.0299988891929,0.0,33.5,0.01077620580444816,0.005389737544648829,-0.010033073308662207,33.5,0.0,0.016164853660947307,0.04688091571754865
1648624051844279217,10535,6,2,1.07015991211,-0.101086974144,0.0847696661949,0.0,33.5,0.35791301408361204,-0.03380835255652174,0.0283510589280602,33.5,0.0,0.5072932642992787,1.078260965692289
