%time,field.header.seq,field.header.frame_id,field.point_id,field.x,field.y,field.z,field.velocity,field.intensity,normalized_x,normalized_y,normalized_z,normalized_intensity,normalized_velocity,normalized_range,range
1648633530548863928,10053,0,0,0.00675994111225,0.0454158857465,0.00946154072881,0.0,22.7000007629,0.0022608498703177255,0.015189259446989964,0.003164394892578595,22.7000007629,0.0,0.015522128939684956,0.04688091546613781
1648633530548869983,10054,0,1,0.0342542342842,0.0146502861753,-0.028457628563,0.0,22.7000007629,0.01145626564688963,0.0048997612626421405,-0.009517601526086956,22.7000007629,0.0,0.01692630218255291,0.046880913758636594
1648633530548897652,10055,0,2,1.3092828989,0.0410208031535,0.0847754701972,0.0,22.7000007629,0.4378872571571906,0.013719332158361203,0.028353000065953173,22.7000007629,0.0,0.619418049491752,1.3126657213435957
1648633530548945590,10056,0,3,2.38259959221,-1.06654083729,0.27941814065,0.0,22.7000007629,0.7968560509063545,-0.35670262116722407,0.0934508831605351,22.7000007629,0.0,1.1820304106408217,2.625331345131661
1648633530548948721,10057,0,4,1.44242918491,-0.13624766469,0.113753125072,-0.242756426334,22.7000007629,0.48241778759531767,-0.04556778083277591,0.038044523435451505,22.7000007629,-0.03280492247756756,0.6837618490576569,1.4533083475564474
1648633530743888413,10058,2,0,0.00653733778745,0.0454158857465,0.00961669255048,0.0,22.5,0.0021864005978093643,0.015189259446989964,0.003216285133939799,22.5,0.0,0.015500783776834517,0.04688091551043794
1648633530743893079,10059,2,1,0.0342542342842,0.0146502861753,-0.028457628563,0.0,22.5,0.01145626564688963,0.0048997612626421405,-0.009517601526086956,22.5,0.0,0.01692630218255291,0.046880913758636594
1648633530743897330,10060,2,2,1.14948225021,-0.34281668067,0.216549545527,0.0,22.5,0.3844422241505016,-0.1146544082508361,0.07242459716622074,22.5,0.0,0.5556413238330267,1.218903780354049
1648633530743959984,10061,2,3,2.00079727173,-1.29508531094,0.512317836285,0.0,22.5,0.6691629671337793,-0.4331388999799331,0.1713437579548495,22.5,0.0,1.040753313635077,2.4378074679003086
1648633530743962373,10062,2,4,2.38101553917,-1.06654083729,0.292610138655,0.0,22.5,0.7963262672809364,-0.35670262116722407,0.0978629226270903,22.5,0.0,1.1813161337553748,2.6253314169110076
1648633530848942673,10063,3,0,0.00676841242239,0.0454158857465,0.00945548247546,0.0,15.6000003815,0.002263683084411371,0.015189259446989964,0.0031623687208896323,15.6000003815,0.0,0.01552295476902752,0.0468809154529051
1648633530848948085,10064,3,1,0.0342758707702,0.0146502861753,-0.0284315664321,0.0,15.6000003815,0.011463501929832776,0.0048997612626421405,-0.009508885094347825,15.6000003815,0.0,0.01693609793965092,0.04688091479329891
1648633530848950773,10065,3,2,1.32480359077,-0.0424858294427,0.302419126034,0.0,15.6000003815,0.44307812400334445,-0.01420930750591973,0.10114352041270902,15.6000003815,0.0,0.6267681807179142,1.3595465889816678
1648633530848956816,10066,3,3,2.38134980202,-1.06654083729,0.289877682924,0.0,15.6000003815,0.7964380608762541,-0.35670262116722407,0.09694905783411371,15.6000003815,0.0,1.1814668550459737,2.625331466357217
1648633530849067073,10067,3,4,1.44580280781,-0.13624766469,0.0565328523517,0.485512852669,15.6000003815,0.4835460895685619,-0.04556778083277591,0.01890730847882943,15.6000003815,0.06560984495527027,0.6853539699484633,1.4533083460160054
1648633531044162647,10068,5,0,0.00663239276037,0.0454158857465,0.00955138355494,0.0,21.2000007629,0.0022181915586521736,0.015189259446989964,0.0031944426605150502,21.2000007629,0.0,0.01550981463879325,0.04688091551666337
1648633531044166027,10069,5,1,0.0342758707702,0.0146502861753,-0.0284315664321,0.0,21.2000007629,0.011463501929832776,0.0048997612626421405,-0.009508885094347825,21.2000007629,0.0,0.01693609793965092,0.04688091479329891
1648633531044167217,10070,5,2,1.16256558895,-0.304725944996,0.203247904778,0.0,21.2000007629,0.38881792272575244,-0.10191503177123744,0.06797588788561873,21.2000007629,0.0,0.5592364685591157,1.2189037537726317
1648633531044171031,10071,5,3,2.37971282005,-1.06654083729,0.303022235632,0.0,21.2000007629,0.7958905752675585,-0.35670262116722407,0.10134522930836119,21.2000007629,0.0,1.180728747658419,2.6253313959965117
1648633531044172074,10072,5,4,1.47414422035,-0.140642747283,0.24017958343,0.161837622523,21.2000007629,0.4930248228595317,-0.047037708121404675,0.08032761987625418,21.2000007629,0.021869948989594594,0.6988272303628842,1.5001892537447492
1648633531044173044,10073,5,5,0.420636802912,0.421928226948,-1.37681126595,0.161837622523,21.2000007629,0.14068120498729098,0.14111311938060198,-0.4604719953010033,21.2000007629,0.021869948989594594,0.24391661553628607,1.5001893249541385
1648633531044174016,10074,5,6,1.29370212555,0.0849716588855,0.409245103598,-0.242756426334,21.2000007629,0.4326762961705686,0.028418615011872907,0.1368712721063545,21.2000007629,-0.03280492247756756,0.6125562604487494,1.3595465888616247
1648633531044174947,10075,5,7,1.306884408,0.123062409461,0.000308506452711,-0.0809188112617,21.2000007629,0.4370850862876254,0.041157996475250834,0.00010317941562240801,21.2000007629,-0.010934974494824324,0.6195003841677409,1.3126657257931618
1648633531149033904,10076,6,0,0.00675994111225,0.0454158857465,0.00946154072881,0.0,18.3999996185,0.0022608498703177255,0.015189259446989964,0.003164394892578595,18.3999996185,0.0,0.015522128939684956,0.04688091546613781
1648633531149045887,10077,6,1,0.034306101501,0.0146502861753,-0.0283950809389,0.0,18.3999996185,0.011473612542140466,0.0048997612626421405,-0.009496682588260868,18.3999996185,0.0,0.016949785543339906,0.04688091409882899
1648633531149049334,10078,6,2,1.15999913216,-0.34281668067,0.150350227952,0.0,18.3999996185,0.38795957597324415,-0.1146544082508361,0.05028435717458194,18.3999996185,0.0,0.5605094990363929,1.2189037920208339
1648633531149051283,10079,6,3,2.37775421143,-1.06654083729,0.318026095629,0.0,18.3999996185,0.7952355222173912,-0.35670262116722407,0.10636324268528428,18.3999996185,0.0,1.17984568123984,2.625331416237078
1648633531149053136,10080,6,4,1.30114352703,0.082041606307,0.152924954891,-0.0809188112617,18.3999996185,0.4351650592073578,0.027438664316722407,0.051145469863210696,18.3999996185,-0.010934974494824324,0.6160277086376653,1.3126657399833042
1648633531344126905,10081,8,0,0.00659684790298,0.0454158857465,0.00957596767694,0.0,19.6000003815,0.0022063036464816054,0.015189259446989964,0.0032026647748963208,19.6000003815,0.0,0.015506422995292304,0.04688091549174347
1648633531344236086,10082,8,1,0.0342542342842,0.0146502861753,-0.028457628563,0.0,19.6000003815,0.01145626564688963,0.0048997612626421405,-0.009517601526086956,19.6000003815,0.0,0.01692630218255291,0.046880913758636594
1648633531344240239,10083,8,2,1.17778098583,-0.266635209322,0.16572317481,0.0,19.6000003815,0.3939066842240802,-0.0891756552916388,0.055425810973244144,19.6000003815,0.0,0.5641606590763943,1.218903833820363
1648633531344242864,10084,8,3,1.97841489315,-1.29508531094,0.592903077602,0.0,19.6000003815,0.6616772217892977,-0.4331388999799331,0.19829534367959864,19.6000003815,0.0,1.0311366535747981,2.4378075214175965
1648633531344244668,10085,8,4,2.36707639694,-1.06654083729,0.389622151852,0.0,19.6000003815,0.7916643468026755,-0.35670262116722407,0.13030841199063545,19.6000003815,0.0,1.1750326105877156,2.625331492930272
1648633531449075868,10086,9,0,0.00663239276037,0.0454158857465,0.00955138355494,0.0,14.6999998093,0.0022181915586521736,0.015189259446989964,0.0031944426605150502,14.6999998093,0.0,0.01550981463879325,0.04688091551666337
1648633531449093393,10087,9,1,0.0342212058604,0.0146502861753,-0.0284973401576,0.0,14.6999998093,0.011445219351304346,0.0048997612626421405,-0.009530882995852842,14.6999998093,0.0,0.01691134981099473,0.04688091521734642
1648633531449099299,10088,9,2,2.37012529373,-1.06654083729,0.370623886585,0.0,14.6999998093,0.7926840447257525,-0.35670262116722407,0.12395447711872909,14.6999998093,0.0,1.1764067109095926,2.625331470670579
1648633531449110196,10089,9,3,1.24230098724,0.55231577158,-0.00157903635409,0.323675245047,14.6999998093,0.41548528001337787,0.18472099383946486,-0.0005281058040434782,14.6999998093,0.04373989797932432,0.6159365887659456,1.3595465964023803
1648633531644089316,10090,11,0,0.00663239276037,0.0454158857465,0.00955138355494,0.0,25.1000003815,0.0022181915586521736,0.015189259446989964,0.0031944426605150502,25.1000003815,0.0,0.01550981463879325,0.04688091551666337
1648633531644093277,10091,11,1,0.0341994836926,0.0146502861753,-0.0285234022886,0.0,25.1000003815,0.011437954412240802,0.0048997612626421405,-0.009539599427625417,25.1000003815,0.0,0.016901516579996192,0.0468809134720721
1648633531644097044,10092,11,2,2.37770032883,-1.06654083729,0.318428307772,0.0,25.1000003815,0.7952175012809364,-0.35670262116722407,0.1064977617966555,25.1000003815,0.0,1.1798213884459632,2.6253313692781877
1648633531749082935,10093,12,0,0.00660574575886,0.0454158857465,0.00956983212382,0.0,14.1999998093,0.0022092795180133776,0.015189259446989964,0.0032006127504414714,14.1999998093,0.0,0.015507270376355754,0.04688091554191253
1648633531749086206,10094,12,1,0.0342758707702,0.0146502861753,-0.0284315664321,0.0,14.1999998093,0.011463501929832776,0.0048997612626421405,-0.009508885094347825,14.1999998093,0.0,0.01693609793965092,0.04688091479329891
1648633531749170870,10095,12,2,1.16807150841,-0.304725944996,0.168753087521,0.0,14.1999998093,0.390659367361204,-0.10191503177123744,0.05643915970602006,14.1999998093,0.0,0.561797255524664,1.2189038333112208
1648633531749176094,10096,12,3,2.37919569016,-1.06654083729,0.307057470083,0.0,14.1999998093,0.7957176221270902,-0.35670262116722407,0.10269480604782608,14.1999998093,0.0,1.1804955858768593,2.625331556130948
1648633531944055355,10097,14,0,0.00666756927967,0.0454158857465,0.00952686090022,0.0,13.3999996185,0.0022299562808260867,0.015189259446989964,0.0031862411037525086,13.3999996185,0.0,0.015513188343366598,0.04688091548648001
1648633531944058278,10098,14,1,0.0342212058604,0.0146502861753,-0.0284973401576,0.0,13.3999996185,0.011445219351304346,0.0048997612626421405,-0.009530882995852842,13.3999996185,0.0,0.01691134981099473,0.04688091521734642
1648633531944110722,10099,14,2,2.37799715996,-1.06654083729,0.316203743219,0.0,13.3999996185,0.7953167759063545,-0.35670262116722407,0.10575376027391305,13.3999996185,0.0,1.1799552144143968,2.6253313424424713
1648633532049126845,10100,15,0,0.00663239276037,0.0454158857465,0.00955138355494,0.0,14.1999998093,0.0022181915586521736,0.015189259446989964,0.0031944426605150502,14.1999998093,0.0,0.01550981463879325,0.04688091551666337
1648633532049130192,10101,15,1,0.0342758707702,0.0146502861753,-0.0284315664321,0.0,14.1999998093,0.011463501929832776,0.0048997612626421405,-0.009508885094347825,14.1999998093,0.0,0.01693609793965092,0.04688091479329891
1648633532049131979,10102,15,2,2.37978553772,-1.06654083729,0.302451193333,0.0,14.1999998093,0.7959148955585285,-0.35670262116722407,0.10115424526187292,14.1999998093,0.0,1.1807615347272515,2.6253314624056676
1648633532049134300,10103,15,3,1.30233752728,0.123062409461,-0.108921274543,0.0809188112617,14.1999998093,0.4355643903946488,0.041157996475250834,-0.036428519914046824,14.1999998093,0.010934974494824324,0.617354563467041,1.3126656983528606
