%time,field.header.seq,field.header.frame_id,field.point_id,field.x,field.y,field.z,field.velocity,field.intensity,normalized_x,normalized_y,normalized_z,normalized_intensity,normalized_velocity,normalized_range,range
1648633368843637313,5101,0,0,0.00626406958327,0.0454158857465,0.00979688670486,0.0,14.3000001907,0.0020950065495886285,0.015189259446989964,0.0032765507374113707,14.3000001907,0.0,0.015475519617564135,0.046880915466648604
1648633368843649762,5102,0,1,0.0341151505709,0.0146502861753,-0.0286242160946,0.0,14.3000001907,0.011409749354816052,0.0048997612626421405,-0.009573316419598661,14.3000001907,0.0,0.01686334548985874,0.046880914352471006
1648633368843671656,5103,0,2,2.37367558479,-1.06654083729,0.34716039896,0.0,14.3000001907,0.7938714330401337,-0.35670262116722407,0.11610715684280935,14.3000001907,0.0,1.1780069882398658,2.6253314994570625
1648633368948751342,5104,1,0,0.00640005478635,0.0454158857465,0.00970859732479,0.0,13.8000001907,0.002140486550618729,0.015189259446989964,0.0032470225166521738,13.8000001907,0.0,0.015487962031679094,0.04688091553524038
1648633368948808478,5105,1,1,0.0341451726854,0.0146502861753,-0.0285883955657,0.0,13.8000001907,0.011419790195785953,0.0048997612626421405,-0.009561336309598661,13.8000001907,0.0,0.016876933271848485,0.04688091364036017
1648633368948810515,5106,1,2,2.3713183403,-1.06654083729,0.362911939621,0.0,13.8000001907,0.7930830569565217,-0.35670262116722407,0.12137523064247491,13.8000001907,0.0,1.1769444466118912,2.62533142756679
1648633368948812389,5107,1,3,1.16220843792,0.0366257168353,0.146860256791,-0.566431701183,13.8000001907,0.3886984742207357,0.012249403623846153,0.04911714273946488,13.8000001907,-0.07654482448418919,0.5498391179355974,1.1720229653598364
1648633369144264788,5108,3,0,0.00622540758923,0.0454158857465,0.00982149969786,0.0,28.7000007629,0.002082076116799331,0.015189259446989964,0.0032847825076454847,28.7000007629,0.0,0.015472029099645148,0.04688091545721188
1648633369144295765,5109,3,1,0.0341604314744,0.0146502861753,-0.0285701602697,0.0,28.7000007629,0.011424893469698997,0.0048997612626421405,-0.009555237548394649,28.7000007629,0.0,0.01688383967049054,0.04688091318832974
1648633369144303829,5110,3,2,2.37558960915,-1.06654083729,0.333811432123,0.0,28.7000007629,0.7945115749665551,-0.35670262116722407,0.11164261943913044,28.7000007629,0.0,1.1788698170108691,2.625331487817246
1648633369249286706,5111,4,0,0.00626406958327,0.0454158857465,0.00979688670486,0.0,14.0,0.0020950065495886285,0.015189259446989964,0.0032765507374113707,14.0,0.0,0.015475519617564135,0.046880915466648604
1648633369249324211,5112,4,1,0.0341304428875,0.0146502861753,-0.028605978936,0.0,14.0,0.011414863841973244,0.0048997612626421405,-0.009567217035451504,14.0,0.0,0.01687026655072364,0.046880913468083804
1648633369249357475,5113,4,2,2.36284184456,-1.06654083729,0.41452807188,0.0,14.0,0.7902481085484949,-0.35670262116722407,0.1386381511304348,14.0,0.0,1.1731244205439233,2.6253313052617777
1648633369249384145,5114,4,3,0.518846988678,0.430718421936,-0.717299222946,0.566431701183,14.0,0.1735274209625418,0.14405298392508362,-0.23989940566755852,14.0,0.07654482448418919,0.28456070324193183,0.9844992289962458
1648633369249520423,5115,4,4,0.915201723576,0.0922968015075,0.350892871618,0.566431701183,14.0,0.3060875329685619,0.03086849548745819,0.11735547545752507,14.0,0.07654482448418919,0.43397237203676936,0.9844992136905556
1648633369444260294,5116,6,0,0.00626406958327,0.0454158857465,0.00979688670486,0.0,28.1000003815,0.0020950065495886285,0.015189259446989964,0.0032765507374113707,28.1000003815,0.0,0.015475519617564135,0.046880915466648604
1648633369444288930,5117,6,1,0.0341151505709,0.0146502861753,-0.0286242160946,0.0,28.1000003815,0.011409749354816052,0.0048997612626421405,-0.009573316419598661,28.1000003815,0.0,0.01686334548985874,0.046880914352471006
1648633369444324723,5118,6,2,2.37201213837,-1.06654083729,0.35834851861,0.0,28.1000003815,0.793315096444816,-0.35670262116722407,0.11984900287959865,28.1000003815,0.0,1.1772571700533676,2.625331332036369
1648633369549306101,5119,7,0,0.00626406958327,0.0454158857465,0.00979688670486,0.0,13.8000001907,0.0020950065495886285,0.015189259446989964,0.0032765507374113707,13.8000001907,0.0,0.015475519617564135,0.046880915466648604
1648633369549335811,5120,7,1,0.0340934358537,0.0146502861753,-0.0286500770599,0.0,13.8000001907,0.011402486907591972,0.0048997612626421405,-0.00958196557187291,13.8000001907,0.0,0.016853518202040226,0.046880914761411714
1648633369549374266,5121,7,2,2.37117767334,-1.06654083729,0.363829404116,0.0,13.8000001907,0.7930360111505016,-0.35670262116722407,0.12168207495518395,13.8000001907,0.0,1.1768810432284842,2.6253313603148754
1648633369744215351,5122,9,0,0.00626406958327,0.0454158857465,0.00979688670486,0.0,13.8000001907,0.0020950065495886285,0.015189259446989964,0.0032765507374113707,13.8000001907,0.0,0.015475519617564135,0.046880915466648604
1648633369744245310,5123,9,1,0.0341151505709,0.0146502861753,-0.0286242160946,0.0,13.8000001907,0.011409749354816052,0.0048997612626421405,-0.009573316419598661,13.8000001907,0.0,0.01686334548985874,0.046880914352471006
1648633369744276345,5124,9,2,1.98330175877,-1.29508531094,0.576345384121,0.0,13.8000001907,0.6633116250066889,-0.4331388999799331,0.1927576535521739,13.8000001907,0.0,1.0332346928040381,2.4378075869006386
1648633369744306187,5125,9,3,2.36668848991,-1.06654083729,0.391970962286,0.0,13.8000001907,0.7915346120100334,-0.35670262116722407,0.1310939673197324,13.8000001907,0.0,1.174857797338604,2.6253314078712315
1648633369849201648,5126,10,0,0.00626406958327,0.0454158857465,0.00979688670486,0.0,14.5,0.0020950065495886285,0.015189259446989964,0.0032765507374113707,14.5,0.0,0.015475519617564135,0.046880915466648604
1648633369849218199,5127,10,1,0.0341304428875,0.0146502861753,-0.028605978936,0.0,14.5,0.011414863841973244,0.0048997612626421405,-0.009567217035451504,14.5,0.0,0.01687026655072364,0.046880913468083804
1648633369849227655,5128,10,2,2.37373375893,-1.06654083729,0.346762061119,0.0,14.5,0.7938908892742473,-0.35670262116722407,0.11597393348461538,14.5,0.0,1.1780332117953545,2.625331453916381
1648633370044310752,5129,12,0,0.00623534247279,0.0454158857465,0.00981519557536,0.0,14.0,0.002085398820331104,0.015189259446989964,0.0032826741054715718,14.0,0.0,0.015472924061975183,0.04688091549953655
1648633370044398805,5130,12,1,0.0341975837946,0.0146502861753,-0.0285256803036,0.0,14.0,0.011437318994849498,0.0048997612626421405,-0.00954036130555184,14.0,0.0,0.016900656555612827,0.04688091359167468
1648633370044418317,5131,12,2,2.37288570404,-1.06654083729,0.352517127991,0.0,14.0,0.7936072588762542,-0.35670262116722407,0.11789870501371236,14.0,0.0,1.1776509341183117,2.625331264349641
1648633370044445980,5132,12,3,0.659363865852,0.184593603015,-0.707391858101,-0.566431701183,14.0,0.22052303205752508,0.06173699097491638,-0.236585905719398,14.0,-0.07654482448418919,0.3179186553040343,0.9844992365527456
1648633370044484868,5133,12,4,0.773582279682,0.553780794144,0.253250747919,-0.566431701183,14.0,0.25872317046220733,0.18521096794113712,0.08469924679565216,14.0,-0.07654482448418919,0.41009567239087724,0.9844991887870158
1648633370149209697,5134,13,0,0.00626406958327,0.0454158857465,0.00979688670486,0.0,32.9000015259,0.0020950065495886285,0.015189259446989964,0.0032765507374113707,32.9000015259,0.0,0.015475519617564135,0.046880915466648604
1648633370149230763,5135,13,1,0.0340774543583,0.0146502861753,-0.028669083491,0.0,32.9000015259,0.011397141925852842,0.0048997612626421405,-0.009588322237792641,32.9000015259,0.0,0.01684628589888447,0.04688091433381109
1648633370149254321,5136,13,2,2.37014079094,-1.06654083729,0.370524436235,0.0,32.9000015259,0.7926892277391303,-0.35670262116722407,0.123921216132107,32.9000015259,0.0,1.1764136957273514,2.6253314237124816
1648633370149268647,5137,13,3,0.660571575165,-0.0,-0.792079687119,-0.566431701183,32.9000015259,0.22092694821571904,-0.0,-0.2649095943541806,32.9000015259,-0.07654482448418919,0.3124378864603683,1.0313801610766529
1648633370149299575,5138,13,4,0.938244104385,0.386767566204,0.1839941293,-0.566431701183,32.9000015259,0.3137940148444816,0.1293537010715719,0.06153649809364548,32.9000015259,-0.07654482448418919,0.4622399241577376,1.0313801381146728
1648633370344194837,5139,15,0,0.00626406958327,0.0454158857465,0.00979688670486,0.0,34.2000007629,0.0020950065495886285,0.015189259446989964,0.0032765507374113707,34.2000007629,0.0,0.015475519617564135,0.046880915466648604
1648633370344209449,5140,15,1,0.0341451726854,0.0146502861753,-0.0285883955657,0.0,34.2000007629,0.011419790195785953,0.0048997612626421405,-0.009561336309598661,34.2000007629,0.0,0.016876933271848485,0.04688091364036017
1648633370344290601,5141,15,2,2.3749859333,-1.06654083729,0.338079661131,0.0,34.2000007629,0.7943096766889631,-0.35670262116722407,0.11307012077959866,34.2000007629,0.0,1.1785976772889968,2.625331483498908
1648633370344329820,5142,15,3,1.11156010628,0.105482056737,-0.138751670718,0.161837622523,34.2000007629,0.3717592328695652,0.035278279845150494,-0.04640524104280936,34.2000007629,0.021869948989594594,0.5269292281477351,1.1251419289555025
1648633370344343777,5143,15,4,1.15124583244,0.0732514336705,0.207135871053,0.566431701183,34.2000007629,0.38503205098327753,0.02449880724765886,0.06927621105451505,34.2000007629,0.07654482448418919,0.5450683921539905,1.1720230408665766
1648633370449403722,5144,16,0,0.00622540758923,0.0454158857465,0.00982149969786,0.0,29.0,0.002082076116799331,0.015189259446989964,0.0032847825076454847,29.0,0.0,0.015472029099645148,0.04688091545721188
1648633370449442284,5145,16,1,0.0341975837946,0.0146502861753,-0.0285256803036,0.0,29.0,0.011437318994849498,0.0048997612626421405,-0.00954036130555184,29.0,0.0,0.016900656555612827,0.04688091359167468
1648633370449463692,5146,16,2,1.59301793575,-0.0498109720647,0.0221983287483,0.0,29.0,0.5327819183110367,-0.016659187981505015,0.007424190216822743,29.0,0.0,0.7536515597426834,1.5939510790355014
1648633370449483712,5147,16,3,2.02149677277,-1.21890377998,0.608876109123,0.0,29.0,0.676085877180602,-0.407660127083612,0.20363749468996656,29.0,0.0,1.0394089694917754,2.437807568991002
1648633370449555353,5148,16,4,2.37108278275,-1.06654083729,0.364446789026,0.0,29.0,0.7930042751672239,-0.35670262116722407,0.12188855820267556,29.0,0.0,1.1768382730071947,2.625331290007434
1648633370449625087,5149,16,5,1.20872247219,-0.0,0.157214581966,0.323675245047,29.0,0.4042550074214047,-0.0,0.05258012774782608,29.0,0.04373989797932432,0.5717029141525867,1.2189037860142407
1648633370449651788,5150,16,6,1.24263560772,-0.0,0.240972623229,0.485512852669,29.0,0.4155971932173913,-0.0,0.08059285057826086,29.0,0.06560984495527027,0.5877431871322264,1.2657847600281493
