%time,field.header.seq,field.header.frame_id,field.point_id,field.x,field.y,field.z,field.velocity,field.intensity,normalized_x,normalized_y,normalized_z,normalized_intensity,normalized_velocity,normalized_range,range
1648633604244162694,12404,0,0,0.00667610531673,0.0454158857465,0.00952088087797,0.0,18.3999996185,0.0022328111427190635,0.015189259446989964,0.0031842410963110364,18.3999996185,0.0,0.015514009596041723,0.046880915445751556
1648633604244218357,12405,0,1,0.0343218483031,0.0146502861753,-0.0283760484308,0.0,18.3999996185,0.011478879031137123,0.0048997612626421405,-0.009490317200936455,18.3999996185,0.0,0.016956915640936814,0.04688091595208334
1648633604244225612,12406,0,2,2.38210368156,-1.06654083729,0.283614933491,0.0,18.3999996185,0.7966901945016721,-0.35670262116722407,0.0948544928063545,18.3999996185,0.0,1.1818067913063424,2.625331357716215
1648633604349758840,12407,1,0,0.00666756927967,0.0454158857465,0.00952686090022,0.0,15.0,0.0022299562808260867,0.015189259446989964,0.0031862411037525086,15.0,0.0,0.015513188343366598,0.04688091548648001
1648633604349856749,12408,1,1,0.0343160517514,0.0146502861753,-0.0283830538392,0.0,15.0,0.01147694038508361,0.0048997612626421405,-0.00949266014688963,15.0,0.0,0.016954290950565134,0.046880913366335715
1648633604349879137,12409,1,2,1.96802389622,-1.29508531094,0.626531720161,0.0,15.0,0.6582019719799331,-0.4331388999799331,0.20954238132474914,15.0,0.0,1.026678615006844,2.437807624705733
1648633604349887578,12410,1,3,2.38194322586,-1.06654083729,0.284959763288,0.0,15.0,0.7966365303879599,-0.35670262116722407,0.09530426865819397,15.0,0.0,1.181734438460986,2.6253313991800638
1648633604544614474,12411,3,0,0.00666756927967,0.0454158857465,0.00952686090022,0.0,15.6000003815,0.0022299562808260867,0.015189259446989964,0.0031862411037525086,15.6000003815,0.0,0.015513188343366598,0.04688091548648001
1648633604544640573,12412,3,1,0.0343002602458,0.0146502861753,-0.0284021347761,0.0,15.6000003815,0.011471658945083611,0.0048997612626421405,-0.009499041731137123,15.6000003815,0.0,0.016947140712684314,0.046880912936797026
1648633604544650978,12413,3,2,2.37850117683,-1.06654083729,0.312391161919,0.0,15.6000003815,0.7954853434214046,-0.35670262116722407,0.10447864947123746,15.6000003815,0.0,1.1801824533283438,2.6253314921803783
1648633604544958609,12414,3,3,1.23807835579,-0.328166425228,0.287332743406,0.161837622523,15.6000003815,0.4140730286923076,-0.10975465726688963,0.09609790749364548,15.6000003815,0.021869948989594594,0.5957843829546169,1.3126657316909787
1648633604544992157,12415,3,4,0.91427642107,0.164083212614,-0.927505552769,0.161837622523,15.6000003815,0.3057780672474916,0.054877328633444813,-0.310202526009699,15.6000003815,0.021869948989594594,0.4359036292773509,1.3126656943805712
1648633604650203211,12416,4,0,0.00670238444582,0.0454158857465,0.0095023997128,0.0,20.6000003815,0.002241600149103679,0.015189259446989964,0.0031780601046153844,20.6000003815,0.0,0.015516544235263764,0.04688091547421544
1648633604650243531,12417,4,1,0.0343218483031,0.0146502861753,-0.0283760484308,0.0,20.6000003815,0.011478879031137123,0.0048997612626421405,-0.009490317200936455,20.6000003815,0.0,0.016956915640936814,0.04688091595208334
1648633604650300368,12418,4,2,2.38216543198,-1.06654083729,0.283095985651,0.0,20.6000003815,0.7967108468160534,-0.35670262116722407,0.09468093165585284,20.6000003815,0.0,1.1818346359860479,2.6253313771825884
1648633604650477804,12419,4,3,0.979067921638,0.32230630517,0.0359115675092,0.161837622523,20.6000003815,0.32744746543076925,0.10779475089297658,0.012010557695384614,20.6000003815,0.021869948989594594,0.47546124295692965,1.0313801385589398
1648633604844627230,12420,6,0,0.00670238444582,0.0454158857465,0.0095023997128,0.0,26.2000007629,0.002241600149103679,0.015189259446989964,0.0031780601046153844,26.2000007629,0.0,0.015516544235263764,0.04688091547421544
1648633604844672221,12421,6,1,0.0343218483031,0.0146502861753,-0.0283760484308,0.0,26.2000007629,0.011478879031137123,0.0048997612626421405,-0.009490317200936455,26.2000007629,0.0,0.016956915640936814,0.04688091595208334
1648633604844699856,12422,6,2,1.94762194157,-1.29508531094,0.687334358692,0.0,26.2000007629,0.6513785757759197,-0.4331388999799331,0.22987771193712372,26.2000007629,0.0,1.0179378196312179,2.4378075622444024
1648633604844715138,12423,6,3,2.37813425064,-1.06654083729,0.315171778202,0.0,26.2000007629,0.795362625632107,-0.35670262116722407,0.1054086214722408,26.2000007629,0.0,1.1800170221028028,2.6253314307815194
1648633604844724278,12424,6,4,0.754318594933,0.0366257168353,-0.896269917488,-0.647350490093,26.2000007629,0.2522804665327759,0.012249403623846153,-0.2997558252468227,26.2000007629,-0.08747979595851352,0.35698867695927,1.1720229309997912
1648633604844879730,12425,6,5,1.01070094109,0.512760043144,0.29866117239,-0.647350490093,26.2000007629,0.3380270705986622,0.17149165322541807,0.09988667972909698,26.2000007629,-0.08747979595851352,0.5078720193523295,1.1720229306880552
1648633604949860358,12426,7,0,0.00670238444582,0.0454158857465,0.0095023997128,0.0,30.1000003815,0.002241600149103679,0.015189259446989964,0.0031780601046153844,30.1000003815,0.0,0.015516544235263764,0.04688091547421544
1648633604949895679,12427,7,1,0.0343160517514,0.0146502861753,-0.0283830538392,0.0,30.1000003815,0.01147694038508361,0.0048997612626421405,-0.00949266014688963,30.1000003815,0.0,0.016954290950565134,0.046880913366335715
1648633604949909349,12428,7,2,2.37537884712,-1.06654083729,0.335307776928,0.0,30.1000003815,0.794441085993311,-0.35670262116722407,0.11214306920668896,30.1000003815,0.0,1.1787748038433934,2.62533147054249
1648633604949931605,12429,7,3,0.77451312542,-0.109877154231,-0.872750937939,-0.485512852669,30.1000003815,0.2590344901070234,-0.0367482121173913,-0.29188994579899663,30.1000003815,-0.06560984495527027,0.3681686640981766,1.17202293925638
1648633604950013744,12430,7,4,1.08861780167,0.329631447792,0.282652169466,-0.485512852669,30.1000003815,0.3640862212943144,0.11024463136856186,0.09453249814916388,30.1000003815,-0.06560984495527027,0.5265656956338259,1.172022976903657
1648633605144635971,12431,9,0,0.00672859838232,0.0454158857465,0.00948385614902,0.0,36.5,0.002250367351946488,0.015189259446989964,0.003171858243819398,36.5,0.0,0.015519082092230428,0.046880915539108295
1648633605144705298,12432,9,1,0.0343002602458,0.0146502861753,-0.0284021347761,0.0,36.5,0.011471658945083611,0.0048997612626421405,-0.009499041731137123,36.5,0.0,0.016947140712684314,0.046880912936797026
1648633605144721312,12433,9,2,1.1681009531,-0.190453708172,0.291537314653,0.0,36.5,0.390669215083612,-0.06369689236521739,0.09750411861304346,36.5,0.0,0.5561494091744387,1.2189037933424753
1648633605144888749,12434,9,3,2.38487648964,-1.06654083729,0.259266555309,0.0,36.5,0.797617555063545,-0.35670262116722407,0.08671122251137123,36.5,0.0,1.1830571787697595,2.6253312886465694
1648633605144902344,12435,9,4,1.35046994686,-0.0424858294427,0.150972932577,0.485512852669,36.5,0.45166218958528426,-0.01420930750591973,0.0504926195909699,36.5,0.06560984495527027,0.6389048218801798,1.359546597011807
1648633605249859712,12436,10,0,0.00670238444582,0.0454158857465,0.0095023997128,0.0,23.2000007629,0.002241600149103679,0.015189259446989964,0.0031780601046153844,23.2000007629,0.0,0.015516544235263764,0.04688091547421544
1648633605249916584,12437,10,1,0.0343160517514,0.0146502861753,-0.0283830538392,0.0,23.2000007629,0.01147694038508361,0.0048997612626421405,-0.00949266014688963,23.2000007629,0.0,0.016954290950565134,0.046880913366335715
1648633605249931368,12438,10,2,1.19948089123,-0.190453708172,0.103437922895,0.0,23.2000007629,0.4011641776688963,-0.06369689236521739,0.03459462304180602,23.2000007629,0.0,0.5708963907632537,1.2189037809750252
1648633605250015853,12439,10,3,2.38326907158,-1.06654083729,0.273649156094,0.0,23.2000007629,0.7970799570501672,-0.35670262116722407,0.0915214568876254,23.2000007629,0.0,1.1823323034620008,2.6253313478088836
1648633605444664157,12440,12,0,0.00666756927967,0.0454158857465,0.00952686090022,0.0,15.5,0.0022299562808260867,0.015189259446989964,0.0031862411037525086,15.5,0.0,0.015513188343366598,0.04688091548648001
1648633605444761522,12441,12,1,0.0343160517514,0.0146502861753,-0.0283830538392,0.0,15.5,0.01147694038508361,0.0048997612626421405,-0.00949266014688963,15.5,0.0,0.016954290950565134,0.046880913366335715
1648633605444795016,12442,12,2,2.38199186325,-1.06654083729,0.284553855658,0.0,15.5,0.7966527970735786,-0.35670262116722407,0.0951685135979933,15.5,0.0,1.1817563700348228,2.6253315011568152
1648633605444812882,12443,12,3,0.772125661373,0.237334638834,-0.974528253078,0.485512852669,15.5,0.25823600714816053,0.07937613338929765,-0.3259291816314381,15.5,0.06560984495527027,0.37372749608168404,1.265784769930661
1648633605444844848,12444,12,4,1.16908252239,0.0732514336705,-0.0389651879668,-0.161837622523,15.5,0.3909974991270903,0.02449880724765886,-0.013031835440401337,15.5,-0.021869948989594594,0.5534964139033205,1.1720230384108654
1648633605549759780,12445,13,0,0.00672859838232,0.0454158857465,0.00948385614902,0.0,27.0,0.002250367351946488,0.015189259446989964,0.003171858243819398,27.0,0.0,0.015519082092230428,0.046880915539108295
1648633605549803717,12446,13,1,0.0343002602458,0.0146502861753,-0.0284021347761,0.0,27.0,0.011471658945083611,0.0048997612626421405,-0.009499041731137123,27.0,0.0,0.016947140712684314,0.046880912936797026
1648633605549846560,12447,13,2,2.37904143333,-1.06654083729,0.308249801397,0.0,27.0,0.7956660312140467,-0.35670262116722407,0.1030935790625418,27.0,0.0,1.180426035973196,2.6253314912919863
1648633605744632418,12448,15,0,0.00670238444582,0.0454158857465,0.0095023997128,0.0,15.0,0.002241600149103679,0.015189259446989964,0.0031780601046153844,15.0,0.0,0.015516544235263764,0.04688091547421544
1648633605744668082,12449,15,1,0.0343160517514,0.0146502861753,-0.0283830538392,0.0,15.0,0.01147694038508361,0.0048997612626421405,-0.00949266014688963,15.0,0.0,0.016954290950565134,0.046880913366335715
1648633605744700149,12450,15,2,1.18771827221,-0.228544458747,0.151060074568,0.0,15.0,0.3972301913745819,-0.07643627382842809,0.05052176406956521,15.0,0.0,0.5669445773933712,1.2189037738451531
1648633605744937467,12451,15,3,2.37497544289,-1.06654083729,0.338153064251,0.0,15.0,0.7943061681906354,-0.35670262116722407,0.1130946703180602,15.0,0.0,1.1785929482221367,2.6253314470367637
