%time,field.header.seq,field.header.frame_id,field.point_id,field.x,field.y,field.z,field.velocity,field.intensity,normalized_x,normalized_y,normalized_z,normalized_intensity,normalized_velocity,normalized_range,range
1648623991943863660,8755,0,0,0.00620788149536,0.0454158857465,0.00983258709311,0.0,20.8999996185,0.0020762145469431434,0.015189259446989964,0.003288490666591973,20.8999996185,0.0,0.015470453653265973,0.04688091551733144
1648623991943885601,8756,0,1,0.0322450846434,0.0161153152585,-0.0299728438258,0.0,20.8999996185,0.01078430924528428,0.005389737544648829,-0.01002436248354515,20.8999996185,0.0,0.016175658335784826,0.04688091548323978
1648623991943928740,8757,0,2,0.40934830904,0.512760043144,-0.0168496631086,-0.647350490093,20.8999996185,0.13690578897658862,0.17149165322541807,-0.0056353388323076925,20.8999996185,-0.08747979595851352,0.258642179925455,0.6563328508507078
1648623991943932395,8758,0,3,0.409736663103,0.57136118412,-0.0131092751399,-0.566431701183,20.8999996185,0.1370356732785953,0.19109069703010034,-0.004384372956488294,20.8999996185,-0.07654482448418919,0.27216393220499563,0.7032137576188933
1648623992138834597,8759,2,0,0.00616691214964,0.0454158857465,0.00985833443701,0.0,26.8999996185,0.0020625124246287626,0.015189259446989964,0.003297101818397993,26.8999996185,0.0,0.015466787564050587,0.04688091553577485
1648623992138967705,8760,2,1,0.0322035737336,0.0161153152585,-0.030017439276,0.0,26.8999996185,0.010770425997859531,0.005389737544648829,-0.010039277349832775,26.8999996185,0.0,0.01615714774181799,0.04688091517648309
1648623992138972443,8761,2,2,1.16510641575,-0.0366257168353,0.121750943363,0.0,26.8999996185,0.38966769757525077,-0.012249403623846153,0.04071937905117057,26.8999996185,0.0,0.5512094674044833,1.1720229073551813
1648623992139053347,8762,2,3,0.617830812931,0.28568059206,0.176582217216,0.485512852669,26.8999996185,0.20663237890668892,0.09554534851505017,0.05905759773110368,26.8999996185,0.06560984495527027,0.30744559461494536,0.70321376090322
1648623992139063823,8763,2,4,0.423103123903,0.246124818921,-0.437240362167,-0.647350490093,26.8999996185,0.14150606150602005,0.08231599295016721,-0.14623423483846154,26.8999996185,-0.08747979595851352,0.21638820111379234,0.6563328532484883
1648623992139075637,8764,2,5,0.396989166737,0.492249637842,0.17567782104,-0.647350490093,26.8999996185,0.13277229656755854,0.16463198590033443,0.05875512409364548,26.8999996185,-0.08747979595851352,0.24972115699943276,0.6563328433557778
1648623992243965314,8765,3,0,0.00620788149536,0.0454158857465,0.00983258709311,0.0,21.7000007629,0.0020762145469431434,0.015189259446989964,0.003288490666591973,21.7000007629,0.0,0.015470453653265973,0.04688091551733144
1648623992243971992,8766,3,1,0.0322035737336,0.0161153152585,-0.030017439276,0.0,21.7000007629,0.010770425997859531,0.005389737544648829,-0.010039277349832775,21.7000007629,0.0,0.01615714774181799,0.04688091517648309
1648623992243975679,8767,3,2,1.10576891899,-0.0351606868207,0.204898446798,0.0,21.7000007629,0.3698223809331103,-0.011759427030334446,0.06852790862809365,21.7000007629,0.0,0.5231400108978005,1.1251420130820151
1648623992243979101,8768,3,3,0.578123867512,0.111342176795,-0.668422698975,-0.647350490093,21.7000007629,0.1933524640508361,0.037238186219063545,-0.223552742132107,21.7000007629,-0.08747979595851352,0.27596563775576366,0.8907374422496817
1648623992243990064,8769,3,4,0.718540787697,0.473204255104,0.230629697442,-0.647350490093,21.7000007629,0.2403146447147157,0.15826229267692307,0.07713367807424748,21.7000007629,-0.08747979595851352,0.37489893333013913,0.8907374405373029
1648623992438856305,8770,5,0,0.0062731760554,0.0454158857465,0.00979105848819,0.0,39.2000007629,0.002098052192441471,0.015189259446989964,0.0032746015010668896,39.2000007629,0.0,0.015476344805941447,0.04688091554439122
1648623992438881490,8771,5,1,0.0321391373873,0.0161153152585,-0.0300864223391,0.0,39.2000007629,0.010748875380367893,0.005389737544648829,-0.010062348608394648,39.2000007629,0.0,0.016128419472643783,0.046880916661764235
1648623992438972791,8772,5,2,1.06588041782,-0.101086974144,0.127777695656,0.0,39.2000007629,0.356481745090301,-0.03380835255652174,0.04273501526956521,39.2000007629,0.0,0.5052736623532229,1.07826099852535
1648623992438981162,8773,5,3,0.90270793438,0.234404578805,0.0964416563511,0.161837622523,39.2000007629,0.30190900815384614,0.07839618020234114,0.03225473456558528,39.2000007629,0.021869948989594594,0.4341014391581721,0.9376183202332916
1648623992438988004,8774,5,4,0.731507360935,-0.0,-0.727077722549,-0.566431701183,39.2000007629,0.24465129128260868,-0.0,-0.24316980687257525,39.2000007629,-0.07654482448418919,0.34598917418395575,1.0313801596545908
1648623992438994124,8775,5,5,0.896530985832,0.386767566204,0.332246929407,-0.566431701183,39.2000007629,0.2998431390742475,0.1293537010715719,0.11111937438361204,39.2000007629,-0.07654482448418919,0.4433330532237706,1.0313801340556465
1648623992543869828,8776,6,0,0.00623617786914,0.0454158857465,0.00981466472149,0.0,37.0999984741,0.002085678217103679,0.015189259446989964,0.0032824965623712375,37.0999984741,0.0,0.015472999379518357,0.046880915479008654
1648623992543877497,8777,6,1,0.0322035737336,0.0161153152585,-0.030017439276,0.0,37.0999984741,0.010770425997859531,0.005389737544648829,-0.010039277349832775,37.0999984741,0.0,0.01615714774181799,0.04688091517648309
1648623992543881303,8778,6,2,0.897508442402,-0.0380907431245,-0.823865354061,-0.485512852669,37.0999984741,0.30017004762608696,-0.01273937897140468,-0.2755402521943144,37.0999984741,-0.06560984495527027,0.42469566369374634,1.2189037823046975
1648623992543884240,8779,6,3,1.08655059338,0.41899818182,0.359964996576,-0.485512852669,37.0999984741,0.3633948472842809,0.14013317117725752,0.1203896309618729,37.0999984741,-0.06560984495527027,0.5326808948420492,1.2189037973125096
