%time,field.header.seq,field.header.frame_id,field.point_id,field.x,field.y,field.z,field.velocity,field.intensity,normalized_x,normalized_y,normalized_z,normalized_intensity,normalized_velocity,normalized_range,range
1648624154844750750,13615,0,0,0.00648005818948,0.0454158857465,0.0096553824842,0.0,29.8999996185,0.002167243541632107,0.015189259446989964,0.0032292249111036788,29.8999996185,0.0,0.015495402275690233,0.04688091555413977
1648624154844758672,13616,0,1,0.0321875400841,0.0161153152585,-0.0300346314907,0.0,29.8999996185,0.01076506357327759,0.005389737544648829,-0.010045027254414715,29.8999996185,0.0,0.01614999870816135,0.04688091521428027
1648624154844760516,13617,0,2,1.06536746025,-0.134782627225,0.0973280668259,0.0,29.8999996185,0.3563101873745819,-0.04507780174749164,0.032551192918361206,29.8999996185,0.0,0.5059109679224256,1.0782610697568913
1648624154844794096,13618,0,3,0.832474052906,0.22268435359,0.225414633751,0.566431701183,29.8999996185,0.2784194156876254,0.07447637243812709,0.07538950961571905,29.8999996185,0.07654482448418919,0.4007261809705227,0.8907374064249436
1648624155039664491,13619,2,0,0.00648005818948,0.0454158857465,0.0096553824842,0.0,41.2999992371,0.002167243541632107,0.015189259446989964,0.0032292249111036788,41.2999992371,0.0,0.015495402275690233,0.04688091555413977
1648624155039754478,13620,2,1,0.0344263091683,0.0146502861753,-0.0282492209226,0.0,41.2999992371,0.01151381577535117,0.0048997612626421405,-0.00944789997411371,41.2999992371,0.0,0.01700422205948686,0.04688091435438759
1648624155039756824,13621,2,2,1.06973540783,-0.0673913136125,0.117351256311,0.0,41.2999992371,0.35777103940802674,-0.02253890087374582,0.039247911809699,41.2999992371,0.0,0.5064664207336911,1.0782609838408348
1648624155039757998,13622,2,3,0.909952044487,0.175803437829,0.142156630754,0.242756426334,41.2999992371,0.3043317874538461,0.05879713639765886,0.04754402366354515,41.2999992371,0.03280492247756756,0.4343878186117456,0.9376183017016547
1648624155039759045,13623,2,4,0.761369287968,-0.032230630517,-0.694998621941,-0.485512852669,41.2999992371,0.2546385578488294,-0.010779475089297658,-0.2324410106826087,41.2999992371,-0.06560984495527027,0.36027459995101524,1.0313801872754351
1648624155039760255,13624,2,5,0.905210793018,0.354536950588,0.344444453716,-0.485512852669,41.2999992371,0.3027460846214047,0.11857423096588628,0.11519881395183947,41.2999992371,-0.06560984495527027,0.44426369619442546,1.0313801485505856
1648624155144746889,13625,3,0,0.00654431246221,0.0454158857465,0.00961194746196,0.0,30.0,0.002188733264953177,0.015189259446989964,0.003214698147812709,30.0,0.0,0.015501442163818147,0.046880915496112674
1648624155144751793,13626,3,1,0.0322614833713,0.0161153152585,-0.0299551915377,0.0,30.0,0.01078979376966555,0.005389737544648829,-0.01001845870826087,30.0,0.0,0.016182971605487796,0.04688091504288076
1648624155144754478,13627,3,2,1.07090842724,-0.101086974144,0.0747216939926,0.0,30.0,0.3581633535919732,-0.03380835255652174,0.02499053310789297,30.0,0.0,0.5076465112803236,1.078260992259464
1648624155144757143,13628,3,3,0.924373686314,0.146502867341,-0.0565537400544,0.0809188112617,30.0,0.30915507903478257,0.04899761449531772,-0.018914294332575247,30.0,0.010934974494824324,0.43994828333820907,0.9376183272542237
1648624155144759728,13629,3,4,0.909450531006,0.175803437829,0.145330697298,0.242756426334,30.0,0.3041640571926421,0.05879713639765886,0.048605584380602,30.0,0.03280492247756756,0.43415279640276716,0.937618327826794
1648624155144765661,13630,3,5,0.864815235138,-0.0366257168353,-0.790184080601,-0.404594063759,30.0,0.2892358645946488,-0.012249403623846153,-0.2642756122411371,30.0,-0.05467487348094594,0.4092246554458418,1.1720229158577666
1648624155144892947,13631,3,6,1.04695165157,0.366257160902,0.378663212061,-0.404594063759,30.0,0.35015105403678926,0.12249403374648829,0.1266432147361204,30.0,-0.05467487348094594,0.5101140162646336,1.1720229932921529
1648624155339787733,13632,5,0,0.00651771202683,0.0454158857465,0.00963000487536,0.0,33.5,0.002179836798270903,0.015189259446989964,0.003220737416508361,33.5,0.0,0.015498934785402697,0.04688091554250283
1648624155339795390,13633,5,1,0.0321875400841,0.0161153152585,-0.0300346314907,0.0,33.5,0.01076506357327759,0.005389737544648829,-0.010045027254414715,33.5,0.0,0.01614999870816135,0.04688091521428027
1648624155339797294,13634,5,2,1.07007861137,-0.101086974144,0.0857898071408,0.0,33.5,0.35788582320066886,-0.03380835255652174,0.02869224319090301,33.5,0.0,0.5072548960814739,1.0782609618558916
1648624155339806356,13635,5,3,0.97240704298,0.153827995062,0.000414007779909,-0.0809188112617,33.5,0.3252197468160535,0.05144748998729097,0.00013846414043779264,33.5,-0.010934974494824324,0.4627986729282921,0.9844992029983285
1648624155444872098,13636,6,0,0.00648005818948,0.0454158857465,0.0096553824842,0.0,12.6000003815,0.002167243541632107,0.015189259446989964,0.0032292249111036788,12.6000003815,0.0,0.015495402275690233,0.04688091555413977
1648624155444885308,13637,6,1,0.0322864726186,0.0161153152585,-0.0299282576889,0.0,12.6000003815,0.010798151377458194,0.005389737544648829,-0.010009450732073578,12.6000003815,0.0,0.016194116744707065,0.04688091624878563
1648624155444887812,13638,6,2,1.06909990311,-0.101086974144,0.097229257226,0.0,12.6000003815,0.35755849602341133,-0.03380835255652174,0.03251814622943144,12.6000003815,0.0,0.5067930157960286,1.0782609645313699
1648624155444892049,13639,6,3,0.926098108292,0.146502867341,0.00269724405371,-0.0809188112617,12.6000003815,0.309731808793311,0.04899761449531772,0.0009020883122775919,12.6000003815,-0.010934974494824324,0.44075883766861,0.9376182973079401
1648624155445063304,13640,6,4,0.242101222277,0.556710898876,-0.714554488659,-0.0809188112617,12.6000003815,0.08097030845384615,0.18619093607892975,-0.23898143433411367,12.6000003815,-0.010934974494824324,0.2185851010022643,0.9376183360078162
