%time,field.header.seq,field.header.frame_id,field.point_id,field.x,field.y,field.z,field.velocity,field.intensity,normalized_x,normalized_y,normalized_z,normalized_intensity,normalized_velocity,normalized_range,range
1648623770937753916,2180,0,0,0.00575251271948,0.0454158857465,0.0101057486609,0.0,11.3000001907,0.00192391729748495,0.015189259446989964,0.0033798490504682276,11.3000001907,0.0,0.015431024531219481,0.046880915485133214
1648623770937758929,2181,0,1,0.0321101620793,0.0161153152585,-0.0301173441112,0.0,11.3000001907,0.010739184641906355,0.005389737544648829,-0.01007269033819398,11.3000001907,0.0,0.016115503229688855,0.046880916276798516
1648623770937762185,2182,0,2,1.15614461899,0.183128580451,-0.058577015996,0.0,11.3000001907,0.38667044113377924,0.061247016873244145,-0.01959097524949833,11.3000001907,0.0,0.5502538115897557,1.1720229194860168
1648623770937765575,2183,0,3,1.06893253326,0.293005734682,0.381009966135,-0.242756426334,11.3000001907,0.35750251948494977,0.09799522899063544,0.12742808231939798,11.3000001907,-0.03280492247756756,0.5149943376204256,1.1720229159501845
1648623771043056474,2184,1,0,0.0341633781791,0.0146502861753,-0.0285666361451,0.0,33.0,0.011425878989665551,0.0048997612626421405,-0.009554058911404682,33.0,0.0,0.01688517343126359,0.04688091289931251
1648623771043063777,2185,1,1,0.00570635916665,0.0454158857465,0.0101318815723,0.0,33.0,0.0019084813266387957,0.015189259446989964,0.0033885891546153843,33.0,0.0,0.015427190427820349,0.04688091549098699
1648623771043069476,2186,1,2,2.09342098236,-1.21890377998,0.273438125849,0.0,33.0,0.7001407967759197,-0.407660127083612,0.09145087821036789,33.0,0.0,1.0707852491671082,2.4378076714339985
1648623771043072921,2187,1,3,1.14744150639,0.316446185112,0.430639922619,-0.404594063759,33.0,0.3837597011337793,0.10583484451906354,0.1440267299729097,33.0,-0.05467487348094594,0.5529412543326366,1.2657847137692053
1648623771043229815,2188,1,4,1.11460518837,0.293005734682,0.213168531656,-0.0809188112617,33.0,0.37277765497324417,0.09799522899063544,0.07129382329632107,33.0,-0.010934974494824324,0.5362177029897738,1.1720229986592572
1648623771238049762,2189,3,0,0.00566835701466,0.0454158857465,0.0101531911641,0.0,25.7999992371,0.0018957715768093645,0.015189259446989964,0.0033957161083946487,25.7999992371,0.0,0.015424055961090468,0.04688091552219885
1648623771238073243,2190,3,1,0.0319449417293,0.0161153152585,-0.0302925314754,0.0,25.7999992371,0.010683926999765886,0.005389737544648829,-0.010131281429899665,25.7999992371,0.0,0.016041878414725944,0.0468809145725349
1648623771238082489,2191,3,2,1.09091889858,0.24612480402,0.123543411493,0.0,25.7999992371,0.3648558189230769,0.08231598796655518,0.041318866720066884,25.7999992371,0.0,0.5225088124414441,1.1251419630234278
1648623771343017937,2192,4,0,0.00575251271948,0.0454158857465,0.0101057486609,0.0,19.7000007629,0.00192391729748495,0.015189259446989964,0.0033798490504682276,19.7000007629,0.0,0.015431024531219481,0.046880915485133214
1648623771343021251,2193,4,1,0.0320321619511,0.0161153152585,-0.0302002876997,0.0,19.7000007629,0.01071309764250836,0.005389737544648829,-0.010100430668795986,19.7000007629,0.0,0.01608073981494737,0.04688091469123648
1648623771343024063,2194,4,2,1.04703772068,0.24612480402,0.330271214247,0.0809188112617,19.7000007629,0.35017983969230765,0.08231598796655518,0.11045860008260869,19.7000007629,0.010934974494824324,0.5020236669010443,1.125141983325145
