%time,field.header.seq,field.header.frame_id,field.point_id,field.x,field.y,field.z,field.velocity,field.intensity,normalized_x,normalized_y,normalized_z,normalized_intensity,normalized_velocity,normalized_range,range
1648623987538962583,8618,0,0,0.00616691214964,0.0454158857465,0.00985833443701,0.0,12.1999998093,0.0020625124246287626,0.015189259446989964,0.003297101818397993,12.1999998093,0.0,0.015466787564050587,0.04688091553577485
1648623987538969671,8619,0,1,0.0321476347744,0.0161153152585,-0.0300773382187,0.0,12.1999998093,0.010751717315852841,0.005389737544648829,-0.010059310441036789,12.1999998093,0.0,0.016132207576156986,0.04688091383272223
1648623987538986096,8620,0,2,1.06557655334,-0.0673913136125,0.15050470829,0.0,12.1999998093,0.35638011817391296,-0.02253890087374582,0.05033602283946488,12.1999998093,0.0,0.5045013174530875,1.0782609365992213
1648623987538991533,8621,0,3,0.548297643661,0.34867683053,0.0925578996539,-0.485512852669,12.1999998093,0.18337713834816052,0.11661432459197323,0.030955819282240803,12.1999998093,-0.06560984495527027,0.2843470598363256,0.6563328446611465
1648623987539140981,8622,0,4,1.22500681877,0.316446185112,-0.037830799818,-0.242756426334,12.1999998093,0.409701277180602,0.10583484451906354,-0.01265244141070234,12.1999998093,-0.03280492247756756,0.5889917549178488,1.2657847619243183
1648623987642890924,8623,1,0,0.00620788149536,0.0454158857465,0.00983258709311,0.0,13.5,0.0020762145469431434,0.015189259446989964,0.003288490666591973,13.5,0.0,0.015470453653265973,0.04688091551733144
1648623987642909663,8624,1,1,0.0322035737336,0.0161153152585,-0.030017439276,0.0,13.5,0.010770425997859531,0.005389737544648829,-0.010039277349832775,13.5,0.0,0.01615714774181799,0.04688091517648309
1648623987642911805,8625,1,2,1.07120084763,-0.0673913136125,0.10312025249,0.0,13.5,0.35826115305351164,-0.02253890087374582,0.03448837875919732,13.5,0.0,0.507158860345612,1.0782609292686303
1648623987642914899,8626,1,3,0.602773427963,0.205104023218,0.15927746892,0.161837622523,13.5,0.20159646420167224,0.06859666328361204,0.05327005649498327,13.5,0.021869948989594594,0.29323671490943537,0.6563328255573063
1648623987743968563,8627,2,0,0.00620788149536,0.0454158857465,0.00983258709311,0.0,19.7000007629,0.0020762145469431434,0.015189259446989964,0.003288490666591973,19.7000007629,0.0,0.015470453653265973,0.04688091551733144
1648623987743980665,8628,2,1,0.0321391373873,0.0161153152585,-0.0300864223391,0.0,19.7000007629,0.010748875380367893,0.005389737544648829,-0.010062348608394648,19.7000007629,0.0,0.016128419472643783,0.046880916661764235
1648623987743986250,8629,2,2,1.06222724915,-0.101086974144,0.155246689916,0.0,19.7000007629,0.35525994954849494,-0.03380835255652174,0.051921969871571896,19.7000007629,0.0,0.5035496680656084,1.07826102586908
1648623987744065954,8630,2,3,2.11019277573,-1.14272224903,0.429159641266,0.0,19.7000007629,0.7057500922173912,-0.3821813541906354,0.1435316525973244,19.7000007629,0.0,1.0687511276348205,2.4378075573889797
1648623987744069759,8631,2,4,0.501759529114,0.307656019926,0.290444403887,0.161837622523,19.7000007629,0.1678125515431438,0.10289498994180601,0.09713859661772574,19.7000007629,0.021869948989594594,0.258668675849947,0.6563328449823954
1648623987744072769,8632,2,5,0.541069090366,0.0410208031535,-0.369234830141,0.161837622523,19.7000007629,0.18095956199531774,0.013719332158361203,-0.12348990974615384,19.7000007629,0.021869948989594594,0.2562829417459264,0.656332862677241
1648623987744076040,8633,2,6,0.471648544073,0.0219754297286,-0.521127939224,-0.404594063759,19.7000007629,0.15774198798428093,0.007349642049698997,-0.17429028067692307,19.7000007629,-0.05467487348094594,0.22320189691112566,0.7032137638569017
1648623987744091139,8634,2,7,0.614258110523,0.28568059206,0.188634991646,-0.404594063759,19.7000007629,0.20543749515819396,0.09554534851505017,0.06308862596856186,19.7000007629,-0.05467487348094594,0.3058398967705298,0.7032137563332537
1648623987744249565,8635,2,8,0.575720965862,0.0703213736415,-0.475649297237,-0.161837622523,19.7000007629,0.1925488180140468,0.023518854060702338,-0.15908003252073577,19.7000007629,-0.021869948989594594,0.27331891836011213,0.7500946474185465
1648623987744506941,8636,2,9,0.585636258125,0.375047326088,0.28109011054,-0.161837622523,19.7000007629,0.19586496927257524,0.1254338883237458,0.09401007041471571,19.7000007629,-0.021869948989594594,0.3040720847370038,0.7500946432816326
1648623987939055711,8637,4,0,0.00634735124186,0.0454158857465,0.00974313542247,0.0,23.2999992371,0.002122859947110368,0.015189259446989964,0.0032585737198896317,23.2999992371,0.0,0.015483109224508648,0.046880915453809915
1648623987939062103,8638,4,1,0.0321309752762,0.0161153152585,-0.0300951395184,0.0,23.2999992371,0.010746145577324414,0.005389737544648829,-0.010065264052976588,23.2999992371,0.0,0.01612478093923435,0.04688091702081541
1648623987939064563,8639,4,2,1.12012684345,-0.105482056737,-0.0115698361769,0.0,23.2999992371,0.3746243623578595,-0.035278279845150494,-0.003869510427056856,23.2999992371,0.0,0.5309721111065048,1.1251419780720515
1648623987939067513,8640,4,3,1.8290977478,0.300330877304,0.508663535118,0.566431701183,23.2999992371,0.6117383771906354,0.10044510946622072,0.170121583651505,23.2999992371,0.07654482448418919,0.8709402415041719,1.9221175299205726
1648623988044116647,8641,5,0,0.00620788149536,0.0454158857465,0.00983258709311,0.0,14.3000001907,0.0020762145469431434,0.015189259446989964,0.003288490666591973,14.3000001907,0.0,0.015470453653265973,0.04688091551733144
1648623988044125847,8642,5,1,0.0322035737336,0.0161153152585,-0.030017439276,0.0,14.3000001907,0.010770425997859531,0.005389737544648829,-0.010039277349832775,14.3000001907,0.0,0.01615714774181799,0.04688091517648309
1648623988044128130,8643,5,2,0.911791741848,0.205104008317,0.0754734352231,0.161837622523,14.3000001907,0.30494707085217393,0.06859665829999999,0.025241951579632105,14.3000001907,0.021869948989594594,0.43668173029400775,0.937618298751835
1648623988044132012,8644,5,3,0.98963290453,0.351606875658,0.403662979603,-0.242756426334,14.3000001907,0.33098090452508355,0.11759427279531771,0.13500434100434783,14.3000001907,-0.03280492247756756,0.48262317734931104,1.1251419829694544
1648623988044212667,8645,5,4,0.833742439747,-0.105482056737,-0.748125374317,-0.242756426334,14.3000001907,0.2788436253334448,-0.035278279845150494,-0.2502091552899665,14.3000001907,-0.03280492247756756,0.3959192996142394,1.1251419891843424
1648623988238940630,8646,7,0,0.00623617786914,0.0454158857465,0.00981466472149,0.0,28.7000007629,0.002085678217103679,0.015189259446989964,0.0032824965623712375,28.7000007629,0.0,0.015472999379518357,0.046880915479008654
1648623988238942638,8647,7,1,0.0321391373873,0.0161153152585,-0.0300864223391,0.0,28.7000007629,0.010748875380367893,0.005389737544648829,-0.010062348608394648,28.7000007629,0.0,0.016128419472643783,0.046880916661764235
1648623988238944308,8648,7,2,1.0646340847,-0.101086974144,0.137777119875,0.0,28.7000007629,0.356064911270903,-0.03380835255652174,0.04607930430602006,28.7000007629,0.0,0.5046854929352519,1.0782610284192073
1648623988239097572,8649,7,3,0.920617043972,0.175803437829,-0.0261826086789,0.0809188112617,28.7000007629,0.3078986769137123,0.05879713639765886,-0.008756725310668895,28.7000007629,0.010934974494824324,0.4393862694019854,0.9376183228806222
