%time,field.header.seq,field.header.frame_id,field.point_id,field.x,field.y,field.z,field.velocity,field.intensity,normalized_x,normalized_y,normalized_z,normalized_intensity,normalized_velocity,normalized_range,range
1648633343343495973,4381,0,0,0.00634074071422,0.0454158857465,0.00974743906409,0.0,13.8999996185,0.0021206490683010034,0.015189259446989964,0.0032600130649130437,13.8999996185,0.0,0.015482503269489262,0.04688091551209571
1648633343343501142,4382,0,1,0.0341823659837,0.0146502861753,-0.0285439155996,0.0,13.8999996185,0.011432229425986621,0.0048997612626421405,-0.009546460066755852,13.8999996185,0.0,0.016893768073691473,0.04688091452839722
1648633343343506269,4383,0,2,1.29720079899,-0.164083212614,0.115922927856,0.0,13.8999996185,0.43384642106688964,-0.054877328633444813,0.03877020998528428,13.8999996185,0.0,0.6160007754402919,1.3126657376364834
1648633343343530009,4384,0,3,2.31307864189,-1.1485824585,0.472007602453,0.0,13.8999996185,0.7736048969531771,-0.38414129046822737,0.15786207439899663,13.8999996185,0.0,1.1595230071984197,2.6253315303624074
1648633343448736634,4385,1,0,0.00620351405814,0.0454158857465,0.00983534287661,0.0,13.3999996185,0.002074753865598662,0.015189259446989964,0.003289412333314381,13.3999996185,0.0,0.01547006172429855,0.04688091545937606
1648633343448742520,4386,1,1,0.0341001749039,0.0146502861753,-0.0286420565099,0.0,13.3999996185,0.011404740770535117,0.0048997612626421405,-0.009579283113678928,13.3999996185,0.0,0.016856567993429158,0.04688091524928947
1648633343448745342,4387,1,2,1.23761367798,-0.237334638834,0.119146332145,0.0,13.3999996185,0.4139176180535117,-0.07937613338929765,0.03984827162040134,13.3999996185,0.0,0.5907251134174178,1.265784813930573
1648633343448747032,4388,1,3,2.40446734428,-0.984499275684,0.376381158829,0.0,13.3999996185,0.804169680361204,-0.32926397180066885,0.12587998623043475,13.3999996185,0.0,1.18397318920254,2.6253313715134508
1648633343643650939,4389,3,0,0.00623534247279,0.0454158857465,0.00981519557536,0.0,14.1999998093,0.002085398820331104,0.015189259446989964,0.0032826741054715718,14.1999998093,0.0,0.015472924061975183,0.04688091549953655
1648633343643652991,4390,3,1,0.0341001749039,0.0146502861753,-0.0286420565099,0.0,14.1999998093,0.011404740770535117,0.0048997612626421405,-0.009579283113678928,14.1999998093,0.0,0.016856567993429158,0.04688091524928947
1648633343643746801,4391,3,2,1.24255168438,-0.197778865695,0.138418644667,0.0,14.1999998093,0.4155691252107023,-0.06614677782441471,0.046293861092642136,14.1999998093,0.0,0.5914142303608606,1.2657846930906635
1648633343643749608,4392,3,3,2.39948320389,-0.984499275684,0.406947463751,0.0,14.1999998093,0.8025027437759197,-0.32926397180066885,0.13610283068595316,14.1999998093,0.0,1.1817089619113965,2.6253313520060493
1648633343643751269,4393,3,4,1.26334953308,0.175803437829,0.592519640923,0.0809188112617,14.1999998093,0.422524927451505,0.05879713639765886,0.1981671039876254,14.1999998093,0.010934974494824324,0.6004262917997213,1.4064275368341839
1648633343748704888,4394,4,0,0.00619364297017,0.0454158857465,0.00984156224877,0.0,11.6000003815,0.0020714524983846154,0.015189259446989964,0.003291492390892976,11.6000003815,0.0,0.015469176883535258,0.04688091550809873
1648633343748708049,4395,4,1,0.0341001749039,0.0146502861753,-0.0286420565099,0.0,11.6000003815,0.011404740770535117,0.0048997612626421405,-0.009579283113678928,11.6000003815,0.0,0.016856567993429158,0.04688091524928947
1648633343748709845,4396,4,2,1.34228956699,0.212429150939,-0.0387216247618,0.0,11.6000003815,0.4489262765852842,0.07104653877558528,-0.01295037617451505,11.6000003815,0.0,0.6388405233620085,1.3595465383880978
1648633343748711396,4397,4,3,1.99961304665,-1.29508531094,0.51692122221,0.0,11.6000003815,0.6687669052341136,-0.4331388999799331,0.172883351909699,11.6000003815,0.0,1.0402440356707912,2.437807590626572
1648633343748712984,4398,4,4,2.32589554787,-1.1485824585,0.404146164656,0.0,11.6000003815,0.7778914875819398,-0.38414129046822737,0.13516594135652174,11.6000003815,0.0,1.165244551134002,2.6253315763883136
1648633343943676936,4399,6,0,0.00620351405814,0.0454158857465,0.00983534287661,0.0,14.5,0.002074753865598662,0.015189259446989964,0.003289412333314381,14.5,0.0,0.01547006172429855,0.04688091545937606
1648633343943678851,4400,6,1,0.0341001749039,0.0146502861753,-0.0286420565099,0.0,14.5,0.011404740770535117,0.0048997612626421405,-0.009579283113678928,14.5,0.0,0.016856567993429158,0.04688091524928947
1648633343943772799,4401,6,2,1.97155451775,-1.29508531094,0.615331292152,0.0,14.5,0.6593827818561873,-0.4331388999799331,0.2057964187799331,14.5,0.0,1.028192886910153,2.437807576117205
1648633343943792992,4402,6,3,2.33414340019,-1.1485824585,0.35340988636,0.0,14.5,0.780649966618729,-0.38414129046822737,0.11819728640802674,14.5,0.0,1.16892825776702,2.6253315265698207
1648633344048663210,4403,7,0,0.00623248284683,0.0454158857465,0.00981701165438,0.0,13.6000003815,0.002084442423688963,0.015189259446989964,0.003283281489759197,13.6000003815,0.0,0.015472666317843298,0.04688091550297844
1648633344048669486,4404,7,1,0.0341001749039,0.0146502861753,-0.0286420565099,0.0,13.6000003815,0.011404740770535117,0.0048997612626421405,-0.009579283113678928,13.6000003815,0.0,0.016856567993429158,0.04688091524928947
1648633344048674498,4405,7,2,1.24525177479,-0.197778865695,0.111545860767,0.0,13.6000003815,0.4164721654816053,-0.06614677782441471,0.03730630794882943,13.6000003815,0.0,0.5926833264555599,1.2657847136806073
1648633344048677877,4406,7,3,2.31654953957,-1.1485824585,0.4546661973,0.0,13.6000003815,0.7747657322976588,-0.38414129046822737,0.1520622733444816,13.6000003815,0.0,1.161072095491081,2.6253313665560634
1648633344243770373,4407,9,0,0.00640947930515,0.0454158857465,0.00970237795264,0.0,13.3999996185,0.0021436385635953173,0.015189259446989964,0.003244942459076923,13.3999996185,0.0,0.015488833885436305,0.04688091553114297
1648633344243779261,4408,9,1,0.0340477637947,0.0146502861753,-0.0287043377757,0.0,13.3999996185,0.011387211971471571,0.0048997612626421405,-0.009600112968461538,13.3999996185,0.0,0.0168328504240173,0.046880914150423184
1648633344244037781,4409,9,2,1.98587727547,-1.29508531094,0.567407488823,0.0,13.3999996185,0.6641730018294314,-0.4331388999799331,0.18976839091070233,13.3999996185,0.0,1.034340784941821,2.4378075753047304
1648633344244042010,4410,9,3,2.32251048088,-1.1485824585,0.423164516687,0.0,13.3999996185,0.7767593581538461,-0.38414129046822737,0.14152659420969899,13.3999996185,0.0,1.1637331017040569,2.625331370694811
1648633344348859861,4411,10,0,0.00627378607169,0.0454158857465,0.00979066733271,0.0,13.3999996185,0.0020982562112675583,0.015189259446989964,0.00327447067983612,13.3999996185,0.0,0.015476400124196184,0.04688091548415269
1648633344348866250,4412,10,1,0.0341001749039,0.0146502861753,-0.0286420565099,0.0,13.3999996185,0.011404740770535117,0.0048997612626421405,-0.009579283113678928,13.3999996185,0.0,0.016856567993429158,0.04688091524928947
1648633344348871610,4413,10,2,2.32343673706,-1.1485824585,0.41804972291,0.0,13.3999996185,0.7770691428294314,-0.38414129046822737,0.13981596083946488,13.3999996185,0.0,1.1641466559321165,2.6253315040045995
1648633344543693766,4414,12,0,0.00616445438936,0.0454158857465,0.00985987111926,0.0,13.6999998093,0.00206169043122408,0.015189259446989964,0.0032976157589498325,13.6999998093,0.0,0.015466568378809041,0.0468809154619026
1648633344543697161,4415,12,1,0.0341001749039,0.0146502861753,-0.0286420565099,0.0,13.6999998093,0.011404740770535117,0.0048997612626421405,-0.009579283113678928,13.6999998093,0.0,0.016856567993429158,0.04688091524928947
1648633344543701954,4416,12,2,1.23470926285,-0.158223092556,0.229498460889,0.0,13.6999998093,0.4129462417558528,-0.05291742225953177,0.07675533808996655,13.6999998093,0.0,0.5863867757198827,1.265784758296605
1648633344543793210,4417,12,3,2.32669234276,-1.1485824585,0.399532437325,0.0,13.6999998093,0.778157974167224,-0.38414129046822737,0.13362288873745817,13.6999998093,0.0,1.1656003588548998,2.6253314248503514
1648633344648792988,4418,13,0,0.00617445493117,0.0454158857465,0.00985361170024,0.0,13.8000001907,0.002065035094036789,0.015189259446989964,0.0032955223077725747,13.8000001907,0.0,0.015467460762102515,0.04688091547074671
1648633344648798323,4419,13,1,0.0341001749039,0.0146502861753,-0.0286420565099,0.0,13.8000001907,0.011404740770535117,0.0048997612626421405,-0.009579283113678928,13.8000001907,0.0,0.016856567993429158,0.04688091524928947
1648633344648802100,4420,13,2,1.97713828087,-1.29508531094,0.597146391869,0.0,13.8000001907,0.6612502611605351,-0.4331388999799331,0.1997145123307692,13.8000001907,0.0,1.0305887261393742,2.4378075308802174
1648633344648805189,4421,13,3,2.33015680313,-1.1485824585,0.37880513072,0.0,13.8000001907,0.7793166565652173,-0.38414129046822737,0.12669067917056856,13.8000001907,0.0,1.1671475628396664,2.62533154443524
1648633344843739704,4422,15,0,0.00623248284683,0.0454158857465,0.00981701165438,0.0,13.8999996185,0.002084442423688963,0.015189259446989964,0.003283281489759197,13.8999996185,0.0,0.015472666317843298,0.04688091550297844
1648633344843741599,4423,15,1,0.0340477637947,0.0146502861753,-0.0287043377757,0.0,13.8999996185,0.011387211971471571,0.0048997612626421405,-0.009600112968461538,13.8999996185,0.0,0.0168328504240173,0.046880914150423184
1648633344843743886,4424,15,2,1.59075427055,-0.0498109720647,0.0877487584949,0.0,13.8999996185,0.5320248396488294,-0.016659187981505015,0.02934741086785953,13.8999996185,0.0,0.7525811508076244,1.593951105532566
1648633344843748990,4425,15,3,2.33289527893,-1.1485824585,0.361555367708,0.0,13.8999996185,0.7802325347591973,-0.38414129046822737,0.12092152766153845,13.8999996185,0.0,1.1683707235445944,2.6253312801142363
