%time,field.header.seq,field.header.frame_id,field.point_id,field.x,field.y,field.z,field.velocity,field.intensity,normalized_x,normalized_y,normalized_z,normalized_intensity,normalized_velocity,normalized_range,range
1648623801537960422,3077,0,0,0.0058663142845,0.0454158857465,0.0100401155651,0.0,23.3999996185,0.0019619780215719062,0.015189259446989964,0.003357898182307692,23.3999996185,0.0,0.015440606142967196,0.04688091554123312
1648623801537973278,3078,0,1,0.0320727676153,0.0161153152585,-0.0301571637392,0.0,23.3999996185,0.010726678132207358,0.005389737544648829,-0.010086007939531773,23.3999996185,0.0,0.016098835930095947,0.0468809165138524
1648623801537976164,3079,0,2,1.06114852428,-0.101086974144,0.162455797195,0.0,23.3999996185,0.354899172,-0.03380835255652174,0.054333042540133776,23.3999996185,0.0,0.5030406040024574,1.0782609391819191
1648623801537978396,3080,0,3,1.04533135891,0.571361124516,0.257983028889,0.161837622523,23.3999996185,0.3496091501371237,0.19109067709565214,0.086281949461204,23.3999996185,0.021869948989594594,0.5300648664004044,1.2189037811589385
1648623801642906960,3081,1,0,0.00578337814659,0.0454158857465,0.0100881168619,0.0,25.7000007629,0.00193424018280602,0.015189259446989964,0.0033739521277257522,25.7000007629,0.0,0.015433605305227189,0.04688091554934638
1648623801642910882,3082,1,1,0.0320480465889,0.0161153152585,-0.0301834326237,0.0,25.7000007629,0.010718410230401338,0.005389737544648829,-0.010094793519632106,25.7000007629,0.0,0.01608781857600779,0.04688091595729104
1648623801642915683,3083,1,2,1.06097149849,-0.101086974144,0.16360796988,0.0,25.7000007629,0.3548399660501672,-0.03380835255652174,0.054718384575250835,25.7000007629,0.0,0.5029570634910635,1.078260944650209
1648623801642936039,3084,1,3,2.07955050468,-1.21890377998,0.364210933447,0.0,25.7000007629,0.6955018410301003,-0.407660127083612,0.12180967673812708,25.7000007629,0.0,1.0647217481419005,2.437807689381324
1648623801838030318,3085,3,0,0.00578337814659,0.0454158857465,0.0100881168619,0.0,11.3000001907,0.00193424018280602,0.015189259446989964,0.0033739521277257522,11.3000001907,0.0,0.015433605305227189,0.04688091554934638
1648623801838054112,3086,3,1,0.0321434624493,0.0161153152585,-0.0300817992538,0.0,11.3000001907,0.010750321889397991,0.005389737544648829,-0.010060802426020067,11.3000001907,0.0,0.01613034755519968,0.04688091520497786
1648623801838056550,3087,3,2,1.06681239605,0.175803437829,-0.311366349459,0.0,11.3000001907,0.35679344349498326,0.05879713639765886,-0.10413590282909697,11.3000001907,0.0,0.507996285311793,1.1251420091232311
1648623801838106083,3088,3,3,1.07043099403,-0.210964113474,0.274984061718,0.0,11.3000001907,0.35800367693311036,-0.07055655969030099,0.0919679136180602,11.3000001907,0.0,0.5111863588854701,1.1251420374125454
1648623801943158977,3089,4,0,0.00578337814659,0.0454158857465,0.0100881168619,0.0,13.6000003815,0.00193424018280602,0.015189259446989964,0.0033739521277257522,13.6000003815,0.0,0.015433605305227189,0.04688091554934638
1648623801943161684,3090,4,1,0.0319937802851,0.0161153152585,-0.030240945518,0.0,13.6000003815,0.010700260964916386,0.005389737544648829,-0.010114028601337791,13.6000003815,0.0,0.016063637204407472,0.04688091454563083
1648623802138119150,3091,6,0,0.00582131883129,0.0454158857465,0.0100662708282,0.0,17.2999992371,0.0019469293750133778,0.015189259446989964,0.003366645761939799,17.2999992371,0.0,0.015436795993034106,0.04688091551432569
1648623802138125213,3092,6,1,0.0321434624493,0.0161153152585,-0.0300817992538,0.0,17.2999992371,0.010750321889397991,0.005389737544648829,-0.010060802426020067,17.2999992371,0.0,0.01613034755519968,0.04688091520497786
1648623802138137632,3093,6,2,1.12469816208,0.329631447792,0.00591458799317,0.0,17.2999992371,0.37615323146488294,0.11024463136856186,0.001978123074638796,17.2999992371,0.0,0.5432645633837511,1.1720229645833349
1648623802138140091,3094,6,3,0.681094348431,-0.952268660069,0.0541542097926,0.0,17.2999992371,0.22779075198361204,-0.3184845016953177,0.01811177585036789,17.2999992371,0.0,0.453000696686698,1.1720229480912556
1648623802138142464,3095,6,4,1.09642791748,0.41899818182,0.328653007746,-0.161837622523,17.2999992371,0.3666983001605351,0.14013317117725752,0.10991739389498327,17.2999992371,-0.021869948989594594,0.5371895311204848,1.2189037919780576
