%time,field.header.seq,field.header.frame_id,field.point_id,field.x,field.y,field.z,field.velocity,field.intensity,normalized_x,normalized_y,normalized_z,normalized_intensity,normalized_velocity,normalized_range,range
1648623972338746991,8137,0,0,0.00616691214964,0.0454158857465,0.00985833443701,0.0,12.5,0.0020625124246287626,0.015189259446989964,0.003297101818397993,12.5,0.0,0.015466787564050587,0.04688091553577485
1648623972338753292,8138,0,1,0.0321726836264,0.0161153152585,-0.0300505477935,0.0,12.5,0.010760094858327759,0.005389737544648829,-0.010050350432608695,12.5,0.0,0.016143374911108895,0.046880917016358555
1648623972338765026,8139,0,2,0.907079637051,0.234404578805,0.0372703000903,0.161837622523,12.5,0.30337111607056855,0.07839618020234114,0.012464983307792643,12.5,0.021869948989594594,0.43613533358594403,0.9376182857571329
1648623972443606988,8140,1,0,0.00619543576613,0.0454158857465,0.00984043348581,0.0,31.6000003815,0.002072052095695652,0.015189259446989964,0.0032911148781973243,31.6000003815,0.0,0.0154693374881579,0.046880915452452876
1648623972443621925,8141,1,1,0.0320663154125,0.0161153152585,-0.0301640219986,0.0,31.6000003815,0.010724520204849496,0.005389737544648829,-0.010088301671772574,31.6000003815,0.0,0.016095960302158034,0.04688091502036626
1648623972443624616,8142,1,2,1.05442905426,-0.101086974144,0.201513260603,0.0,31.6000003815,0.35265185761204015,-0.03380835255652174,0.06739573933210702,31.6000003815,0.0,0.49986965306670833,1.0782610078307018
1648623972443626782,8143,1,3,0.907488107681,0.234404578805,0.0254537649453,0.161837622523,31.6000003815,0.30350772832140466,0.07839618020234114,0.00851296486464883,31.6000003815,0.021869948989594594,0.4363253870358188,0.9376182945618554
1648623972638844540,8144,3,0,0.00619543576613,0.0454158857465,0.00984043348581,0.0,26.3999996185,0.002072052095695652,0.015189259446989964,0.0032911148781973243,26.3999996185,0.0,0.0154693374881579,0.046880915452452876
1648623972638896096,8145,3,1,0.0321476347744,0.0161153152585,-0.0300773382187,0.0,26.3999996185,0.010751717315852841,0.005389737544648829,-0.010059310441036789,26.3999996185,0.0,0.016132207576156986,0.04688091383272223
1648623972638969127,8146,3,2,0.890096962452,0.234404578805,0.178633749485,0.0,26.3999996185,0.2976912917899665,0.07839618020234114,0.059743728924749155,26.3999996185,0.0,0.42823611651222965,0.9376183261786729
1648623972638971533,8147,3,3,0.422685593367,0.586011469364,0.59754127264,0.0,26.3999996185,0.14136641918628762,0.19599045798127088,0.19984657947826087,26.3999996185,0.0,0.2799664061397629,0.9376183261724347
1648623972638974104,8148,3,4,1.06980383396,-0.101086974144,0.0891513228416,0.0,26.3999996185,0.3577939244013378,-0.03380835255652174,0.029816495933645482,26.3999996185,0.0,0.5071252206108532,1.078260997097415
1648623972638977631,8149,3,5,0.227645397186,0.303260922432,-1.0093845129,0.0,26.3999996185,0.07613558434314381,0.10142505766956521,-0.33758679361204014,26.3999996185,0.0,0.14791989970865502,1.0782609650806476
1648623972639025510,8150,3,6,1.24434876442,0.118667319417,0.199311733246,-0.161837622523,26.3999996185,0.4161701553244147,0.039688066694648826,0.06665944255719063,26.3999996185,-0.021869948989594594,0.5898901075653445,1.2657847159848004
1648623972743888087,8151,4,0,0.00616691214964,0.0454158857465,0.00985833443701,0.0,19.1000003815,0.0020625124246287626,0.015189259446989964,0.003297101818397993,19.1000003815,0.0,0.015466787564050587,0.04688091553577485
1648623972743890897,8152,4,1,0.0321476347744,0.0161153152585,-0.0300773382187,0.0,19.1000003815,0.010751717315852841,0.005389737544648829,-0.010059310441036789,19.1000003815,0.0,0.016132207576156986,0.04688091383272223
1648623972743893792,8153,4,2,0.914753198624,0.205104008317,-0.0169430878013,0.0,19.1000003815,0.30593752462341134,0.06859665829999999,-0.005666584548929766,19.1000003815,0.0,0.4380651087171036,0.9376183321825473
1648623972743898093,8154,4,3,1.07050573826,-0.0673913136125,0.110102668405,0.0,19.1000003815,0.35802867500334445,-0.02253890087374582,0.0368236349180602,19.1000003815,0.0,0.5068304117768561,1.0782609713737705
1648623972743902400,8155,4,4,1.20191431046,0.114272229373,0.167542204261,-0.323675245047,19.1000003815,0.4019780302541806,0.03821813691404682,0.0560341820270903,19.1000003815,-0.04373989797932432,0.5697660042537136,1.2189038281599773
1648623972938794228,8156,6,0,0.00612545339391,0.0454158857465,0.00988414790481,0.0,26.7999992371,0.002048646620036789,0.015189259446989964,0.0033057350852207356,26.7999992371,0.0,0.015463101516046197,0.04688091549046653
1648623972938804333,8157,6,1,0.0321892164648,0.0161153152585,-0.0300328359008,0.0,26.7999992371,0.010765624235719062,0.005389737544648829,-0.010044426722675585,26.7999992371,0.0,0.016150746149005017,0.04688091589061561
1648623972938806905,8158,6,2,1.07595098019,-0.0673913136125,0.0208439826965,0.0,26.7999992371,0.35984982615050165,-0.02253890087374582,0.006971231671070234,26.7999992371,0.0,0.5094033733827144,1.078260901886409
1648623972938937747,8159,6,3,0.919008374214,0.146502867341,0.11440563947,-0.323675245047,26.7999992371,0.30736066027224074,0.04899761449531772,0.038262755675585285,26.7999992371,-0.04373989797932432,0.43742647061215595,0.937618329789437
