%time,field.header.seq,field.header.frame_id,field.point_id,field.x,field.y,field.z,field.velocity,field.intensity,normalized_x,normalized_y,normalized_z,normalized_intensity,normalized_velocity,normalized_range,range
1648623856438306951,4699,0,0,0.00603537168354,0.0454158857465,0.0099394088611,0.0,36.7000007629,0.0020185189577056856,0.015189259446989964,0.0033242170104013377,36.7000007629,0.0,0.015455175188693538,0.04688091549880112
1648623856438314429,4700,0,1,0.0320977009833,0.0161153152585,-0.0301306247711,0.0,36.7000007629,0.010735017051270902,0.005389737544648829,-0.010077132030468228,36.7000007629,0.0,0.016109948882052704,0.04688091662276886
1648623856438344023,4701,0,2,1.05991697311,-0.134782627225,0.145108133554,0.0,36.7000007629,0.3544872819765886,-0.04507780174749164,0.0485311483458194,36.7000007629,0.0,0.5033432967435695,1.0782609688344762
1648623856438360611,4702,0,3,0.902266860008,0.24612480402,0.307531774044,-0.404594063759,36.7000007629,0.3017614916414716,0.08231598796655518,0.10285343613511705,36.7000007629,-0.05467487348094594,0.4346215797107662,0.9844992117159004
1648623856438529021,4703,0,4,0.886362850666,0.234404578805,0.196324929595,-0.242756426334,36.7000007629,0.2964424249719063,0.07839618020234114,0.06566051157023411,36.7000007629,-0.03280492247756756,0.4264999222939748,0.9376183059145065
1648623856543662094,4704,1,0,0.00595463858917,0.0454158857465,0.00998798478395,0.0,39.2000007629,0.001991517922799331,0.015189259446989964,0.003340463138444816,39.2000007629,0.0,0.01544816784675891,0.04688091550845814
1648623856543669857,4705,1,1,0.0321143567562,0.0161153152585,-0.0301128700376,0.0,39.2000007629,0.010740587543879599,0.005389737544648829,-0.010071193992508361,39.2000007629,0.0,0.016117372998590073,0.04688091549497215
1648623856543686063,4706,1,2,0.786596596241,0.250519901514,0.334542542696,-0.485512852669,39.2000007629,0.2630757846959866,0.08378592023879598,0.11188713802541804,39.2000007629,-0.06560984495527027,0.3813631044255331,0.8907374131280307
1648623856738580648,4707,3,0,0.00595463858917,0.0454158857465,0.00998798478395,0.0,36.7999992371,0.001991517922799331,0.015189259446989964,0.003340463138444816,36.7999992371,0.0,0.01544816784675891,0.04688091550845814
1648623856738676239,4708,3,1,0.0321392267942,0.0161153152585,-0.0300863236189,0.0,36.7999992371,0.010748905282341136,0.005389737544648829,-0.01006231559160535,36.7999992371,0.0,0.01612845932932466,0.046880914599771256
1648623856738679300,4709,3,2,1.02602040768,-0.064461261034,0.0828968733549,0.0,36.7999992371,0.34315063802006684,-0.021558950178595316,0.027724706807658858,36.7999992371,0.0,0.48576692876312716,1.0313801543378391
1648623856738683830,4710,3,3,0.69552308321,0.36918720603,0.303384542465,-0.323675245047,36.7999992371,0.23261641578929765,0.12347398194983276,0.10146640216220736,36.7999992371,-0.04373989797932432,0.35137816950952777,0.8438564646792011
1648623856738686823,4711,3,4,0.824100553989,0.278355449438,0.191806480289,-0.161837622523,36.7999992371,0.27561891437759195,0.09309546803946488,0.06414932451137123,36.7999992371,-0.021869948989594594,0.4007472246876474,0.890737450204976
1648623856738688477,4712,3,5,0.92814129591,0.307655990124,0.114630810916,-0.161837622523,36.7999992371,0.31041514913377927,0.10289497997458194,0.03833806385150501,36.7999992371,-0.021869948989594594,0.45089079224071815,0.9844992108904572
1648623856843461740,4713,4,0,0.00584159512073,0.0454158857465,0.0100545175374,0.0,22.7000007629,0.0019537107427190638,0.015189259446989964,0.0033627148954515048,22.7000007629,0.0,0.015438509444904505,0.046880915462515896
1648623856843466610,4714,4,1,0.0321143567562,0.0161153152585,-0.0301128700376,0.0,22.7000007629,0.010740587543879599,0.005389737544648829,-0.010071193992508361,22.7000007629,0.0,0.016117372998590073,0.04688091549497215
1648623856843475303,4715,4,2,1.07113981247,-0.0673913136125,0.103752844036,0.0,22.7000007629,0.3582407399565217,-0.02253890087374582,0.03469994783812709,22.7000007629,0.0,0.5071300203910127,1.078260979380337
1648623856843480303,4716,4,3,1.05899703503,-0.134782627225,0.151676684618,0.0,22.7000007629,0.3541796103779264,-0.04507780174749164,0.050727988166555174,22.7000007629,0.0,0.502909933313417,1.0782610507018755
1648623856843588907,4717,4,4,0.803368449211,0.306190997362,0.232936486602,-0.0809188112617,22.7000007629,0.26868510007056856,0.10240501584013377,0.07790517946555184,22.7000007629,-0.010934974494824324,0.39353545363674786,0.8907374466382937
1648623856843595264,4718,4,5,0.76764190197,-0.0,-0.451817601919,-0.0809188112617,22.7000007629,0.25673642206354513,-0.0,-0.15110956585919733,22.7000007629,-0.010934974494824324,0.36308013003740863,0.8907374669699007
