%time,field.header.seq,field.header.frame_id,field.point_id,field.x,field.y,field.z,field.velocity,field.intensity,normalized_x,normalized_y,normalized_z,normalized_intensity,normalized_velocity,normalized_range,range
1648624088939321898,11660,0,0,0.00636456906796,0.0454158857465,0.00973189715296,0.0,36.2999992371,0.002128618417377926,0.015189259446989964,0.0032548151013244144,36.2999992371,0.0,0.01548469035149153,0.0468809155174658
1648624088939343049,11661,0,1,0.0322042368352,0.0161153152585,-0.0300167296082,0.0,36.2999992371,0.010770647770969899,0.005389737544648829,-0.010039040002742474,36.2999992371,0.0,0.01615744341202515,0.04688091629213625
1648624088939362606,11662,0,2,1.11705517769,-0.0703213736415,0.114835187793,0.0,36.2999992371,0.3735970493946488,-0.023518854060702338,0.038406417322073574,36.2999992371,0.0,0.5288692155241255,1.1251419847958384
1648624088939389424,11663,0,3,0.897926211357,0.205104008317,0.175467804074,0.0809188112617,36.2999992371,0.30030976968461537,0.06859665829999999,0.058684884305685615,36.2999992371,0.010934974494824324,0.4302062494501683,0.937618304821417
1648624088939404941,11664,0,4,0.491423398256,0.556710898876,-0.572454512119,0.0809188112617,36.2999992371,0.16435565159063545,0.18619093607892975,-0.1914563585682274,36.2999992371,0.010934974494824324,0.2978130707297999,0.9376183390517707
1648624088939412074,11665,0,5,0.923279702663,0.184593603015,0.287608325481,0.161837622523,36.2999992371,0.30878919821505013,0.06173699097491638,0.09619007541170568,36.2999992371,0.021869948989594594,0.44103627279762825,0.9844992414976875
1648624088939442680,11666,0,6,0.864790856838,0.175803437829,0.316793292761,0.242756426334,36.2999992371,0.2892277113170569,0.05879713639765886,0.10595093403377925,36.2999992371,0.03280492247756756,0.413234123997487,0.9376182939562634
1648624089044708965,11667,1,0,0.00640349462628,0.0454158857465,0.009706328623,0.0,33.5999984741,0.002141636998755853,0.015189259446989964,0.003246263753511706,33.5999984741,0.0,0.015488280105190952,0.046880915487067944
1648624089044771445,11668,1,1,0.0322042368352,0.0161153152585,-0.0300167296082,0.0,33.5999984741,0.010770647770969899,0.005389737544648829,-0.010039040002742474,33.5999984741,0.0,0.01615744341202515,0.04688091629213625
1648624089044779152,11669,1,2,0.884277284145,0.175803437829,0.257439106703,0.0,33.5999984741,0.2957449110852842,0.05879713639765886,0.08610003568662207,33.5999984741,0.0,0.4223590985337598,0.9376182899599339
1648624089044789121,11670,1,3,0.912075042725,0.128922522068,0.46394303441,-0.161837622523,33.5999984741,0.3050418203093645,0.04311790035719063,0.155164894451505,33.5999984741,-0.021869948989594594,0.4335437435905561,1.0313801624210845
1648624089239827870,11671,3,0,0.00625238614157,0.0454158857465,0.00980434753001,0.0,28.5,0.0020910990440033443,0.015189259446989964,0.003279045996658862,28.5,0.0,0.015474462606877088,0.046880915531713446
1648624089239895201,11672,3,1,0.0322292968631,0.0161153152585,-0.0299898199737,0.0,28.5,0.010779029051204012,0.005389737544648829,-0.010030040124983278,28.5,0.0,0.016168617917855482,0.04688091577844449
1648624089240066235,11673,3,2,1.11565828323,-0.105482056737,0.100620292127,0.0,28.5,0.37312986061204007,-0.035278279845150494,0.033652271614381266,28.5,0.0,0.5288632552839663,1.1251419076813827
1648624089240080518,11674,3,3,0.139001592994,0.316446185112,1.07074034214,0.0,28.5,0.04648882708829431,0.10583484451906354,0.35810713783946485,28.5,0.0,0.12459308328500827,1.1251419960222317
1648624089240087325,11675,3,4,0.776430010796,0.293005734682,0.436385303736,-0.647350490093,28.5,0.25967558889498327,0.09799522899063544,0.14594826211906353,28.5,-0.08747979595851352,0.38008668464028017,0.9376182888243896
1648624089240115554,11676,3,5,0.852473676205,0.167013257742,0.196998327971,-0.485512852669,28.5,0.2851082529113712,0.05585727683678929,0.06588572841839464,28.5,-0.06560984495527027,0.40705462426063965,0.8907374125450399
1648624089240129110,11677,3,6,0.840515434742,0.194848805666,0.221316322684,-0.323675245047,28.5,0.2811088410508361,0.06516682463745818,0.0740188370180602,28.5,-0.04373989797932432,0.4028536658232338,0.8907374292098477
1648624089344988139,11678,4,0,0.00639195926487,0.0454158857465,0.00971392914653,0.0,41.7999992371,0.0021377790183511707,0.015189259446989964,0.003248805734625418,41.7999992371,0.0,0.015487214107468743,0.04688091552910101
1648624089345205015,11679,4,1,0.0322042368352,0.0161153152585,-0.0300167296082,0.0,41.7999992371,0.010770647770969899,0.005389737544648829,-0.010039040002742474,41.7999992371,0.0,0.01615744341202515,0.04688091629213625
1648624089345225821,11680,4,2,1.06175160408,-0.101086974144,0.158467024565,0.0,41.7999992371,0.35510087092976583,-0.03380835255652174,0.05299900487123745,41.7999992371,0.0,0.5033252047858745,1.078261027294656
1648624089345234164,11681,4,3,0.70580291748,0.224149376154,0.294566243887,-0.647350490093,41.7999992371,0.236054487451505,0.07496634653979932,0.0985171384237458,41.7999992371,-0.08747979595851352,0.3421452837692064,0.7969755160550434
1648624089345303041,11682,4,4,0.705546140671,0.290075659752,0.360769271851,-0.566431701183,41.7999992371,0.23596860892006685,0.09701527082006689,0.12065861934816052,41.7999992371,-0.07654482448418919,0.3475260156644878,0.8438564525487741
1648624089539932321,11683,6,0,0.00639195926487,0.0454158857465,0.00971392914653,0.0,31.7999992371,0.0021377790183511707,0.015189259446989964,0.003248805734625418,31.7999992371,0.0,0.015487214107468743,0.04688091552910101
1648624089540011873,11684,6,1,0.0322042368352,0.0161153152585,-0.0300167296082,0.0,31.7999992371,0.010770647770969899,0.005389737544648829,-0.010039040002742474,31.7999992371,0.0,0.01615744341202515,0.04688091629213625
1648624089540072982,11685,6,2,1.05561947823,-0.101086974144,0.195181250572,0.0,31.7999992371,0.3530499927190635,-0.03380835255652174,0.06527801022474916,31.7999992371,0.0,0.5004314133030097,1.0782609979661772
1648624089540104334,11686,6,3,0.63129645586,0.448298752308,0.188846617937,0.161837622523,31.7999992371,0.21113593841471573,0.14993269307959864,0.06315940399230768,31.7999992371,0.021869948989594594,0.3341206091138743,0.7969755527044413
