%time,field.header.seq,field.header.frame_id,field.point_id,field.x,field.y,field.z,field.velocity,field.intensity,normalized_x,normalized_y,normalized_z,normalized_intensity,normalized_velocity,normalized_range,range
1648633356048496256,4754,0,0,0.00623248284683,0.0454158857465,0.00981701165438,0.0,13.8000001907,0.002084442423688963,0.015189259446989964,0.003283281489759197,13.8000001907,0.0,0.015472666317843298,0.04688091550297844
1648633356048523435,4755,0,1,0.0340998992324,0.0146502861753,-0.028642386198,0.0,13.8000001907,0.01140464857270903,0.0048997612626421405,-0.009579393377257524,13.8000001907,0.0,0.016856443235892818,0.04688091615778643
1648633356048665213,4756,0,2,2.36619257927,-1.06654083729,0.394954293966,0.0,13.8000001907,0.7913687556086956,-0.35670262116722407,0.13209173711237457,13.8000001907,0.0,1.1746343152891792,2.625331516993968
1648633356048669955,4757,0,3,1.28955662251,0.082041606307,0.231093600392,-0.323675245047,13.8000001907,0.43128984030434775,0.027438664316722407,0.0772888295625418,13.8000001907,-0.04373989797932432,0.6105528093449291,1.3126657457125057
1648633356244094695,4758,2,0,0.00620351405814,0.0454158857465,0.00983534287661,0.0,26.2000007629,0.002074753865598662,0.015189259446989964,0.003289412333314381,26.2000007629,0.0,0.01547006172429855,0.04688091545937606
1648633356244150518,4759,2,1,0.0340998992324,0.0146502861753,-0.028642386198,0.0,26.2000007629,0.01140464857270903,0.0048997612626421405,-0.009579393377257524,26.2000007629,0.0,0.016856443235892818,0.04688091615778643
1648633356244167523,4760,2,2,1.59075653553,-0.0498109720647,0.0877075493336,0.0,26.2000007629,0.532025597167224,-0.016659187981505015,0.029333628539665552,26.2000007629,0.0,0.7525822218379103,1.5939510978946452
1648633356244276622,4761,2,3,2.36420369148,-1.06654083729,0.406689912081,0.0,26.2000007629,0.7907035757458194,-0.35670262116722407,0.13601669300367894,26.2000007629,0.0,1.1737380667516997,2.625331433743817
1648633356349193583,4762,3,0,0.00623248284683,0.0454158857465,0.00981701165438,0.0,14.3000001907,0.002084442423688963,0.015189259446989964,0.003283281489759197,14.3000001907,0.0,0.015472666317843298,0.04688091550297844
1648633356349205023,4763,3,1,0.0340781733394,0.0146502861753,-0.0286682266742,0.0,14.3000001907,0.011397382387759196,0.0048997612626421405,-0.009588035676989966,14.3000001907,0.0,0.01684661126210537,0.046880913001046506
1648633356349277479,4764,3,2,1.58988380432,-0.0498109720647,0.102315023541,0.0,14.3000001907,0.5317337138193979,-0.016659187981505015,0.03421907141839465,14.3000001907,0.0,0.7521695376499516,1.5939510683265223
1648633356349292307,4765,3,3,2.33023929596,-1.1485824585,0.378296196461,0.0,14.3000001907,0.7793442461404682,-0.38414129046822737,0.1265204670438127,14.3000001907,0.0,1.167184406607244,2.6253313795913304
1648633356349308733,4766,3,4,1.05813288689,0.351606875658,0.150572165847,-0.404594063759,14.3000001907,0.35389059762207353,0.11759427279531771,0.05035858389531772,14.3000001907,-0.05467487348094594,0.5141065290043264,1.1251420259042866
1648633356544118201,4767,5,0,0.00640947930515,0.0454158857465,0.00970237795264,0.0,34.9000015259,0.0021436385635953173,0.015189259446989964,0.003244942459076923,34.9000015259,0.0,0.015488833885436305,0.04688091553114297
1648633356544153969,4768,5,1,0.0340781733394,0.0146502861753,-0.0286682266742,0.0,34.9000015259,0.011397382387759196,0.0048997612626421405,-0.009588035676989966,34.9000015259,0.0,0.01684661126210537,0.046880913001046506
1648633356544180405,4769,5,2,1.58958590031,-0.0996219441295,0.0630252957344,0.0,34.9000015259,0.5316340803712374,-0.033318375963043476,0.021078694225551836,34.9000015259,0.0,0.7525820254305555,1.593951082724593
1648633356544212324,4770,5,3,2.36672258377,-1.06654083729,0.391765028238,0.0,34.9000015259,0.7915460146387959,-0.35670262116722407,0.1310250930561873,34.9000015259,0.0,1.1748731618896953,2.6253314045058236
1648633356544258773,4771,5,4,0.969585299492,0.471739202738,0.00364057486877,0.242756426334,34.9000015259,0.32427601989698995,0.15777230860802674,0.0012175835681505016,34.9000015259,0.03280492247756756,0.4849762628458969,1.078260999098201
1648633356649140504,4772,6,0,0.00627378607169,0.0454158857465,0.00979066733271,0.0,22.0,0.0020982562112675583,0.015189259446989964,0.00327447067983612,22.0,0.0,0.015476400124196184,0.04688091548415269
1648633356649176303,4773,6,1,0.0340781733394,0.0146502861753,-0.0286682266742,0.0,22.0,0.011397382387759196,0.0048997612626421405,-0.009588035676989966,22.0,0.0,0.01684661126210537,0.046880913001046506
1648633356649184210,4774,6,2,1.58899724483,-0.0996219441295,0.0764414891601,0.0,22.0,0.5314372056287625,-0.033318375963043476,0.025565715438160535,22.0,0.0,0.7523038755913929,1.59395108993171
1648633356649192366,4775,6,3,2.36599302292,-1.06654083729,0.396147429943,0.0,22.0,0.7913020143545151,-0.35670262116722407,0.1324907792451505,22.0,0.0,1.174544386471024,2.6253314320983967
1648633356844239821,4776,8,0,0.00640947930515,0.0454158857465,0.00970237795264,0.0,14.1999998093,0.0021436385635953173,0.015189259446989964,0.003244942459076923,14.1999998093,0.0,0.015488833885436305,0.04688091553114297
1648633356844268102,4777,8,1,0.0340846776962,0.0146502861753,-0.0286604948342,0.0,14.1999998093,0.01139955775792642,0.0048997612626421405,-0.009585449777324414,14.1999998093,0.0,0.016849554729531858,0.04688091405692966
1648633356844438790,4778,8,2,1.97687697411,-1.29508531094,0.598011016846,0.0,14.1999998093,0.6611628675953177,-0.4331388999799331,0.2000036845638796,14.1999998093,0.0,1.0304765798646536,2.437807562062283
1648633356844460385,4779,8,3,2.36665892601,-1.06654083729,0.392149865627,0.0,14.1999998093,0.7915247244180601,-0.35670262116722407,0.13115380121304346,14.1999998093,0.0,1.1748444742508433,2.625331473696481
1648633356949123298,4780,9,0,0.00634074071422,0.0454158857465,0.00974743906409,0.0,14.1999998093,0.0021206490683010034,0.015189259446989964,0.0032600130649130437,14.1999998093,0.0,0.015482503269489262,0.04688091551209571
1648633356949147792,4781,9,1,0.0340781733394,0.0146502861753,-0.0286682266742,0.0,14.1999998093,0.011397382387759196,0.0048997612626421405,-0.009588035676989966,14.1999998093,0.0,0.01684661126210537,0.046880913001046506
1648633356949174764,4782,9,2,1.98644018173,-1.29508531094,0.565433681011,0.0,14.1999998093,0.664361264792642,-0.4331388999799331,0.1891082545187291,14.1999998093,0.0,1.0345825665405273,2.4378075817885465
1648633356949226561,4783,9,3,2.36728024483,-1.06654083729,0.388381510973,0.0,14.1999998093,0.7917325233545149,-0.35670262116722407,0.12989348193076922,14.1999998093,0.0,1.1751244772457865,2.6253314673075683
1648633356949265656,4784,9,4,0.950022876263,0.50543487072,-0.0681093484163,-0.242756426334,14.1999998093,0.31773340343244144,0.16904176278260868,-0.02277904629307692,14.1999998093,-0.03280492247756756,0.48008764707934,1.078260987564912
1648633357144141726,4785,11,0,0.00627378607169,0.0454158857465,0.00979066733271,0.0,21.6000003815,0.0020982562112675583,0.015189259446989964,0.00327447067983612,21.6000003815,0.0,0.015476400124196184,0.04688091548415269
1648633357144182162,4786,11,1,0.0342124886811,0.0146502861753,-0.0285078044981,0.0,21.6000003815,0.011442303906722408,0.0048997612626421405,-0.00953438277528428,21.6000003815,0.0,0.016907403639189498,0.046880914923606944
1648633357144201737,4787,11,2,1.97534012794,-1.29508531094,0.603068053722,0.0,21.6000003815,0.6606488722207358,-0.4331388999799331,0.20169500124481604,21.6000003815,0.0,1.0298170572528338,2.4378075521013987
1648633357144255018,4788,11,3,2.37160563469,-1.06654083729,0.361028820276,0.0,21.6000003815,0.7931791420367892,-0.35670262116722407,0.12074542484147155,21.6000003815,0.0,1.1770739410385407,2.625331303506377
1648633357144283631,4789,11,4,0.69988578558,0.140642747283,-0.869668900967,-0.647350490093,21.6000003815,0.23407551357190634,0.047037708121404675,-0.29085916420301,21.6000003815,-0.08747979595851352,0.33435794905044186,1.1251419877195026
1648633357144342476,4790,11,5,0.942823290825,0.562570989132,0.246054127812,-0.647350490093,21.6000003815,0.31532551532608694,0.1881508324856187,0.08229235043879599,21.6000003815,-0.08747979595851352,0.4840052654634616,1.1251419951936572
1648633357144380977,4791,11,6,0.0761249139905,0.483459442854,-1.31852579117,-0.242756426334,21.6000003815,0.02545983745501672,0.16169212135585284,-0.44097852547491634,21.6000003815,-0.03280492247756756,0.16565249395957668,1.4064274945389952
1648633357144424572,4792,11,7,1.38620567322,0.0439508594573,0.233539387584,-0.242756426334,21.6000003815,0.4636139375317726,0.014699284099431437,0.07810681858996656,21.6000003815,-0.03280492247756756,0.6558138722994996,1.4064275637470487
1648633357249123064,4793,12,0,0.00623534247279,0.0454158857465,0.00981519557536,0.0,18.1000003815,0.002085398820331104,0.015189259446989964,0.0032826741054715718,18.1000003815,0.0,0.015472924061975183,0.04688091549953655
1648633357249141732,4794,12,1,0.0340998992324,0.0146502861753,-0.028642386198,0.0,18.1000003815,0.01140464857270903,0.0048997612626421405,-0.009579393377257524,18.1000003815,0.0,0.016856443235892818,0.04688091615778643
1648633357249151440,4795,12,2,1.97137582302,-1.29508531094,0.615903437138,0.0,18.1000003815,0.6593230177324414,-0.4331388999799331,0.20598777161806017,18.1000003815,0.0,1.0281162337495955,2.4378075482036605
1648633357249165953,4796,12,3,2.37043905258,-1.06654083729,0.368612080812,0.0,18.1000003815,0.7927889807959866,-0.35670262116722407,0.1232816323785953,18.1000003815,0.0,1.1765481274009348,2.6253315077765276
1648633357249180835,4797,12,4,0.734700977802,0.0366257168353,-0.912420272827,-0.647350490093,18.1000003815,0.24571939056923078,0.012249403623846153,-0.3051572818819398,18.1000003815,-0.08747979595851352,0.3477155240891155,1.1720229196490193
1648633357249201125,4798,12,5,1.04566013813,0.476134330034,0.231362879276,-0.647350490093,18.1000003815,0.3497191097424749,0.15924225084749163,0.07737888938996655,18.1000003815,-0.08747979595851352,0.5195815680844672,1.1720229548169514
1648633357444219504,4799,14,0,0.00630229339004,0.0454158857465,0.00977234169841,0.0,31.5,0.0021077904314515047,0.015189259446989964,0.003268341705153846,31.5,0.0,0.015478991037978248,0.04688091554549426
1648633357444484757,4800,14,1,0.0340998992324,0.0146502861753,-0.028642386198,0.0,31.5,0.01140464857270903,0.0048997612626421405,-0.009579393377257524,31.5,0.0,0.016856443235892818,0.04688091615778643
1648633357444519919,4801,14,2,1.54662716389,-0.0,0.0370256230235,0.0,31.5,0.5172666099966555,-0.0,0.012383151512876254,31.5,0.0,0.7315254552200247,1.547070289561112
1648633357444541517,4802,14,3,2.36788415909,-1.06654083729,0.384682059288,0.0,31.5,0.7919345013678929,-0.35670262116722407,0.1286562071197324,31.5,0.0,1.1753966432065366,2.625331414357941
1648633357444582083,4803,14,4,1.29694771767,0.0410208031535,0.1983307302,0.404594063759,31.5,0.4337617784849498,0.013719332158361203,0.06633134789297658,31.5,0.05467487348094594,0.6135851864441683,1.3126656722876717
1648633357549120969,4804,15,0,0.00623248284683,0.0454158857465,0.00981701165438,0.0,25.2000007629,0.002084442423688963,0.015189259446989964,0.003283281489759197,25.2000007629,0.0,0.015472666317843298,0.04688091550297844
1648633357549153314,4805,15,1,0.0340781733394,0.0146502861753,-0.0286682266742,0.0,25.2000007629,0.011397382387759196,0.0048997612626421405,-0.009588035676989966,25.2000007629,0.0,0.01684661126210537,0.046880913001046506
1648633357549183835,4806,15,2,2.37215209007,-1.06654083729,0.357421427965,0.0,25.2000007629,0.7933619030334448,-0.35670262116722407,0.11953893911872908,25.2000007629,0.0,1.1773202530820857,2.6253314025469745
1648633357549200577,4807,15,3,1.21594023705,0.076181486249,0.0375796034932,-0.242756426334,25.2000007629,0.4066689756020067,0.02547875794280936,0.012568429261939797,25.2000007629,-0.03280492247756756,0.5756808825561948,1.2189038130726408
1648633357744097346,4808,17,0,0.00626406958327,0.0454158857465,0.00979688670486,0.0,22.1000003815,0.0020950065495886285,0.015189259446989964,0.0032765507374113707,22.1000003815,0.0,0.015475519617564135,0.046880915466648604
1648633357744122971,4809,17,1,0.0340998992324,0.0146502861753,-0.028642386198,0.0,22.1000003815,0.01140464857270903,0.0048997612626421405,-0.009579393377257524,22.1000003815,0.0,0.016856443235892818,0.04688091615778643
1648633357744187543,4810,17,2,1.94926440716,-1.29508531094,0.682662606239,0.0,22.1000003815,0.6519278953712374,-0.4331388999799331,0.22831525292274246,22.1000003815,0.0,1.018640892661476,2.4378076063525618
1648633357744234012,4811,17,3,2.37166261673,-1.06654083729,0.360655486584,0.0,22.1000003815,0.7931981995752508,-0.35670262116722407,0.12062056407491638,22.1000003815,0.0,1.1770996251661994,2.6253314657781766
