%time,field.header.seq,field.header.frame_id,field.point_id,field.x,field.y,field.z,field.velocity,field.intensity,normalized_x,normalized_y,normalized_z,normalized_intensity,normalized_velocity,normalized_range,range
1648623978943663637,8346,0,0,0.00616691214964,0.0454158857465,0.00985833443701,0.0,18.2000007629,0.0020625124246287626,0.015189259446989964,0.003297101818397993,18.2000007629,0.0,0.015466787564050587,0.04688091553577485
1648623978943682914,8347,0,1,0.0322201624513,0.0161153152585,-0.0299996361136,0.0,18.2000007629,0.010775974063979933,0.005389737544648829,-0.010033323114916387,18.2000007629,0.0,0.016164544684442353,0.04688091745281249
1648623978943689660,8348,0,2,1.11882901192,-0.0351606868207,0.113708898425,0.0,18.2000007629,0.3741903049899665,-0.011759427030334446,0.03802973191471572,18.2000007629,0.0,0.5293156457361242,1.125141922333629
1648623978943743838,8349,0,3,0.849950969219,-0.0,0.266451656818,-0.485512852669,18.2000007629,0.2842645382003344,-0.0,0.08911426649431436,18.2000007629,-0.06560984495527027,0.4020107652246377,0.8907374110799292
1648623978943747138,8350,0,4,0.85167747736,-0.0556710883975,0.254871279001,-0.485512852669,18.2000007629,0.2848419656722408,-0.018619093109531772,0.08524123043511704,18.2000007629,-0.06560984495527027,0.4032574381760037,0.8907374272956431
1648623978943754745,8351,0,5,0.868792951107,0.139177724719,0.138713851571,-0.161837622523,18.2000007629,0.290566204383612,0.04654773401973244,0.046392592498662205,18.2000007629,-0.021869948989594594,0.4135506375308467,0.8907374268373532
1648623979138902936,8352,2,0,0.00616691214964,0.0454158857465,0.00985833443701,0.0,37.7999992371,0.0020625124246287626,0.015189259446989964,0.003297101818397993,37.7999992371,0.0,0.015466787564050587,0.04688091553577485
1648623979138913964,8353,2,1,0.0321726836264,0.0161153152585,-0.0300505477935,0.0,37.7999992371,0.010760094858327759,0.005389737544648829,-0.010050350432608695,37.7999992371,0.0,0.016143374911108895,0.046880917016358555
1648623979138920264,8354,2,2,1.07008171082,-0.101086974144,0.085751324892,0.0,37.7999992371,0.35788685980602003,-0.03380835255652174,0.028679372873578596,37.7999992371,0.0,0.5072563588031339,1.078260976709155
1648623979139082639,8355,2,3,0.760686814785,-0.0,0.237751290202,-0.647350490093,37.7999992371,0.2544103059481605,-0.0,0.0795154816729097,37.7999992371,-0.08747979595851352,0.35979050507937704,0.7969755994887576
1648623979243959968,8356,3,0,0.00616691214964,0.0454158857465,0.00985833443701,0.0,38.7999992371,0.0020625124246287626,0.015189259446989964,0.003297101818397993,38.7999992371,0.0,0.015466787564050587,0.04688091553577485
1648623979243968229,8357,3,1,0.032228551805,0.0161153152585,-0.0299906209111,0.0,38.7999992371,0.010778779867892975,0.005389737544648829,-0.01003030799702341,38.7999992371,0.0,0.01616828567539512,0.0468809159462752
1648623979243974350,8358,3,2,1.07156395912,-0.101086974144,0.0646440237761,0.0,38.7999992371,0.3583825950234113,-0.03380835255652174,0.021620074841505015,38.7999992371,0.0,0.5079558775464803,1.0782609816906497
1648623979243979047,8359,3,3,0.712258398533,-0.0,0.235223263502,-0.485512852669,38.7999992371,0.23821351121505016,-0.0,0.07866998779331104,38.7999992371,-0.06560984495527027,0.3368847783008393,0.7500946673409464
1648623979243981835,8360,3,4,0.767728328705,0.0498109720647,0.208043426275,-0.242756426334,38.7999992371,0.2567653273260869,0.016659187981505015,0.06957974122909698,38.7999992371,-0.03280492247756756,0.36350295071422495,0.7969755246244669
1648623979438702302,8361,5,0,0.00616691214964,0.0454158857465,0.00985833443701,0.0,27.7999992371,0.0020625124246287626,0.015189259446989964,0.003297101818397993,27.7999992371,0.0,0.015466787564050587,0.04688091553577485
1648623979438794079,8362,5,1,0.0321726836264,0.0161153152585,-0.0300505477935,0.0,27.7999992371,0.010760094858327759,0.005389737544648829,-0.010050350432608695,27.7999992371,0.0,0.016143374911108895,0.046880917016358555
1648623979438796512,8363,5,2,0.795006215572,-0.0278355441988,-0.400753617287,0.0,27.7999992371,0.2658883664120401,-0.009309546554782609,-0.13403131012943142,27.7999992371,0.0,0.37613815871775397,0.8907374260058751
1648623979438797746,8364,5,3,1.0545566082,-0.101086974144,0.200844302773,0.0,27.7999992371,0.3526945177926421,-0.03380835255652174,0.06717200761638796,27.7999992371,0.0,0.49992984554290687,1.0782609378978034
1648623979438803715,8365,5,4,0.65055680275,0.10987714678,0.2433360219,0.242756426334,27.7999992371,0.21757752600334448,0.03674820962541806,0.08138328491638795,27.7999992371,0.03280492247756756,0.3098877063617493,0.7032137374532251
1648623979438804799,8366,5,5,1.12309157848,0.256380021572,0.215806365013,0.242756426334,27.7999992371,0.375615912535117,0.08574582661270903,0.07217604181036788,27.7999992371,0.03280492247756756,0.5380771081180411,1.1720229504126962
1648623979438805821,8367,5,6,0.617302715778,0.131852582097,0.309938430786,0.404594063759,27.7999992371,0.20645575778528427,0.04409785354414715,0.10365833805551838,27.7999992371,0.05467487348094594,0.2952838981939127,0.7032137492900921
1648623979543993178,8368,6,0,0.00612545339391,0.0454158857465,0.00988414790481,0.0,27.2000007629,0.002048646620036789,0.015189259446989964,0.0033057350852207356,27.2000007629,0.0,0.015463101516046197,0.04688091549046653
1648623979543998934,8369,6,1,0.0321641936898,0.0161153152585,-0.0300596300513,0.0,27.2000007629,0.01075725541464883,0.005389737544648829,-0.01005338797702341,27.2000007629,0.0,0.016139589799997408,0.04688091403137135
1648623979544001979,8370,6,2,1.06875884533,-0.0673913136125,0.125935316086,0.0,27.2000007629,0.3574444298762542,-0.02253890087374582,0.042118834811371235,27.2000007629,0.0,0.5060049831293337,1.0782609899552213
1648623979544043850,8371,6,3,0.666650891304,0.158223092556,-0.492580682039,-0.647350490093,27.2000007629,0.22296016431571905,0.05291742225953177,-0.16474270302307692,27.2000007629,-0.08747979595851352,0.3197228852021364,0.8438564369680476
1648623979544061373,8372,6,4,0.57608550787,0.501039743423,0.359413951635,-0.647350490093,27.2000007629,0.19267073841806018,0.16757182054280934,0.12020533499498327,27.2000007629,-0.08747979595851352,0.319881762414103,0.8438564602449327
