%time,field.header.seq,field.header.frame_id,field.point_id,field.x,field.y,field.z,field.velocity,field.intensity,normalized_x,normalized_y,normalized_z,normalized_intensity,normalized_velocity,normalized_range,range
1648623911143591336,6310,0,0,0.00596007192507,0.0454158857465,0.00998474378139,0.0,21.3999996185,0.0019933350919966552,0.015189259446989964,0.0033393791911003343,21.3999996185,0.0,0.015448636578220891,0.04688091556135775
1648623911143605023,6311,0,1,0.0321475639939,0.0161153152585,-0.0300774164498,0.0,21.3999996185,0.010751693643444816,0.005389737544648829,-0.01005933660528428,21.3999996185,0.0,0.01613217602201205,0.04688091548719413
1648623911143608981,6312,0,2,1.07753121853,-0.0336956568062,-0.020927624777,0.0,21.3999996185,0.3603783339565217,-0.011269450436856187,-0.006999205611036789,21.3999996185,0.0,0.5097765075831813,1.0782610489455484
1648623911143686581,6313,0,3,0.887261509895,-0.0,0.078614205122,-0.0809188112617,21.3999996185,0.29674297989799325,-0.0,0.026292376294983277,21.3999996185,-0.010934974494824324,0.4196579467107488,0.8907374361663032
1648623911338594976,6314,2,0,0.00600330997258,0.0454158857465,0.00995880644768,0.0,22.2999992371,0.002007795977451505,0.015189259446989964,0.003330704497551839,22.2999992371,0.0,0.015452381432067834,0.046880915462780504
1648623911338612332,6315,2,1,0.0320671759546,0.0161153152585,-0.0301631093025,0.0,22.2999992371,0.010724808011571905,0.005389737544648829,-0.010087996422240803,22.2999992371,0.0,0.016096343826172175,0.04688091639866569
1648623911338621155,6316,2,2,0.813300967216,0.0556710883975,-0.358964383602,0.0,22.2999992371,0.27200701244682274,0.018619093109531772,-0.12005497779331104,22.2999992371,0.0,0.3851263432546693,0.8907374259862484
1648623911338627111,6317,2,3,0.975113153458,0.175803437829,-0.533096551895,0.0,22.2999992371,0.3261248004876254,0.05879713639765886,-0.17829316116889632,22.2999992371,0.0,0.46494287201198364,1.125141966349864
1648623911338631341,6318,2,4,0.649292647839,-0.914177834988,0.0929647609591,0.0,22.2999992371,0.21715473171872907,-0.30574509531371236,0.031091893297357856,22.2999992371,0.0,0.4333502259420865,1.1251419925064166
1648623911443738439,6319,3,0,0.00596007192507,0.0454158857465,0.00998474378139,0.0,12.1000003815,0.0019933350919966552,0.015189259446989964,0.0033393791911003343,12.1000003815,0.0,0.015448636578220891,0.04688091556135775
1648623911443741677,6320,3,1,0.0322193466127,0.0161153152585,-0.0300005078316,0.0,12.1000003815,0.010775701208260867,0.005389737544648829,-0.010033614659397993,12.1000003815,0.0,0.016164180890463536,0.046880914583485235
1648623911443745148,6321,3,2,1.06024491787,-0.0673913136125,0.184352919459,0.0,12.1000003815,0.35459696249832773,-0.02253890087374582,0.06165649480234114,12.1000003815,0.0,0.5019820850176602,1.0782610416465197
1648623911638607324,6322,5,0,0.0061486591585,0.0454158857465,0.00986972916871,0.0,16.7999992371,0.0020564077453177256,0.015189259446989964,0.0033009127654548493,16.7999992371,0.0,0.01546516175725231,0.04688091553553783
1648623911638613369,6323,5,1,0.032139249146,0.0161153152585,-0.0300863012671,0.0,16.7999992371,0.01074891275785953,0.005389737544648829,-0.010062308116086957,16.7999992371,0.0,0.01612846929353024,0.04688091557856147
1648623911638615808,6324,5,2,0.865921497345,0.0556710883975,0.20123103261,0.161837622523,16.7999992371,0.2896058519548495,0.018619093109531772,0.06730134869899665,16.7999992371,0.021869948989594594,0.409987523714088,0.890737468692575
1648623911638618154,6325,5,3,0.895737886429,-0.0,0.277095079422,0.323675245047,16.7999992371,0.2995778884377926,-0.0,0.09267393960602006,16.7999992371,0.04373989797932432,0.4236671128158203,0.9376182827911242
1648623911743713489,6326,6,0,0.00597370089963,0.0454158857465,0.00997659564018,0.0,33.7000007629,0.0019978932774682274,0.015189259446989964,0.0033366540602608693,33.7000007629,0.0,0.015449814162127625,0.04688091553228286
1648623911743722981,6327,6,1,0.0320671759546,0.0161153152585,-0.0301631093025,0.0,33.7000007629,0.010724808011571905,0.005389737544648829,-0.010087996422240803,33.7000007629,0.0,0.016096343826172175,0.04688091639866569
1648623911743725905,6328,6,2,1.10988461971,-0.105482056737,0.151571691036,0.0,33.7000007629,0.37119886946822744,-0.035278279845150494,0.050692873256187286,33.7000007629,0.0,0.5261385353857033,1.125141906999198
1648623911743728520,6329,6,3,0.904710769653,0.117202289402,0.216541439295,0.161837622523,33.7000007629,0.30257885272675583,0.03919809010100334,0.07242188605183945,33.7000007629,0.021869948989594594,0.4297027047883757,0.9376183382907696
1648623911743731606,6330,6,4,1.8876260519,0.251984924078,0.661166369915,0.161837622523,33.7000007629,0.6313130608361204,0.08427589434046821,0.2211258762257525,33.7000007629,0.021869948989594594,0.8967802339098625,2.015879332321445
1648623911743870790,6331,6,5,0.987663686275,-0.566966056824,-1.66338205338,0.161837622523,33.7000007629,0.33032230310200666,-0.18962075479063545,-0.5563150680200668,33.7000007629,0.021869948989594594,0.5041643367996176,2.0158794414060432
