%time,field.header.seq,field.header.frame_id,field.point_id,field.x,field.y,field.z,field.velocity,field.intensity,normalized_x,normalized_y,normalized_z,normalized_intensity,normalized_velocity,normalized_range,range
1648624084439206083,11522,0,0,0.00631628325209,0.0454158857465,0.00976330507547,0.0,40.5,0.0021124693150802675,0.015189259446989964,0.0032653194232341136,40.5,0.0,0.015480266656691843,0.046880915501475356
1648624084439213246,11523,0,1,0.032245863229,0.0161153152585,-0.0299720074981,0.0,40.5,0.010784569641806019,0.005389737544648829,-0.01002408277528428,40.5,0.0,0.01617600554890252,0.0468809163170941
1648624084544636167,11524,1,0,0.00636456906796,0.0454158857465,0.00973189715296,0.0,17.2000007629,0.002128618417377926,0.015189259446989964,0.0032548151013244144,17.2000007629,0.0,0.01548469035149153,0.0468809155174658
1648624084544643448,11525,1,1,0.0322042368352,0.0161153152585,-0.0300167296082,0.0,17.2000007629,0.010770647770969899,0.005389737544648829,-0.010039040002742474,17.2000007629,0.0,0.01615744341202515,0.04688091629213625
1648624084544653420,11526,1,2,0.768909931183,0.389697611332,0.224335417151,0.323675245047,17.2000007629,0.2571605121013378,0.13033364927491636,0.0750285676090301,17.2000007629,0.04373989797932432,0.38632876944613054,0.8907373855059781
1648624084544656807,11527,1,3,0.665178954601,0.323771327734,0.296444118023,0.485512852669,17.2000007629,0.22246787779297655,0.10828472499464883,0.0991451899742475,17.2000007629,0.06560984495527027,0.33273036375808596,0.7969755513296194
1648624084739383681,11528,3,0,0.00636456906796,0.0454158857465,0.00973189715296,0.0,27.7000007629,0.002128618417377926,0.015189259446989964,0.0032548151013244144,27.7000007629,0.0,0.01548469035149153,0.0468809155174658
1648624084739386112,11529,3,1,0.0322292968631,0.0161153152585,-0.0299898199737,0.0,27.7000007629,0.010779029051204012,0.005389737544648829,-0.010030040124983278,27.7000007629,0.0,0.016168617917855482,0.04688091577844449
1648624084739393015,11530,3,2,0.867534816265,0.205104008317,0.290592193604,0.242756426334,27.7000007629,0.29014542349999994,0.06859665829999999,0.09718802461672241,27.7000007629,0.03280492247756756,0.41602191659324345,0.9376183310085356
1648624084844550679,11531,4,0,0.00635281205177,0.0454158857465,0.00973957590759,0.0,42.5999984741,0.0021246863049397993,0.015189259446989964,0.0032573832466856185,42.5999984741,0.0,0.01548361024880087,0.04688091549835565
1648624084844554165,11532,4,1,0.0322292968631,0.0161153152585,-0.0299898199737,0.0,42.5999984741,0.010779029051204012,0.005389737544648829,-0.010030040124983278,42.5999984741,0.0,0.016168617917855482,0.04688091577844449
1648624084844556967,11533,4,2,0.759252727032,-0.0556710883975,-0.462438285351,0.0,42.5999984741,0.2539306779371237,-0.018619093109531772,-0.15466163389665552,42.5999984741,0.0,0.3595945620048166,0.890737414363663
1648624084844562244,11534,4,3,0.814471065998,0.278355449438,0.229277804494,0.0,42.5999984741,0.27239834983210703,0.09309546803946488,0.07668153996454849,42.5999984741,0.0,0.3963186699513372,0.8907374389871229
1648624085039430269,11535,6,0,0.00640349462628,0.0454158857465,0.009706328623,0.0,11.5,0.002141636998755853,0.015189259446989964,0.003246263753511706,11.5,0.0,0.015488280105190952,0.046880915487067944
1648624085039433284,11536,6,1,0.0322042368352,0.0161153152585,-0.0300167296082,0.0,11.5,0.010770647770969899,0.005389737544648829,-0.010039040002742474,11.5,0.0,0.01615744341202515,0.04688091629213625
1648624085039604317,11537,6,2,1.11600601673,-0.0703213736415,0.124619498849,0.0,11.5,0.3732461594414716,-0.023518854060702338,0.04167876215685619,11.5,0.0,0.5283734735695439,1.1251420107976435
1648624085039609421,11538,6,3,0.365839332342,0.316446185112,-1.01585817337,0.0,11.5,0.12235429175317725,0.10583484451906354,-0.33975189744816053,11.5,0.0,0.2028353019945433,1.1251419615155287
