%time,field.header.seq,field.header.frame_id,field.point_id,field.x,field.y,field.z,field.velocity,field.intensity,normalized_x,normalized_y,normalized_z,normalized_intensity,normalized_velocity,normalized_range,range
1648633597749308372,12217,0,0,0.00667610531673,0.0454158857465,0.00952088087797,0.0,11.8999996185,0.0022328111427190635,0.015189259446989964,0.0031842410963110364,11.8999996185,0.0,0.015514009596041723,0.046880915445751556
1648633597749320204,12218,0,1,0.0343376286328,0.0146502861753,-0.0283569470048,0.0,11.8999996185,0.011484156733377927,0.0048997612626421405,-0.009483928764147156,11.8999996185,0.0,0.016964061193725625,0.04688091369177129
1648633597749322480,12219,0,2,2.35731291771,-1.06654083729,0.444894760847,0.0,11.8999996185,0.7883989691337792,-0.35670262116722407,0.14879423439698997,11.8999996185,0.0,1.1706334306733168,2.6253313881944114
1648633597749327101,12220,0,3,1.3000266552,-0.0410208031535,0.177028298378,-0.161837622523,11.8999996185,0.43479152347826083,-0.013719332158361203,0.05920678875518394,11.8999996185,-0.021869948989594594,0.6150411025711742,1.3126656196261361
1648633597944237150,12221,2,0,0.00670238444582,0.0454158857465,0.0095023997128,0.0,22.7999992371,0.002241600149103679,0.015189259446989964,0.0031780601046153844,22.7999992371,0.0,0.015516544235263764,0.04688091547421544
1648633597944246671,12222,2,1,0.0342153310776,0.0146502861753,-0.0285043902695,0.0,22.7999992371,0.011443254541003343,0.0048997612626421405,-0.009533240892809363,22.7999992371,0.0,0.016908690351747403,0.046880913284661305
1648633597944376455,12223,2,2,2.37047553062,-1.06654083729,0.368376523256,0.0,22.7999992371,0.7928011808093645,-0.35670262116722407,0.12320285058729097,22.7999992371,0.0,1.1765645687904311,2.6253313813234325
1648633597944385728,12224,2,3,1.19643831253,0.114272229373,0.202986672521,-0.566431701183,22.7999992371,0.40014659281939796,0.03821813691404682,0.06788851923779264,22.7999992371,-0.07654482448418919,0.5671818204765796,1.218903756379747
1648633597944506463,12225,2,4,1.16471743584,0.109877154231,-0.0706963837147,-0.0809188112617,22.7999992371,0.3895376039598662,0.0367482121173913,-0.023644275489866216,22.7999992371,-0.010934974494824324,0.5521136847528885,1.1720228978317546
1648633597944510785,12226,2,5,0.896275699139,-0.293005734682,-0.696042597294,-0.0809188112617,22.7999992371,0.2997577589093645,-0.09799522899063544,-0.23279016631906352,22.7999992371,-0.010934974494824324,0.4351005549958038,1.1720229463075453
1648633598049270284,12227,3,0,0.00670238444582,0.0454158857465,0.0095023997128,0.0,11.8000001907,0.002241600149103679,0.015189259446989964,0.0031780601046153844,11.8000001907,0.0,0.015516544235263764,0.04688091547421544
1648633598049275017,12228,3,1,0.0343002602458,0.0146502861753,-0.0284021347761,0.0,11.8000001907,0.011471658945083611,0.0048997612626421405,-0.009499041731137123,11.8000001907,0.0,0.016947140712684314,0.046880912936797026
1648633598049279495,12229,3,2,2.37265753746,-1.06654083729,0.354049950838,0.0,11.8000001907,0.7935309489832775,-0.35670262116722407,0.11841135479531772,11.8000001907,0.0,1.1775480856152627,2.6253313153507682
1648633598049281420,12230,3,3,1.16668581963,0.109877154231,-0.0202235989273,-0.242756426334,11.8000001907,0.39019592629765887,0.0367482121173913,-0.006763745460635451,11.8000001907,-0.03280492247756756,0.5530426320749612,1.1720229454670246
1648633598244197302,12231,5,0,0.00670238444582,0.0454158857465,0.0095023997128,0.0,33.5999984741,0.002241600149103679,0.015189259446989964,0.0031780601046153844,33.5999984741,0.0,0.015516544235263764,0.04688091547421544
1648633598244202877,12232,5,1,0.0343160517514,0.0146502861753,-0.0283830538392,0.0,33.5999984741,0.01147694038508361,0.0048997612626421405,-0.00949266014688963,33.5999984741,0.0,0.016954290950565134,0.046880913366335715
1648633598244343697,12233,5,2,2.38038802147,-1.06654083729,0.29767164588,0.0,33.5999984741,0.7961163951404682,-0.35670262116722407,0.09955573440802674,33.5999984741,0.0,1.1810331871588013,2.625331388439567
1648633598244346521,12234,5,3,0.980779588223,0.290075659752,0.132938161492,-0.404594063759,33.5999984741,0.3280199291715719,0.09701527082006689,0.04446092357591973,33.5999984741,-0.05467487348094594,0.4739262713120439,1.031380164554423
1648633598349251283,12235,6,0,0.00670238444582,0.0454158857465,0.0095023997128,0.0,29.5,0.002241600149103679,0.015189259446989964,0.0031780601046153844,29.5,0.0,0.015516544235263764,0.04688091547421544
1648633598349255563,12236,6,1,0.0342153310776,0.0146502861753,-0.0285043902695,0.0,29.5,0.011443254541003343,0.0048997612626421405,-0.009533240892809363,29.5,0.0,0.016908690351747403,0.046880913284661305
1648633598349258260,12237,6,2,2.37789392471,-1.06654083729,0.316980212927,0.0,29.5,0.7952822490668896,-0.35670262116722407,0.10601344913946488,29.5,0.0,1.1799086707492867,2.6253314705322883
1648633598349260583,12238,6,3,1.0103572607,0.370652228594,0.0666482299566,-0.242756426334,29.5,0.33791212732441467,0.12396395605150501,0.022290377911906353,29.5,-0.03280492247756756,0.4936965403826143,1.0782610330375733
1648633598544293247,12239,8,0,0.00670238444582,0.0454158857465,0.0095023997128,0.0,27.7000007629,0.002241600149103679,0.015189259446989964,0.0031780601046153844,27.7000007629,0.0,0.015516544235263764,0.04688091547421544
1648633598544297984,12240,8,1,0.0343002602458,0.0146502861753,-0.0284021347761,0.0,27.7000007629,0.011471658945083611,0.0048997612626421405,-0.009499041731137123,27.7000007629,0.0,0.016947140712684314,0.046880912936797026
1648633598544299962,12241,8,2,2.37753844261,-1.06654083729,0.319636285305,0.0,27.7000007629,0.7951633587324415,-0.35670262116722407,0.10690176766053511,27.7000007629,0.0,1.1797484028761738,2.625331552124268
1648633598649290086,12242,9,0,0.00670238444582,0.0454158857465,0.0095023997128,0.0,14.3000001907,0.002241600149103679,0.015189259446989964,0.0031780601046153844,14.3000001907,0.0,0.015516544235263764,0.04688091547421544
1648633598649293507,12243,9,1,0.0343002602458,0.0146502861753,-0.0284021347761,0.0,14.3000001907,0.011471658945083611,0.0048997612626421405,-0.009499041731137123,14.3000001907,0.0,0.016947140712684314,0.046880912936797026
1648633598649362305,12244,9,2,2.37578129768,-1.06654083729,0.332444101572,0.0,14.3000001907,0.7945756848428094,-0.35670262116722407,0.111185318251505,14.3000001907,0.0,1.178956232365904,2.625331448157229
1648633598844308295,12245,11,0,0.00666756927967,0.0454158857465,0.00952686090022,0.0,14.3999996185,0.0022299562808260867,0.015189259446989964,0.0031862411037525086,14.3999996185,0.0,0.015513188343366598,0.04688091548648001
1648633598844313898,12246,11,1,0.0342153310776,0.0146502861753,-0.0285043902695,0.0,14.3999996185,0.011443254541003343,0.0048997612626421405,-0.009533240892809363,14.3999996185,0.0,0.016908690351747403,0.046880913284661305
1648633598844319523,12247,11,2,2.37756800652,-1.06654083729,0.319415420294,0.0,14.3999996185,0.7951732463277592,-0.35670262116722407,0.10682789976387959,14.3999996185,0.0,1.1797617315790603,2.625331444590632
1648633598844342762,12248,11,3,1.03087234497,0.303260922432,-0.0893410220742,-0.161837622523,14.3999996185,0.3447733595217391,0.10142505766956521,-0.029879940493043475,14.3999996185,-0.021869948989594594,0.49802046262687577,1.0782610059366502
1648633598949383637,12249,12,0,0.00672859838232,0.0454158857465,0.00948385614902,0.0,22.5,0.002250367351946488,0.015189259446989964,0.003171858243819398,22.5,0.0,0.015519082092230428,0.046880915539108295
1648633598949391271,12250,12,1,0.0343002602458,0.0146502861753,-0.0284021347761,0.0,22.5,0.011471658945083611,0.0048997612626421405,-0.009499041731137123,22.5,0.0,0.016947140712684314,0.046880912936797026
1648633598949394127,12251,12,2,2.37334322929,-1.06654083729,0.349424600601,0.0,22.5,0.793760277354515,-0.35670262116722407,0.1168644149167224,22.5,0.0,1.1778571712051513,2.625331406342656
1648633598949395959,12252,12,3,1.03291618824,0.303260922432,0.0613491386175,0.161837622523,22.5,0.34545691914381266,0.10142505766956521,0.020518106561036788,22.5,0.021869948989594594,0.49896694108121437,1.0782609868726902
1648633599144092287,12253,14,0,0.00666756927967,0.0454158857465,0.00952686090022,0.0,22.3999996185,0.0022299562808260867,0.015189259446989964,0.0031862411037525086,22.3999996185,0.0,0.015513188343366598,0.04688091548648001
1648633599144096972,12254,14,1,0.0343002602458,0.0146502861753,-0.0284021347761,0.0,22.3999996185,0.011471658945083611,0.0048997612626421405,-0.009499041731137123,22.3999996185,0.0,0.016947140712684314,0.046880912936797026
1648633599144098779,12255,14,2,2.37946152687,-1.06654083729,0.304989695549,0.0,22.3999996185,0.7958065307257525,-0.35670262116722407,0.10200324265852842,22.3999996185,0.0,1.1806154448587753,2.625331451427198
1648633599144235480,12256,14,3,1.01941859722,0.202173948288,0.287329107523,0.566431701183,22.3999996185,0.34094267465551836,0.06761670511304348,0.09609669147926421,22.3999996185,0.07654482448418919,0.4868837988810693,1.078260913579972
1648633599249235333,12257,15,0,0.00672859838232,0.0454158857465,0.00948385614902,0.0,28.1000003815,0.002250367351946488,0.015189259446989964,0.003171858243819398,28.1000003815,0.0,0.015519082092230428,0.046880915539108295
1648633599249237784,12258,15,1,0.0343002602458,0.0146502861753,-0.0284021347761,0.0,28.1000003815,0.011471658945083611,0.0048997612626421405,-0.009499041731137123,28.1000003815,0.0,0.016947140712684314,0.046880912936797026
1648633599249239596,12259,15,2,2.37846136093,-1.06654083729,0.312692940235,0.0,28.1000003815,0.7954720270668895,-0.35670262116722407,0.10457957867391303,28.1000003815,0.0,1.180164501940039,2.6253313463098427
1648633599249242047,12260,15,3,1.16420042515,0.109877154231,-0.0787541717291,0.161837622523,28.1000003815,0.3893646906856187,0.0367482121173913,-0.026339187869264213,28.1000003815,0.021869948989594594,0.5518696909590523,1.1720229684208754
