%time,field.header.seq,field.header.frame_id,field.point_id,field.x,field.y,field.z,field.velocity,field.intensity,normalized_x,normalized_y,normalized_z,normalized_intensity,normalized_velocity,normalized_range,range
1648624104539474692,12143,0,0,0.00629232497886,0.0454158857465,0.00977876316756,0.0,18.3999996185,0.0021044565146688963,0.015189259446989964,0.0032704893536989964,18.3999996185,0.0,0.015478083763574825,0.04688091552930632
1648624104539478496,12144,0,1,0.0322042368352,0.0161153152585,-0.0300167296082,0.0,18.3999996185,0.010770647770969899,0.005389737544648829,-0.010039040002742474,18.3999996185,0.0,0.01615744341202515,0.04688091629213625
1648624104539480495,12145,0,2,0.879140079021,0.234404578805,0.226484596729,0.161837622523,18.3999996185,0.2940267822812709,0.07839618020234114,0.07574735676555183,18.3999996185,0.021869948989594594,0.42314236193942306,0.9376182899566846
1648624104539491411,12146,0,3,0.832892179489,0.24612480402,0.463629066944,0.485512852669,18.3999996185,0.2785592573541806,0.08231598796655518,0.15505988861003345,18.3999996185,0.06560984495527027,0.40245054552122955,0.9844992196661123
1648624104644743222,12147,1,0,0.00643067993224,0.0454158857465,0.00968833919615,0.0,31.0,0.0021507290743277593,0.015189259446989964,0.003240247222792642,31.0,0.0,0.015490799645282723,0.04688091550844237
1648624104644750790,12148,1,1,0.0322042368352,0.0161153152585,-0.0300167296082,0.0,31.0,0.010770647770969899,0.005389737544648829,-0.010039040002742474,31.0,0.0,0.01615744341202515,0.04688091629213625
1648624104644753264,12149,1,2,1.0870718956,-0.140642747283,0.253847718239,0.0,31.0,0.3635691958528428,-0.047037708121404675,0.08489890242107022,31.0,0.0,0.5163115980989387,1.1251419255462103
1648624104644759995,12150,1,3,0.900994360447,0.205104008317,0.158964037895,0.0809188112617,31.0,0.3013359065040134,0.06859665829999999,0.05316523006521739,31.0,0.010934974494824324,0.43163892158506506,0.9376182896727653
1648624104644786433,12151,1,4,0.398859292269,0.556710898876,-0.64040017128,0.0809188112617,31.0,0.1333977566117057,0.18619093607892975,-0.2141806592909699,31.0,0.010934974494824324,0.2650603471212166,0.9376183335089523
1648624104839598205,12152,3,0,0.00625570584089,0.0454158857465,0.00980222970247,0.0,17.6000003815,0.002092209311334448,0.015189259446989964,0.0032783376931337788,17.6000003815,0.0,0.015474762749484821,0.0468809155291028
1648624104839605388,12153,3,1,0.0321791954339,0.0161153152585,-0.0300435740501,0.0,17.6000003815,0.010762272720367892,0.005389737544648829,-0.010048018076956522,17.6000003815,0.0,0.016146278178433164,0.04688091665441084
1648624104839678121,12154,3,2,0.96062707901,0.215359210968,-0.00739869987592,0.0809188112617,17.6000003815,0.321279959535117,0.07202649196254181,-0.0024744815638528426,17.6000003815,0.010934974494824324,0.46003199925896776,0.984499220637527
1648624104839781125,12155,3,3,0.795872926712,-0.0,-0.795318067074,-0.647350490093,17.6000003815,0.26617823635852844,-0.0,-0.2659926645732441,17.6000003815,-0.08747979595851352,0.3764328718667822,1.125142010275791
1648624104839784562,12156,3,4,0.993311405182,0.421928226948,0.318203508854,-0.647350490093,17.6000003815,0.33221117230167224,0.14111311938060198,0.10642257821204013,17.6000003815,-0.08747979595851352,0.4905521771080287,1.125141968556466
1648624104839906959,12157,3,5,0.942411005497,-0.076181486249,-0.769275248051,-0.485512852669,17.6000003815,0.3151876272565217,-0.02547875794280936,-0.2572826916558528,17.6000003815,-0.06560984495527027,0.44647020937292153,1.2189038228641753
1648624104839910618,12158,3,6,1.07710468769,0.380907416344,0.424831032753,-0.485512852669,17.6000003815,0.3602356815016722,0.12739378473043478,0.1420839574424749,17.6000003815,-0.06560984495527027,0.5251368096428708,1.218903759309821
1648624104944741735,12159,4,0,0.00629232497886,0.0454158857465,0.00977876316756,0.0,22.5,0.0021044565146688963,0.015189259446989964,0.0032704893536989964,22.5,0.0,0.015478083763574825,0.04688091552930632
1648624104944750867,12160,4,1,0.0322614833713,0.0161153152585,-0.0299551915377,0.0,22.5,0.01078979376966555,0.005389737544648829,-0.01001845870826087,22.5,0.0,0.016182971605487796,0.04688091504288076
1648624104944754165,12161,4,2,1.10367155075,-0.105482056737,0.191643118858,0.0,22.5,0.3691209199832775,-0.035278279845150494,0.0640946885812709,22.5,0.0,0.523206521526094,1.1251419649244263
1648624104944759703,12162,4,3,0.958344936371,0.215359210968,0.0665889233351,0.0809188112617,22.5,0.32051670112742475,0.07202649196254181,0.022270542921438125,22.5,0.010934974494824324,0.45896593222988125,0.9844992084951737
