%time,field.header.seq,field.header.frame_id,field.point_id,field.x,field.y,field.z,field.velocity,field.intensity,normalized_x,normalized_y,normalized_z,normalized_intensity,normalized_velocity,normalized_range,range
1648624033739251981,9980,0,0,0.00624838657677,0.0454158857465,0.00980689655989,0.0,22.7999992371,0.002089761396913043,0.015189259446989964,0.0032798985150133777,22.7999992371,0.0,0.015474101199747589,0.04688091544635496
1648624033739280784,9981,0,1,0.0321475751698,0.0161153152585,-0.0300774052739,0.0,22.7999992371,0.010751697381204012,0.005389737544648829,-0.010059332867525084,22.7999992371,0.0,0.016132181004259023,0.046880915980697435
1648624033739285582,9982,0,2,1.05184412003,-0.0673913136125,0.227440088987,0.0,22.7999992371,0.35178733111371235,-0.02253890087374582,0.07606691939364547,22.7999992371,0.0,0.4980127053768949,1.0782609313475646
1648624033739298734,9983,0,3,0.87186819315,0.293005734682,0.181993409991,-0.242756426334,22.7999992371,0.2915947134280936,0.09799522899063544,0.06086736120100334,22.7999992371,-0.03280492247756756,0.42386084827847825,0.9376183168343803
1648624033844219348,9984,1,0,0.00622023036703,0.0454158857465,0.00982477981597,0.0,38.5,0.0020803446043578594,0.015189259446989964,0.0032858795371137122,38.5,0.0,0.015471563265996606,0.04688091554556454
1648624033844221601,9985,1,1,0.0321475751698,0.0161153152585,-0.0300774052739,0.0,38.5,0.010751697381204012,0.005389737544648829,-0.010059332867525084,38.5,0.0,0.016132181004259023,0.046880915980697435
1648624033844224548,9986,1,2,1.09105074406,-0.0703213736415,0.26572111249,0.0,38.5,0.36489991440133773,-0.023518854060702338,0.08886993728762542,38.5,0.0,0.5165820666230447,1.1251420049609873
1648624034039233945,9987,3,0,0.00624838657677,0.0454158857465,0.00980689655989,0.0,14.8999996185,0.002089761396913043,0.015189259446989964,0.0032798985150133777,14.8999996185,0.0,0.015474101199747589,0.04688091544635496
1648624034039240602,9988,3,1,0.0321475751698,0.0161153152585,-0.0300774052739,0.0,14.8999996185,0.010751697381204012,0.005389737544648829,-0.010059332867525084,14.8999996185,0.0,0.016132181004259023,0.046880915980697435
1648624034039408198,9989,3,2,1.10680568218,-0.105482056737,0.172624498606,0.0,14.8999996185,0.3701691244749164,-0.035278279845150494,0.05773394602207357,14.8999996185,0.0,0.524685542451748,1.1251419910030804
1648624034039434849,9990,3,3,0.664712309837,0.474669247866,0.211991488934,-0.566431701183,14.8999996185,0.22231180931003344,0.15875225681137123,0.07090016352307692,14.8999996185,-0.07654482448418919,0.3522035777218978,0.8438564694893133
1648624034039486782,9991,3,4,0.161943465471,0.514225065708,-1.14523267746,-0.242756426334,14.8999996185,0.05416169413745819,0.17198162732709027,-0.383020962361204,14.8999996185,-0.03280492247756756,0.18826751807402492,1.265784732777795
1648624034039493460,9992,3,5,0.837237894535,-0.0,-0.949338555336,-0.242756426334,14.8999996185,0.28001267375752503,-0.0,-0.3175045335571906,14.8999996185,-0.03280492247756756,0.39599772086424473,1.2657847307867334
1648624034144319722,9993,4,0,0.00636456906796,0.0454158857465,0.00973189715296,0.0,11.6999998093,0.002128618417377926,0.015189259446989964,0.0032548151013244144,11.6999998093,0.0,0.01548469035149153,0.0468809155174658
1648624034144322005,9994,4,1,0.0321475751698,0.0161153152585,-0.0300774052739,0.0,11.6999998093,0.010751697381204012,0.005389737544648829,-0.010059332867525084,11.6999998093,0.0,0.016132181004259023,0.046880915980697435
1648624034144325299,9995,4,2,1.10963070393,-0.105482056737,0.153419658542,0.0,11.6999998093,0.37111394780267554,-0.035278279845150494,0.051310922589297654,11.6999998093,0.0,0.5260187083519052,1.1251419266140599
1648624034144327061,9996,4,3,1.82652711868,0.615311980247,0.402671575546,-0.404594063759,11.6999998093,0.6108786350100335,0.2057899599488294,0.13467276774113712,11.6999998093,-0.05467487348094594,0.8880849739969617,1.9689983611119755
1648624034144419242,9997,4,4,0.692487955093,0.348676800728,0.18453976512,-0.242756426334,11.6999998093,0.23160132277357856,0.11661431462474915,0.06171898498996655,11.6999998093,-0.03280492247756756,0.3476740482065675,0.7969755355249889
1648624034339299558,9998,6,0,0.00624838657677,0.0454158857465,0.00980689655989,0.0,26.0,0.002089761396913043,0.015189259446989964,0.0032798985150133777,26.0,0.0,0.015474101199747589,0.04688091544635496
1648624034339302462,9999,6,1,0.0321475751698,0.0161153152585,-0.0300774052739,0.0,26.0,0.010751697381204012,0.005389737544648829,-0.010059332867525084,26.0,0.0,0.016132181004259023,0.046880915980697435
1648624034339304378,10000,6,2,1.11069476604,-0.105482056737,0.14551627636,0.0,26.0,0.3714698214180602,-0.035278279845150494,0.04866765095652174,26.0,0.0,0.5265208575902419,1.12514190851101
1648624034339321090,10001,6,3,0.819981634617,0.22268435359,0.267310649157,0.404594063759,26.0,0.2742413493702341,0.07447637243812709,0.08940155490200667,26.0,0.05467487348094594,0.39492197388896483,0.890737439201755
