%time,field.header.seq,field.header.frame_id,field.point_id,field.x,field.y,field.z,field.velocity,field.intensity,normalized_x,normalized_y,normalized_z,normalized_intensity,normalized_velocity,normalized_range,range
1648623773037947786,2239,0,0,0.0320321619511,0.0161153152585,-0.0302002876997,0.0,17.2000007629,0.01071309764250836,0.005389737544648829,-0.010100430668795986,17.2000007629,0.0,0.01608073981494737,0.04688091469123648
1648623773037953119,2240,0,1,0.00573750492185,0.0454158857465,0.0101142767817,0.0,17.2000007629,0.001918897967173913,0.015189259446989964,0.0033827012647826083,17.2000007629,0.0,0.015429774507905884,0.046880915474041565
1648623773037974759,2241,0,2,1.11056089401,0.329631447792,0.17786321044,-0.161837622523,17.2000007629,0.37142504816387956,0.11024463136856186,0.059486023558528424,17.2000007629,-0.021869948989594594,0.5367187452965199,1.1720229145822039
1648623773143016906,2242,1,0,0.00570635916665,0.0454158857465,0.0101318815723,0.0,33.7000007629,0.0019084813266387957,0.015189259446989964,0.0033885891546153843,33.7000007629,0.0,0.015427190427820349,0.04688091549098699
1648623773143026690,2243,1,1,0.0319449417293,0.0161153152585,-0.0302925314754,0.0,33.7000007629,0.010683926999765886,0.005389737544648829,-0.010131281429899665,33.7000007629,0.0,0.016041878414725944,0.0468809145725349
1648623773143028930,2244,1,2,1.08154153824,0.256380021572,0.371718764305,-0.323675245047,33.7000007629,0.3617195780066889,0.08574582661270903,0.12432065695819397,33.7000007629,-0.04373989797932432,0.5186853121191798,1.1720228897663394
1648623773143032195,2245,1,3,1.13241565228,0.293005734682,0.0736218318343,-0.0809188112617,33.7000007629,0.3787343318662207,0.09799522899063544,0.024622686232207355,33.7000007629,-0.010934974494824324,0.5445020231121572,1.1720229281920702
1648623773338062748,2246,3,0,0.00570635916665,0.0454158857465,0.0101318815723,0.0,22.2999992371,0.0019084813266387957,0.015189259446989964,0.0033885891546153843,22.2999992371,0.0,0.015427190427820349,0.04688091549098699
1648623773338071495,2247,3,1,0.0320154502988,0.0161153152585,-0.030218007043,0.0,22.2999992371,0.010707508461137123,0.005389737544648829,-0.010106356870568562,22.2999992371,0.0,0.01607329293240322,0.046880917155774304
1648623773338082558,2248,3,2,1.03158664703,0.281285494566,0.350217014551,-0.0809188112617,22.2999992371,0.34501225653177253,0.09407541624280935,0.11712943630468227,22.2999992371,-0.010934974494824324,0.4969075349152487,1.1251419897350077
1648623773442997488,2249,4,0,0.00570635916665,0.0454158857465,0.0101318815723,0.0,23.0,0.0019084813266387957,0.015189259446989964,0.0033885891546153843,23.0,0.0,0.015427190427820349,0.04688091549098699
1648623773443011518,2250,4,1,0.0342580899596,0.0146502861753,-0.0284529849887,0.0,23.0,0.011457555170434782,0.0048997612626421405,-0.009516048491204012,23.0,0.0,0.016928047772794184,0.04688091261340185
1648623773443022371,2251,4,2,1.06157243252,0.24612480402,0.280055373907,0.0,23.0,0.35504094733110364,0.08231598796655518,0.09366400465117057,23.0,0.0,0.5088065157193302,1.1251419737502033
1648623773443025301,2252,4,3,1.11123633385,-0.175803437829,0.0138382231817,0.0,23.0,0.3716509477759197,-0.05879713639765886,0.00462816828819398,23.0,0.0,0.5288723449132539,1.1251420065226034
1648623773638005577,2253,6,0,0.00575251271948,0.0454158857465,0.0101057486609,0.0,15.0,0.00192391729748495,0.015189259446989964,0.0033798490504682276,15.0,0.0,0.015431024531219481,0.046880915485133214
1648623773638033820,2254,6,1,0.0320935323834,0.0161153152585,-0.0301350634545,0.0,15.0,0.01073362287070234,0.005389737544648829,-0.010078616539966554,15.0,0.0,0.016108090844700558,0.04688091569212283
1648623773638172106,2255,6,2,1.05956852436,-0.134782627225,0.147630870342,0.0,15.0,0.3543707439331103,-0.04507780174749164,0.049374873024080265,15.0,0.0,0.5031791495300637,1.0782609555641145
1648623773638178866,2256,6,3,0.701840400696,0.235869601369,-0.783857345581,0.0,15.0,0.23472923100200666,0.07888615430401337,-0.262159647351505,15.0,0.0,0.34120177185129535,1.078260986552135
1648623773638183395,2257,6,4,1.13221144676,0.256380021572,0.161258682609,0.0809188112617,15.0,0.3786660357056856,0.08574582661270903,0.05393266976889632,15.0,0.010934974494824324,0.5423359475229499,1.1720229683553227
