%time,field.header.seq,field.header.frame_id,field.point_id,field.x,field.y,field.z,field.velocity,field.intensity,normalized_x,normalized_y,normalized_z,normalized_intensity,normalized_velocity,normalized_range,range
1648624102139419320,12061,0,0,0.00643067993224,0.0454158857465,0.00968833919615,0.0,16.1000003815,0.0021507290743277593,0.015189259446989964,0.003240247222792642,16.1000003815,0.0,0.015490799645282723,0.04688091550844237
1648624102139425699,12062,0,1,0.0322042368352,0.0161153152585,-0.0300167296082,0.0,16.1000003815,0.010770647770969899,0.005389737544648829,-0.010039040002742474,16.1000003815,0.0,0.01615744341202515,0.04688091629213625
1648624102139430984,12063,0,2,1.06632316113,-0.0673913136125,0.145120456815,0.0,16.1000003815,0.3566298197759197,-0.02253890087374582,0.04853526983779264,16.1000003815,0.0,0.5048540965065119,1.078260923941366
1648624102139566918,12064,0,3,0.779393076897,0.184593603015,0.265641391277,0.242756426334,16.1000003815,0.2606665809020067,0.06173699097491638,0.08884327467458193,16.1000003815,0.03280492247756756,0.373772108179465,0.8438564542317684
1648624102244475522,12065,1,0,0.00643067993224,0.0454158857465,0.00968833919615,0.0,39.0999984741,0.0021507290743277593,0.015189259446989964,0.003240247222792642,39.0999984741,0.0,0.015490799645282723,0.04688091550844237
1648624102244515368,12066,1,1,0.0322042368352,0.0161153152585,-0.0300167296082,0.0,39.0999984741,0.010770647770969899,0.005389737544648829,-0.010039040002742474,39.0999984741,0.0,0.01615744341202515,0.04688091629213625
1648624102244520142,12067,1,2,1.11442673206,-0.0703213736415,0.138031333685,0.0,39.0999984741,0.37271797058862877,-0.023518854060702338,0.04616432564715719,39.0999984741,0.0,0.527627243132631,1.1251420736065374
1648624102244522279,12068,1,3,0.812921762466,0.22268435359,0.288067817688,0.161837622523,39.0999984741,0.27188018811571907,0.07447637243812709,0.09634375173511704,39.0999984741,0.021869948989594594,0.3916432093515987,0.8907374365165924
1648624102244529946,12069,1,4,0.95993745327,-1.16030263901,0.354463279247,0.161837622523,39.0999984741,0.3210493154749164,-0.3880610832809364,0.11854959172140467,39.0999984741,0.021869948989594594,0.5972744179110626,1.5470702455346366
1648624102439956866,12070,3,0,0.00633181491867,0.0454158857465,0.00975323934108,0.0,12.1999998093,0.002117663852397993,0.015189259446989964,0.003261952956882943,12.1999998093,0.0,0.015481686049377183,0.046880915476852886
1648624102440025104,12071,3,1,0.0321791954339,0.0161153152585,-0.0300435740501,0.0,12.1999998093,0.010762272720367892,0.005389737544648829,-0.010048018076956522,12.1999998093,0.0,0.016146278178433164,0.04688091665441084
1648624102440044668,12072,3,2,0.793240427971,0.334026515484,0.229366734624,0.0,12.1999998093,0.26529780199698993,0.11171455367357858,0.07671128248294314,12.1999998093,0.0,0.39146645959948473,0.8907374408691231
1648624102440117456,12073,3,3,1.06896293163,-0.101086974144,0.0987235978246,0.0,12.1999998093,0.3575126861638796,-0.03380835255652174,0.03301792569384615,12.1999998093,0.0,0.5067283752059,1.0782609490786668
1648624102440152345,12074,3,4,1.92752361298,0.709073901176,0.191956028342,0.161837622523,12.1999998093,0.6446567267491639,0.23714846193177255,0.06419934058260869,12.1999998093,0.021869948989594594,0.9420212225223472,2.062760333325532
1648624102544992947,12075,4,0,0.00643067993224,0.0454158857465,0.00968833919615,0.0,14.6000003815,0.0021507290743277593,0.015189259446989964,0.003240247222792642,14.6000003815,0.0,0.015490799645282723,0.04688091550844237
1648624102545058235,12076,4,1,0.0322042368352,0.0161153152585,-0.0300167296082,0.0,14.6000003815,0.010770647770969899,0.005389737544648829,-0.010039040002742474,14.6000003815,0.0,0.01615744341202515,0.04688091629213625
1648624102545090079,12077,4,2,1.06909406185,-0.101086974144,0.0972929745913,0.0,14.6000003815,0.35755654242474916,-0.03380835255652174,0.03253945638505017,14.6000003815,0.0,0.5067902591448152,1.0782609203385536
1648624102545126474,12078,4,3,0.756593942642,0.389697611332,0.262896418571,0.0809188112617,14.6000003815,0.25304145238862874,0.13033364927491636,0.08792522360234113,14.6000003815,0.010934974494824324,0.3808501193215124,0.890737418781703
1648624102739944035,12079,6,0,0.00644198199734,0.0454158857465,0.00968082807958,0.0,18.1000003815,0.002154509029210702,0.015189259446989964,0.0032377351436722406,18.1000003815,0.0,0.015491850143280974,0.04688091554672945
1648624102740009688,12080,6,1,0.0321791954339,0.0161153152585,-0.0300435740501,0.0,18.1000003815,0.010762272720367892,0.005389737544648829,-0.010048018076956522,18.1000003815,0.0,0.016146278178433164,0.04688091665441084
1648624102740021669,12081,6,2,1.10821044445,-0.175803437829,0.0831096246839,0.0809188112617,18.1000003815,0.370638944632107,-0.05879713639765886,0.027795861098294312,18.1000003815,0.010934974494824324,0.5274500524263592,1.1251419677781378
1648624102740034932,12082,6,3,1.20850670338,-0.0380907431245,0.154230713844,-0.161837622523,18.1000003815,0.40418284393979936,-0.01273937897140468,0.05158217854314381,18.1000003815,-0.021869948989594594,0.571742804455907,1.2189037984677058
1648624102740147102,12083,6,4,0.765279948711,0.417533159256,0.182827487588,-0.0809188112617,18.1000003815,0.25594647114080266,0.13964319707558526,0.06114631691906354,18.1000003815,-0.010934974494824324,0.38796573903935155,0.8907374636755475
1648624102740170588,12084,6,5,1.06423449516,-0.0673913136125,0.159718617797,-0.0809188112617,18.1000003815,0.3559312692842809,-0.02253890087374582,0.05341759792541806,18.1000003815,-0.010934974494824324,0.503867183850303,1.0782609548295174
1648624102845035004,12085,7,0,0.00633181491867,0.0454158857465,0.00975323934108,0.0,13.6999998093,0.002117663852397993,0.015189259446989964,0.003261952956882943,13.6999998093,0.0,0.015481686049377183,0.046880915476852886
1648624102845087316,12086,7,1,0.0322042368352,0.0161153152585,-0.0300167296082,0.0,13.6999998093,0.010770647770969899,0.005389737544648829,-0.010039040002742474,13.6999998093,0.0,0.01615744341202515,0.04688091629213625
1648624102845128726,12087,7,2,0.778750836849,0.334026515484,0.27456626296,0.0,13.6999998093,0.2604517848993311,0.11171455367357858,0.09182818159197323,13.6999998093,0.0,0.3849031125062276,0.8907374538522677
1648624102845148554,12088,7,3,0.653637170792,-0.0,-0.605121135712,0.0,13.6999998093,0.21860774942876254,-0.0,-0.2023816507397993,13.6999998093,0.0,0.3091580440820152,0.8907374135660582
1648624102845317271,12089,7,4,1.06405234337,-0.134782627225,0.110783815384,0.0,13.6999998093,0.3558703489531772,-0.04507780174749164,0.0370514432722408,13.6999998093,0.0,0.5052914196169359,1.0782610072630363
1648624102845338336,12090,7,5,1.84616339207,0.755954742432,0.2897978127,-0.404594063759,13.6999998093,0.6174459505250836,0.2528276730541806,0.09692234538461537,13.6999998093,-0.05467487348094594,0.9090659139477398,2.0158793652077858
1648624102845357688,12091,7,6,1.16143739223,-0.0366257168353,0.152837976813,-0.242756426334,13.6999998093,0.3884405994080268,-0.012249403623846153,0.051116380205016715,13.6999998093,-0.03280492247756756,0.5494745184501953,1.1720229120456704
