%time,field.header.seq,field.header.frame_id,field.point_id,field.x,field.y,field.z,field.velocity,field.intensity,normalized_x,normalized_y,normalized_z,normalized_intensity,normalized_velocity,normalized_range,range
1648623878338582104,5342,0,0,0.00596007192507,0.0454158857465,0.00998474378139,0.0,19.7000007629,0.0019933350919966552,0.015189259446989964,0.0033393791911003343,19.7000007629,0.0,0.015448636578220891,0.04688091556135775
1648623878338590051,5343,0,1,0.0321226231754,0.0161153152585,-0.0301040504128,0.0,19.7000007629,0.010743352232575252,0.005389737544648829,-0.01006824428521739,19.7000007629,0.0,0.016121057818473217,0.04688091463277985
1648623878338592008,5344,0,2,0.948418319225,0.24612480402,-0.0957286581397,0.0,19.7000007629,0.3171967622826087,0.08231598796655518,-0.03201627362531772,19.7000007629,0.0,0.4560740004429649,0.9844992145170481
1648623878338606227,5345,0,3,0.377577662468,0.615311980247,-0.669376552105,0.0,19.7000007629,0.1262801546715719,0.2057899599488294,-0.22387175655685618,19.7000007629,0.0,0.27247543475237,0.9844992091100232
1648623878338789163,5346,0,4,1.05625140667,-0.134782627225,0.169745370746,0.0,19.7000007629,0.3532613400234113,-0.04507780174749164,0.056771027005351166,19.7000007629,0.0,0.5016165437071016,1.078261045194402
1648623878338791764,5347,0,5,0.49511218071,0.26956525445,-0.919154644012,0.0,19.7000007629,0.16558935809698996,0.09015560349498328,-0.3074095799371237,19.7000007629,0.0,0.25093366428498787,1.0782609876569453
1648623878443533629,5348,1,0,0.00596851855516,0.0454158857465,0.00997969694436,0.0,15.3999996185,0.0019961600518929768,0.015189259446989964,0.00333769128573913,15.3999996185,0.0,0.015449366085814674,0.04688091555189275
1648623878443544233,5349,1,1,0.0321392267942,0.0161153152585,-0.0300863236189,0.0,15.3999996185,0.010748905282341136,0.005389737544648829,-0.01006231559160535,15.3999996185,0.0,0.01612845932932466,0.046880914599771256
1648623878443561782,5350,1,2,1.05628550053,-0.134782627225,0.169532626867,0.0,15.3999996185,0.3532727426521739,-0.04507780174749164,0.05669987520635451,15.3999996185,0.0,0.5016326042158388,1.0782609734215607
1648623878443571905,5351,1,3,0.50953489542,0.235869601369,-0.920535981655,0.0,15.3999996185,0.1704130085016722,0.07888615430401337,-0.30787156577090297,15.3999996185,0.0,0.2535827523197479,1.0782609943896586
1648623878443573722,5352,1,4,0.96057587862,0.215359210968,-0.0123713780195,0.0809188112617,15.3999996185,0.3212628356588629,0.07202649196254181,-0.004137584621906354,15.3999996185,0.010934974494824324,0.4600080811198616,0.9844991921426071
1648623878638361156,5353,3,0,0.00603537168354,0.0454158857465,0.0099394088611,0.0,16.5,0.0020185189577056856,0.015189259446989964,0.0033242170104013377,16.5,0.0,0.015455175188693538,0.04688091549880112
1648623878638385322,5354,3,1,0.0320671759546,0.0161153152585,-0.0301631093025,0.0,16.5,0.010724808011571905,0.005389737544648829,-0.010087996422240803,16.5,0.0,0.016096343826172175,0.04688091639866569
1648623878638389712,5355,3,2,1.06935369968,-0.101086974144,0.094397008419,0.0,16.5,0.3576433778193979,-0.03380835255652174,0.03157090582575251,16.5,0.0,0.5069127894408695,1.078260964033916
1648623878638552172,5356,3,3,0.945929706097,0.24612480402,0.117806211114,0.0809188112617,16.5,0.3163644501996655,0.08231598796655518,0.03940007060668896,16.5,0.010934974494824324,0.4549163138151712,0.9844992287491526
1648623878638556112,5357,3,4,0.98139333725,0.336956560612,0.293213576078,-0.242756426334,16.5,0.32822519640468223,0.11269450187692308,0.0980647411632107,16.5,-0.03280492247756756,0.4776647463054734,1.0782610107643742
1648623878743453451,5358,4,0,0.00599229196087,0.0454158857465,0.00996544025838,0.0,28.6000003815,0.002004111023702341,0.015189259446989964,0.0033329231633377927,28.6000003815,0.0,0.015451424676664103,0.04688091552675555
1648623878743455805,5359,4,1,0.0321392267942,0.0161153152585,-0.0300863236189,0.0,28.6000003815,0.010748905282341136,0.005389737544648829,-0.01006231559160535,28.6000003815,0.0,0.01612845932932466,0.046880914599771256
1648623878743461396,5360,4,2,1.05867028236,-0.168478280306,0.116099305451,0.0,28.6000003815,0.35407032854849496,-0.05634725093846154,0.03882919914749164,28.6000003815,0.0,0.5038914643107186,1.0782609825145644
1648623878938475799,5361,6,0,0.00603537168354,0.0454158857465,0.0099394088611,0.0,16.7999992371,0.0020185189577056856,0.015189259446989964,0.0033242170104013377,16.7999992371,0.0,0.015455175188693538,0.04688091549880112
1648623878938478215,5362,6,1,0.0321392267942,0.0161153152585,-0.0300863236189,0.0,16.7999992371,0.010748905282341136,0.005389737544648829,-0.01006231559160535,16.7999992371,0.0,0.01612845932932466,0.046880914599771256
1648623878938481740,5363,6,2,0.897998034954,0.36918720603,0.162908166647,-0.0809188112617,16.7999992371,0.300333790954515,0.12347398194983276,0.054484336671237456,16.7999992371,-0.010934974494824324,0.4423195634343662,0.984499230389628
