%time,field.header.seq,field.header.frame_id,field.point_id,field.x,field.y,field.z,field.velocity,field.intensity,normalized_x,normalized_y,normalized_z,normalized_intensity,normalized_velocity,normalized_range,range
1648633527443970423,9955,0,0,0.00675994111225,0.0454158857465,0.00946154072881,0.0,15.1999998093,0.0022608498703177255,0.015189259446989964,0.003164394892578595,15.1999998093,0.0,0.015522128939684956,0.04688091546613781
1648633527443974027,9956,0,1,0.0342601276934,0.0146502861753,-0.0284505337477,0.0,15.1999998093,0.011458236686755852,0.0048997612626421405,-0.009515228678160534,15.1999998093,0.0,0.016928970328118718,0.046880914081481775
1648633527443975868,9957,0,2,2.37955474854,-1.06654083729,0.304261296988,0.0,15.1999998093,0.7958377085418059,-0.35670262116722407,0.10175963109966553,15.1999998093,0.0,1.180657476417997,2.6253314258872797
1648633527548912019,9958,1,0,0.00656439410523,0.0454158857465,0.0095982439816,0.0,14.3000001907,0.0021954495335217393,0.015189259446989964,0.003210115044013378,14.3000001907,0.0,0.015503341570656809,0.046880915473551076
1648633527548915631,9959,1,1,0.0341994836926,0.0146502861753,-0.0285234022886,0.0,14.3000001907,0.011437954412240802,0.0048997612626421405,-0.009539599427625417,14.3000001907,0.0,0.016901516579996192,0.0468809134720721
1648633527548933845,9960,1,2,2.3758661747,-1.06654083729,0.331835836172,0.0,14.3000001907,0.79460407180602,-0.35670262116722407,0.11098188500735785,14.3000001907,0.0,1.1789944960893504,2.6253313047801865
1648633527549029425,9961,1,3,1.54528260231,0.0483459457755,0.0564868301153,0.0809188112617,14.3000001907,0.5168169238494983,0.016169212633946488,0.018891916426521736,14.3000001907,0.010934974494824324,0.7310683340096998,1.5470702677808037
1648633527744131320,9962,3,0,0.00670190900564,0.0454158857465,0.00950273498893,0.0,16.2999992371,0.0022414411390100334,0.015189259446989964,0.003178172237100334,16.2999992371,0.0,0.015516498293985891,0.04688091546385218
1648633527744138519,9963,3,1,0.0342212058604,0.0146502861753,-0.0284973401576,0.0,16.2999992371,0.011445219351304346,0.0048997612626421405,-0.009530882995852842,16.2999992371,0.0,0.01691134981099473,0.04688091521734642
1648633527744142361,9964,3,2,2.37322235107,-1.06654083729,0.350244432688,0.0,16.2999992371,0.7937198498561872,-0.35670262116722407,0.11713860625016721,16.2999992371,0.0,1.1778026829902473,2.6253313786747783
1648633527849157474,9965,4,0,0.00666702631861,0.0454158857465,0.00952724087983,0.0,14.0,0.0022297746884983277,0.015189259446989964,0.0031863681872341134,14.0,0.0,0.01551313613912124,0.0468809154865227
1648633527849167106,9966,4,1,0.0342212058604,0.0146502861753,-0.0284973401576,0.0,14.0,0.011445219351304346,0.0048997612626421405,-0.009530882995852842,14.0,0.0,0.01691134981099473,0.04688091521734642
1648633527849174172,9967,4,2,1.98888850212,-1.29508531094,0.556760549545,0.0,14.0,0.6651801010434782,-0.4331388999799331,0.18620754165384615,14.0,0.0,1.0356343178575391,2.4378075695196584
1648633527849178571,9968,4,3,2.37709760666,-1.06654083729,0.322896718979,0.0,14.0,0.7950159219598661,-0.35670262116722407,0.10799221370535117,14.0,0.0,1.1795496565583663,2.625331346768129
1648633528044149260,9969,6,0,0.00663239276037,0.0454158857465,0.00955138355494,0.0,14.0,0.0022181915586521736,0.015189259446989964,0.0031944426605150502,14.0,0.0,0.01550981463879325,0.04688091551666337
1648633528044264435,9970,6,1,0.0343600958586,0.0146502861753,-0.028329718858,0.0,14.0,0.011491670855719062,0.0048997612626421405,-0.009474822360535116,14.0,0.0,0.016974235138681633,0.04688091341904174
1648633528044294461,9971,6,2,1.17876124382,-0.266635209322,0.158600375056,0.0,14.0,0.39423452970568557,-0.0891756552916388,0.053043603697658856,14.0,0.0,0.5646184785509764,1.2189038041413127
1648633528044375745,9972,6,3,2.37333655357,-1.06654083729,0.349469602108,0.0,14.0,0.7937580446722408,-0.35670262116722407,0.11687946558795985,14.0,0.0,1.1778541619875382,2.6253313613554203
1648633528044377474,9973,6,4,1.27818870544,0.246124818921,-0.169551029801,-0.161837622523,14.0,0.42748786135117056,0.08231599295016721,-0.05670603003377926,14.0,-0.021869948989594594,0.6101374155881338,1.3126657399771877
1648633528044378890,9974,6,5,1.1345436573,-0.293005734682,-0.0244165007025,-0.0809188112617,14.0,0.37944603923076925,-0.09799522899063544,-0.008166053746655518,14.0,-0.010934974494824324,0.5454921248567792,1.172022967515037
1648633528149159614,9975,7,0,0.00660574575886,0.0454158857465,0.00956983212382,0.0,14.6000003815,0.0022092795180133776,0.015189259446989964,0.0032006127504414714,14.6000003815,0.0,0.015507270376355754,0.04688091554191253
1648633528149164112,9976,7,1,0.0342212058604,0.0146502861753,-0.0284973401576,0.0,14.6000003815,0.011445219351304346,0.0048997612626421405,-0.009530882995852842,14.6000003815,0.0,0.01691134981099473,0.04688091521734642
1648633528149179183,9977,7,2,1.99796462059,-1.29508531094,0.523256421089,0.0,14.6000003815,0.6682155921705685,-0.4331388999799331,0.17500214752140464,14.6000003815,0.0,1.0395352143701306,2.437807594941153
1648633528149187952,9978,7,3,2.37366604805,-1.06654083729,0.347225099802,0.0,14.6000003815,0.7938682434949832,-0.35670262116722407,0.11612879592040133,14.6000003815,0.0,1.178002689303886,2.6253314334013274
1648633528149202150,9979,7,4,1.15995764732,-0.304725944996,0.217639163136,-0.0809188112617,14.6000003815,0.387945701444816,-0.10191503177123744,0.07278901777123746,14.6000003815,-0.010934974494824324,0.5580236627957214,1.2189037904856943
1648633528344257881,9980,9,0,0.00656439410523,0.0454158857465,0.0095982439816,0.0,17.2999992371,0.0021954495335217393,0.015189259446989964,0.003210115044013378,17.2999992371,0.0,0.015503341570656809,0.046880915473551076
1648633528344265677,9981,9,1,0.034338593483,0.0146502861753,-0.0283557809889,0.0,17.2999992371,0.011484479425752508,0.0048997612626421405,-0.009483538792274248,17.2999992371,0.0,0.016964498100207795,0.04688091512438062
1648633528344288929,9982,9,2,2.38149142265,-1.06654083729,0.288710862398,0.0,17.2999992371,0.7964854256354514,-0.35670262116722407,0.09655881685551838,17.2999992371,0.0,1.181530713289731,2.6253313535303255
1648633528344295277,9983,9,3,0.995405733585,-1.58223092556,0.149080783129,-0.161837622523,17.2999992371,0.332911616583612,-0.5291742225953177,0.04985979368862876,17.2999992371,-0.021869948989594594,0.7082977105511401,1.8752366133772833
1648633528344298488,9984,9,4,1.15956401825,-0.34281668067,0.153669849038,-0.0809188112617,17.2999992371,0.38781405292642135,-0.1146544082508361,0.05139459834046822,17.2999992371,-0.010934974494824324,0.5603080515446692,1.2189037744912619
1648633528449281248,9985,10,0,0.00660574575886,0.0454158857465,0.00956983212382,0.0,18.2999992371,0.0022092795180133776,0.015189259446989964,0.0032006127504414714,18.2999992371,0.0,0.015507270376355754,0.04688091554191253
1648633528449312675,9986,10,1,0.034306101501,0.0146502861753,-0.0283950809389,0.0,18.2999992371,0.011473612542140466,0.0048997612626421405,-0.009496682588260868,18.2999992371,0.0,0.016949785543339906,0.04688091409882899
1648633528449318497,9987,10,2,1.15594553947,-0.34281668067,0.178865849972,0.0,18.2999992371,0.386603859354515,-0.1146544082508361,0.05982135450568561,18.2999992371,0.0,0.5586329040317627,1.2189037529897069
1648633528449323098,9988,10,3,1.31178212166,0.0410208031535,-0.0252223890275,0.0,18.2999992371,0.43872311761204014,0.013719332158361203,-0.008435581614548495,18.2999992371,0.0,0.6205998452540312,1.3126656885538008
1648633528449328599,9989,10,4,2.37805247307,-1.06654083729,0.315787613392,0.0,18.2999992371,0.7953352752742474,-0.35670262116722407,0.10561458641872909,18.2999992371,0.0,1.1799801524342237,2.625331357953394
1648633528644093693,9990,12,0,0.00663239276037,0.0454158857465,0.00955138355494,0.0,14.8999996185,0.0022181915586521736,0.015189259446989964,0.0031944426605150502,14.8999996185,0.0,0.01550981463879325,0.04688091551666337
1648633528644108195,9991,12,1,0.034338593483,0.0146502861753,-0.0283557809889,0.0,14.8999996185,0.011484479425752508,0.0048997612626421405,-0.009483538792274248,14.8999996185,0.0,0.016964498100207795,0.04688091512438062
1648633528644198955,9992,12,2,1.16233658791,-0.34281668067,0.131059989333,0.0,14.8999996185,0.38874133374916386,-0.1146544082508361,0.043832772352173914,14.8999996185,0.0,0.5615917400225069,1.2189037455614877
1648633528644202377,9993,12,3,1.30334317684,0.082041606307,0.132880464196,0.0,14.8999996185,0.4359007280401337,0.027438664316722407,0.04444162682140468,14.8999996185,0.0,0.617067070674917,1.3126657912605784
1648633528644204452,9994,12,4,2.37689518929,-1.06654083729,0.324384450912,0.0,14.8999996185,0.7949482238428093,-0.35670262116722407,0.10848978291371238,14.8999996185,0.0,1.1794583999146568,2.625331478208167
1648633528749223494,9995,13,0,0.00663239276037,0.0454158857465,0.00955138355494,0.0,14.6000003815,0.0022181915586521736,0.015189259446989964,0.0031944426605150502,14.6000003815,0.0,0.01550981463879325,0.04688091551666337
1648633528749227427,9996,13,1,0.034338593483,0.0146502861753,-0.0283557809889,0.0,14.6000003815,0.011484479425752508,0.0048997612626421405,-0.009483538792274248,14.6000003815,0.0,0.016964498100207795,0.04688091512438062
1648633528749236566,9997,13,2,1.31202161312,0.0410208031535,0.00276134768501,0.0,14.6000003815,0.43880321509030096,0.013719332158361203,0.0009235276538494982,14.6000003815,0.0,0.6207130925170189,1.3126656255979292
1648633528749265588,9998,13,3,2.37930178642,-1.06654083729,0.306232988834,0.0,14.6000003815,0.7957531058260869,-0.35670262116722407,0.10241905981070235,14.6000003815,0.0,1.1805434218237358,2.625331406112162
1648633528749271380,9999,13,4,1.15700304508,-0.304725944996,0.232835680246,0.0809188112617,14.6000003815,0.3869575401605351,-0.10191503177123744,0.07787146496521738,14.6000003815,0.010934974494824324,0.5566497547606722,1.2189037705552128
1648633528944176578,10000,15,0,0.00656439410523,0.0454158857465,0.0095982439816,0.0,16.7000007629,0.0021954495335217393,0.015189259446989964,0.003210115044013378,16.7000007629,0.0,0.015503341570656809,0.046880915473551076
1648633528944284311,10001,15,1,0.0342758707702,0.0146502861753,-0.0284315664321,0.0,16.7000007629,0.011463501929832776,0.0048997612626421405,-0.009508885094347825,16.7000007629,0.0,0.01693609793965092,0.04688091479329891
1648633528944288615,10002,15,2,1.16475749016,-0.304725944996,0.190284967422,0.0,16.7000007629,0.3895510000535117,-0.10191503177123744,0.06364045733177257,16.7000007629,0.0,0.5602558674269413,1.2189037210806764
1648633528944295241,10003,15,3,1.97457325459,-1.29508531094,0.605574190617,0.0,16.7000007629,0.6603923928394648,-0.4331388999799331,0.20253317411939797,16.7000007629,0.0,1.0294879949354896,2.4378075397159917
1648633528944298364,10004,15,4,2.3807656765,-1.06654083729,0.294636458158,0.0,16.7000007629,0.7962427011705684,-0.35670262116722407,0.09854062145752507,16.7000007629,0.0,1.1812034703142276,2.6253314469764857
1648633528944300411,10005,15,5,1.27505230904,0.0410208031535,0.309273689985,-0.0809188112617,16.7000007629,0.4264388993444816,0.013719332158361203,0.10343601671739129,16.7000007629,-0.010934974494824324,0.6032317049220285,1.3126657275927227
1648633529049223762,10006,16,0,0.00653733778745,0.0454158857465,0.00961669255048,0.0,20.2999992371,0.0021864005978093643,0.015189259446989964,0.003216285133939799,20.2999992371,0.0,0.015500783776834517,0.04688091551043794
1648633529049228662,10007,16,1,0.0342601276934,0.0146502861753,-0.0284505337477,0.0,20.2999992371,0.011458236686755852,0.0048997612626421405,-0.009515228678160534,20.2999992371,0.0,0.016928970328118718,0.046880914081481775
1648633529049233801,10008,16,2,1.30021548271,0.082041606307,0.160624206066,0.0,20.2999992371,0.4348546764916388,0.027438664316722407,0.053720470256187286,20.2999992371,0.0,0.6155891971378165,1.3126657084797198
1648633529049291296,10009,16,3,2.38216471672,-1.06654083729,0.283101707697,0.0,20.2999992371,0.7967106075986622,-0.35670262116722407,0.09468284538361203,20.2999992371,0.0,1.1818343134585436,2.6253313452008094
