%time,field.header.seq,field.header.frame_id,field.point_id,field.x,field.y,field.z,field.velocity,field.intensity,normalized_x,normalized_y,normalized_z,normalized_intensity,normalized_velocity,normalized_range,range
1648623886843238822,5600,0,0,0.00588618172333,0.0454158857465,0.0100284805521,0.0,18.1000003815,0.0019686226499431437,0.015189259446989964,0.00335400687361204,18.1000003815,0.0,0.015442297524128725,0.04688091547317579
1648623886843267586,5601,0,1,0.0322193466127,0.0161153152585,-0.0300005078316,0.0,18.1000003815,0.010775701208260867,0.005389737544648829,-0.010033614659397993,18.1000003815,0.0,0.016164180890463536,0.046880914583485235
1648623886843307339,5602,0,2,1.06774234772,-0.101086974144,0.111150935292,0.0,18.1000003815,0.35710446412040137,-0.03380835255652174,0.03717422585016722,18.1000003815,0.0,0.5061523498829419,1.0782610202879883
1648623886843311472,5603,0,3,0.766905784607,0.32230630517,0.432553172112,-0.404594063759,18.1000003815,0.2564902289655518,0.10779475089297658,0.1446666127464883,18.1000003815,-0.05467487348094594,0.37841007310810487,0.9376183037463427
1648623886843333069,5604,0,4,0.75582331419,0.351606875658,0.429222345352,-0.242756426334,18.1000003815,0.2527837171204013,0.11759427279531771,0.14355262386354514,18.1000003815,-0.03280492247756756,0.3763344633124553,0.9376183120185992
1648623886843426518,5605,0,5,0.693189203739,0.237334623933,0.418634325266,-0.161837622523,18.1000003815,0.231835854093311,0.07937612840568561,0.14001148002207356,18.1000003815,-0.021869948989594594,0.33733706622164406,0.8438564416941109
1648623887038551931,5606,2,0,0.0061486591585,0.0454158857465,0.00986972916871,0.0,24.7000007629,0.0020564077453177256,0.015189259446989964,0.0033009127654548493,24.7000007629,0.0,0.01546516175725231,0.04688091553553783
1648623887038558668,5607,2,1,0.0320587903261,0.0161153152585,-0.0301720201969,0.0,24.7000007629,0.010722003453545148,0.005389737544648829,-0.010090976654481604,24.7000007629,0.0,0.016092606591719856,0.04688091536879189
1648623887038564077,5608,2,2,0.787639498711,0.0527410283685,0.298221498728,0.0,24.7000007629,0.26342458150869563,0.017639139922575247,0.09973963168160535,24.7000007629,0.0,0.3729559753419578,0.8438564204333915
1648623887038633912,5609,2,3,1.06587231159,-0.134782627225,0.0916331782937,0.0,24.7000007629,0.3564790339765886,-0.04507780174749164,0.03064654792431438,24.7000007629,0.0,0.5061488037525622,1.0782609983580451
1648623887143519718,5610,3,0,0.00600330997258,0.0454158857465,0.00995880644768,0.0,14.5,0.002007795977451505,0.015189259446989964,0.003330704497551839,14.5,0.0,0.015452381432067834,0.046880915462780504
1648623887143527425,5611,3,1,0.032164119184,0.0161153152585,-0.0300597138703,0.0,14.5,0.010757230496321069,0.005389737544648829,-0.010053416010133778,14.5,0.0,0.01613955658319513,0.04688091665835584
1648623887143530658,5612,3,2,0.890442669392,-0.0,0.0229138676077,0.0809188112617,14.5,0.2978069128401338,-0.0,0.007663500872140468,14.5,0.010934974494824324,0.4211625751069794,0.8907374432472758
1648623887338494799,5613,5,0,0.00596007192507,0.0454158857465,0.00998474378139,0.0,13.6000003815,0.0019933350919966552,0.015189259446989964,0.0033393791911003343,13.6000003815,0.0,0.015448636578220891,0.04688091556135775
1648623887338497192,5614,5,1,0.032164119184,0.0161153152585,-0.0300597138703,0.0,13.6000003815,0.010757230496321069,0.005389737544648829,-0.010053416010133778,13.6000003815,0.0,0.01613955658319513,0.04688091665835584
1648623887338501377,5615,5,2,0.861303567886,0.0556710883975,0.22015927732,0.0809188112617,13.6000003815,0.288061393941806,0.018619093109531772,0.07363186532441471,13.6000003815,0.010934974494824324,0.40780559582675435,0.8907374548802697
1648623887443690170,5616,6,0,0.00610682740808,0.0454158857465,0.00989566650242,0.0,20.6000003815,0.0020424171933377923,0.015189259446989964,0.0033095874590033446,20.6000003815,0.0,0.015461453312391352,0.046880915463100074
1648623887443698650,5617,6,1,0.0321392267942,0.0161153152585,-0.0300863236189,0.0,20.6000003815,0.010748905282341136,0.005389737544648829,-0.01006231559160535,20.6000003815,0.0,0.01612845932932466,0.046880914599771256
1648623887443700805,5618,6,2,1.06268823147,-0.101086974144,0.152058884501,0.0,20.6000003815,0.35541412423745816,-0.03380835255652174,0.05085581421438127,20.6000003815,0.0,0.5037672122295622,1.0782609878884213
1648623887443705836,5619,6,3,0.865876972675,0.111342176795,0.176842287183,0.0809188112617,20.6000003815,0.28959096076086954,0.037238186219063545,0.05914457765317725,20.6000003815,0.010934974494824324,0.4112329408275711,0.8907374510361549
