%time,field.header.seq,field.header.frame_id,field.point_id,field.x,field.y,field.z,field.velocity,field.intensity,normalized_x,normalized_y,normalized_z,normalized_intensity,normalized_velocity,normalized_range,range
1648623753237604716,1688,0,0,0.0341847836971,0.0146502861753,-0.028541021049,0.0,14.6000003815,0.011433038025785953,0.0048997612626421405,-0.009545491989632107,14.6000003815,0.0,0.0168948624566471,0.046880915135640876
1648623753237610732,1689,0,1,0.00558939715847,0.0454158857465,0.0101968720555,0.0,14.6000003815,0.0018693635981505018,0.015189259446989964,0.0034103251021739126,14.6000003815,0.0,0.015417608215029795,0.04688091550354462
1648623753237616421,1690,0,2,1.15101647377,0.219754308462,0.0225159078836,0.0,14.6000003815,0.3849553423979933,0.0734964242347826,0.00753040397444816,14.6000003815,0.0,0.5493477547572317,1.1720229712276802
1648623753342847944,1691,1,0,0.0341847836971,0.0146502861753,-0.028541021049,0.0,19.5,0.011433038025785953,0.0048997612626421405,-0.009545491989632107,19.5,0.0,0.0168948624566471,0.046880915135640876
1648623753342853004,1692,1,1,0.00558939715847,0.0454158857465,0.0101968720555,0.0,19.5,0.0018693635981505018,0.015189259446989964,0.0034103251021739126,19.5,0.0,0.015417608215029795,0.04688091550354462
1648623753342856404,1693,1,2,1.13849723339,0.256380021572,0.108310900629,0.0,19.5,0.38076830548160534,0.08574582661270903,0.036224381481270905,19.5,0.0,0.5452718145110409,1.1720230019470645
1648623753342858130,1694,1,3,1.17678356171,0.533270418644,0.232151567936,-0.0809188112617,19.5,0.39357309756187286,0.1783513105832776,0.07764266486153845,19.5,-0.010934974494824324,0.5844730586054996,1.3126657004000537
1648623753537880791,1695,3,0,0.0342426262796,0.0146502861753,-0.0284715946764,0.0,12.6999998093,0.011452383371103679,0.0048997612626421405,-0.009522272467023411,12.6999998093,0.0,0.016921046958990233,0.0468809134185731
1648623753537888860,1696,3,1,0.00558939715847,0.0454158857465,0.0101968720555,0.0,12.6999998093,0.0018693635981505018,0.015189259446989964,0.0034103251021739126,12.6999998093,0.0,0.015417608215029795,0.04688091550354462
1648623753537895733,1697,3,2,1.06756055355,-0.134782627225,0.0692445263267,0.0,12.6999998093,0.35704366339464877,-0.04507780174749164,0.0231587044570903,12.6999998093,0.0,0.5069441422394865,1.0782609593803647
1648623753537900741,1698,3,3,1.14132881165,0.256380021572,0.0726338103414,0.0,12.6999998093,0.38171532162207356,0.08574582661270903,0.02429224426133779,12.6999998093,0.0,0.5465944751857477,1.1720229699832554
1648623753537905606,1699,3,4,1.1372166872,0.474669277668,0.289202690125,-0.161837622523,12.6999998093,0.3803400291638796,0.1587522667785953,0.09672330773411371,12.6999998093,-0.021869948989594594,0.5608202544274804,1.2657847023817046
1648623753642837085,1700,4,0,0.0341847836971,0.0146502861753,-0.028541021049,0.0,28.2999992371,0.011433038025785953,0.0048997612626421405,-0.009545491989632107,28.2999992371,0.0,0.0168948624566471,0.046880915135640876
1648623753642947096,1701,4,1,0.00562129309401,0.0454158857465,0.0101793231443,0.0,28.2999992371,0.001880031135120401,0.015189259446989964,0.0034044559011036785,28.2999992371,0.0,0.015420202225847043,0.046880915454628094
1648623753642954484,1702,4,2,1.06100893021,-0.134782627225,0.136896178126,0.0,28.2999992371,0.3548524850200669,-0.04507780174749164,0.04578467495852842,28.2999992371,0.0,0.5038576986215649,1.0782610399029298
1648623753642956851,1703,4,3,1.13648998737,0.256380021572,0.12766250968,0.0,28.2999992371,0.3800969857424749,0.08574582661270903,0.042696491531772574,28.2999992371,0.0,0.5443342575316449,1.1720230045657458
1648623753642960386,1704,4,4,1.15863347054,0.39555773139,0.321424335241,-0.242756426334,28.2999992371,0.38750283295652177,0.13229355564882941,0.10749977767257525,28.2999992371,-0.03280492247756756,0.5637539143676699,1.2657847531089508
1648623753837920529,1705,6,0,0.0319909267128,0.0161153152585,-0.0302439648658,0.0,30.1000003815,0.0106993065929097,0.005389737544648829,-0.010115038416655517,30.1000003815,0.0,0.01606236576405727,0.04688091497217528
1648623753837927051,1706,6,1,0.00562129309401,0.0454158857465,0.0101793231443,0.0,30.1000003815,0.001880031135120401,0.015189259446989964,0.0034044559011036785,30.1000003815,0.0,0.015420202225847043,0.046880915454628094
1648623753837929669,1707,6,2,1.11974287033,0.293005734682,0.184286132455,0.0,30.1000003815,0.3744959432541806,0.09799522899063544,0.06163415801170568,30.1000003815,0.0,0.538606988380771,1.172022966851174
1648623753837932274,1708,6,3,1.15107619762,0.328166425228,0.538907885551,-0.323675245047,30.1000003815,0.38497531692976583,0.10975465726688963,0.18023675102040132,30.1000003815,-0.04373989797932432,0.5553900197898047,1.312665732196621
1648623753838085314,1709,6,4,1.1521859169,0.304725944996,0.255609571934,-0.242756426334,30.1000003815,0.3853464605016722,0.10191503177123744,0.08548815114849498,30.1000003815,-0.03280492247756756,0.5544100133865423,1.218903828003129
