%time,field.header.seq,field.header.frame_id,field.point_id,field.x,field.y,field.z,field.velocity,field.intensity,normalized_x,normalized_y,normalized_z,normalized_intensity,normalized_velocity,normalized_range,range
1648623994238951039,8820,0,0,0.00617115432397,0.0454158857465,0.00985567923635,0.0,24.0,0.0020639312120301003,0.015189259446989964,0.003296213791421404,24.0,0.0,0.01546716608315686,0.04688091548849292
1648623994238955040,8821,0,1,0.0321476347744,0.0161153152585,-0.0300773382187,0.0,24.0,0.010751717315852841,0.005389737544648829,-0.010059310441036789,24.0,0.0,0.016132207576156986,0.04688091383272223
1648623994238961232,8822,0,2,0.883465051651,0.234404578805,0.20897872746,0.0,24.0,0.2954732614217391,0.07839618020234114,0.06989255098996655,24.0,0.0,0.4251527460815897,0.9376183192452324
1648623994238964580,8823,0,3,0.659683585167,0.556710898876,0.366085588932,0.0,24.0,0.22062996159431436,0.18619093607892975,0.12243665181672239,24.0,0.0,0.3633486267817251,0.9376183210079674
1648623994239073012,8824,0,4,1.07464027405,-0.0336956568062,0.081606708467,0.0,24.0,0.3594114628929766,-0.011269450436856187,0.02729321353411371,24.0,0.0,0.5084094804691272,1.078260993806545
1648623994343712576,8825,1,0,0.00617115432397,0.0454158857465,0.00985567923635,0.0,11.8000001907,0.0020639312120301003,0.015189259446989964,0.003296213791421404,11.8000001907,0.0,0.01546716608315686,0.04688091548849292
1648623994343726961,8826,1,1,0.0322035737336,0.0161153152585,-0.030017439276,0.0,11.8000001907,0.010770425997859531,0.005389737544648829,-0.010039277349832775,11.8000001907,0.0,0.01615714774181799,0.04688091517648309
1648623994343732201,8827,1,2,1.06646549702,-0.134782627225,0.0844505131245,0.0,11.8000001907,0.3566774237525083,-0.04507780174749164,0.028244318770735785,11.8000001907,0.0,0.5064282549777795,1.0782610547092852
1648623994343736971,8828,1,3,1.58907008171,-0.75155967474,-2.01264309883,-0.485512852669,11.8000001907,0.5314615657892976,-0.25135775074916383,-0.6731247822173912,11.8000001907,-0.06560984495527027,0.792517198983153,2.6722121758103614
1648623994343765739,8829,1,4,2.65922904015,0.167013257742,0.203284189105,-0.485512852669,11.8000001907,0.8893742609197324,0.05585727683678929,0.06798802311204014,11.8000001907,-0.06560984495527027,1.2590048400815075,2.672212000904637
1648623994538703322,8830,3,0,0.00620788149536,0.0454158857465,0.00983258709311,0.0,21.7000007629,0.0020762145469431434,0.015189259446989964,0.003288490666591973,21.7000007629,0.0,0.015470453653265973,0.04688091551733144
1648623994538711228,8831,3,1,0.0322035737336,0.0161153152585,-0.030017439276,0.0,21.7000007629,0.010770425997859531,0.005389737544648829,-0.010039277349832775,21.7000007629,0.0,0.01615714774181799,0.04688091517648309
1648623994538714219,8832,3,2,1.0672121048,-0.101086974144,0.116131052375,0.0,21.7000007629,0.35692712535117055,-0.03380835255652174,0.038839816847826086,21.7000007629,0.0,0.5059021153597665,1.0782609490744626
1648623994538717173,8833,3,3,0.842172920704,0.194848805666,0.214922890067,-0.566431701183,21.7000007629,0.28166318418193975,0.06516682463745818,0.07188056523979933,21.7000007629,-0.07654482448418919,0.40362732028487347,0.8907374103018938
1648623994643957471,8834,4,0,0.00624838657677,0.0454158857465,0.00980689655989,0.0,41.2999992371,0.002089761396913043,0.015189259446989964,0.0032798985150133777,41.2999992371,0.0,0.015474101199747589,0.04688091544635496
1648623994643960828,8835,4,1,0.0322201624513,0.0161153152585,-0.0299996361136,0.0,41.2999992371,0.010775974063979933,0.005389737544648829,-0.010033323114916387,41.2999992371,0.0,0.016164544684442353,0.04688091745281249
1648623994643962615,8836,4,2,1.0715662241,-0.0673913136125,0.0992520153522,0.0,41.2999992371,0.358383352541806,-0.02253890087374582,0.03319465396394649,41.2999992371,0.0,0.5073315058330257,1.0782609722761105
1648623994838982834,8837,6,0,0.00620788149536,0.0454158857465,0.00983258709311,0.0,13.1999998093,0.0020762145469431434,0.015189259446989964,0.003288490666591973,13.1999998093,0.0,0.015470453653265973,0.04688091551733144
1648623994839155117,8838,6,1,0.0322035737336,0.0161153152585,-0.030017439276,0.0,13.1999998093,0.010770425997859531,0.005389737544648829,-0.010039277349832775,13.1999998093,0.0,0.01615714774181799,0.04688091517648309
1648623994839158459,8839,6,2,0.826557993889,-0.083506628871,-0.321312427521,0.0,13.1999998093,0.27644080063177257,-0.027928638418394644,-0.10746235034147156,13.1999998093,0.0,0.39194265059033356,0.8907374194489894
1648623994839162284,8840,6,3,0.557167410851,0.668053030968,-0.191527575254,0.0,13.1999998093,0.18634361566923074,0.22342910734715715,-0.0640560452354515,13.1999998093,0.0,0.3454973982699601,0.8907374405416082
1648623994839163255,8841,6,4,1.072904706,-0.101086974144,0.0361071713269,0.0,13.1999998093,0.3588310053511706,-0.03380835255652174,0.012075977032408026,13.1999998093,0.0,0.5085886210929711,1.078261013076039
1648623994839164194,8842,6,5,0.615391075611,0.307656019926,0.145434483886,0.161837622523,13.1999998093,0.2058164132478261,0.10289498994180601,0.04864029561404682,13.1999998093,0.021869948989594594,0.30872021456251325,0.7032137595650116
1648623994944103193,8843,7,0,0.00620788149536,0.0454158857465,0.00983258709311,0.0,16.2999992371,0.0020762145469431434,0.015189259446989964,0.003288490666591973,16.2999992371,0.0,0.015470453653265973,0.04688091551733144
1648623994944112816,8844,7,1,0.0322201624513,0.0161153152585,-0.0299996361136,0.0,16.2999992371,0.010775974063979933,0.005389737544648829,-0.010033323114916387,16.2999992371,0.0,0.016164544684442353,0.04688091745281249
1648623994944140129,8845,7,2,1.0680372715,-0.134782627225,0.0614556074142,0.0,16.2999992371,0.35720310083612034,-0.04507780174749164,0.020553714854247493,16.2999992371,0.0,0.5071687280425178,1.0782609895556299
1648623994944144943,8846,7,3,0.581106424332,0.39555773139,-0.0189471691847,-0.242756426334,16.2999992371,0.19434997469297657,0.13229355564882941,-0.006336845881170569,16.2999992371,-0.03280492247756756,0.30503345749692967,0.7032137587408536
