%time,field.header.seq,field.header.frame_id,field.point_id,field.x,field.y,field.z,field.velocity,field.intensity,normalized_x,normalized_y,normalized_z,normalized_intensity,normalized_velocity,normalized_range,range
1648633359348592340,4857,0,0,0.00640005478635,0.0454158857465,0.00970859732479,0.0,28.0,0.002140486550618729,0.015189259446989964,0.0032470225166521738,28.0,0.0,0.015487962031679094,0.04688091553524038
1648633359348608490,4858,0,1,0.0340781733394,0.0146502861753,-0.0286682266742,0.0,28.0,0.011397382387759196,0.0048997612626421405,-0.009588035676989966,28.0,0.0,0.01684661126210537,0.046880913001046506
1648633359348626264,4859,0,2,2.37413764,-1.06654083729,0.343985766172,0.0,28.0,0.7940259665551839,-0.35670262116722407,0.11504540674648829,28.0,0.0,1.1782152736556066,2.6253314264299967
1648633359543638696,4860,2,0,0.00623248284683,0.0454158857465,0.00981701165438,0.0,13.6999998093,0.002084442423688963,0.015189259446989964,0.003283281489759197,13.6999998093,0.0,0.015472666317843298,0.04688091550297844
1648633359543670853,4861,2,1,0.0340781733394,0.0146502861753,-0.0286682266742,0.0,13.6999998093,0.011397382387759196,0.0048997612626421405,-0.009588035676989966,13.6999998093,0.0,0.01684661126210537,0.046880913001046506
1648633359543675394,4862,2,2,1.59065008163,-0.0498109720647,0.089617960155,0.0,13.6999998093,0.5319899938561873,-0.016659187981505015,0.02997256192474916,13.6999998093,0.0,0.7525318834909359,1.5939511265750588
1648633359543778129,4863,2,3,2.32873177528,-1.1485824585,0.387468397617,0.0,13.6999998093,0.7788400586220735,-0.38414129046822737,0.12958809284849498,13.6999998093,0.0,1.1665111250525924,2.6253314275200625
1648633359648637266,4864,3,0,0.00627378607169,0.0454158857465,0.00979066733271,0.0,13.8000001907,0.0020982562112675583,0.015189259446989964,0.00327447067983612,13.8000001907,0.0,0.015476400124196184,0.04688091548415269
1648633359648665550,4865,3,1,0.0341608226299,0.0146502861753,-0.0285696927458,0.0,13.8000001907,0.011425024290936454,0.0048997612626421405,-0.009555081185886287,13.8000001907,0.0,0.016884016717827088,0.04688091329484838
1648633359648691533,4866,3,2,2.32926154137,-1.1485824585,0.384271472692,0.0,13.8000001907,0.779017237916388,-0.38414129046822737,0.12851888718795987,13.8000001907,0.0,1.1667477212252664,2.625331513695772
1648633359843686392,4867,5,0,0.00627378607169,0.0454158857465,0.00979066733271,0.0,13.8000001907,0.0020982562112675583,0.015189259446989964,0.00327447067983612,13.8000001907,0.0,0.015476400124196184,0.04688091548415269
1648633359843694752,4868,5,1,0.0340998992324,0.0146502861753,-0.028642386198,0.0,13.8000001907,0.01140464857270903,0.0048997612626421405,-0.009579393377257524,13.8000001907,0.0,0.016856443235892818,0.04688091615778643
1648633359843698000,4869,5,2,2.37312197685,-1.06654083729,0.350924700499,0.0,13.8000001907,0.793686279882943,-0.35670262116722407,0.11736612056822741,13.8000001907,0.0,1.1777574375466364,2.625331487647992
1648633359948817116,4870,6,0,0.00619364297017,0.0454158857465,0.00984156224877,0.0,14.1999998093,0.0020714524983846154,0.015189259446989964,0.003291492390892976,14.1999998093,0.0,0.015469176883535258,0.04688091550809873
1648633359948821776,4871,6,1,0.0341215319932,0.0146502861753,-0.0286166071892,0.0,14.1999998093,0.011411883609765885,0.0048997612626421405,-0.009570771635183946,14.1999998093,0.0,0.016866233588936654,0.046880913361432394
1648633359948824853,4872,6,2,2.36829996109,-1.06654083729,0.382112979889,0.0,14.1999998093,0.7920735655819398,-0.35670262116722407,0.12779698324046823,14.1999998093,0.0,1.175584036355948,2.6253312919907463
1648633360143727671,4873,8,0,0.00623248284683,0.0454158857465,0.00981701165438,0.0,13.8000001907,0.002084442423688963,0.015189259446989964,0.003283281489759197,13.8000001907,0.0,0.015472666317843298,0.04688091550297844
1648633360143741126,4874,8,1,0.0340998992324,0.0146502861753,-0.028642386198,0.0,13.8000001907,0.01140464857270903,0.0048997612626421405,-0.009579393377257524,13.8000001907,0.0,0.016856443235892818,0.04688091615778643
1648633360143751106,4875,8,2,1.96195197105,-1.29508531094,0.645293951035,0.0,13.8000001907,0.6561712277759196,-0.4331388999799331,0.21581737492809364,13.8000001907,0.0,1.0240755182103232,2.4378075770170824
1648633360143897610,4876,8,3,2.36970996857,-1.06654083729,0.373269796371,0.0,13.8000001907,0.7925451399899666,-0.35670262116722407,0.12483939677959865,13.8000001907,0.0,1.1762195193887064,2.6253314140561628
1648633360143902704,4877,8,4,0.993466496468,0.370652228594,0.1956730932,0.485512852669,13.8000001907,0.33226304229698994,0.12396395605150501,0.06544250608695652,13.8000001907,0.06560984495527027,0.4859676130698857,1.078260967284153
1648633360248737660,4878,9,0,0.00627378607169,0.0454158857465,0.00979066733271,0.0,32.5999984741,0.0020982562112675583,0.015189259446989964,0.00327447067983612,32.5999984741,0.0,0.015476400124196184,0.04688091548415269
1648633360248751020,4879,9,1,0.0340998992324,0.0146502861753,-0.028642386198,0.0,32.5999984741,0.01140464857270903,0.0048997612626421405,-0.009579393377257524,32.5999984741,0.0,0.016856443235892818,0.04688091615778643
1648633360248752706,4880,9,2,1.97216725349,-1.29508531094,0.613364517689,0.0,32.5999984741,0.6595877101973244,-0.4331388999799331,0.2051386346785953,32.5999984741,0.0,1.028455736316603,2.437807553912061
1648633360248754596,4881,9,3,2.37086558342,-1.06654083729,0.365856975317,0.0,32.5999984741,0.792931633250836,-0.35670262116722407,0.12236019241371236,32.5999984741,0.0,1.1767403749201626,2.625331274075867
1648633360443737505,4882,11,0,0.00626406958327,0.0454158857465,0.00979688670486,0.0,14.5,0.0020950065495886285,0.015189259446989964,0.0032765507374113707,14.5,0.0,0.015475519617564135,0.046880915466648604
1648633360443743720,4883,11,1,0.0340467952192,0.0146502861753,-0.0287054888904,0.0,14.5,0.011386888033177257,0.0048997612626421405,-0.009600497956655518,14.5,0.0,0.016832412144167554,0.04688091554303525
1648633360443746331,4884,11,2,2.32922458649,-1.1485824585,0.384494721889,0.0,14.5,0.7790048784247491,-0.38414129046822737,0.12859355247123747,14.5,0.0,1.1667312168026154,2.625331413258889
1648633360443909491,4885,11,3,1.11779975891,0.105482056737,-0.0730877518654,0.161837622523,14.5,0.3738460732140468,0.035278279845150494,-0.024444064169030097,14.5,0.021869948989594594,0.5298738811679224,1.1251420287170237
1648633360443913695,4886,11,4,1.24191391468,0.039555773139,0.241445839405,0.566431701183,14.5,0.4153558243076923,0.013229355564882942,0.08075111685785953,14.5,0.07654482448418919,0.5875507956094581,1.2657847068243522
1648633360548648619,4887,12,0,0.00623534247279,0.0454158857465,0.00981519557536,0.0,21.2000007629,0.002085398820331104,0.015189259446989964,0.0032826741054715718,21.2000007629,0.0,0.015472924061975183,0.04688091549953655
1648633360548654953,4888,12,1,0.0340998992324,0.0146502861753,-0.028642386198,0.0,21.2000007629,0.01140464857270903,0.0048997612626421405,-0.009579393377257524,21.2000007629,0.0,0.016856443235892818,0.04688091615778643
1648633360548656592,4889,12,2,2.33141136169,-1.1485824585,0.371004968882,0.0,21.2000007629,0.7797362413678929,-0.38414129046822737,0.12408192939197324,21.2000007629,0.0,1.1677079015094711,2.6253314625635857
1648633360548662368,4890,12,3,1.2157034874,0.0380907431245,0.0796273946762,0.242756426334,21.2000007629,0.4065897951170568,0.01273937897140468,0.026631235677658863,21.2000007629,0.03280492247756756,0.5751459073689367,1.218903768133981
1648633360743679503,4891,14,0,0.00626406958327,0.0454158857465,0.00979688670486,0.0,19.7000007629,0.0020950065495886285,0.015189259446989964,0.0032765507374113707,19.7000007629,0.0,0.015475519617564135,0.046880915466648604
1648633360743688445,4892,14,1,0.0340998992324,0.0146502861753,-0.028642386198,0.0,19.7000007629,0.01140464857270903,0.0048997612626421405,-0.009579393377257524,19.7000007629,0.0,0.016856443235892818,0.04688091615778643
1648633360743693195,4893,14,2,1.59277892113,-0.0498109720647,0.0354170762002,0.0,19.7000007629,0.5327019803110368,-0.016659187981505015,0.011845175986688963,19.7000007629,0.0,0.753538537965248,1.593951126547062
1648633360743701131,4894,14,3,2.37171697617,-1.06654083729,0.360296547413,0.0,19.7000007629,0.7932163799899665,-0.35670262116722407,0.12050051752943143,19.7000007629,0.0,1.1771241272339728,2.6253312885687308
1648633360743719701,4895,14,4,1.11276781559,0.140642747283,-0.0889483392239,-0.161837622523,19.7000007629,0.37216314902675585,0.047037708121404675,-0.029748608436086954,19.7000007629,-0.021869948989594594,0.5284159015135115,1.1251419469679993
1648633360848682609,4896,15,0,0.00627378607169,0.0454158857465,0.00979066733271,0.0,24.2999992371,0.0020982562112675583,0.015189259446989964,0.00327447067983612,24.2999992371,0.0,0.015476400124196184,0.04688091548415269
1648633360848686628,4897,15,1,0.0340998992324,0.0146502861753,-0.028642386198,0.0,24.2999992371,0.01140464857270903,0.0048997612626421405,-0.009579393377257524,24.2999992371,0.0,0.016856443235892818,0.04688091615778643
1648633360848689983,4898,15,2,1.5907074213,-0.0498109720647,0.0885938853025,0.0,24.2999992371,0.5320091710033444,-0.016659187981505015,0.029630061974080264,24.2999992371,0.0,0.7525589974264707,1.5939511001376168
1648633360848694742,4899,15,3,2.37044334412,-1.06654083729,0.368584394455,0.0,24.2999992371,0.7927904160936454,-0.35670262116722407,0.12327237272742475,24.2999992371,0.0,1.1765500616834963,2.625331495473633
