%time,field.header.seq,field.header.frame_id,field.point_id,field.x,field.y,field.z,field.velocity,field.intensity,normalized_x,normalized_y,normalized_z,normalized_intensity,normalized_velocity,normalized_range,range
1648624077644380345,11306,0,0,0.00636456906796,0.0454158857465,0.00973189715296,0.0,17.2000007629,0.002128618417377926,0.015189259446989964,0.0032548151013244144,17.2000007629,0.0,0.01548469035149153,0.0468809155174658
1648624077644407623,11307,0,1,0.032245863229,0.0161153152585,-0.0299720074981,0.0,17.2000007629,0.010784569641806019,0.005389737544648829,-0.01002408277528428,17.2000007629,0.0,0.01617600554890252,0.0468809163170941
1648624077644532352,11308,0,2,1.06498408318,-0.101086974144,0.135044559836,0.0,17.2000007629,0.35618196761872906,-0.03380835255652174,0.04516540462742474,17.2000007629,0.0,0.5048506638760464,1.0782609641963459
1648624077644552291,11309,0,3,0.891038775444,0.205104008317,0.207630172372,0.242756426334,17.2000007629,0.298006279412709,0.06859665829999999,0.06944152922140467,17.2000007629,0.03280492247756756,0.4269906166050235,0.9376182816325999
1648624077839107569,11310,2,0,0.00635281205177,0.0454158857465,0.00973957590759,0.0,39.2999992371,0.0021246863049397993,0.015189259446989964,0.0032573832466856185,39.2999992371,0.0,0.01548361024880087,0.04688091549835565
1648624077839114568,11311,2,1,0.0322292968631,0.0161153152585,-0.0299898199737,0.0,39.2999992371,0.010779029051204012,0.005389737544648829,-0.010030040124983278,39.2999992371,0.0,0.016168617917855482,0.04688091577844449
1648624077839116755,11312,2,2,1.06138694286,-0.0673913136125,0.177659168839,0.0,39.2999992371,0.3549789106555184,-0.02253890087374582,0.05941778222040133,39.2999992371,0.0,0.5025216971166057,1.0782609201379225
1648624077944492571,11313,3,0,0.00636456906796,0.0454158857465,0.00973189715296,0.0,16.2000007629,0.002128618417377926,0.015189259446989964,0.0032548151013244144,16.2000007629,0.0,0.01548469035149153,0.0468809155174658
1648624077944494659,11314,3,1,0.0322208553553,0.0161153152585,-0.0299988891929,0.0,16.2000007629,0.01077620580444816,0.005389737544648829,-0.010033073308662207,16.2000007629,0.0,0.016164853660947307,0.04688091571754865
1648624077944496540,11315,3,2,1.06848239899,-0.0673913136125,0.128259062767,0.0,16.2000007629,0.3573519729063545,-0.02253890087374582,0.04289600761438127,16.2000007629,0.0,0.5058743590386099,1.0782609207811036
1648624077944498380,11316,3,3,1.14527070522,0.0380907431245,0.415488272905,-0.242756426334,16.2000007629,0.38303368067558524,0.01273937897140468,0.13895928859698997,16.2000007629,-0.03280492247756756,0.5418412062960416,1.2189037689122437
1648624078139343258,11317,5,0,0.00636456906796,0.0454158857465,0.00973189715296,0.0,19.5,0.002128618417377926,0.015189259446989964,0.0032548151013244144,19.5,0.0,0.01548469035149153,0.0468809155174658
1648624078139345860,11318,5,1,0.0322042368352,0.0161153152585,-0.0300167296082,0.0,19.5,0.010770647770969899,0.005389737544648829,-0.010039040002742474,19.5,0.0,0.01615744341202515,0.04688091629213625
1648624078139348659,11319,5,2,1.0671762228,-0.101086974144,0.116460762918,0.0,19.5,0.3569151246822742,-0.03380835255652174,0.03895008793244147,19.5,0.0,0.5058851817917904,1.0782609963040986
1648624078139353916,11320,5,3,0.898662149906,0.205104008317,0.171658977866,-0.323675245047,19.5,0.3005559029785953,0.06859665829999999,0.05741102938662208,19.5,-0.04373989797932432,0.43054988463647803,0.9376183224443589
1648624078244423222,11321,6,0,0.0063252155669,0.0454158857465,0.00975752063096,0.0,39.7000007629,0.0021154567113377924,0.015189259446989964,0.0032633848264080265,39.7000007629,0.0,0.015481082544288113,0.04688091550909075
1648624078244431925,11322,6,1,0.0322042368352,0.0161153152585,-0.0300167296082,0.0,39.7000007629,0.010770647770969899,0.005389737544648829,-0.010039040002742474,39.7000007629,0.0,0.01615744341202515,0.04688091629213625
1648624078244447977,11323,6,2,1.07106041908,-0.101086974144,0.0725103765726,0.0,39.7000007629,0.35821418698327756,-0.03380835255652174,0.024250962064414714,39.7000007629,0.0,0.5077182409710795,1.0782609852777365
