%time,field.header.seq,field.header.frame_id,field.point_id,field.x,field.y,field.z,field.velocity,field.intensity,normalized_x,normalized_y,normalized_z,normalized_intensity,normalized_velocity,normalized_range,range
1648633521143971131,9760,0,0,0.00663239276037,0.0454158857465,0.00955138355494,0.0,13.8000001907,0.0022181915586521736,0.015189259446989964,0.0031944426605150502,13.8000001907,0.0,0.01550981463879325,0.04688091551666337
1648633521143980285,9761,0,1,0.0342601276934,0.0146502861753,-0.0284505337477,0.0,13.8000001907,0.011458236686755852,0.0048997612626421405,-0.009515228678160534,13.8000001907,0.0,0.016928970328118718,0.046880914081481775
1648633521144010621,9762,0,2,1.59312093258,-0.0498109720647,-0.012826314196,0.0,13.8000001907,0.5328163654113712,-0.016659187981505015,-0.004289737189297658,13.8000001907,0.0,0.7537002633969095,1.5939510510359012
1648633521144029331,9763,0,3,1.98637723923,-1.29508531094,0.565654873848,0.0,13.8000001907,0.6643402137892976,-0.4331388999799331,0.18918223205618726,13.8000001907,0.0,1.034555530646396,2.4378076083751052
1648633521144109238,9764,0,4,2.3648827076,-1.06654083729,0.402721971273,0.0,13.8000001907,0.790930671438127,-0.35670262116722407,0.1346896224993311,13.8000001907,0.0,1.174044042611137,2.6253313247014693
1648633521249219861,9765,1,0,0.00660574575886,0.0454158857465,0.00956983212382,0.0,14.6999998093,0.0022092795180133776,0.015189259446989964,0.0032006127504414714,14.6999998093,0.0,0.015507270376355754,0.04688091554191253
1648633521249235919,9766,1,1,0.0343600958586,0.0146502861753,-0.028329718858,0.0,14.6999998093,0.011491670855719062,0.0048997612626421405,-0.009474822360535116,14.6999998093,0.0,0.016974235138681633,0.04688091341904174
1648633521249240019,9767,1,2,1.5930877924,-0.0498109720647,0.0164427068084,0.0,14.6999998093,0.5328052817391304,-0.016659187981505015,0.005499233046287626,14.6999998093,0.0,0.753684592546797,1.5939511315718315
1648633521249246314,9768,1,3,2.35675740242,-1.06654083729,0.4478289783,0.0,14.6999998093,0.7882131780668896,-0.35670262116722407,0.14977557802675584,14.6999998093,0.0,1.1703831800330098,2.6253315229269507
1648633521444113625,9769,3,0,0.00673404661939,0.0454158857465,0.00947998836637,0.0,13.6000003815,0.002252189504812709,0.015189259446989964,0.0031705646710267557,13.6000003815,0.0,0.015519610745091223,0.04688091553540492
1648633521444116277,9770,3,1,0.0342542342842,0.0146502861753,-0.028457628563,0.0,13.6000003815,0.01145626564688963,0.0048997612626421405,-0.009517601526086956,13.6000003815,0.0,0.01692630218255291,0.046880913758636594
1648633521444276704,9771,3,2,1.59042346478,-0.0,0.105986893177,0.0,13.6000003815,0.5319142022675585,-0.0,0.03544712146387959,13.6000003815,0.0,0.7522402788656469,1.5939510716606495
1648633521444280501,9772,3,3,1.97682249546,-1.29508531094,0.598191082478,0.0,13.6000003815,0.6611446473110367,-0.4331388999799331,0.20006390718327757,13.6000003815,0.0,1.0304531993311956,2.4378075626114257
1648633521444284413,9773,3,4,2.36128640175,-1.06654083729,0.423299789429,0.0,13.6000003815,0.7897278935618729,-0.35670262116722407,0.14157183592943143,13.6000003815,0.0,1.172423580318527,2.6253315105767796
1648633521549139690,9774,4,0,0.00666702631861,0.0454158857465,0.00952724087983,0.0,14.3999996185,0.0022297746884983277,0.015189259446989964,0.0031863681872341134,14.3999996185,0.0,0.01551313613912124,0.0468809154865227
1648633521549143883,9775,4,1,0.0342758707702,0.0146502861753,-0.0284315664321,0.0,14.3999996185,0.011463501929832776,0.0048997612626421405,-0.009508885094347825,14.3999996185,0.0,0.01693609793965092,0.04688091479329891
1648633521549145839,9776,4,2,2.36101317406,-1.06654083729,0.424820184708,0.0,14.3999996185,0.7896365130635451,-0.35670262116722407,0.14208032933377926,14.3999996185,0.0,1.1723004757628808,2.6253313609956876
1648633521549157081,9777,4,3,1.25875163078,0.369187235832,-0.0483344867826,-0.323675245047,14.3999996185,0.4209871674849498,0.12347399191705685,-0.016165380194849498,14.3999996185,-0.04373989797932432,0.6080347169808117,1.3126656488630757
1648633521744202855,9778,6,0,0.00656439410523,0.0454158857465,0.0095982439816,0.0,27.3999996185,0.0021954495335217393,0.015189259446989964,0.003210115044013378,27.3999996185,0.0,0.015503341570656809,0.046880915473551076
1648633521744206152,9779,6,1,0.0342758707702,0.0146502861753,-0.0284315664321,0.0,27.3999996185,0.011463501929832776,0.0048997612626421405,-0.009508885094347825,27.3999996185,0.0,0.01693609793965092,0.04688091479329891
1648633521744208039,9780,6,2,2.36563754082,-1.06654083729,0.39826387167,0.0,27.3999996185,0.7911831240200667,-0.35670262116722407,0.1331986192876254,27.3999996185,0.0,1.1743841924242138,2.6253313016877944
1648633521744209605,9781,6,3,1.49019992352,-0.046880915761,0.16635581851,-0.242756426334,27.3999996185,0.4983946232508361,-0.015679236040468225,0.055637397494983275,27.3999996185,-0.03280492247756756,0.7050108080118336,1.5001892849483147
1648633521744213110,9782,6,4,0.451893031597,0.421928226948,1.36687135696,-0.242756426334,27.3999996185,0.15113479317625417,0.14111311938060198,0.45714761102341134,27.3999996185,-0.03280492247756756,0.2561178710636614,1.5001893371101802
1648633521849209034,9783,7,0,0.00656439410523,0.0454158857465,0.0095982439816,0.0,21.7999992371,0.0021954495335217393,0.015189259446989964,0.003210115044013378,21.7999992371,0.0,0.015503341570656809,0.046880915473551076
1648633521849213467,9784,7,1,0.0342758707702,0.0146502861753,-0.0284315664321,0.0,21.7999992371,0.011463501929832776,0.0048997612626421405,-0.009508885094347825,21.7999992371,0.0,0.01693609793965092,0.04688091479329891
1648633521849217001,9785,7,2,1.98356115818,-1.29508531094,0.57545208931,0.0,21.7999992371,0.6633983806622072,-0.4331388999799331,0.1924588927458194,21.7999992371,0.0,1.0333460841394349,2.43780760888635
1648633521849219857,9786,7,3,2.36130595207,-1.06654083729,0.423189461231,0.0,21.7999992371,0.7897344321304347,-0.35670262116722407,0.14153493686655516,21.7999992371,0.0,1.1724323888959773,2.6253313080419862
1648633522044154849,9787,9,0,0.00653733778745,0.0454158857465,0.00961669255048,0.0,14.6000003815,0.0021864005978093643,0.015189259446989964,0.003216285133939799,14.6000003815,0.0,0.015500783776834517,0.04688091551043794
1648633522044182874,9788,9,1,0.0342758707702,0.0146502861753,-0.0284315664321,0.0,14.6000003815,0.011463501929832776,0.0048997612626421405,-0.009508885094347825,14.6000003815,0.0,0.01693609793965092,0.04688091479329891
1648633522044186495,9789,9,2,1.98780477047,-1.29508531094,0.560617566109,0.0,14.6000003815,0.664817648986622,-0.4331388999799331,0.18749751374882942,14.6000003815,0.0,1.0351687396188243,2.437807585422981
1648633522044341332,9790,9,3,2.37441658974,-1.06654083729,0.342055290937,0.0,14.6000003815,0.7941192607826086,-0.35670262116722407,0.11439976285518394,14.6000003815,0.0,1.1783410205196974,2.6253314688430835
1648633522149114490,9791,10,0,0.00663178879768,0.0454158857465,0.00955180265009,0.0,14.1000003815,0.0022179895644414715,0.015189259446989964,0.0031945828261170568,14.1000003815,0.0,0.015509756863468763,0.046880915463143866
1648633522149117439,9792,10,1,0.0342758707702,0.0146502861753,-0.0284315664321,0.0,14.1000003815,0.011463501929832776,0.0048997612626421405,-0.009508885094347825,14.1000003815,0.0,0.01693609793965092,0.04688091479329891
1648633522149120253,9793,10,2,2.37350749969,-1.06654083729,0.34830725193,0.0,14.1000003815,0.7938152172876254,-0.35670262116722407,0.11649071970903009,14.1000003815,0.0,1.177931219699337,2.6253314363026545
1648633522149143537,9794,10,3,1.2440379858,0.039555773139,0.230251893401,-0.242756426334,14.1000003815,0.416066215986622,0.013229355564882942,0.0770073222076923,14.1000003815,-0.03280492247756756,0.5885551868937312,1.2657847778025655
1648633522344044400,9795,12,0,0.00663178879768,0.0454158857465,0.00955180265009,0.0,28.1000003815,0.0022179895644414715,0.015189259446989964,0.0031945828261170568,28.1000003815,0.0,0.015509756863468763,0.046880915463143866
1648633522344046599,9796,12,1,0.0342758707702,0.0146502861753,-0.0284315664321,0.0,28.1000003815,0.011463501929832776,0.0048997612626421405,-0.009508885094347825,28.1000003815,0.0,0.01693609793965092,0.04688091479329891
1648633522344053632,9797,12,2,1.22043204308,-0.316446185112,0.112332545221,0.0,28.1000003815,0.4081712518662207,-0.10583484451906354,0.0375694131173913,28.1000003815,0.0,0.586863319704384,1.2657848002580014
1648633522344059495,9798,12,3,2.36711859703,-1.06654083729,0.389364719391,0.0,28.1000003815,0.7916784605451505,-0.35670262116722407,0.13022231417759195,28.1000003815,0.0,1.1750516285380175,2.625331349509803
1648633522344187253,9799,12,4,1.19848608971,0.276890397072,0.298620074987,-0.242756426334,28.1000003815,0.40083146813043474,0.09260548397056856,0.09987293477826086,28.1000003815,-0.03280492247756756,0.5743757544923207,1.2657847954547004
1648633522449180887,9800,13,0,0.00660574575886,0.0454158857465,0.00956983212382,0.0,25.2000007629,0.0022092795180133776,0.015189259446989964,0.0032006127504414714,25.2000007629,0.0,0.015507270376355754,0.04688091554191253
1648633522449189823,9801,13,1,0.0342542342842,0.0146502861753,-0.028457628563,0.0,25.2000007629,0.01145626564688963,0.0048997612626421405,-0.009517601526086956,25.2000007629,0.0,0.01692630218255291,0.046880913758636594
1648633522449192685,9802,13,2,1.98905754089,-1.29508531094,0.556156516075,0.0,25.2000007629,0.6652366357491638,-0.4331388999799331,0.18600552377090301,25.2000007629,0.0,1.0357069420263425,2.43780760806849
1648633522449195949,9803,13,3,2.37558245659,-1.06654083729,0.333862364292,0.0,25.2000007629,0.79450918280602,-0.35670262116722407,0.11165965360936454,25.2000007629,0.0,1.178866592568365,2.6253314922036184
1648633522449208013,9804,13,4,1.15781438351,0.380907416344,0.0100964996964,0.161837622523,25.2000007629,0.3872288908060201,0.12739378473043478,0.0033767557513043477,25.2000007629,0.021869948989594594,0.5622469245248618,1.2189038295922376
1648633522449222901,9805,13,5,1.1733353138,0.474669277668,-0.0135761564597,0.485512852669,25.2000007629,0.3924198373913043,0.1587522667785953,-0.004540520555083611,25.2000007629,0.06560984495527027,0.5772252071451642,1.2657847343826767
1648633522644099936,9806,15,0,0.00659684790298,0.0454158857465,0.00957596767694,0.0,24.0,0.0022063036464816054,0.015189259446989964,0.0032026647748963208,24.0,0.0,0.015506422995292304,0.04688091549174347
1648633522644106900,9807,15,1,0.0342758707702,0.0146502861753,-0.0284315664321,0.0,24.0,0.011463501929832776,0.0048997612626421405,-0.009508885094347825,24.0,0.0,0.01693609793965092,0.04688091479329891
1648633522644113529,9808,15,2,1.54498422146,-0.0483459457755,0.0641331523657,0.0,24.0,0.5167171309230769,-0.016169212633946488,0.021449214838026753,24.0,0.0,0.7309272400286871,1.5470703397924905
1648633522644206735,9809,15,3,2.36596846581,-1.06654083729,0.396293729544,0.0,24.0,0.7912938012742474,-0.35670262116722407,0.13253970887759195,24.0,0.0,1.174533320011682,2.6253313807766196
1648633522644213381,9810,15,4,1.19926154613,-0.356001973152,0.192990928888,-0.0809188112617,24.0,0.4010908181036789,-0.11906420506755852,0.06454546116655518,24.0,-0.010934974494824324,0.5795894871911726,1.2657847998563139
