%time,field.header.seq,field.header.frame_id,field.point_id,field.x,field.y,field.z,field.velocity,field.intensity,normalized_x,normalized_y,normalized_z,normalized_intensity,normalized_velocity,normalized_range,range
1648633386843629081,5614,0,0,0.00637185247615,0.0454158857465,0.0097271297127,0.0,16.2999992371,0.0021310543398494982,0.015189259446989964,0.0032532206396989967,16.2999992371,0.0,0.015485360433220683,0.0468809154621009
1648633386843636725,5615,0,1,0.0341540649533,0.0146502861753,-0.0285777710378,0.0,16.2999992371,0.011422764198428092,0.0048997612626421405,-0.009557782955785953,16.2999992371,0.0,0.01688095803847251,0.04688091333732036
1648633386843679783,5616,0,2,2.37203741074,-1.06654083729,0.358181923628,0.0,16.2999992371,0.7933235487424748,-0.35670262116722407,0.11979328549431437,16.2999992371,0.0,1.1772685615127398,2.6253314316427234
1648633386843853217,5617,0,3,1.47466683388,-0.093761831522,0.25910320878,-0.647350490093,16.2999992371,0.493199609993311,-0.03135847208093645,0.08665659156521738,16.2999992371,-0.08747979595851352,0.6981941451819537,1.5001893296501332
1648633386843857647,5618,0,4,0.674093425274,-1.69943320751,0.417177706957,-0.242756426334,16.2999992371,0.22544930611170566,-0.5683723102040134,0.13952431670802676,16.2999992371,-0.03280492247756756,0.6516915391956123,1.8752366282598207
1648633386843860506,5619,0,5,1.44861102104,-0.0,0.389992594719,-0.161837622523,16.2999992371,0.4844852913177257,-0.0,0.13043230592608696,16.2999992371,-0.021869948989594594,0.6851656697518076,1.5001893594524025
1648633386843869735,5620,0,6,0.383405268192,0.46880915761,-1.37251091003,-0.161837622523,16.2999992371,0.1282291866862876,0.15679236040468228,-0.459033749173913,16.2999992371,-0.021869948989594594,0.23972753892226353,1.5001892627557885
1648633386843917195,5621,0,7,1.35670411587,0.0849716588855,-0.0223793443292,-0.0809188112617,16.2999992371,0.4537471959431438,0.028418615011872907,-0.007484730544882943,16.2999992371,-0.010934974494824324,0.6423244143979928,1.3595466435120778
1648633386948673775,5622,1,0,0.00630593905225,0.0454158857465,0.00976998917758,0.0,16.3999996185,0.002109009716471572,0.015189259446989964,0.003267554908889632,16.3999996185,0.0,0.015479323193095907,0.046880915456077255
1648633386948700644,5623,1,1,0.0341694019735,0.0146502861753,-0.0285594314337,0.0,16.3999996185,0.011427893636622072,0.0048997612626421405,-0.009551649308929764,16.3999996185,0.0,0.016887899998838905,0.04688091338765728
1648633386948716338,5624,1,2,1.28259313107,0.164083212614,0.226103782654,0.0,16.3999996185,0.4289609134013378,0.054877328633444813,0.07561999419866221,16.3999996185,0.0,0.6091194067259417,1.3126657461288935
1648633386948719203,5625,1,3,1.28045201302,-0.287145614624,0.0328802093863,0.0,16.3999996185,0.4282448204080267,-0.0960353226167224,0.010996725547257525,16.3999996185,0.0,0.6131965717473509,1.3126656351920132
1648633386948799300,5626,1,4,2.37226080894,-1.06654083729,0.35669863224,0.0,16.3999996185,0.7933982638595317,-0.35670262116722407,0.11929720141806019,16.3999996185,0.0,1.1773692581931152,2.6253313347998204
1648633386948835207,5627,1,5,1.50014817715,-0.0,-0.0111032333225,-0.566431701183,16.3999996185,0.5017217983779264,-0.0,-0.0037134559607023407,16.3999996185,-0.07654482448418919,0.709541771804283,1.5001892664582965
1648633386948853398,5628,1,6,1.3358284235,0.0849716588855,0.238136723638,-0.242756426334,16.3999996185,0.4467653590301003,0.028418615011872907,0.07964438917658863,16.3999996185,-0.03280492247756756,0.6324604254321229,1.359546563744431
1648633387144216855,5629,3,0,0.00633421586826,0.0454158857465,0.00975168030709,0.0,28.7999992371,0.002118466845571906,0.015189259446989964,0.0032614315408327757,28.7999992371,0.0,0.015481905764457703,0.04688091549465032
1648633387144291690,5630,3,1,0.0341540649533,0.0146502861753,-0.0285777710378,0.0,28.7999992371,0.011422764198428092,0.0048997612626421405,-0.009557782955785953,28.7999992371,0.0,0.01688095803847251,0.04688091333732036
1648633387144302525,5631,3,2,2.37208127975,-1.06654083729,0.35789051652,0.0,28.7999992371,0.793338220652174,-0.35670262116722407,0.11969582492307691,28.7999992371,0.0,1.1772883353888643,2.625331327120942
1648633387144463273,5632,3,3,1.2982493639,-0.0,0.194009706378,-0.323675245047,28.7999992371,0.43419711167224073,-0.0,0.06488618942408027,28.7999992371,-0.04373989797932432,0.6140474440701081,1.312665676033175
1648633387249158099,5633,4,0,0.00633421586826,0.0454158857465,0.00975168030709,0.0,33.0999984741,0.002118466845571906,0.015189259446989964,0.0032614315408327757,33.0999984741,0.0,0.015481905764457703,0.04688091549465032
1648633387249190421,5634,4,1,0.034191057086,0.0146502861753,-0.0285335015506,0.0,33.0999984741,0.01143513614916388,0.0048997612626421405,-0.00954297710722408,33.0999984741,0.0,0.016897702149426045,0.04688091275150677
1648633387249251411,5635,4,2,1.2906665802,-0.164083212614,0.174206361175,0.0,33.0999984741,0.4316610636120401,-0.054877328633444813,0.058262997048494976,33.0999984741,0.0,0.6129225635227492,1.3126657526502048
1648633387249379476,5636,4,3,2.36990523338,-1.06654083729,0.372028201818,0.0,33.0999984741,0.7926104459464882,-0.35670262116722407,0.12442414776521739,33.0999984741,0.0,1.1763075269650152,2.625331437315506
1648633387444181614,5637,6,0,0.00633421586826,0.0454158857465,0.00975168030709,0.0,14.5,0.002118466845571906,0.015189259446989964,0.0032614315408327757,14.5,0.0,0.015481905764457703,0.04688091549465032
1648633387444235446,5638,6,1,0.0341757312417,0.0146502861753,-0.0285518616438,0.0,14.5,0.011430010448729096,0.0048997612626421405,-0.009549117606622073,14.5,0.0,0.0168907648775004,0.04688091609866208
1648633387444280911,5639,6,2,1.29474556446,0.123062409461,-0.177709504962,0.0,14.5,0.43302527239464883,0.041157996475250834,-0.05943461704414715,14.5,0.0,0.6137717440048673,1.3126656472480074
1648633387444387050,5640,6,3,1.2877240181,-0.123062409461,0.22296589613,0.0,14.5,0.43067692913043476,-0.041157996475250834,0.07457053382274247,14.5,0.0,0.6104582010623658,1.3126657206810155
1648633387444400513,5641,6,4,2.38386654854,-1.06654083729,0.268395572901,0.0,14.5,0.7972797821204013,-0.35670262116722407,0.08976440565250836,14.5,0.0,1.1826017342721418,2.625331457627422
1648633387444408461,5642,6,5,1.2812526226,0.123062409461,0.257562816143,0.242756426334,14.5,0.42851258280936455,0.041157996475250834,0.0861414100812709,14.5,0.03280492247756756,0.6074043529032055,1.312665701464481
1648633387549190476,5643,7,0,0.0064686848782,0.0454158857465,0.00966300535947,0.0,36.5999984741,0.0021634397585953177,0.015189259446989964,0.0032317743677157187,36.5999984741,0.0,0.015494339150996916,0.04688091546428824
1648633387549235235,5644,7,1,0.034191057086,0.0146502861753,-0.0285335015506,0.0,36.5999984741,0.01143513614916388,0.0048997612626421405,-0.00954297710722408,36.5999984741,0.0,0.016897702149426045,0.04688091275150677
1648633387549261053,5645,7,2,2.38034009933,-1.06654083729,0.298054993153,0.0,36.5999984741,0.7961003676688964,-0.35670262116722407,0.09968394419832775,36.5999984741,0.0,1.1810115794320866,2.6253314314632816
1648633387549285547,5646,7,3,1.35109627247,0.127457484603,0.0816116780043,0.0809188112617,36.5999984741,0.4518716630334448,0.04262792127190635,0.027294875586722406,36.5999984741,0.010934974494824324,0.6404632225016406,1.3595466206976243
1648633387549302128,5647,7,4,1.46942162514,-0.0,0.302271276712,0.161837622523,36.5999984741,0.4914453595785953,-0.0,0.10109407247892975,36.5999984741,0.021869948989594594,0.6950086926813719,1.5001892671107142
1648633387549360838,5648,7,5,0.84374076128,-1.64083206654,0.335088193417,0.242756426334,36.5999984741,0.28218754557859527,-0.5487732664013377,0.11206962990535117,36.5999984741,0.03280492247756756,0.6785364541983998,1.8752366357872676
1648633387549397623,5649,7,6,1.30069458485,0.0424858294427,0.393389463425,0.566431701183,36.5999984741,0.43501491132107023,0.01420930750591973,0.13156838241638794,36.5999984741,0.07654482448418919,0.6153680610522088,1.3595465121485757
1648633387744168803,5650,9,0,0.00633421586826,0.0454158857465,0.00975168030709,0.0,32.7000007629,0.002118466845571906,0.015189259446989964,0.0032614315408327757,32.7000007629,0.0,0.015481905764457703,0.04688091549465032
1648633387744215086,5651,9,1,0.0341757312417,0.0146502861753,-0.0285518616438,0.0,32.7000007629,0.011430010448729096,0.0048997612626421405,-0.009549117606622073,32.7000007629,0.0,0.0168907648775004,0.04688091609866208
1648633387744240415,5652,9,2,1.35337996483,0.127457484603,-0.0220034886152,0.0,32.7000007629,0.4526354397424749,0.04262792127190635,-0.00735902629270903,32.7000007629,0.0,0.6415409747581919,1.3595465762877765
1648633387744339455,5653,9,3,2.3721818924,-1.06654083729,0.357224136591,0.0,32.7000007629,0.7933718703678929,-0.35670262116722407,0.11947295538160534,32.7000007629,0.0,1.1773336864838555,2.625331478499598
1648633387849215789,5654,10,0,0.00630229339004,0.0454158857465,0.00977234169841,0.0,14.5,0.0021077904314515047,0.015189259446989964,0.003268341705153846,14.5,0.0,0.015478991037978248,0.04688091554549426
1648633387849232657,5655,10,1,0.034191057086,0.0146502861753,-0.0285335015506,0.0,14.5,0.01143513614916388,0.0048997612626421405,-0.00954297710722408,14.5,0.0,0.016897702149426045,0.04688091275150677
1648633387849257512,5656,10,2,2.37975859642,-1.06654083729,0.302663803101,0.0,14.5,0.7959058850903009,-0.35670262116722407,0.1012253522076923,14.5,0.0,1.1807493873766435,2.6253315433578486
1648633387849273276,5657,10,3,1.31551790237,0.219754293561,0.446272224188,-0.647350490093,14.5,0.4399725425986622,0.07349641925117056,0.14925492447759195,14.5,-0.08747979595851352,0.6265408207963844,1.4064274595855144
1648633388044186646,5658,12,0,0.0064686848782,0.0454158857465,0.00966300535947,0.0,28.6000003815,0.0021634397585953177,0.015189259446989964,0.0032317743677157187,28.6000003815,0.0,0.015494339150996916,0.04688091546428824
1648633388044229938,5659,12,1,0.034191057086,0.0146502861753,-0.0285335015506,0.0,28.6000003815,0.01143513614916388,0.0048997612626421405,-0.00954297710722408,28.6000003815,0.0,0.016897702149426045,0.04688091275150677
1648633388044263079,5660,12,2,2.38186764717,-1.06654083729,0.2855912745,0.0,28.6000003815,0.7966112532341136,-0.35670262116722407,0.09551547642140468,28.6000003815,0.0,1.1817003585960437,2.6253314499912084
1648633388044387632,5661,12,3,1.35857272148,0.0424858294427,-0.0290186181664,-0.161837622523,28.6000003815,0.45437214765217393,0.01420930750591973,-0.00970522346702341,28.6000003815,-0.021869948989594594,0.6427363390566116,1.3595466028986631
1648633388149031044,5662,13,0,0.00644125090912,0.0454158857465,0.00968131422997,0.0,22.8999996185,0.0021542645181003343,0.015189259446989964,0.0032378977357759194,22.8999996185,0.0,0.015491782136857788,0.046880915484158375
1648633388149046596,5663,13,1,0.0341757312417,0.0146502861753,-0.0285518616438,0.0,22.8999996185,0.011430010448729096,0.0048997612626421405,-0.009549117606622073,22.8999996185,0.0,0.0168907648775004,0.04688091609866208
1648633388149053386,5664,13,2,2.3764834404,-1.06654083729,0.327387392521,0.0,22.8999996185,0.7948105151839464,-0.35670262116722407,0.10949411121103679,22.8999996185,0.0,1.1792727716866478,2.625331484762329
1648633388344135547,5665,15,0,0.00637185247615,0.0454158857465,0.0097271297127,0.0,14.3999996185,0.0021310543398494982,0.015189259446989964,0.0032532206396989967,14.3999996185,0.0,0.015485360433220683,0.0468809154621009
1648633388344187333,5666,15,1,0.0341757312417,0.0146502861753,-0.0285518616438,0.0,14.3999996185,0.011430010448729096,0.0048997612626421405,-0.009549117606622073,14.3999996185,0.0,0.0168907648775004,0.04688091609866208
1648633388344210930,5667,15,2,1.58882451057,-0.0,0.127737551928,0.0,14.3999996185,0.5313794349732441,-0.0,0.04272158927357859,14.3999996185,0.0,0.751484003705314,1.5939511308570782
1648633388344227969,5668,15,3,2.37197995186,-1.06654083729,0.358563035727,0.0,14.3999996185,0.7933043317257525,-0.35670262116722407,0.11992074773478259,14.3999996185,0.0,1.1772426620783218,2.6253315410101608
1648633388344371042,5669,15,4,1.31186163425,-0.0410208031535,0.0206750947982,-0.161837622523,14.3999996185,0.438749710451505,-0.013719332158361203,0.006914747424147157,14.3999996185,-0.021869948989594594,0.6206374440181888,1.3126656517382305
1648633388449165262,5670,16,0,0.00637185247615,0.0454158857465,0.0097271297127,0.0,14.5,0.0021310543398494982,0.015189259446989964,0.0032532206396989967,14.5,0.0,0.015485360433220683,0.0468809154621009
1648633388449186752,5671,16,1,0.0341757312417,0.0146502861753,-0.0285518616438,0.0,14.5,0.011430010448729096,0.0048997612626421405,-0.009549117606622073,14.5,0.0,0.0168907648775004,0.04688091609866208
1648633388449197586,5672,16,2,1.54670512676,-0.0,0.033611677587,0.0,14.5,0.517292684535117,-0.0,0.01124136374147157,14.5,0.0,0.7315623301859495,1.5470702938185712
1648633388449209392,5673,16,3,2.37391638756,-1.06654083729,0.345509201288,0.0,14.5,0.793951969083612,-0.35670262116722407,0.11555491681872909,14.5,0.0,1.178115536936449,2.6253314040150904
