%time,field.header.seq,field.header.frame_id,field.point_id,field.x,field.y,field.z,field.velocity,field.intensity,normalized_x,normalized_y,normalized_z,normalized_intensity,normalized_velocity,normalized_range,range
1648633536848994361,10276,0,0,0.00663239276037,0.0454158857465,0.00955138355494,0.0,14.1000003815,0.0022181915586521736,0.015189259446989964,0.0031944426605150502,14.1000003815,0.0,0.01550981463879325,0.04688091551666337
1648633536849010329,10277,0,1,0.0342542342842,0.0146502861753,-0.028457628563,0.0,14.1000003815,0.01145626564688963,0.0048997612626421405,-0.009517601526086956,14.1000003815,0.0,0.01692630218255291,0.046880913758636594
1648633536849016592,10278,0,2,1.99038028717,-1.29508531094,0.551403641701,0.0,14.1000003815,0.6656790258093646,-0.4331388999799331,0.1844159336792642,14.1000003815,0.0,1.0362752710939482,2.437807544956864
1648633536849086217,10279,0,3,2.37377738953,-1.06654083729,0.346462368965,0.0,14.1000003815,0.7939054814481604,-0.35670262116722407,0.11587370199498327,14.1000003815,0.0,1.178052879498386,2.6253313363764117
1648633536849096663,10280,0,4,1.2815567255,0.169943317771,0.420830786228,0.323675245047,14.1000003815,0.4286142894648829,0.05683723002374581,0.14074608235050168,14.1000003815,0.04373989797932432,0.6088110453857954,1.359546587126228
1648633536849102296,10281,0,5,1.22558736801,-0.316446185112,0.00288801174611,-0.0809188112617,14.1000003815,0.40989544080602003,-0.10583484451906354,0.0009658902160903009,14.1000003815,-0.010934974494824324,0.589261876504409,1.265784707329593
1648633536849110229,10282,0,6,0.604672193527,0.118667319417,1.10566747189,-0.0809188112617,14.1000003815,0.20223150285183944,0.039688066694648826,0.3697884521371237,14.1000003815,-0.010934974494824324,0.2887391627912396,1.265784718156288
1648633537044077151,10283,2,0,0.00663239276037,0.0454158857465,0.00955138355494,0.0,12.8000001907,0.0022181915586521736,0.015189259446989964,0.0031944426605150502,12.8000001907,0.0,0.01550981463879325,0.04688091551666337
1648633537044247644,10284,2,1,0.0343542844057,0.0146502861753,-0.0283367689699,0.0,12.8000001907,0.011489727225986622,0.0048997612626421405,-0.009477180257491637,12.8000001907,0.0,0.01697160345654013,0.04688091528222754
1648633537044251155,10285,2,2,1.15796637535,-0.34281668067,0.165278270841,0.0,12.8000001907,0.38727972419732437,-0.1146544082508361,0.05527701365919732,12.8000001907,0.0,0.5595684076858348,1.2189037327857375
1648633537044255190,10286,2,3,2.37078332901,-1.06654083729,0.36639085412,0.0,12.8000001907,0.7929041234147156,-0.35670262116722407,0.12253874719732441,12.8000001907,0.0,1.1767033006683059,2.6253314473989326
1648633537044330830,10287,2,4,1.44614863396,-0.0454158857465,0.136736050248,-0.161837622523,12.8000001907,0.4836617504882943,-0.015189259446989964,0.045731120484280935,12.8000001907,-0.021869948989594594,0.6841696364011999,1.4533083711380517
1648633537149180012,10288,3,0,0.00657001230866,0.0454158857465,0.00959439948201,0.0,14.3999996185,0.0021973285313244147,0.015189259446989964,0.003208829258197324,14.3999996185,0.0,0.015503873964178065,0.04688091553388734
1648633537149185887,10289,3,1,0.0343600958586,0.0146502861753,-0.028329718858,0.0,14.3999996185,0.011491670855719062,0.0048997612626421405,-0.009474822360535116,14.3999996185,0.0,0.016974235138681633,0.04688091341904174
1648633537149190753,10290,3,2,1.98289227486,-1.29508531094,0.577752530575,0.0,14.3999996185,0.6631746738662206,-0.4331388999799331,0.1932282710953177,14.3999996185,0.0,1.0330588573701707,2.4378075647798454
1648633537149200710,10291,3,3,2.37049531937,-1.06654083729,0.368249475956,0.0,14.3999996185,0.7928077991204012,-0.35670262116722407,0.123160359851505,14.3999996185,0.0,1.176573487989525,2.6253314254212174
1648633537149227334,10292,3,4,1.35808062553,0.0424858294427,0.0466792806983,-0.0809188112617,14.3999996185,0.4542075670668896,0.01420930750591973,0.015611799564648827,14.3999996185,-0.010934974494824324,0.642503643866277,1.3595466105985115
1648633537344113958,10293,5,0,0.00673404661939,0.0454158857465,0.00947998836637,0.0,19.3999996185,0.002252189504812709,0.015189259446989964,0.0031705646710267557,19.3999996185,0.0,0.015519610745091223,0.04688091553540492
1648633537344115813,10294,5,1,0.0342212058604,0.0146502861753,-0.0284973401576,0.0,19.3999996185,0.011445219351304346,0.0048997612626421405,-0.009530882995852842,19.3999996185,0.0,0.01691134981099473,0.04688091521734642
1648633537344201273,10295,5,2,1.13348555565,-0.34281668067,0.288814246655,0.0,19.3999996185,0.37909215908026755,-0.1146544082508361,0.09659339353010032,19.3999996185,0.0,0.5482402424882974,1.218903790495247
1648633537344206377,10296,5,3,2.37724399567,-1.06654083729,0.321816802025,0.0,19.3999996185,0.7950648814949833,-0.35670262116722407,0.10763103746655518,19.3999996185,0.0,1.1796156541521614,2.6253312984501442
1648633537344312185,10297,5,4,1.25009334087,-0.082041606307,0.391952812672,0.323675245047,19.3999996185,0.41809141835117053,-0.027438664316722407,0.1310878972147157,19.3999996185,0.04373989797932432,0.5919068748521787,1.3126656822719343
1648633537449225577,10298,6,0,0.00663239276037,0.0454158857465,0.00955138355494,0.0,33.2999992371,0.0022181915586521736,0.015189259446989964,0.0031944426605150502,33.2999992371,0.0,0.01550981463879325,0.04688091551666337
1648633537449242431,10299,6,1,0.0343600958586,0.0146502861753,-0.028329718858,0.0,33.2999992371,0.011491670855719062,0.0048997612626421405,-0.009474822360535116,33.2999992371,0.0,0.016974235138681633,0.04688091341904174
1648633537449247531,10300,6,2,1.29966473579,-0.0,0.184289738536,0.0,33.2999992371,0.43467048019732435,-0.0,0.06163536405886287,33.2999992371,0.0,0.614716888258282,1.312665659330569
1648633537449255894,10301,6,3,2.37971901894,-1.06654083729,0.302974283695,0.0,33.2999992371,0.7958926484749163,-0.35670262116722407,0.10132919187123746,33.2999992371,0.0,1.1807315426210996,2.625331480650112
1648633537644072511,10302,8,0,0.00673404661939,0.0454158857465,0.00947998836637,0.0,13.8000001907,0.002252189504812709,0.015189259446989964,0.0031705646710267557,13.8000001907,0.0,0.015519610745091223,0.04688091553540492
1648633537644081931,10303,8,1,0.0342212058604,0.0146502861753,-0.0284973401576,0.0,13.8000001907,0.011445219351304346,0.0048997612626421405,-0.009530882995852842,13.8000001907,0.0,0.01691134981099473,0.04688091521734642
1648633537644251285,10304,8,2,1.17740511894,-0.304725944996,0.0811518877745,0.0,13.8000001907,0.39378097623411373,-0.10191503177123744,0.027141099590133777,13.8000001907,0.0,0.5661391950648847,1.218903747040424
1648633537644256396,10305,8,3,1.3441927433,-0.0424858294427,0.199267372489,0.0,13.8000001907,0.4495627904013378,-0.01420930750591973,0.06664460618361204,13.8000001907,0.0,0.6359365608664689,1.3595464915119615
1648633537644277269,10306,8,4,2.3790667057,-1.06654083729,0.308053046465,0.0,13.8000001907,0.7956744835117057,-0.35670262116722407,0.10302777473745818,13.8000001907,0.0,1.1804374305192153,2.625331298562883
1648633537644366513,10307,8,5,1.37023901939,-0.219754293561,0.228454589844,-0.242756426334,13.8000001907,0.45827391952842805,-0.07349641925117056,0.07640621733913043,13.8000001907,-0.03280492247756756,0.652251250886221,1.4064275379194455
1648633537644371253,10308,8,6,1.40417218208,-0.227079421282,0.298061132431,-0.161837622523,13.8000001907,0.4696228033712374,-0.07594629474314381,0.09968599746856187,13.8000001907,-0.021869948989594594,0.6684751263717539,1.4533083014842814
1648633537749360010,10309,9,0,0.00666756927967,0.0454158857465,0.00952686090022,0.0,20.2000007629,0.0022299562808260867,0.015189259446989964,0.0031862411037525086,20.2000007629,0.0,0.015513188343366598,0.04688091548648001
1648633537749362868,10310,9,1,0.0342212058604,0.0146502861753,-0.0284973401576,0.0,20.2000007629,0.011445219351304346,0.0048997612626421405,-0.009530882995852842,20.2000007629,0.0,0.01691134981099473,0.04688091521734642
1648633537749370257,10311,9,2,1.16210472584,-0.34281668067,0.133100345731,0.0,20.2000007629,0.3886637879063545,-0.1146544082508361,0.04451516579632107,20.2000007629,0.0,0.5614843839242377,1.218903758464535
1648633537749379508,10312,9,3,1.35577023029,-0.0,-0.101261258125,0.0,20.2000007629,0.45343485962876257,-0.0,-0.033866641513377926,20.2000007629,0.0,0.6412537281397366,1.3595465272426899
1648633537749538286,10313,9,4,2.38117790222,-1.06654083729,0.29128625989,0.0,20.2000007629,0.7963805693043479,-0.35670262116722407,0.09742015380936454,20.2000007629,0.0,1.1813893440685008,2.625331454279402
1648633537749546174,10314,9,5,1.44010341167,-0.13624766469,0.140156194568,0.404594063759,20.2000007629,0.4816399370133779,-0.04556778083277591,0.04687498146086956,20.2000007629,0.05467487348094594,0.6826642516658721,1.4533083022238726
1648633537944079143,10315,11,0,0.00663239276037,0.0454158857465,0.00955138355494,0.0,27.8999996185,0.0022181915586521736,0.015189259446989964,0.0031944426605150502,27.8999996185,0.0,0.01550981463879325,0.04688091551666337
1648633537944083690,10316,11,1,0.0342212058604,0.0146502861753,-0.0284973401576,0.0,27.8999996185,0.011445219351304346,0.0048997612626421405,-0.009530882995852842,27.8999996185,0.0,0.01691134981099473,0.04688091521734642
1648633537944089617,10317,11,2,1.15462446213,-0.34281668067,0.187204644084,0.0,27.8999996185,0.38616202746822736,-0.1146544082508361,0.06261024885752509,27.8999996185,0.0,0.5580213761569474,1.2189038123909555
1648633537944255999,10318,11,3,1.99954104424,-1.29508531094,0.517199754715,0.0,27.8999996185,0.668742824160535,-0.4331388999799331,0.17297650659364547,27.8999996185,0.0,1.040213072600149,2.4378076085881353
1648633537944327642,10319,11,4,2.37536358833,-1.06654083729,0.335416436195,0.0,27.8999996185,0.7944359827190635,-0.35670262116722407,0.1121794100986622,27.8999996185,0.0,1.1787679250917784,2.625331544784579
1648633537944331036,10320,11,5,0.624856173992,-1.65694737434,0.45493376255,0.161837622523,27.8999996185,0.20898199799063544,-0.554163001451505,0.15215176005016723,27.8999996185,0.021869948989594594,0.6280474370189378,1.8283557005725228
1648633537944338735,10321,11,6,1.3067586422,0.123062409461,-0.0181326307356,-0.161837622523,27.8999996185,0.4370430241471571,0.041157996475250834,-0.006064424995183946,27.8999996185,-0.021869948989594594,0.6194410307569574,1.3126657220648856
1648633538049201765,10322,12,0,0.00679413322359,0.0454158857465,0.0094370180741,0.0,30.8999996185,0.0022722853590602006,0.015189259446989964,0.003156193335819398,30.8999996185,0.0,0.015525468239443618,0.04688091546173049
1648633538049218729,10323,12,1,0.0342212058604,0.0146502861753,-0.0284973401576,0.0,30.8999996185,0.011445219351304346,0.0048997612626421405,-0.009530882995852842,30.8999996185,0.0,0.01691134981099473,0.04688091521734642
1648633538049230477,10324,12,2,1.16300094128,-0.34281668067,0.125028088689,0.0,30.8999996185,0.38896352551170565,-0.1146544082508361,0.041815414277257525,30.8999996185,0.0,0.5618993519201992,1.2189038062640494
1648633538049235915,10325,12,3,2.37902021408,-1.06654083729,0.308412909508,0.0,30.8999996185,0.7956589344749163,-0.35670262116722407,0.1031481302702341,30.8999996185,0.0,1.1804164688647334,2.625331418956413
1648633538049237797,10326,12,4,1.29054498672,0.123062409461,0.206011265516,-0.161837622523,30.8999996185,0.43162039689632103,0.041157996475250834,0.06890008880133779,30.8999996185,-0.021869948989594594,0.6117894365774323,1.3126657460640831
1648633538244081693,10327,14,0,0.00656439410523,0.0454158857465,0.0095982439816,0.0,35.0999984741,0.0021954495335217393,0.015189259446989964,0.003210115044013378,35.0999984741,0.0,0.015503341570656809,0.046880915473551076
1648633538244083853,10328,14,1,0.0341994836926,0.0146502861753,-0.0285234022886,0.0,35.0999984741,0.011437954412240802,0.0048997612626421405,-0.009539599427625417,35.0999984741,0.0,0.016901516579996192,0.0468809134720721
1648633538244093819,10329,14,2,1.14688098431,-0.380907416344,0.159059986472,0.0,35.0999984741,0.38357223555518394,-0.12739378473043478,0.053197319890301,35.0999984741,0.0,0.5572113568167356,1.2189038236441005
1648633538244193741,10330,14,3,1.99087882042,-1.29508531094,0.549601197243,0.0,35.0999984741,0.6658457593377927,-0.4331388999799331,0.1838131094458194,35.0999984741,0.0,1.0364894872269905,2.4378076044307573
1648633538244197020,10331,14,4,2.37351822853,-1.06654083729,0.348233252764,0.0,35.0999984741,0.7938188055284281,-0.35670262116722407,0.11646597082408026,35.0999984741,0.0,1.1779360559761844,2.625331319491321
1648633538244200905,10332,14,5,1.2243065834,0.316446185112,0.0560921803117,-0.242756426334,35.0999984741,0.4094670847491638,0.10583484451906354,0.01875992652565217,35.0999984741,-0.03280492247756756,0.5886659505189102,1.2657847885484481
1648633538349182467,10333,15,0,0.00663239276037,0.0454158857465,0.00955138355494,0.0,38.5,0.0022181915586521736,0.015189259446989964,0.0031944426605150502,38.5,0.0,0.01550981463879325,0.04688091551666337
1648633538349206480,10334,15,1,0.0342212058604,0.0146502861753,-0.0284973401576,0.0,38.5,0.011445219351304346,0.0048997612626421405,-0.009530882995852842,38.5,0.0,0.01691134981099473,0.04688091521734642
1648633538349210602,10335,15,2,1.14711165428,-0.304725944996,0.277495086193,0.0,38.5,0.3836493827023411,-0.10191503177123744,0.0928077211347826,38.5,0.0,0.5520510586863384,1.218903840259749
1648633538349216004,10336,15,3,1.17549061775,0.190453708172,-0.260145306587,0.0,38.5,0.39314067483277587,0.06369689236521739,-0.08700511925986622,38.5,0.0,0.5596217244826428,1.2189037648288672
1648633538349289079,10337,15,4,1.9653365612,-1.29508531094,0.634911000729,0.0,38.5,0.6573031977257524,-0.4331388999799331,0.21234481629732438,38.5,0.0,1.025526349811074,2.4378075683385467
1648633538349307951,10338,15,5,2.37271738052,-1.06654083729,0.353649795055,0.0,38.5,0.7935509633846154,-0.35670262116722407,0.11827752342976587,38.5,0.0,1.1775750604207236,2.6253314653527826
1648633538349355667,10339,15,6,1.307035923,-0.0,-0.121443368495,-0.242756426334,38.5,0.43713576020066885,-0.0,-0.04061651120234113,38.5,-0.03280492247756756,0.6182033206740589,1.3126657593477002
