%time,field.header.seq,field.header.frame_id,field.point_id,field.x,field.y,field.z,field.velocity,field.intensity,normalized_x,normalized_y,normalized_z,normalized_intensity,normalized_velocity,normalized_range,range
1648633488944003438,8696,0,0,0.00653733778745,0.0454158857465,0.00961669255048,0.0,14.1999998093,0.0021864005978093643,0.015189259446989964,0.003216285133939799,14.1999998093,0.0,0.015500783776834517,0.04688091551043794
1648633488944010475,8697,0,1,0.0342444218695,0.0146502861753,-0.0284694358706,0.0,14.1999998093,0.011452983902842807,0.0048997612626421405,-0.009521550458394649,14.1999998093,0.0,0.016921859856069057,0.04688091395210509
1648633488944012484,8698,0,2,1.58862578869,-0.0996219441295,0.0838082060218,0.0,14.1999998093,0.53131297280602,-0.033318375963043476,0.02802950034173913,14.1999998093,0.0,0.7521283562802001,1.5939511421745831
1648633488944020766,8699,0,3,2.37980008125,-1.06654083729,0.302336364985,0.0,14.1999998093,0.7959197596153845,-0.35670262116722407,0.10111584113210702,14.1999998093,0.0,1.1807680921501864,2.6253314194434774
1648633489049034270,8700,1,0,0.00666702631861,0.0454158857465,0.00952724087983,0.0,14.6000003815,0.0022297746884983277,0.015189259446989964,0.0031863681872341134,14.6000003815,0.0,0.01551313613912124,0.0468809154865227
1648633489049038195,8701,1,1,0.0342444218695,0.0146502861753,-0.0284694358706,0.0,14.6000003815,0.011452983902842807,0.0048997612626421405,-0.009521550458394649,14.6000003815,0.0,0.016921859856069057,0.04688091395210509
1648633489049041550,8702,1,2,1.59011256695,-0.0996219441295,0.0479313842952,0.0,14.6000003815,0.5318102230602006,-0.033318375963043476,0.016030563309431436,14.6000003815,0.0,0.7528308846477378,1.5939510421982583
1648633489049063290,8703,1,3,2.38022589684,-1.06654083729,0.298965245485,0.0,14.6000003815,0.7960621728561872,-0.35670262116722407,0.09998837641638794,14.6000003815,0.0,1.1809600865620296,2.6253313877685884
1648633489244100096,8704,3,0,0.00669331243262,0.0454158857465,0.00950879231095,0.0,14.8000001907,0.0022385660309765885,0.015189259446989964,0.0031801980973076923,14.8000001907,0.0,0.01551566815506372,0.046880915527244015
1648633489244103439,8705,3,1,0.0342227742076,0.0146502861753,-0.0284954551607,0.0,14.8000001907,0.011445743882140466,0.0048997612626421405,-0.009530252562107024,14.8000001907,0.0,0.016912059793591092,0.04688091428607192
1648633489244108528,8706,3,2,1.58959567547,-0.0996219441295,0.0627803653479,0.0,14.8000001907,0.5316373496555183,-0.033318375963043476,0.02099677770832776,14.8000001907,0.0,0.7525866443634929,1.593951165342992
1648633489244239562,8707,3,3,2.37990736961,-1.06654083729,0.301490604877,0.0,14.8000001907,0.7959556420100334,-0.35670262116722407,0.10083297821973244,14.8000001907,0.0,1.1808164667054644,2.625331413433425
1648633489349024837,8708,4,0,0.00653733778745,0.0454158857465,0.00961669255048,0.0,14.8999996185,0.0021864005978093643,0.015189259446989964,0.003216285133939799,14.8999996185,0.0,0.015500783776834517,0.04688091551043794
1648633489349039200,8709,4,1,0.0342444218695,0.0146502861753,-0.0284694358706,0.0,14.8999996185,0.011452983902842807,0.0048997612626421405,-0.009521550458394649,14.8999996185,0.0,0.016921859856069057,0.04688091395210509
1648633489349043306,8710,4,2,1.58977389336,-0.0996219441295,0.0580920390785,0.0,14.8999996185,0.5316969543010034,-0.033318375963043476,0.01942877561153846,14.8999996185,0.0,0.7526708554227016,1.5939511437824725
1648633489349072363,8711,4,3,2.38168120384,-1.06654083729,0.287140995264,0.0,14.8999996185,0.7965488976053511,-0.35670262116722407,0.09603377768026755,14.8999996185,0.0,1.1816162881833376,2.6253313439436945
1648633489544058122,8712,6,0,0.00653733778745,0.0454158857465,0.00961669255048,0.0,14.3000001907,0.0021864005978093643,0.015189259446989964,0.003216285133939799,14.3000001907,0.0,0.015500783776834517,0.04688091551043794
1648633489544080289,8713,6,1,0.0342982634902,0.0146502861753,-0.0284045506269,0.0,14.3000001907,0.011470991133846153,0.0048997612626421405,-0.009499849707993311,14.3000001907,0.0,0.016946236621044882,0.046880915731003996
1648633489544092663,8714,6,2,1.58992910385,-0.0996219441295,0.0536750666797,0.0,14.3000001907,0.5317488641638796,-0.033318375963043476,0.017951527317625417,14.3000001907,0.0,0.7527441950994819,1.5939510970555137
1648633489544159697,8715,6,3,2.37925696373,-1.06654083729,0.306580513716,0.0,14.3000001907,0.7957381149598662,-0.35670262116722407,0.10253528886822741,14.3000001907,0.0,1.1805232124559562,2.6253313445078357
1648633489649111194,8716,7,0,0.00650105113164,0.0454158857465,0.00964125990868,0.0,14.8999996185,0.002174264592521739,0.015189259446989964,0.0032245016416989967,14.8999996185,0.0,0.015497369311743244,0.046880915483617204
1648633489649114328,8717,7,1,0.0342982634902,0.0146502861753,-0.0284045506269,0.0,14.8999996185,0.011470991133846153,0.0048997612626421405,-0.009499849707993311,14.8999996185,0.0,0.016946236621044882,0.046880915731003996
1648633489649232767,8718,7,2,1.59248912334,-0.0498109720647,0.0466637052596,0.0,14.8999996185,0.5326050579732441,-0.016659187981505015,0.015606590387826086,14.8999996185,0.0,0.753401502587809,1.5939511417489518
1648633489649250942,8719,7,3,2.37883257866,-1.06654083729,0.309856772423,0.0,14.8999996185,0.795596180153846,-0.35670262116722407,0.10363102756622074,14.8999996185,0.0,1.1803318701527763,2.625331410378095
1648633489844085434,8720,9,0,0.00653733778745,0.0454158857465,0.00961669255048,0.0,14.8000001907,0.0021864005978093643,0.015189259446989964,0.003216285133939799,14.8000001907,0.0,0.015500783776834517,0.04688091551043794
1648633489844123641,8721,9,1,0.0342227742076,0.0146502861753,-0.0284954551607,0.0,14.8000001907,0.011445743882140466,0.0048997612626421405,-0.009530252562107024,14.8000001907,0.0,0.016912059793591092,0.04688091428607192
1648633489844177253,8722,9,2,1.58939039707,-0.0996219441295,0.0677784606814,0.0,14.8000001907,0.5315686946722408,-0.033318375963043476,0.022668381498795985,14.8000001907,0.0,0.7524896467646014,1.5939511553942967
1648633489844180499,8723,9,3,2.37924647331,-1.06654083729,0.306661844254,0.0,14.8000001907,0.7957346064581938,-0.35670262116722407,0.10256248971705685,14.8000001907,0.0,1.180518482607503,2.625331336248168
1648633489948973889,8724,10,0,0.00666702631861,0.0454158857465,0.00952724087983,0.0,14.6999998093,0.0022297746884983277,0.015189259446989964,0.0031863681872341134,14.6999998093,0.0,0.01551313613912124,0.0468809154865227
1648633489948978720,8725,10,1,0.034207098186,0.0146502861753,-0.0285142697394,0.0,14.6999998093,0.011440501065551839,0.0048997612626421405,-0.009536545063344481,14.6999998093,0.0,0.016904963463216183,0.0468809132813781
1648633489948987419,8726,10,2,1.58926892281,-0.0996219441295,0.0705682486296,0.0,14.6999998093,0.5315280678294314,-0.033318375963043476,0.023601420946354514,14.6999998093,0.0,0.7524322480846977,1.5939511029126483
1648633489949043283,8727,10,3,2.37418007851,-1.06654083729,0.343692928553,0.0,14.6999998093,0.7940401600367891,-0.35670262116722407,0.11494746774347825,14.6999998093,0.0,1.1782344042889206,2.6253314518243864
1648633490144042966,8728,12,0,0.00653733778745,0.0454158857465,0.00961669255048,0.0,14.6000003815,0.0021864005978093643,0.015189259446989964,0.003216285133939799,14.6000003815,0.0,0.015500783776834517,0.04688091551043794
1648633490144162947,8729,12,1,0.0342610813677,0.0146502861753,-0.0284493863583,0.0,14.6000003815,0.011458555641371238,0.0048997612626421405,-0.009514844935886287,14.6000003815,0.0,0.016929402092327114,0.04688091472727652
1648633490144269727,8730,12,2,1.58941602707,-0.0996219441295,0.067172318697,0.0,14.6000003815,0.5315772665785953,-0.033318375963043476,0.022465658427090297,14.6000003815,0.0,0.7525017573821051,1.5939510529681442
1648633490144275165,8731,12,3,2.37560153008,-1.06654083729,0.333726644516,0.0,14.6000003815,0.7945155618996654,-0.35670262116722407,0.11161426237993309,14.6000003815,0.0,1.1788751910821815,2.6253314953707467
1648633490249066240,8732,13,0,0.00656439410523,0.0454158857465,0.0095982439816,0.0,15.3000001907,0.0021954495335217393,0.015189259446989964,0.003210115044013378,15.3000001907,0.0,0.015503341570656809,0.046880915473551076
1648633490249072546,8733,13,1,0.0342227742076,0.0146502861753,-0.0284954551607,0.0,15.3000001907,0.011445743882140466,0.0048997612626421405,-0.009530252562107024,15.3000001907,0.0,0.016912059793591092,0.04688091428607192
1648633490249188433,8734,13,2,1.5888146162,-0.0996219441295,0.0801469758153,0.0,15.3000001907,0.531376125819398,-0.033318375963043476,0.026805008633879596,15.3000001907,0.0,0.7522175804635785,1.5939510513611244
1648633490249196158,8735,13,3,2.37907934189,-1.06654083729,0.307955592871,0.0,15.3000001907,0.7956787096622072,-0.35670262116722407,0.10299518156220736,15.3000001907,0.0,1.1804431277986238,2.6253313161952603
1648633490444055967,8736,15,0,0.00656439410523,0.0454158857465,0.0095982439816,0.0,14.8000001907,0.0021954495335217393,0.015189259446989964,0.003210115044013378,14.8000001907,0.0,0.015503341570656809,0.046880915473551076
1648633490444085964,8737,15,1,0.0342766940594,0.0146502861753,-0.0284305717796,0.0,14.8000001907,0.011463777277391304,0.0048997612626421405,-0.009508552434648829,14.8000001907,0.0,0.01693647068790174,0.046880913518988536
1648633490444089469,8738,15,2,1.58949577808,-0.0996219441295,0.0652590543032,0.0,14.8000001907,0.5316039391571906,-0.033318375963043476,0.021825770669966556,14.8000001907,0.0,0.7525394411136859,1.5939510985142655
1648633490444220190,8739,15,3,2.37793922424,-1.06654083729,0.316640228033,0.0,14.8000001907,0.7952973994113711,-0.35670262116722407,0.10589974181705686,14.8000001907,0.0,1.1799290940427514,2.625331473508665
1648633490549107587,8740,16,0,0.00653733778745,0.0454158857465,0.00961669255048,0.0,14.6999998093,0.0021864005978093643,0.015189259446989964,0.003216285133939799,14.6999998093,0.0,0.015500783776834517,0.04688091551043794
1648633490549114045,8741,16,1,0.0342982634902,0.0146502861753,-0.0284045506269,0.0,14.6999998093,0.011470991133846153,0.0048997612626421405,-0.009499849707993311,14.6999998093,0.0,0.016946236621044882,0.046880915731003996
1648633490549241243,8742,16,2,1.58991622925,-0.0996219441295,0.0540540739894,0.0,14.6999998093,0.5317445582775919,-0.033318375963043476,0.018078285615183945,14.6999998093,0.0,0.7527381116248051,1.5939510628308295
1648633490549248858,8743,16,3,2.3773458004,-1.06654083729,0.321064174175,0.0,14.6999998093,0.7950989298996656,-0.35670262116722407,0.10737932246655517,14.6999998093,0.0,1.1796615517184388,2.625331334560544
