%time,field.header.seq,field.header.frame_id,field.point_id,field.x,field.y,field.z,field.velocity,field.intensity,normalized_x,normalized_y,normalized_z,normalized_intensity,normalized_velocity,normalized_range,range
1648624148439645632,13419,0,0,0.00650684023276,0.0454158857465,0.0096373539418,0.0,39.0999984741,0.002176200746742475,0.015189259446989964,0.0032231952982608694,39.0999984741,0.0,0.015497912824900612,0.046880915508907606
1648624148439676615,13420,0,1,0.0321875400841,0.0161153152585,-0.0300346314907,0.0,39.0999984741,0.01076506357327759,0.005389737544648829,-0.010045027254414715,39.0999984741,0.0,0.01614999870816135,0.04688091521428027
1648624148439750196,13421,0,2,1.06780171394,-0.101086974144,0.110579110682,0.0,39.0999984741,0.35712431904347824,-0.03380835255652174,0.036982980161204014,39.0999984741,0.0,0.50618036627977,1.0782610149467584
1648624148439752650,13422,0,3,0.857812345028,-0.0366257168353,-0.797780871391,-0.566431701183,39.0999984741,0.28689376087892976,-0.012249403623846153,-0.2668163449468227,39.0999984741,-0.07654482448418919,0.4059139169228532,1.1720229439620706
1648624148439760817,13423,0,4,1.02766644955,0.439508616924,0.352663904428,-0.566431701183,39.0999984741,0.3437011536956522,0.1469928484695652,0.11794779412307692,39.0999984741,-0.07654482448418919,0.5078069156723264,1.1720230310738573
1648624148544771379,13424,1,0,0.00633181491867,0.0454158857465,0.00975323934108,0.0,22.6000003815,0.002117663852397993,0.015189259446989964,0.003261952956882943,22.6000003815,0.0,0.015481686049377183,0.046880915476852886
1648624148544775387,13425,1,1,0.0321959294379,0.0161153152585,-0.0300256367773,0.0,22.6000003815,0.01076786937722408,0.005389737544648829,-0.010042018989063544,22.6000003815,0.0,0.016153739277644585,0.04688091426298584
1648624148544777834,13426,1,2,0.958751916885,0.153827995062,0.162389829755,0.161837622523,22.6000003815,0.32065281501170567,0.05144748998729097,0.05431097985117056,22.6000003815,0.021869948989594594,0.45638065228036856,0.984499236669747
1648624148544804225,13427,1,3,1.2126789093,0.079111546278,0.354065418243,0.485512852669,22.6000003815,0.40557823053511705,0.026458711129765885,0.11841652784046822,22.6000003815,0.06560984495527027,0.5741841739047163,1.2657847740477544
1648624148739791182,13428,3,0,0.00644198199734,0.0454158857465,0.00968082807958,0.0,26.2000007629,0.002154509029210702,0.015189259446989964,0.0032377351436722406,26.2000007629,0.0,0.015491850143280974,0.04688091554672945
1648624148739801863,13429,3,1,0.0322864726186,0.0161153152585,-0.0299282576889,0.0,26.2000007629,0.010798151377458194,0.005389737544648829,-0.010009450732073578,26.2000007629,0.0,0.016194116744707065,0.04688091624878563
1648624148739806279,13430,3,2,1.06445419788,-0.101086974144,0.139159873128,0.0,26.2000007629,0.3560047484548495,-0.03380835255652174,0.04654176358795986,26.2000007629,0.0,0.5046006010176636,1.0782610008782405
1648624148844845389,13431,4,0,0.00648005818948,0.0454158857465,0.0096553824842,0.0,19.1000003815,0.002167243541632107,0.015189259446989964,0.0032292249111036788,19.1000003815,0.0,0.015495402275690233,0.04688091555413977
1648624148844851753,13432,4,1,0.0322042368352,0.0161153152585,-0.0300167296082,0.0,19.1000003815,0.010770647770969899,0.005389737544648829,-0.010039040002742474,19.1000003815,0.0,0.01615744341202515,0.04688091629213625
1648624148844856396,13433,4,2,1.07258951664,-0.101086974144,0.04449724406,0.0,19.1000003815,0.3587255908494983,-0.03380835255652174,0.014882021424749163,19.1000003815,0.0,0.5084398723184772,1.0782610316043855
1648624148844860459,13434,4,3,0.847361207008,0.190453708172,-0.855238437653,0.485512852669,19.1000003815,0.28339839699264213,0.06369689236521739,-0.28603292229197325,19.1000003815,0.06560984495527027,0.40581596436437106,1.2189037760781876
1648624148844864659,13435,4,4,1.13475489616,-0.266635209322,0.35631942749,0.485512852669,19.1000003815,0.37951668767892976,-0.0891756552916388,0.11917037708695652,19.1000003815,0.06560984495527027,0.5440754818499597,1.2189038286985896
1648624148844867994,13436,4,5,0.95625013113,0.153827995062,0.176525622606,-0.323675245047,19.1000003815,0.31981609736789296,0.05144748998729097,0.05903866976789297,19.1000003815,-0.04373989797932432,0.45520491703984434,0.984499192883048
1648624148844989856,13437,4,6,2.6336517334,0.250519871712,0.376609951258,-0.323675245047,19.1000003815,0.8808199777257524,0.08378591027157191,0.12595650543745818,19.1000003815,-0.04373989797932432,1.2484821765174006,2.672211951614238
1648624148844993693,13438,4,7,1.58664321899,-0.835066318512,-1.98139977455,-0.323675245047,19.1000003815,0.5306499060167224,-0.2792863941511705,-0.6626755098829431,19.1000003815,-0.04373989797932432,0.8007368703070163,2.672212103719861
1648624148845105069,13439,4,8,0.929593801498,0.117202289402,0.0353139862418,-0.0809188112617,19.1000003815,0.3109009369558528,0.03919809010100334,0.011810697739732442,19.1000003815,-0.010934974494824324,0.441424144635996,0.9376183072278714
1648624149039767448,13440,6,0,0.00650684023276,0.0454158857465,0.0096373539418,0.0,13.3000001907,0.002176200746742475,0.015189259446989964,0.0032231952982608694,13.3000001907,0.0,0.015497912824900612,0.046880915508907606
1648624149039799511,13441,6,1,0.0322864726186,0.0161153152585,-0.0299282576889,0.0,13.3000001907,0.010798151377458194,0.005389737544648829,-0.010009450732073578,13.3000001907,0.0,0.016194116744707065,0.04688091624878563
1648624149039930344,13442,6,2,1.11495959759,-0.140642747283,0.0550387091935,0.0,13.3000001907,0.3728961864849498,-0.047037708121404675,0.01840759504799331,13.3000001907,0.0,0.5294484656464228,1.125142011539455
1648624149039933738,13443,6,3,0.865599632263,0.139177724719,0.157416850328,-0.404594063759,13.3000001907,0.2894982047702341,0.04654773401973244,0.05264777602943144,13.3000001907,-0.05467487348094594,0.4120498909995591,0.8907374625550374
1648624149039937205,13444,6,4,0.732213377953,-1.26578474045,0.334993302822,-0.323675245047,13.3000001907,0.24488741737558528,-0.42333937807692307,0.11203789392040134,13.3000001907,-0.04373989797932432,0.5469514817681036,1.5001893057027866
