%time,field.header.seq,field.header.frame_id,field.point_id,field.x,field.y,field.z,field.velocity,field.intensity,normalized_x,normalized_y,normalized_z,normalized_intensity,normalized_velocity,normalized_range,range
1648624163544827048,13883,0,0,0.00637087179348,0.0454158857465,0.00972777232528,0.0,41.0,0.002130726352334448,0.015189259446989964,0.0032534355602943143,41.0,0.0,0.015485270166356117,0.046880915519650256
1648624163544836029,13884,0,1,0.0322042368352,0.0161153152585,-0.0300167296082,0.0,41.0,0.010770647770969899,0.005389737544648829,-0.010039040002742474,41.0,0.0,0.01615744341202515,0.04688091629213625
1648624163544838901,13885,0,2,1.15464043617,-0.146502867341,0.137768805027,0.0,41.0,0.38616736995652173,-0.04899761449531772,0.04607652342040134,41.0,0.0,0.5483167346201518,1.1720229821196126
1648624163544844217,13886,0,3,0.714645802975,-0.915642917156,0.156579747796,0.0,41.0,0.23901197423913043,-0.30623508934983273,0.052367808627424746,41.0,0.0,0.4561067611957463,1.1720229489509115
1648624163544846616,13887,0,4,0.398644387722,0.423393249512,-0.544968664646,0.242756426334,41.0,0.1333258821812709,0.14160309348227423,-0.18226376744013378,41.0,0.03280492247756756,0.2358029215310488,0.7969755561123713
1648624163739750586,13888,2,0,0.00637087179348,0.0454158857465,0.00972777232528,0.0,36.0,0.002130726352334448,0.015189259446989964,0.0032534355602943143,36.0,0.0,0.015485270166356117,0.046880915519650256
1648624163739757923,13889,2,1,0.0321875400841,0.0161153152585,-0.0300346314907,0.0,36.0,0.01076506357327759,0.005389737544648829,-0.010045027254414715,36.0,0.0,0.01614999870816135,0.04688091521428027
1648624163739765355,13890,2,2,1.07101547718,-0.101086974144,0.0731710493565,0.0,36.0,0.3581991562474916,-0.03380835255652174,0.024471922861705683,36.0,0.0,0.5076970314817844,1.0782609754436188
1648624163844860560,13891,3,0,0.00640948768705,0.0454158857465,0.0097023723647,0.0,15.3999996185,0.0021436413669063546,0.015189259446989964,0.0032449405902006687,15.3999996185,0.0,0.015488834661387478,0.046880915520634635
1648624163844866439,13892,3,1,0.0322614833713,0.0161153152585,-0.0299551915377,0.0,15.3999996185,0.01078979376966555,0.005389737544648829,-0.01001845870826087,15.3999996185,0.0,0.016182971605487796,0.04688091504288076
1648624163844874039,13893,3,2,0.632508993149,0.241729721427,0.189759537578,0.404594063759,15.3999996185,0.211541469280602,0.08084606067792642,0.06346472828695651,15.3999996185,0.05467487348094594,0.3098962277568585,0.7032137418575899
1648624163844877084,13894,3,3,0.648438036442,0.281285494566,0.251094669104,0.485512852669,15.3999996185,0.2168689085090301,0.09407541624280935,0.08397815020200669,15.3999996185,0.06560984495527027,0.32080279128625727,0.7500946269707863
1648624164039801253,13895,5,0,0.00640948768705,0.0454158857465,0.0097023723647,0.0,24.6000003815,0.0021436413669063546,0.015189259446989964,0.0032449405902006687,24.6000003815,0.0,0.015488834661387478,0.046880915520634635
1648624164039805072,13896,5,1,0.0322042368352,0.0161153152585,-0.0300167296082,0.0,24.6000003815,0.010770647770969899,0.005389737544648829,-0.010039040002742474,24.6000003815,0.0,0.01615744341202515,0.04688091629213625
1648624164039808677,13897,5,2,1.06143784523,-0.134782627225,0.133529722691,0.0,24.6000003815,0.35499593485953174,-0.04507780174749164,0.04465877013076923,24.6000003815,0.0,0.5040597541402924,1.0782610271776096
1648624164145089301,13898,6,0,0.00643683131784,0.0454158857465,0.00968425348401,0.0,11.8000001907,0.0021527863939264213,0.015189259446989964,0.003238880763882943,11.8000001907,0.0,0.015491371180877544,0.04688091553176012
1648624164145099765,13899,6,1,0.032278098166,0.0161153152585,-0.0299372896552,0.0,11.8000001907,0.010795350557190634,0.005389737544648829,-0.010012471456588628,11.8000001907,0.0,0.016190381654101596,0.046880916362568255
1648624164145102189,13900,6,2,1.12125849724,-0.0703213736415,0.0614721216261,0.0,11.8000001907,0.3750028418862876,-0.023518854060702338,0.020559238002040132,11.8000001907,0.0,0.5308553469090357,1.1251420065755897
1648624164145107929,13901,6,3,0.919678151608,0.146502867341,0.108890496194,0.161837622523,11.8000001907,0.3075846660896321,0.04899761449531772,0.03641822615183946,11.8000001907,0.021869948989594594,0.43774127044770716,0.937618330049929
1648624164145199451,13902,6,4,0.72868335247,-0.061531201005,-0.659145772457,-0.485512852669,11.8000001907,0.24370680684615384,-0.020578996991638794,-0.22045009112274247,11.8000001907,-0.06560984495527027,0.3452673030037437,0.984499195638052
1648624164145202810,13903,6,5,0.878240466118,0.307655990124,0.321372389793,-0.485512852669,11.8000001907,0.29372590840066887,0.10289497997458194,0.10748240461304347,11.8000001907,-0.06560984495527027,0.4279453182774241,0.9844992318471378
