%time,field.header.seq,field.header.frame_id,field.point_id,field.x,field.y,field.z,field.velocity,field.intensity,normalized_x,normalized_y,normalized_z,normalized_intensity,normalized_velocity,normalized_range,range
1648623889138316467,5666,0,0,0.00610682740808,0.0454158857465,0.00989566650242,0.0,16.2999992371,0.0020424171933377923,0.015189259446989964,0.0033095874590033446,16.2999992371,0.0,0.015461453312391352,0.046880915463100074
1648623889138322913,5667,0,1,0.0321475639939,0.0161153152585,-0.0300774164498,0.0,16.2999992371,0.010751693643444816,0.005389737544648829,-0.01005933660528428,16.2999992371,0.0,0.01613217602201205,0.04688091548719413
1648623889138329417,5668,0,2,0.949348688126,0.24612480402,0.0860138684511,0.0809188112617,16.2999992371,0.31750792245016723,0.08231598796655518,0.02876718008397993,16.2999992371,0.010934974494824324,0.45650682745404025,0.9844992312675331
1648623889138332047,5669,0,3,0.852431714535,-0.0,-0.804361820221,-0.566431701183,16.2999992371,0.2850942189080267,-0.0,-0.26901733117759197,16.2999992371,-0.07654482448418919,0.40318411093389545,1.172022937392575
1648623889138335998,5670,0,4,0.998090863228,0.439508616924,0.429283767939,-0.566431701183,16.2999992371,0.3338096532535117,0.1469928484695652,0.1435731665347826,16.2999992371,-0.07654482448418919,0.4944336828247606,1.1720229302473424
1648623889243443336,5671,1,0,0.00599808664992,0.0454158857465,0.00996195338666,0.0,32.2000007629,0.0020060490467959866,0.015189259446989964,0.0033317569855050165,32.2000007629,0.0,0.015451927650111363,0.04688091548676366
1648623889243451451,5672,1,1,0.032139249146,0.0161153152585,-0.0300863012671,0.0,32.2000007629,0.01074891275785953,0.005389737544648829,-0.010062308116086957,32.2000007629,0.0,0.01612846929353024,0.04688091557856147
1648623889243474966,5673,1,2,0.946018755436,0.24612480402,0.117088742554,0.0809188112617,32.2000007629,0.31639423258729094,0.08231598796655518,0.03916011456655518,32.2000007629,0.010934974494824324,0.45495773727227845,0.9844992018399196
1648623889243478370,5674,1,3,1.15642023087,0.152362972498,0.353842288256,0.323675245047,32.2000007629,0.38676261902006687,0.05095751588561872,0.11834190242675585,32.2000007629,0.04373989797932432,0.5493335192465101,1.2189038480175918
1648623889438589660,5675,3,0,0.00591631000862,0.0454158857465,0.0100107360631,0.0,24.1000003815,0.001978698999538461,0.015189259446989964,0.0033480722619063544,24.1000003815,0.0,0.015444873000757335,0.046880915507083364
1648623889438591531,5676,3,1,0.032139249146,0.0161153152585,-0.0300863012671,0.0,24.1000003815,0.01074891275785953,0.005389737544648829,-0.010062308116086957,24.1000003815,0.0,0.01612846929353024,0.04688091557856147
1648623889438593416,5677,3,2,1.12455534935,-0.0351606868207,0.00912870001048,0.0,24.1000003815,0.3761054680100334,-0.011759427030334446,0.0030530769265819397,24.1000003815,0.0,0.5320234301778206,1.1251419202986286
1648623889543570921,5678,4,0,0.00614419719204,0.0454158857465,0.00987250730395,0.0,11.8999996185,0.0020549154488428093,0.015189259446989964,0.003301841907675585,11.8999996185,0.0,0.015464765033836097,0.04688091549597085
1648623889543573997,5679,4,1,0.032139249146,0.0161153152585,-0.0300863012671,0.0,11.8999996185,0.01074891275785953,0.005389737544648829,-0.010062308116086957,11.8999996185,0.0,0.01612846929353024,0.04688091557856147
1648623889543576277,5680,4,2,1.0646481514,-0.168478280306,0.0280387364328,0.0,11.8999996185,0.35606961585284275,-0.05634725093846154,0.00937750382367893,11.8999996185,0.0,0.5067012486224046,1.0782610017778869
1648623889543579049,5681,4,3,2.63154983521,0.334026515484,0.322629451752,-0.242756426334,11.8999996185,0.8801170017424749,0.11171455367357858,0.10790282667290968,11.8999996185,-0.03280492247756756,1.2496767642133761,2.672212194302308
1648623889543580195,5682,4,4,1.51656103134,-0.835066318512,-2.03554034233,-0.242756426334,11.8999996185,0.5072110472709029,-0.2792863941511705,-0.6807827231872909,11.8999996185,-0.03280492247756756,0.7697577429979222,2.672212117954928
1648623889738514433,5683,6,0,0.00596007192507,0.0454158857465,0.00998474378139,0.0,20.0,0.0019933350919966552,0.015189259446989964,0.0033393791911003343,20.0,0.0,0.015448636578220891,0.04688091556135775
1648623889738517413,5684,6,1,0.0320587903261,0.0161153152585,-0.0301720201969,0.0,20.0,0.010722003453545148,0.005389737544648829,-0.010090976654481604,20.0,0.0,0.016092606591719856,0.04688091536879189
1648623889738598983,5685,6,2,1.0580881834,-0.134782627225,0.157891839743,0.0,20.0,0.35387564662207355,-0.04507780174749164,0.052806635365551836,20.0,0.0,0.502481795446131,1.0782610043536835
1648623889738603157,5686,6,3,0.336238712072,0.26956525445,-0.988395094872,0.0,20.0,0.11245441875317726,0.09015560349498328,-0.3305669213618729,20.0,0.0,0.18281144777003036,1.0782609894963096
1648623889738605101,5687,6,4,0.945708334446,0.24612480402,0.119570441544,-0.161837622523,20.0,0.316290412858194,0.08231598796655518,0.03999011422876254,20.0,-0.021869948989594594,0.4548133379826538,0.9844992450406135
