%time,field.header.seq,field.header.frame_id,field.point_id,field.x,field.y,field.z,field.velocity,field.intensity,normalized_x,normalized_y,normalized_z,normalized_intensity,normalized_velocity,normalized_range,range
1648624146144690646,13358,0,0,0.00643311347812,0.0454158857465,0.00968672335148,0.0,30.5,0.002151542969270903,0.015189259446989964,0.00323970680651505,30.5,0.0,0.015491025687320125,0.04688091548220468
1648624146144694990,13359,0,1,0.0321875400841,0.0161153152585,-0.0300346314907,0.0,30.5,0.01076506357327759,0.005389737544648829,-0.010045027254414715,30.5,0.0,0.01614999870816135,0.04688091521428027
1648624146144805125,13360,0,2,1.11664521694,-0.0703213736415,0.11875525862,0.0,30.5,0.3734599387759197,-0.023518854060702338,0.0397174777993311,30.5,0.0,0.5286755037235563,1.1251419677337213
1648624146144811387,13361,0,3,0.467381060123,0.316446185112,-0.9733248353,0.0,30.5,0.1563147358270903,0.10583484451906354,-0.32552670076923074,30.5,0.0,0.24509101898633578,1.1251419814607442
1648624146144820612,13362,0,4,0.586781620979,0.266635209322,0.123959049582,0.161837622523,30.5,0.1962480337722408,0.0891756552916388,0.04145787611438127,30.5,0.021869948989594594,0.291511370302488,0.6563328816554922
1648624146144824671,13363,0,5,0.997867465019,0.225614413619,0.130781024694,-0.242756426334,30.5,0.3337349381334448,0.07545632562508361,0.04373947314180601,30.5,-0.03280492247756756,0.4779661859783672,1.031380151930462
1648624146339699159,13364,2,0,0.00626733759418,0.0454158857465,0.009794796817,0.0,18.7000007629,0.002096099529826087,0.015189259446989964,0.0032758517782608696,18.7000007629,0.0,0.01547581561746741,0.04688091555574482
1648624146339702633,13365,2,1,0.0322864726186,0.0161153152585,-0.0299282576889,0.0,18.7000007629,0.010798151377458194,0.005389737544648829,-0.010009450732073578,18.7000007629,0.0,0.016194116744707065,0.04688091624878563
1648624146339713236,13366,2,2,1.12044811249,-0.0703213736415,0.0748037323356,0.0,18.7000007629,0.37473181019732443,-0.023518854060702338,0.025017970680802675,18.7000007629,0.0,0.5304724268459726,1.125142065138695
1648624146339813115,13367,2,3,0.593224942684,0.246124818921,0.135201871395,0.161837622523,18.7000007629,0.198402990864214,0.08231599295016721,0.04521801718896321,18.7000007629,0.021869948989594594,0.29240967197256446,0.6563328463059275
1648624146444807712,13368,3,0,0.00643311347812,0.0454158857465,0.00968672335148,0.0,13.3999996185,0.002151542969270903,0.015189259446989964,0.00323970680651505,13.3999996185,0.0,0.015491025687320125,0.04688091548220468
1648624146444812325,13369,3,1,0.0321875400841,0.0161153152585,-0.0300346314907,0.0,13.3999996185,0.01076506357327759,0.005389737544648829,-0.010045027254414715,13.3999996185,0.0,0.01614999870816135,0.04688091521428027
1648624146444814148,13370,3,2,1.06326305866,-0.101086974144,0.147985577583,0.0,13.3999996185,0.35560637413377927,-0.03380835255652174,0.0494935042083612,13.3999996185,0.0,0.5040384820147494,1.0782609329031552
1648624146639773936,13371,5,0,0.00637087179348,0.0454158857465,0.00972777232528,0.0,17.6000003815,0.002130726352334448,0.015189259446989964,0.0032534355602943143,17.6000003815,0.0,0.015485270166356117,0.046880915519650256
1648624146639777106,13372,5,1,0.0322864726186,0.0161153152585,-0.0299282576889,0.0,17.6000003815,0.010798151377458194,0.005389737544648829,-0.010009450732073578,17.6000003815,0.0,0.016194116744707065,0.04688091624878563
1648624146639816606,13373,5,2,0.907029628754,0.175803437829,0.159745082259,0.323675245047,17.6000003815,0.3033543908876254,0.05879713639765886,0.053426448916053505,17.6000003815,0.04373989797932432,0.43301833239502613,0.9376183058665443
1648624146744834142,13374,6,0,0.00650684023276,0.0454158857465,0.0096373539418,0.0,38.4000015259,0.002176200746742475,0.015189259446989964,0.0032231952982608694,38.4000015259,0.0,0.015497912824900612,0.046880915508907606
1648624146744856073,13375,6,1,0.032303031534,0.0161153152585,-0.0299103800207,0.0,38.4000015259,0.01080368947625418,0.005389737544648829,-0.01000347157882943,38.4000015259,0.0,0.01620150250436199,0.04688091365524067
1648624146744858789,13376,6,2,0.802571237087,-0.0278355441988,-0.385379970074,0.0,38.4000015259,0.2684184739421404,-0.009309546554782609,-0.12888962209832774,38.4000015259,0.0,0.37971518532172327,0.8907374076878314
1648624146744866478,13377,6,3,0.959280073643,0.153827995062,0.159240216017,0.242756426334,38.4000015259,0.320829456067893,0.05144748998729097,0.05325759733010033,38.4000015259,0.03280492247756756,0.45662886898183797,0.9844992423310721
