%time,field.header.seq,field.header.frame_id,field.point_id,field.x,field.y,field.z,field.velocity,field.intensity,normalized_x,normalized_y,normalized_z,normalized_intensity,normalized_velocity,normalized_range,range
1648623777342928086,2358,0,0,0.00570635916665,0.0454158857465,0.0101318815723,0.0,28.1000003815,0.0019084813266387957,0.015189259446989964,0.0033885891546153843,28.1000003815,0.0,0.015427190427820349,0.04688091549098699
1648623777342931573,2359,0,1,0.0342580899596,0.0146502861753,-0.0284529849887,0.0,28.1000003815,0.011457555170434782,0.0048997612626421405,-0.009516048491204012,28.1000003815,0.0,0.016928047772794184,0.04688091261340185
1648623777342933666,2360,0,2,1.15063548088,0.219754308462,-0.0372002758086,0.0,28.1000003815,0.3848279200267558,0.0734964242347826,-0.012441563815585283,28.1000003815,0.0,0.549169172878028,1.1720229632851893
1648623777538056568,2361,2,0,0.00570635916665,0.0454158857465,0.0101318815723,0.0,19.7999992371,0.0019084813266387957,0.015189259446989964,0.0033885891546153843,19.7999992371,0.0,0.015427190427820349,0.04688091549098699
1648623777538060804,2362,2,1,0.0320935323834,0.0161153152585,-0.0301350634545,0.0,19.7999992371,0.01073362287070234,0.005389737544648829,-0.010078616539966554,19.7999992371,0.0,0.016108090844700558,0.04688091569212283
1648623777538062102,2363,2,2,1.05862665176,-0.134782627225,0.154240190983,0.0,19.7999992371,0.35405573637458193,-0.04507780174749164,0.05158534815484949,19.7999992371,0.0,0.5027354544190026,1.0782609985215703
1648623777538083973,2364,2,3,0.311704963446,0.235869601369,-1.00491404533,0.0,19.7999992371,0.1042491516541806,0.07888615430401337,-0.33609165395652174,19.7999992371,0.0,0.16720884121992263,1.0782609570917185
1648623777538152340,2365,2,4,1.15122628212,0.219754308462,0.00488489307463,0.0,19.7999992371,0.3850255124147157,0.0734964242347826,0.0016337435032207355,19.7999992371,0.0,0.5494460981713566,1.17202293958429
1648623777538154953,2366,2,5,2.11593580246,-1.14272224903,0.399884283543,0.0,19.7999992371,0.7076708369431438,-0.3821813541906354,0.13374056305785953,19.7999992371,0.0,1.0712882965899548,2.4378076008546947
1648623777538156864,2367,2,6,1.09362912178,0.329631447792,0.262595325708,-0.161837622523,19.7999992371,0.3657622480869565,0.11024463136856186,0.08782452364816053,19.7999992371,-0.021869948989594594,0.5288836573357497,1.1720229743748347
1648623777642952853,2368,3,0,0.00575251271948,0.0454158857465,0.0101057486609,0.0,38.0,0.00192391729748495,0.015189259446989964,0.0033798490504682276,38.0,0.0,0.015431024531219481,0.046880915485133214
1648623777642965853,2369,3,1,0.0341790392995,0.0146502861753,-0.0285478997976,0.0,38.0,0.01143111682257525,0.0048997612626421405,-0.00954779257444816,38.0,0.0,0.016892262253872758,0.046880915043424246
1648623777642970286,2370,3,2,1.06594538689,-0.134782627225,0.0907792001963,0.0,38.0,0.35650347387625414,-0.04507780174749164,0.030360936520501668,38.0,0.0,0.506183229653117,1.0782610016234588
1648623777642972904,2371,3,3,2.11735796928,-1.14272224903,0.39228489995,0.0,38.0,0.7081464780200668,-0.3821813541906354,0.13119896319397992,38.0,0.0,1.0719167207182831,2.437807693652329
1648623777642973959,2372,3,4,1.04251670837,0.316446185112,0.281007558107,-0.161837622523,38.0,0.34866779544147153,0.10583484451906354,0.09398246090535117,38.0,-0.021869948989594594,0.5043208080878737,1.1251420012673141
1648623777837983988,2373,5,0,0.00570635916665,0.0454158857465,0.0101318815723,0.0,34.4000015259,0.0019084813266387957,0.015189259446989964,0.0033885891546153843,34.4000015259,0.0,0.015427190427820349,0.04688091549098699
1648623777838010577,2374,5,1,0.0342580899596,0.0146502861753,-0.0284529849887,0.0,34.4000015259,0.011457555170434782,0.0048997612626421405,-0.009516048491204012,34.4000015259,0.0,0.016928047772794184,0.04688091261340185
1648623777838114901,2375,5,2,1.04513382912,0.281285494566,0.307437926531,0.0,34.4000015259,0.34954308666220735,0.09407541624280935,0.10282204900702341,34.4000015259,0.0,0.5032006784653064,1.1251419150018158
1648623777838120523,2376,5,3,1.10418725014,-0.105482056737,-0.188648715615,0.0,34.4000015259,0.3692933946956522,-0.035278279845150494,-0.06309321592474916,34.4000015259,0.0,0.523449882759095,1.1251418957484394
1648623777943079368,2377,6,0,0.00570635916665,0.0454158857465,0.0101318815723,0.0,13.5,0.0019084813266387957,0.015189259446989964,0.0033885891546153843,13.5,0.0,0.015427190427820349,0.04688091549098699
1648623777943081582,2378,6,1,0.032056748867,0.0161153152585,-0.0301741920412,0.0,13.5,0.010721320691304348,0.005389737544648829,-0.01009170302381271,13.5,0.0,0.016091696788461392,0.04688091721737072
1648623777943083766,2379,6,2,1.05908894539,-0.0673913136125,0.190881505609,0.0,13.5,0.3542103496287625,-0.02253890087374582,0.06383996843110368,13.5,0.0,0.5014358838584021,1.0782609761005355
1648623777943086465,2380,6,3,0.445047795773,0.303260922432,-0.934137046337,0.0,13.5,0.1488454166464883,0.10142505766956521,-0.31242041683511707,13.5,0.0,0.23365992047548081,1.0782609836843435
