%time,field.header.seq,field.header.frame_id,field.point_id,field.x,field.y,field.z,field.velocity,field.intensity,normalized_x,normalized_y,normalized_z,normalized_intensity,normalized_velocity,normalized_range,range
1648633495348909292,8879,0,0,0.00666702631861,0.0454158857465,0.00952724087983,0.0,26.6000003815,0.0022297746884983277,0.015189259446989964,0.0031863681872341134,26.6000003815,0.0,0.01551313613912124,0.0468809154865227
1648633495349001198,8880,0,1,0.0342227742076,0.0146502861753,-0.0284954551607,0.0,26.6000003815,0.011445743882140466,0.0048997612626421405,-0.009530252562107024,26.6000003815,0.0,0.016912059793591092,0.04688091428607192
1648633495349004286,8881,0,2,1.5924372673,-0.0498109720647,0.0483979023993,0.0,26.6000003815,0.5325877148160535,-0.016659187981505015,0.016186589431204015,26.6000003815,0.0,0.7533769816567102,1.5939510469837441
1648633495349007134,8882,0,3,2.37761354446,-1.06654083729,0.31907710433,0.0,26.6000003815,0.7951884764080267,-0.35670262116722407,0.10671475061204014,26.6000003815,0.0,1.1797822621025482,2.6253315453318495
1648633495543970823,8883,2,0,0.00653733778745,0.0454158857465,0.00961669255048,0.0,14.3000001907,0.0021864005978093643,0.015189259446989964,0.003216285133939799,14.3000001907,0.0,0.015500783776834517,0.04688091551043794
1648633495543974947,8884,2,1,0.0342227742076,0.0146502861753,-0.0284954551607,0.0,14.3000001907,0.011445743882140466,0.0048997612626421405,-0.009530252562107024,14.3000001907,0.0,0.016912059793591092,0.04688091428607192
1648633495544000363,8885,2,2,1.59225606918,-0.0498109720647,0.0540311001241,0.0,14.3000001907,0.5325271134381271,-0.016659187981505015,0.018070602048193978,14.3000001907,0.0,0.7532912993242992,1.593951028908729
1648633495544109542,8886,2,3,2.37880730629,-1.06654083729,0.310051351786,0.0,14.3000001907,0.7955877278561873,-0.35670262116722407,0.10369610427625418,14.3000001907,0.0,1.180320475709165,2.6253314836055024
1648633495649009263,8887,3,0,0.00666702631861,0.0454158857465,0.00952724087983,0.0,14.6000003815,0.0022297746884983277,0.015189259446989964,0.0031863681872341134,14.6000003815,0.0,0.01551313613912124,0.0468809154865227
1648633495649017765,8888,3,1,0.0342444218695,0.0146502861753,-0.0284694358706,0.0,14.6000003815,0.011452983902842807,0.0048997612626421405,-0.009521550458394649,14.6000003815,0.0,0.016921859856069057,0.04688091395210509
1648633495649020299,8889,3,2,1.5894575119,-0.0996219441295,0.066182911396,0.0,14.6000003815,0.5315911411036789,-0.033318375963043476,0.022134752975250832,14.6000003815,0.0,0.7525213596813299,1.5939510317598626
1648633495649025969,8890,3,3,2.37793850899,-1.06654083729,0.3166449368,0.0,14.6000003815,0.7952971601973243,-0.35670262116722407,0.10590131665551838,14.6000003815,0.0,1.1799287715720068,2.625331393585563
1648633495843908810,8891,5,0,0.00653733778745,0.0454158857465,0.00961669255048,0.0,14.3000001907,0.0021864005978093643,0.015189259446989964,0.003216285133939799,14.3000001907,0.0,0.015500783776834517,0.04688091551043794
1648633495843910921,8892,5,1,0.0342227742076,0.0146502861753,-0.0284954551607,0.0,14.3000001907,0.011445743882140466,0.0048997612626421405,-0.009530252562107024,14.3000001907,0.0,0.016912059793591092,0.04688091428607192
1648633495844082040,8893,5,2,1.59313619137,-0.0498109720647,0.0107743721455,0.0,14.3000001907,0.5328214686856186,-0.016659187981505015,0.0036034689449832773,14.3000001907,0.0,0.753707478753397,1.5939511110087627
1648633495844086710,8894,5,3,2.38005208969,-1.06654083729,0.300346165895,0.0,14.3000001907,0.7960040433745819,-0.35670262116722407,0.10045022270735786,14.3000001907,0.0,1.1808817189223206,2.6253314317649146
1648633495949027946,8895,6,0,0.00657001230866,0.0454158857465,0.00959439948201,0.0,14.3999996185,0.0021973285313244147,0.015189259446989964,0.003208829258197324,14.3999996185,0.0,0.015503873964178065,0.04688091553388734
1648633495949036554,8896,6,1,0.0342982634902,0.0146502861753,-0.0284045506269,0.0,14.3999996185,0.011470991133846153,0.0048997612626421405,-0.009499849707993311,14.3999996185,0.0,0.016946236621044882,0.046880915731003996
1648633495949038874,8897,6,2,1.59307289124,-0.0498109720647,0.0178248398006,0.0,14.3999996185,0.5328002980735785,-0.016659187981505015,0.005961484883143813,14.3999996185,0.0,0.7536775463013287,1.593951095440422
1648633495949041949,8898,6,3,2.38101100922,-1.06654083729,0.292646676302,0.0,14.3999996185,0.7963247522474916,-0.35670262116722407,0.09787514257591971,14.3999996185,0.0,1.181314091184739,2.6253313811373804
1648633495949048141,8899,6,4,1.2224714756,0.276890397072,0.176369249821,0.242756426334,14.3999996185,0.4088533363210702,0.09260548397056856,0.058986371177591965,14.3999996185,0.03280492247756756,0.5855748260497231,1.2657847024390654
1648633496143925980,8900,8,0,0.00653733778745,0.0454158857465,0.00961669255048,0.0,21.6000003815,0.0021864005978093643,0.015189259446989964,0.003216285133939799,21.6000003815,0.0,0.015500783776834517,0.04688091551043794
1648633496144077460,8901,8,1,0.0342444218695,0.0146502861753,-0.0284694358706,0.0,21.6000003815,0.011452983902842807,0.0048997612626421405,-0.009521550458394649,21.6000003815,0.0,0.016921859856069057,0.04688091395210509
1648633496144087609,8902,8,2,1.58846414089,-0.0996219441295,0.0868185311556,0.0,21.6000003815,0.5312589099966555,-0.033318375963043476,0.029036298045351166,21.6000003815,0.0,0.7520519749847637,1.5939511648722375
1648633496144089552,8903,8,3,2.38126516342,-1.06654083729,0.290571957827,0.0,21.6000003815,0.7964097536521739,-0.35670262116722407,0.09718125679832776,21.6000003815,0.0,1.1814286907690201,2.625331445513185
1648633496249094437,8904,9,0,0.00663178879768,0.0454158857465,0.00955180265009,0.0,15.1000003815,0.0022179895644414715,0.015189259446989964,0.0031945828261170568,15.1000003815,0.0,0.015509756863468763,0.046880915463143866
1648633496249096478,8905,9,1,0.0342444218695,0.0146502861753,-0.0284694358706,0.0,15.1000003815,0.011452983902842807,0.0048997612626421405,-0.009521550458394649,15.1000003815,0.0,0.016921859856069057,0.04688091395210509
1648633496249098368,8906,9,2,1.59203779697,-0.0498109720647,0.0601206496358,0.0,15.1000003815,0.5324541126989966,-0.016659187981505015,0.020107240680869564,15.1000003815,0.0,0.7531880859415891,1.5939510571004842
1648633496249102887,8907,9,3,2.37646412849,-1.06654083729,0.327526658773,0.0,15.1000003815,0.7948040563511705,-0.35670262116722407,0.10954068855284281,15.1000003815,0.0,1.179264065395074,2.625331374096229
1648633496443943233,8908,11,0,0.00666702631861,0.0454158857465,0.00952724087983,0.0,14.6999998093,0.0022297746884983277,0.015189259446989964,0.0031863681872341134,14.6999998093,0.0,0.01551313613912124,0.0468809154865227
1648633496443945319,8909,11,1,0.0342227742076,0.0146502861753,-0.0284954551607,0.0,14.6999998093,0.011445743882140466,0.0048997612626421405,-0.009530252562107024,14.6999998093,0.0,0.016912059793591092,0.04688091428607192
1648633496443947259,8910,11,2,1.5918431282,-0.0498109720647,0.0650721341372,0.0,14.6999998093,0.5323890060869565,-0.016659187981505015,0.021763255564280937,14.6999998093,0.0,0.7530960338155539,1.5939510846875953
1648633496444140984,8911,11,3,2.37693786621,-1.06654083729,0.3240711689,0.0,14.6999998093,0.7949624970602006,-0.35670262116722407,0.10838500632107022,14.6999998093,0.0,1.1794776400644258,2.6253314266854795
1648633496549070127,8912,12,0,0.00663178879768,0.0454158857465,0.00955180265009,0.0,14.3999996185,0.0022179895644414715,0.015189259446989964,0.0031945828261170568,14.3999996185,0.0,0.015509756863468763,0.046880915463143866
1648633496549082272,8913,12,1,0.0342444218695,0.0146502861753,-0.0284694358706,0.0,14.3999996185,0.011452983902842807,0.0048997612626421405,-0.009521550458394649,14.3999996185,0.0,0.016921859856069057,0.04688091395210509
1648633496549085748,8914,12,2,1.59275341034,-0.0498109720647,0.0365425162017,0.0,14.3999996185,0.5326934482742475,-0.016659187981505015,0.012221577324983277,14.3999996185,0.0,0.7535264747922398,1.593951038952603
1648633496549088851,8915,12,3,2.37788939476,-1.06654083729,0.317014843225,0.0,14.3999996185,0.7952807340334448,-0.35670262116722407,0.10602503117892977,14.3999996185,0.0,1.1799066284232484,2.6253315489942035
1648633496743896308,8916,14,0,0.00666702631861,0.0454158857465,0.00952724087983,0.0,14.3999996185,0.0022297746884983277,0.015189259446989964,0.0031863681872341134,14.3999996185,0.0,0.01551313613912124,0.0468809154865227
1648633496743899075,8917,14,1,0.0342601276934,0.0146502861753,-0.0284505337477,0.0,14.3999996185,0.011458236686755852,0.0048997612626421405,-0.009515228678160534,14.3999996185,0.0,0.016928970328118718,0.046880914081481775
1648633496743901915,8918,14,2,1.59073269367,-0.0996219441295,0.018031956628,0.0,14.3999996185,0.5320176233010033,-0.033318375963043476,0.006030754725083612,14.3999996185,0.0,0.7531239055975526,1.5939511240695523
1648633496744044892,8919,14,3,2.37736701965,-1.06654083729,0.320907950401,0.0,14.3999996185,0.7951060266387959,-0.35670262116722407,0.10732707371270903,14.3999996185,0.0,1.1796711182114425,2.625331448856953
1648633496848937402,8920,15,0,0.00666702631861,0.0454158857465,0.00952724087983,0.0,14.5,0.0022297746884983277,0.015189259446989964,0.0031863681872341134,14.5,0.0,0.01551313613912124,0.0468809154865227
1648633496848944890,8921,15,1,0.0342227742076,0.0146502861753,-0.0284954551607,0.0,14.5,0.011445743882140466,0.0048997612626421405,-0.009530252562107024,14.5,0.0,0.016912059793591092,0.04688091428607192
1648633496848949217,8922,15,2,1.59260082245,-0.0498109720647,0.0426801331341,0.0,14.5,0.5326424155351169,-0.016659187981505015,0.014274292018093644,14.5,0.0,0.7534543212420852,1.5939510991152743
1648633496848953614,8923,15,3,2.37997865677,-1.06654083729,0.300927937031,0.0,14.5,0.7959794838695652,-0.35670262116722407,0.10064479499364548,14.5,0.0,1.1808486090223789,2.6253314814654782
1648633497044010824,8924,17,0,0.00666702631861,0.0454158857465,0.00952724087983,0.0,14.6000003815,0.0022297746884983277,0.015189259446989964,0.0031863681872341134,14.6000003815,0.0,0.01551313613912124,0.0468809154865227
1648633497044021278,8925,17,1,0.0342444218695,0.0146502861753,-0.0284694358706,0.0,14.6000003815,0.011452983902842807,0.0048997612626421405,-0.009521550458394649,14.6000003815,0.0,0.016921859856069057,0.04688091395210509
1648633497044046083,8926,17,2,1.58839786053,-0.0996219441295,0.0880209058523,0.0,14.6000003815,0.5312367426521739,-0.033318375963043476,0.029438430050936455,14.6000003815,0.0,0.7520206564079199,1.593951057892143
1648633497044116249,8927,17,3,2.37708687782,-1.06654083729,0.322976797819,0.0,14.6000003815,0.7950123337190635,-0.35670262116722407,0.10801899592608695,14.6000003815,0.0,1.179544819614088,2.6253314827352194
