%time,field.header.seq,field.header.frame_id,field.point_id,field.x,field.y,field.z,field.velocity,field.intensity,normalized_x,normalized_y,normalized_z,normalized_intensity,normalized_velocity,normalized_range,range
1648623904543535901,6137,0,0,0.00593020720407,0.0454158857465,0.0100025096908,0.0,15.1999998093,0.001983346890993311,0.015189259446989964,0.0033453209668227422,15.1999998093,0.0,0.015446065270093854,0.046880915474603234
1648623904543633028,6138,0,1,0.03209226951,0.0161153152585,-0.030136410147,0.0,15.1999998093,0.010733200505016721,0.005389737544648829,-0.010079066938795987,15.1999998093,0.0,0.016107527959372897,0.046880916850372316
1648623904543635247,6139,0,2,1.07068026066,-0.0673913136125,0.108393035829,0.0,15.1999998093,0.3580870436989967,-0.02253890087374582,0.03625185144782608,15.1999998093,0.0,0.5069128759291589,1.0782610351550366
1648623904543645787,6140,0,3,1.23470234871,0.118667319417,0.252267837524,0.161837622523,15.1999998093,0.4129439293344481,0.039688066694648826,0.08437051422207358,15.1999998093,0.021869948989594594,0.5853379538235208,1.265784691192243
1648623904738601766,6141,2,0,0.00612000282854,0.0454158857465,0.00988752394915,0.0,22.5,0.002046823688474916,0.015189259446989964,0.003306864197040134,22.5,0.0,0.01546261869708291,0.046880915547859066
1648623904738608551,6142,2,1,0.032139249146,0.0161153152585,-0.0300863012671,0.0,22.5,0.01074891275785953,0.005389737544648829,-0.010062308116086957,22.5,0.0,0.01612846929353024,0.04688091557856147
1648623904738628970,6143,2,2,1.06645154953,-0.0673913136125,0.144174605608,0.0,22.5,0.35667275904013374,-0.02253890087374582,0.04821893164147157,22.5,0.0,0.504914761256986,1.0782610136453876
1648623904738633747,6144,2,3,1.19131827354,0.158223092556,0.397413045168,-0.323675245047,22.5,0.3984342051973244,0.05291742225953177,0.132914061929097,22.5,-0.04373989797932432,0.5659504265578751,1.2657846990535213
1648623904844111556,6145,3,0,0.00615740474313,0.0454158857465,0.00986427534372,0.0,25.5,0.0020593326900100336,0.015189259446989964,0.0032990887437190637,25.5,0.0,0.01546594015261477,0.046880915513315045
1648623904844159849,6146,3,1,0.0320671759546,0.0161153152585,-0.0301631093025,0.0,25.5,0.010724808011571905,0.005389737544648829,-0.010087996422240803,25.5,0.0,0.016096343826172175,0.04688091639866569
1648623904844182797,6147,3,2,1.06298494339,-0.101086974144,0.149970203638,0.0,25.5,0.35551335899331105,-0.03380835255652174,0.05015725874180602,25.5,0.0,0.5039072350621687,1.078260927695451
1648623904844246666,6148,3,3,1.1597827673,0.190453708172,0.323044717312,-0.647350490093,25.5,0.3878872131438127,0.06369689236521739,0.10804171147558528,25.5,-0.08747979595851352,0.5522411378536854,1.2189038402046741
1648623905038960753,6149,5,0,0.00615740474313,0.0454158857465,0.00986427534372,0.0,28.2000007629,0.0020593326900100336,0.015189259446989964,0.0032990887437190637,28.2000007629,0.0,0.01546594015261477,0.046880915513315045
1648623905038977941,6150,5,1,0.032139249146,0.0161153152585,-0.0300863012671,0.0,28.2000007629,0.01074891275785953,0.005389737544648829,-0.010062308116086957,28.2000007629,0.0,0.01612846929353024,0.04688091557856147
1648623905039052460,6151,5,2,1.05578219891,-0.134782627225,0.172639325261,0.0,28.2000007629,0.35310441435117057,-0.04507780174749164,0.05773890476956522,28.2000007629,0.0,0.5013955156151204,1.0782609817495399
1648623905039264451,6152,5,3,0.457691609859,0.235869601369,-0.947380959988,0.0,28.2000007629,0.15307411700969897,0.07888615430401337,-0.3168498193939799,28.2000007629,0.0,0.2304048522437725,1.0782609897112472
1648623905039285647,6153,5,4,0.683137893677,0.354536950588,-0.686564803123,0.566431701183,28.2000007629,0.22847421193210699,0.11857423096588628,-0.2296203354926421,28.2000007629,0.07654482448418919,0.3441813174551257,1.0313801723889255
1648623905143987793,6154,6,0,0.00607794523239,0.0454158857465,0.00991343241185,0.0,36.0999984741,0.00203275760280602,0.015189259446989964,0.003315529234732441,36.0999984741,0.0,0.015458907124745437,0.04688091550483407
1648623905144027195,6155,6,1,0.032139249146,0.0161153152585,-0.0300863012671,0.0,36.0999984741,0.01074891275785953,0.005389737544648829,-0.010062308116086957,36.0999984741,0.0,0.01612846929353024,0.04688091557856147
1648623905144034295,6156,6,2,1.05685329437,-0.134782627225,0.165956690907,0.0,36.0999984741,0.35346264025752505,-0.04507780174749164,0.05550391000234113,36.0999984741,0.0,0.5019000740446521,1.0782610378193198
