%time,field.header.seq,field.header.frame_id,field.point_id,field.x,field.y,field.z,field.velocity,field.intensity,normalized_x,normalized_y,normalized_z,normalized_intensity,normalized_velocity,normalized_range,range
1648623970238980414,8070,0,0,0.00612545339391,0.0454158857465,0.00988414790481,0.0,12.1000003815,0.002048646620036789,0.015189259446989964,0.0033057350852207356,12.1000003815,0.0,0.015463101516046197,0.04688091549046653
1648623970238990360,8071,0,1,0.0321391373873,0.0161153152585,-0.0300864223391,0.0,12.1000003815,0.010748875380367893,0.005389737544648829,-0.010062348608394648,12.1000003815,0.0,0.016128419472643783,0.046880916661764235
1648623970238994911,8072,0,2,1.10981667042,0.105482056737,0.15206925571,0.0,12.1000003815,0.3711761439531773,0.035278279845150494,0.05085928284615384,12.1000003815,0.0,0.5261064689858245,1.1251420198214073
1648623970239081147,8073,0,3,0.112954027951,0.457088917494,-1.02188825607,0.0,12.1000003815,0.03777726687324415,0.15287254765685618,-0.34176864751505015,12.1000003815,0.0,0.16193906141484946,1.125141990514965
1648623970239085460,8074,0,4,0.510019540787,0.241729721427,-0.419471561909,0.323675245047,12.1000003815,0.17057509725317724,0.08084606067792642,-0.1402914922772575,12.1000003815,0.04373989797932432,0.2544166133195722,0.7032137523229571
1648623970239095804,8075,0,5,0.424138814211,0.241729721427,-0.506144821644,0.566431701183,12.1000003815,0.1418524462244147,0.08084606067792642,-0.1692792045632107,12.1000003815,0.07654482448418919,0.21628758292338443,0.7032137458970243
1648623970343804763,8076,1,0,0.00616691214964,0.0454158857465,0.00985833443701,0.0,36.2999992371,0.0020625124246287626,0.015189259446989964,0.003297101818397993,36.2999992371,0.0,0.015466787564050587,0.04688091553577485
1648623970343810867,8077,1,1,0.0321476347744,0.0161153152585,-0.0300773382187,0.0,36.2999992371,0.010751717315852841,0.005389737544648829,-0.010059310441036789,36.2999992371,0.0,0.016132207576156986,0.04688091383272223
1648623970343818019,8078,1,2,1.09481394291,-0.105482056737,0.237066492438,0.0,36.2999992371,0.3661585093344481,-0.035278279845150494,0.07928645232040132,36.2999992371,0.0,0.5190266514784024,1.1251420158008785
1648623970343824772,8079,1,3,0.60838919878,0.164083212614,0.183608546853,-0.323675245047,36.2999992371,0.20347464842140467,0.054877328633444813,0.061407540753511694,36.2999992371,-0.04373989797932432,0.2929426331184513,0.6563328548315799
1648623970343828412,8080,1,4,0.644232213497,0.219754293561,0.176585659385,-0.242756426334,36.2999992371,0.21546227876153845,0.07349641925117056,0.05905874895819398,36.2999992371,-0.03280492247756756,0.31344809902274673,0.7032137580751486
1648623970538684762,8081,3,0,0.00616691214964,0.0454158857465,0.00985833443701,0.0,26.6000003815,0.0020625124246287626,0.015189259446989964,0.003297101818397993,26.6000003815,0.0,0.015466787564050587,0.04688091553577485
1648623970538687024,8082,3,1,0.0321081206203,0.0161153152585,-0.0301195196807,0.0,26.6000003815,0.010738501879698997,0.005389737544648829,-0.01007341795341137,26.6000003815,0.0,0.016114593263275218,0.04688091574878473
1648623970538690336,8083,3,2,1.06921637058,-0.101086974144,0.0959407091141,0.0,26.6000003815,0.357597448354515,-0.03380835255652174,0.03208719368364549,26.6000003815,0.0,0.5068479800116659,1.0782610273598754
1648623970538781169,8084,3,3,0.606998622417,0.307656019926,0.177228629589,0.485512852669,26.6000003815,0.2030095727147157,0.10289498994180601,0.05927378916020066,26.6000003815,0.06560984495527027,0.3049805767303014,0.703213723812923
1648623970643889503,8085,4,0,0.00616691214964,0.0454158857465,0.00985833443701,0.0,34.4000015259,0.0020625124246287626,0.015189259446989964,0.003297101818397993,34.4000015259,0.0,0.015466787564050587,0.04688091553577485
1648623970643899232,8086,4,1,0.0321476347744,0.0161153152585,-0.0300773382187,0.0,34.4000015259,0.010751717315852841,0.005389737544648829,-0.010059310441036789,34.4000015259,0.0,0.016132207576156986,0.04688091383272223
1648623970643920049,8087,4,2,1.07452273369,-0.0673913136125,0.0592106804252,0.0,34.4000015259,0.35937215173578596,-0.02253890087374582,0.019802903152240803,34.4000015259,0.0,0.5087285021885585,1.0782609141777626
1648623970644002312,8088,4,3,0.668011963367,0.281285494566,0.193081453443,0.404594063759,34.4000015259,0.2234153723635451,0.09407541624280935,0.06457573693745819,34.4000015259,0.05467487348094594,0.32966504388233353,0.7500946342417967
1648623970644007140,8089,4,4,0.498662412167,0.298865824938,-0.545146822929,-0.647350490093,34.4000015259,0.16677672647725753,0.09995512539732442,-0.1823233521501672,34.4000015259,-0.08747979595851352,0.25616397108519146,0.7969755587053249
1648623970644009174,8090,4,5,0.411697566509,0.597731649876,0.329229474068,-0.647350490093,34.4000015259,0.13769149381571907,0.19991025079464883,0.11011019199598662,34.4000015259,-0.08747979595851352,0.2790734729622072,0.7969755693420029
1648623970838805254,8091,6,0,0.00616691214964,0.0454158857465,0.00985833443701,0.0,33.2000007629,0.0020625124246287626,0.015189259446989964,0.003297101818397993,33.2000007629,0.0,0.015466787564050587,0.04688091553577485
1648623970838827504,8092,6,1,0.0322450846434,0.0161153152585,-0.0299728438258,0.0,33.2000007629,0.01078430924528428,0.005389737544648829,-0.01002436248354515,33.2000007629,0.0,0.016175658335784826,0.04688091548323978
1648623970838834160,8093,6,2,1.0760384798,-0.0673913136125,0.0156933702528,0.0,33.2000007629,0.3598790902341137,-0.02253890087374582,0.005248618813645485,33.2000007629,0.0,0.5094447185201386,1.078260952195991
1648623970838837263,8094,6,3,0.682932853699,0.373582303524,0.170906469226,0.242756426334,33.2000007629,0.22840563668862876,0.12494391422207357,0.05715935425618729,33.2000007629,0.03280492247756756,0.34633690453575494,0.7969755588417098
1648623970838967083,8095,6,4,0.668731868267,0.448298752308,0.252823323011,0.323675245047,33.2000007629,0.22365614323311037,0.14993269307959864,0.08455629532140468,33.2000007629,0.04373989797932432,0.3500342172787116,0.8438564543896706
1648623970838970364,8096,6,5,1.77635765076,0.692958533764,0.65431791544,0.323675245047,33.2000007629,0.5940995487491638,0.23175870694448159,0.21883542322408023,33.2000007629,0.04373989797932432,0.8715621870483472,2.0158794525952404
1648623970838972377,8097,6,6,1.73135864735,0.799905598164,0.489390671253,0.404594063759,33.2000007629,0.5790497148327759,0.26752695590769227,0.16367580978361204,33.2000007629,0.05467487348094594,0.8614916230777143,1.9689984664385065
