%time,field.header.seq,field.header.frame_id,field.point_id,field.x,field.y,field.z,field.velocity,field.intensity,normalized_x,normalized_y,normalized_z,normalized_intensity,normalized_velocity,normalized_range,range
1648633533744020047,10159,0,0,0.00666702631861,0.0454158857465,0.00952724087983,0.0,33.2000007629,0.0022297746884983277,0.015189259446989964,0.0031863681872341134,33.2000007629,0.0,0.01551313613912124,0.0468809154865227
1648633533744060740,10160,0,1,0.0342758707702,0.0146502861753,-0.0284315664321,0.0,33.2000007629,0.011463501929832776,0.0048997612626421405,-0.009508885094347825,33.2000007629,0.0,0.01693609793965092,0.04688091479329891
1648633533744101727,10161,0,2,1.58710622787,-0.0996219441295,0.10885450989,0.0,33.2000007629,0.5308047584849498,-0.033318375963043476,0.03640619059866221,33.2000007629,0.0,0.751410338920983,1.593951070334116
1648633533744104949,10162,0,3,2.0347495079,-1.21890377998,0.563004255295,0.0,33.2000007629,0.6805182300668896,-0.407660127083612,0.18829573755685616,33.2000007629,0.0,1.0451779284507354,2.437807575718211
1648633533744106561,10163,0,4,2.37377858162,-1.06654083729,0.346455484629,0.0,33.2000007629,0.7939058801404681,-0.35670262116722407,0.11587139954147156,33.2000007629,0.0,1.1780534168664811,2.625331505733062
1648633533744109653,10164,0,5,1.17853057384,-0.266635209322,0.160305559635,-0.0809188112617,33.2000007629,0.39415738255518395,-0.0891756552916388,0.05361389954347826,33.2000007629,-0.010934974494824324,0.5645107456392663,1.2189038193293666
1648633533744111527,10165,0,6,1.15792369843,-0.34281668067,0.165577158332,-0.0809188112617,33.2000007629,0.3872654509799331,-0.1146544082508361,0.05537697603076923,33.2000007629,-0.010934974494824324,0.5595486505896796,1.2189037547291035
1648633533849066691,10166,1,0,0.00660574575886,0.0454158857465,0.00956983212382,0.0,12.8000001907,0.0022092795180133776,0.015189259446989964,0.0032006127504414714,12.8000001907,0.0,0.015507270376355754,0.04688091554191253
1648633533849071935,10167,1,1,0.0342212058604,0.0146502861753,-0.0284973401576,0.0,12.8000001907,0.011445219351304346,0.0048997612626421405,-0.009530882995852842,12.8000001907,0.0,0.01691134981099473,0.04688091521734642
1648633533849074732,10168,1,2,1.16945016384,-0.304725944996,0.158917278051,0.0,12.8000001907,0.3911204561337792,-0.10191503177123744,0.05314959132140468,12.8000001907,0.0,0.5624385265195863,1.2189037240579121
1648633533849077414,10169,1,3,1.59210062027,-0.0498109720647,0.058432534337,0.0,12.8000001907,0.5324751238361204,-0.016659187981505015,0.019542653624414714,12.8000001907,0.0,0.7532177929077265,1.5939510278145919
1648633533849082552,10170,1,4,2.3780298233,-1.06654083729,0.315959066153,0.0,12.8000001907,0.7953277001003344,-0.35670262116722407,0.10567192847926421,12.8000001907,0.0,1.179969940736349,2.625331470423451
1648633534044101063,10171,3,0,0.00663239276037,0.0454158857465,0.00955138355494,0.0,14.6999998093,0.0022181915586521736,0.015189259446989964,0.0031944426605150502,14.6999998093,0.0,0.01550981463879325,0.04688091551666337
1648633534044251158,10172,3,1,0.0342758707702,0.0146502861753,-0.0284315664321,0.0,14.6999998093,0.011463501929832776,0.0048997612626421405,-0.009508885094347825,14.6999998093,0.0,0.01693609793965092,0.04688091479329891
1648633534044255735,10173,3,2,2.37837362289,-1.06654083729,0.313359051943,0.0,14.6999998093,0.7954426832408026,-0.35670262116722407,0.10480235850936455,14.6999998093,0.0,1.1801249444826694,2.6253312825433617
1648633534044362485,10174,3,3,1.1526876688,-0.304725944996,0.253336757421,0.0809188112617,14.6999998093,0.38551427050167225,-0.10191503177123744,0.0847280125153846,14.6999998093,0.010934974494824324,0.5546432900719213,1.2189037189285585
1648633534044367134,10175,3,4,0.938553571701,0.114272229373,-0.769275903702,0.0809188112617,14.6999998093,0.3138975156190635,0.03821813691404682,-0.25728291093712374,14.6999998093,0.010934974494824324,0.4455602390393708,1.2189037555833144
1648633534044368914,10176,3,5,1.29515826702,0.123062409461,-0.174676761031,0.0809188112617,14.6999998093,0.4331633000066889,0.041157996475250834,-0.05842032141505016,14.6999998093,0.010934974494824324,0.613966505290986,1.3126657091951772
1648633534149122659,10177,4,0,0.00673404661939,0.0454158857465,0.00947998836637,0.0,17.6000003815,0.002252189504812709,0.015189259446989964,0.0031705646710267557,17.6000003815,0.0,0.015519610745091223,0.04688091553540492
1648633534149129149,10178,4,1,0.0342212058604,0.0146502861753,-0.0284973401576,0.0,17.6000003815,0.011445219351304346,0.0048997612626421405,-0.009530882995852842,17.6000003815,0.0,0.01691134981099473,0.04688091521734642
1648633534149137950,10179,4,2,2.37991714478,-1.06654083729,0.301413983107,0.0,17.6000003815,0.7959589112976587,-0.35670262116722407,0.100807352209699,17.6000003815,0.0,1.1808208741785844,2.625331476754406
1648633534149144693,10180,4,3,1.15062081814,-0.34281668067,0.210415929556,0.0809188112617,17.6000003815,0.3848230161003344,-0.1146544082508361,0.07037322058729097,17.6000003815,0.010934974494824324,0.5561682665996559,1.2189037726964649
1648633534149202563,10181,4,4,1.28280460835,0.246124818921,0.130100473762,0.242756426334,17.6000003815,0.4290316415886287,0.08231599295016721,0.043511864134448165,17.6000003815,0.03280492247756756,0.6123007607898582,1.312665693528245
1648633534149203852,10182,4,5,1.48629868031,0.140642747283,-0.147322133183,0.404594063759,17.6000003815,0.4970898596354515,0.047037708121404675,-0.04927161644916388,17.6000003815,0.05467487348094594,0.7045631292440019,1.500189308180853
1648633534344199231,10183,6,0,0.00659684790298,0.0454158857465,0.00957596767694,0.0,22.0,0.0022063036464816054,0.015189259446989964,0.0032026647748963208,22.0,0.0,0.015506422995292304,0.04688091549174347
1648633534344209245,10184,6,1,0.0342758707702,0.0146502861753,-0.0284315664321,0.0,22.0,0.011463501929832776,0.0048997612626421405,-0.009508885094347825,22.0,0.0,0.01693609793965092,0.04688091479329891
1648633534344211826,10185,6,2,2.37665724754,-1.06654083729,0.326122760773,0.0,22.0,0.7948686446622073,-0.35670262116722407,0.10907115744916387,22.0,0.0,1.1793511285795408,2.6253314238369727
1648633534344383078,10186,6,3,1.35648024082,-0.0849716588855,0.0332881733775,0.0809188112617,22.0,0.4536723213444816,-0.028418615011872907,0.011133168353678929,22.0,0.010934974494824324,0.642218629430332,1.3595465895053576
1648633534344386240,10187,6,4,1.28032577038,0.169943317771,0.424560934305,0.242756426334,22.0,0.4282025987892976,0.05683723002374581,0.14199362351337794,22.0,0.03280492247756756,0.6082313720424067,1.3595465407598557
1648633534449206220,10188,7,0,0.00657001230866,0.0454158857465,0.00959439948201,0.0,32.5,0.0021973285313244147,0.015189259446989964,0.003208829258197324,32.5,0.0,0.015503873964178065,0.04688091553388734
1648633534449213931,10189,7,1,0.0342758707702,0.0146502861753,-0.0284315664321,0.0,32.5,0.011463501929832776,0.0048997612626421405,-0.009508885094347825,32.5,0.0,0.01693609793965092,0.04688091479329891
1648633534449215650,10190,7,2,2.37732696533,-1.06654083729,0.321204155684,0.0,32.5,0.7950926305451504,-0.35670262116722407,0.10742613902474916,32.5,0.0,1.1796530601163981,2.6253314014274602
1648633534449217224,10191,7,3,1.33700299263,-0.0,0.246555775404,0.0809188112617,32.5,0.44715819151505015,-0.0,0.08246012555317725,32.5,0.010934974494824324,0.6323771789668098,1.3595465246495404
1648633534644130507,10192,9,0,0.00663239276037,0.0454158857465,0.00955138355494,0.0,15.3999996185,0.0022181915586521736,0.015189259446989964,0.0031944426605150502,15.3999996185,0.0,0.01550981463879325,0.04688091551666337
1648633534644135899,10193,9,1,0.0342758707702,0.0146502861753,-0.0284315664321,0.0,15.3999996185,0.011463501929832776,0.0048997612626421405,-0.009508885094347825,15.3999996185,0.0,0.01693609793965092,0.04688091479329891
1648633534644284465,10194,9,2,1.14222812653,-0.380907416344,0.189607083797,0.0,15.3999996185,0.3820160958294314,-0.12739378473043478,0.06341374040033444,15.3999996185,0.0,0.5550691590544975,1.2189037694125398
1648633534644287959,10195,9,3,1.35951149464,-0.0,0.00977318268269,0.0,15.3999996185,0.4546861186086956,-0.0,0.003268622970799331,15.3999996185,0.0,0.643023275559199,1.3595466226496375
1648633534644289713,10196,9,4,2.38057565689,-1.06654083729,0.296168088913,0.0,15.3999996185,0.7961791494615384,-0.35670262116722407,0.09905287254615384,15.3999996185,0.0,1.1811177909176398,2.6253314748189207
1648633534749214106,10197,10,0,0.00659684790298,0.0454158857465,0.00957596767694,0.0,14.3000001907,0.0022063036464816054,0.015189259446989964,0.0032026647748963208,14.3000001907,0.0,0.015506422995292304,0.04688091549174347
1648633534749217489,10198,10,1,0.0341994836926,0.0146502861753,-0.0285234022886,0.0,14.3000001907,0.011437954412240802,0.0048997612626421405,-0.009539599427625417,14.3000001907,0.0,0.016901516579996192,0.0468809134720721
1648633534749222103,10199,10,2,1.34481918812,-0.0849716588855,0.180576965213,0.0,14.3000001907,0.4497723037190635,-0.028418615011872907,0.06039363385050167,14.3000001907,0.0,0.6367086210070507,1.359546568498125
1648633534749226142,10200,10,3,1.97854936123,-1.29508531094,0.592454314232,0.0,14.3000001907,0.6617221943913043,-0.4331388999799331,0.1981452555959866,14.3000001907,0.0,1.0311943714818816,2.437807550215625
1648633534749232531,10201,10,4,2.37538170815,-1.06654083729,0.335287690163,0.0,14.3000001907,0.7944420428595317,-0.35670262116722407,0.1121363512250836,14.3000001907,0.0,1.178776093612871,2.6253314937728733
1648633534944279183,10202,12,0,0.00663239276037,0.0454158857465,0.00955138355494,0.0,14.3999996185,0.0022181915586521736,0.015189259446989964,0.0031944426605150502,14.3999996185,0.0,0.01550981463879325,0.04688091551666337
1648633534944281654,10203,12,1,0.0342212058604,0.0146502861753,-0.0284973401576,0.0,14.3999996185,0.011445219351304346,0.0048997612626421405,-0.009530882995852842,14.3999996185,0.0,0.01691134981099473,0.04688091521734642
1648633534944291444,10204,12,2,1.35224878788,-0.0424858294427,0.134107917547,0.0,14.3999996185,0.45225711969230764,-0.01420930750591973,0.04485214633678929,14.3999996185,0.0,0.6397459722769361,1.3595465286540054
1648633534944293619,10205,12,3,1.99328017235,-1.29508531094,0.540827095509,0.0,14.3999996185,0.6666488870735785,-0.4331388999799331,0.1808786272605351,14.3999996185,0.0,1.037521461921973,2.437807571432352
1648633534944296337,10206,12,4,2.37688779831,-1.06654083729,0.3244381845,0.0,14.3999996185,0.7949457519431437,-0.35670262116722407,0.10850775401337792,14.3999996185,0.0,1.179455067822623,2.6253314264914955
1648633534944297695,10207,12,5,1.55513358116,-0.249054864049,0.245380043983,0.242756426334,14.3999996185,0.5201115656053511,-0.0832959411535117,0.08206690434214046,14.3999996185,0.03280492247756756,0.7402501571533425,1.5939511117167586
1648633534944299123,10208,12,6,1.151004076,-0.380907416344,0.125799268484,-0.0809188112617,14.3999996185,0.38495119598662203,-0.12739378473043478,0.04207333394113712,14.3999996185,-0.010934974494824324,0.5591100276072731,1.2189037282515731
1648633534944303249,10209,12,7,1.35471045971,-0.175803437829,0.334501415491,-0.0809188112617,14.3999996185,0.45308042130769227,-0.05879713639765886,0.11187338310735785,14.3999996185,-0.010934974494824324,0.6434445116661396,1.4064275578093801
1648633534944305409,10210,12,8,1.37861084938,-0.0879017189145,0.26409009099,-0.0809188112617,14.3999996185,0.4610738626688963,-0.02939856819882943,0.08832444514715719,14.3999996185,-0.010934974494824324,0.65271930374777,1.406427446538027
1648633535049201786,10211,13,0,0.00673404661939,0.0454158857465,0.00947998836637,0.0,17.0,0.002252189504812709,0.015189259446989964,0.0031705646710267557,17.0,0.0,0.015519610745091223,0.04688091553540492
1648633535049206335,10212,13,1,0.0342212058604,0.0146502861753,-0.0284973401576,0.0,17.0,0.011445219351304346,0.0048997612626421405,-0.009530882995852842,17.0,0.0,0.01691134981099473,0.04688091521734642
1648633535049210043,10213,13,2,1.9897415638,-1.29508531094,0.55370414257,0.0,17.0,0.6654654059531772,-0.4331388999799331,0.1851853319632107,17.0,0.0,1.0360008299787602,2.4378075664057253
1648633535049216222,10214,13,3,2.37052607536,-1.06654083729,0.368051916361,0.0,17.0,0.7928180854046822,-0.35670262116722407,0.12309428640836119,17.0,0.0,1.1765873503642048,2.6253314923464317
1648633535049220326,10215,13,4,1.14969336987,-0.380907416344,0.13726337254,-0.0809188112617,17.0,0.38451283273244147,-0.12739378473043478,0.0459074824548495,17.0,-0.010934974494824324,0.5585064130874393,1.218903826390726
1648633535049234922,10216,13,5,1.32839632034,-0.0424858294427,0.286225557327,-0.0809188112617,17.0,0.44427970579933107,-0.01420930750591973,0.09572761114615384,17.0,-0.010934974494824324,0.6284670384276952,1.3595465785560412
1648633535244127172,10217,15,0,0.00660574575886,0.0454158857465,0.00956983212382,0.0,23.1000003815,0.0022092795180133776,0.015189259446989964,0.0032006127504414714,23.1000003815,0.0,0.015507270376355754,0.04688091554191253
1648633535244278598,10218,15,1,0.034306101501,0.0146502861753,-0.0283950809389,0.0,23.1000003815,0.011473612542140466,0.0048997612626421405,-0.009496682588260868,23.1000003815,0.0,0.016949785543339906,0.04688091409882899
1648633535244281976,10219,15,2,1.29728388786,0.0424858294427,0.404495060444,0.0,23.1000003815,0.433874209986622,0.01420930750591973,0.1352826289110368,23.1000003815,0.0,0.6137552970059228,1.3595465366541104
1648633535244283140,10220,15,3,1.98259949684,-1.29508531094,0.578756690025,0.0,23.1000003815,0.6630767547959866,-0.4331388999799331,0.19356411037625415,23.1000003815,0.0,1.0329331402261137,2.437807628532545
1648633535244284325,10221,15,4,2.37723398209,-1.06654083729,0.321891367435,0.0,23.1000003815,0.7950615324715719,-0.35670262116722407,0.10765597573076922,23.1000003815,0.0,1.1796111396471536,2.6253313725394567
1648633535244396382,10222,15,5,1.16294908524,-0.34281668067,0.125509589911,-0.0809188112617,23.1000003815,0.388946182354515,-0.1146544082508361,0.04197645147525084,23.1000003815,-0.010934974494824324,0.5618753410389645,1.2189038143207924
